{
 "appData":{
  "bvmt":{
   "default-vol-string-lang":"bo",
   "metadata-for-bvmt-ver":"0.1.0"
  }
 },
 "attribution":[
  {
   "@language":"en",
   "@value":"Data provided by rKTs under the CC0 license"
  }
 ],
 "changes":[
  {
   "message":{
    "@language":"en",
    "@value":"migration from rKTs data"
   },
   "time":"2020-10-03T11:35:30Z",
   "user":"bdu:U1653882847"
  }
 ],
 "default-view":"view1",
 "imggroup":"bdr:I4CZ75431",
 "pagination":[
  {
   "id":"pgfolios",
   "type":"folios"
  }
 ],
 "spec-version":"0.1.0",
 "status":"released",
 "view":{
  "view1":{
   "imagelist":[
    {
     "pagination":{
      "pgfolios":{
       "value":"1a"
      }
     },
     "tags":[
      "T0020"
     ]
    },
    {
     "pagination":{
      "pgfolios":{
       "value":"1b"
      }
     },
     "tags":[
      "T0020"
     ]
    },
    {
     "pagination":{
      "pgfolios":{
       "value":"2a"
      }
     },
     "tags":[
      "T0020"
     ]
    },
    {
     "pagination":{
      "pgfolios":{
       "value":"2b"
      }
     },
     "tags":[
      "T0020"
     ]
    },
    {
     "filename":"I4CZ754310001.jpg",
     "pagination":{
      "pgfolios":{
       "value":"3a"
      }
     }
    },
    {
     "filename":"I4CZ754310002.jpg",
     "pagination":{
      "pgfolios":{
       "value":"3b"
      }
     }
    },
    {
     "pagination":{
      "pgfolios":{
       "value":"4a"
      }
     },
     "tags":[
      "T0020"
     ]
    },
    {
     "pagination":{
      "pgfolios":{
       "value":"4b"
      }
     },
     "tags":[
      "T0020"
     ]
    },
    {
     "filename":"I4CZ754310003.jpg",
     "pagination":{
      "pgfolios":{
       "value":"5a"
      }
     }
    },
    {
     "filename":"I4CZ754310004.jpg",
     "pagination":{
      "pgfolios":{
       "value":"5b"
      }
     }
    },
    {
     "pagination":{
      "pgfolios":{
       "value":"6a"
      }
     },
     "tags":[
      "T0020"
     ]
    },
    {
     "pagination":{
      "pgfolios":{
       "value":"6b"
      }
     },
     "tags":[
      "T0020"
     ]
    },
    {
     "pagination":{
      "pgfolios":{
       "value":"7a"
      }
     },
     "tags":[
      "T0020"
     ]
    },
    {
     "pagination":{
      "pgfolios":{
       "value":"7b"
      }
     },
     "tags":[
      "T0020"
     ]
    },
    {
     "filename":"I4CZ754310005.jpg",
     "pagination":{
      "pgfolios":{
       "value":"8a"
      }
     }
    },
    {
     "filename":"I4CZ754310006.jpg",
     "pagination":{
      "pgfolios":{
       "value":"8b"
      }
     }
    },
    {
     "pagination":{
      "pgfolios":{
       "value":"9a"
      }
     },
     "tags":[
      "T0020"
     ]
    },
    {
     "pagination":{
      "pgfolios":{
       "value":"9b"
      }
     },
     "tags":[
      "T0020"
     ]
    },
    {
     "filename":"I4CZ754310007.jpg",
     "pagination":{
      "pgfolios":{
       "value":"10a"
      }
     }
    },
    {
     "filename":"I4CZ754310008.jpg",
     "pagination":{
      "pgfolios":{
       "value":"10b"
      }
     }
    },
    {
     "filename":"I4CZ754310009.jpg",
     "pagination":{
      "pgfolios":{
       "value":"11a"
      }
     }
    },
    {
     "filename":"I4CZ754310010.jpg",
     "pagination":{
      "pgfolios":{
       "value":"11b"
      }
     }
    },
    {
     "filename":"I4CZ754310011.jpg",
     "pagination":{
      "pgfolios":{
       "value":"12a"
      }
     }
    },
    {
     "filename":"I4CZ754310012.jpg",
     "pagination":{
      "pgfolios":{
       "value":"12b"
      }
     }
    },
    {
     "pagination":{
      "pgfolios":{
       "value":"13a"
      }
     },
     "tags":[
      "T0020"
     ]
    },
    {
     "pagination":{
      "pgfolios":{
       "value":"13b"
      }
     },
     "tags":[
      "T0020"
     ]
    },
    {
     "filename":"I4CZ754310013.jpg",
     "pagination":{
      "pgfolios":{
       "value":"14a"
      }
     }
    },
    {
     "filename":"I4CZ754310014.jpg",
     "pagination":{
      "pgfolios":{
       "value":"14b"
      }
     }
    },
    {
     "filename":"I4CZ754310015.jpg",
     "pagination":{
      "pgfolios":{
       "value":"15a"
      }
     }
    },
    {
     "filename":"I4CZ754310016.jpg",
     "pagination":{
      "pgfolios":{
       "value":"15b"
      }
     }
    },
    {
     "filename":"I4CZ754310017.jpg",
     "pagination":{
      "pgfolios":{
       "value":"16a"
      }
     }
    },
    {
     "filename":"I4CZ754310018.jpg",
     "pagination":{
      "pgfolios":{
       "value":"16b"
      }
     }
    },
    {
     "filename":"I4CZ754310019.jpg",
     "pagination":{
      "pgfolios":{
       "value":"17a"
      }
     }
    },
    {
     "filename":"I4CZ754310020.jpg",
     "pagination":{
      "pgfolios":{
       "value":"17b"
      }
     }
    },
    {
     "filename":"I4CZ754310021.jpg",
     "pagination":{
      "pgfolios":{
       "value":"18a"
      }
     }
    },
    {
     "filename":"I4CZ754310022.jpg",
     "pagination":{
      "pgfolios":{
       "value":"18b"
      }
     }
    },
    {
     "filename":"I4CZ754310023.jpg",
     "pagination":{
      "pgfolios":{
       "value":"19a"
      }
     }
    },
    {
     "filename":"I4CZ754310024.jpg",
     "pagination":{
      "pgfolios":{
       "value":"19b"
      }
     }
    },
    {
     "filename":"I4CZ754310025.jpg",
     "pagination":{
      "pgfolios":{
       "value":"20a"
      }
     }
    },
    {
     "filename":"I4CZ754310026.jpg",
     "pagination":{
      "pgfolios":{
       "value":"20b"
      }
     }
    },
    {
     "filename":"I4CZ754310027.jpg",
     "pagination":{
      "pgfolios":{
       "value":"21a"
      }
     }
    },
    {
     "filename":"I4CZ754310028.jpg",
     "pagination":{
      "pgfolios":{
       "value":"21b"
      }
     }
    },
    {
     "filename":"I4CZ754310029.jpg",
     "pagination":{
      "pgfolios":{
       "value":"22a"
      }
     }
    },
    {
     "filename":"I4CZ754310030.jpg",
     "pagination":{
      "pgfolios":{
       "value":"22b"
      }
     }
    },
    {
     "filename":"I4CZ754310031.jpg",
     "pagination":{
      "pgfolios":{
       "value":"23a"
      }
     }
    },
    {
     "filename":"I4CZ754310032.jpg",
     "pagination":{
      "pgfolios":{
       "value":"23b"
      }
     }
    },
    {
     "filename":"I4CZ754310033.jpg",
     "pagination":{
      "pgfolios":{
       "value":"24a"
      }
     }
    },
    {
     "filename":"I4CZ754310034.jpg",
     "pagination":{
      "pgfolios":{
       "value":"24b"
      }
     }
    },
    {
     "filename":"I4CZ754310035.jpg",
     "pagination":{
      "pgfolios":{
       "value":"25a"
      }
     }
    },
    {
     "filename":"I4CZ754310036.jpg",
     "pagination":{
      "pgfolios":{
       "value":"25b"
      }
     }
    },
    {
     "filename":"I4CZ754310037.jpg",
     "pagination":{
      "pgfolios":{
       "value":"26a"
      }
     }
    },
    {
     "filename":"I4CZ754310038.jpg",
     "pagination":{
      "pgfolios":{
       "value":"26b"
      }
     }
    },
    {
     "filename":"I4CZ754310039.jpg",
     "pagination":{
      "pgfolios":{
       "value":"27a"
      }
     }
    },
    {
     "filename":"I4CZ754310040.jpg",
     "pagination":{
      "pgfolios":{
       "value":"27b"
      }
     }
    },
    {
     "filename":"I4CZ754310041.jpg",
     "pagination":{
      "pgfolios":{
       "value":"28a"
      }
     }
    },
    {
     "filename":"I4CZ754310042.jpg",
     "pagination":{
      "pgfolios":{
       "value":"28b"
      }
     }
    },
    {
     "filename":"I4CZ754310043.jpg",
     "pagination":{
      "pgfolios":{
       "value":"28'a"
      }
     }
    },
    {
     "filename":"I4CZ754310044.jpg",
     "pagination":{
      "pgfolios":{
       "value":"28'b"
      }
     }
    },
    {
     "filename":"I4CZ754310045.jpg",
     "pagination":{
      "pgfolios":{
       "value":"29a"
      }
     }
    },
    {
     "filename":"I4CZ754310046.jpg",
     "pagination":{
      "pgfolios":{
       "value":"29b"
      }
     }
    },
    {
     "filename":"I4CZ754310047.jpg",
     "pagination":{
      "pgfolios":{
       "value":"30a"
      }
     }
    },
    {
     "filename":"I4CZ754310048.jpg",
     "pagination":{
      "pgfolios":{
       "value":"30b"
      }
     }
    },
    {
     "filename":"I4CZ754310049.jpg",
     "pagination":{
      "pgfolios":{
       "value":"31a"
      }
     }
    },
    {
     "filename":"I4CZ754310050.jpg",
     "pagination":{
      "pgfolios":{
       "value":"31b"
      }
     }
    },
    {
     "filename":"I4CZ754310051.jpg",
     "pagination":{
      "pgfolios":{
       "value":"32a"
      }
     }
    },
    {
     "filename":"I4CZ754310052.jpg",
     "pagination":{
      "pgfolios":{
       "value":"32b"
      }
     }
    },
    {
     "filename":"I4CZ754310053.jpg",
     "pagination":{
      "pgfolios":{
       "value":"33a"
      }
     }
    },
    {
     "filename":"I4CZ754310054.jpg",
     "pagination":{
      "pgfolios":{
       "value":"33b"
      }
     }
    },
    {
     "filename":"I4CZ754310055.jpg",
     "pagination":{
      "pgfolios":{
       "value":"34a"
      }
     }
    },
    {
     "filename":"I4CZ754310056.jpg",
     "pagination":{
      "pgfolios":{
       "value":"34b"
      }
     }
    },
    {
     "filename":"I4CZ754310057.jpg",
     "pagination":{
      "pgfolios":{
       "value":"35a"
      }
     }
    },
    {
     "filename":"I4CZ754310058.jpg",
     "pagination":{
      "pgfolios":{
       "value":"35b"
      }
     }
    },
    {
     "filename":"I4CZ754310059.jpg",
     "pagination":{
      "pgfolios":{
       "value":"36a"
      }
     }
    },
    {
     "filename":"I4CZ754310060.jpg",
     "pagination":{
      "pgfolios":{
       "value":"36b"
      }
     }
    },
    {
     "filename":"I4CZ754310061.jpg",
     "pagination":{
      "pgfolios":{
       "value":"37a"
      }
     }
    },
    {
     "filename":"I4CZ754310062.jpg",
     "pagination":{
      "pgfolios":{
       "value":"37b"
      }
     }
    },
    {
     "filename":"I4CZ754310063.jpg",
     "pagination":{
      "pgfolios":{
       "value":"38a"
      }
     }
    },
    {
     "filename":"I4CZ754310064.jpg",
     "pagination":{
      "pgfolios":{
       "value":"38b"
      }
     }
    },
    {
     "filename":"I4CZ754310065.jpg",
     "pagination":{
      "pgfolios":{
       "value":"39a"
      }
     }
    },
    {
     "filename":"I4CZ754310066.jpg",
     "pagination":{
      "pgfolios":{
       "value":"39b"
      }
     }
    },
    {
     "filename":"I4CZ754310067.jpg",
     "pagination":{
      "pgfolios":{
       "value":"40a"
      }
     }
    },
    {
     "filename":"I4CZ754310068.jpg",
     "pagination":{
      "pgfolios":{
       "value":"40b"
      }
     }
    },
    {
     "pagination":{
      "pgfolios":{
       "value":"41a"
      }
     },
     "tags":[
      "T0020"
     ]
    },
    {
     "pagination":{
      "pgfolios":{
       "value":"41b"
      }
     },
     "tags":[
      "T0020"
     ]
    },
    {
     "pagination":{
      "pgfolios":{
       "value":"42a"
      }
     },
     "tags":[
      "T0020"
     ]
    },
    {
     "pagination":{
      "pgfolios":{
       "value":"42b"
      }
     },
     "tags":[
      "T0020"
     ]
    },
    {
     "filename":"I4CZ754310069.jpg",
     "pagination":{
      "pgfolios":{
       "value":"43a"
      }
     }
    },
    {
     "filename":"I4CZ754310070.jpg",
     "pagination":{
      "pgfolios":{
       "value":"43b"
      }
     }
    },
    {
     "filename":"I4CZ754310071.jpg",
     "pagination":{
      "pgfolios":{
       "value":"44a"
      }
     }
    },
    {
     "filename":"I4CZ754310072.jpg",
     "pagination":{
      "pgfolios":{
       "value":"44b"
      }
     }
    },
    {
     "filename":"I4CZ754310073.jpg",
     "pagination":{
      "pgfolios":{
       "value":"46a"
      }
     }
    },
    {
     "filename":"I4CZ754310074.jpg",
     "pagination":{
      "pgfolios":{
       "value":"46b"
      }
     }
    },
    {
     "filename":"I4CZ754310075.jpg",
     "pagination":{
      "pgfolios":{
       "value":"47a"
      }
     }
    },
    {
     "filename":"I4CZ754310076.jpg",
     "pagination":{
      "pgfolios":{
       "value":"47b"
      }
     }
    },
    {
     "filename":"I4CZ754310077.jpg",
     "pagination":{
      "pgfolios":{
       "value":"48a"
      }
     }
    },
    {
     "filename":"I4CZ754310078.jpg",
     "pagination":{
      "pgfolios":{
       "value":"48b"
      }
     }
    },
    {
     "filename":"I4CZ754310079.jpg",
     "pagination":{
      "pgfolios":{
       "value":"49a"
      }
     }
    },
    {
     "filename":"I4CZ754310080.jpg",
     "pagination":{
      "pgfolios":{
       "value":"49b"
      }
     }
    },
    {
     "pagination":{
      "pgfolios":{
       "value":"50a"
      }
     },
     "tags":[
      "T0020"
     ]
    },
    {
     "pagination":{
      "pgfolios":{
       "value":"50b"
      }
     },
     "tags":[
      "T0020"
     ]
    },
    {
     "filename":"I4CZ754310081.jpg",
     "pagination":{
      "pgfolios":{
       "value":"51a"
      }
     }
    },
    {
     "filename":"I4CZ754310082.jpg",
     "pagination":{
      "pgfolios":{
       "value":"51b"
      }
     }
    },
    {
     "pagination":{
      "pgfolios":{
       "value":"52a"
      }
     },
     "tags":[
      "T0020"
     ]
    },
    {
     "pagination":{
      "pgfolios":{
       "value":"52b"
      }
     },
     "tags":[
      "T0020"
     ]
    },
    {
     "filename":"I4CZ754310083.jpg",
     "pagination":{
      "pgfolios":{
       "value":"53a"
      }
     }
    },
    {
     "filename":"I4CZ754310084.jpg",
     "pagination":{
      "pgfolios":{
       "value":"53b"
      }
     }
    },
    {
     "pagination":{
      "pgfolios":{
       "value":"54a"
      }
     },
     "tags":[
      "T0020"
     ]
    },
    {
     "pagination":{
      "pgfolios":{
       "value":"54b"
      }
     },
     "tags":[
      "T0020"
     ]
    },
    {
     "filename":"I4CZ754310085.jpg",
     "pagination":{
      "pgfolios":{
       "value":"55a"
      }
     }
    },
    {
     "filename":"I4CZ754310086.jpg",
     "pagination":{
      "pgfolios":{
       "value":"55b"
      }
     }
    },
    {
     "filename":"I4CZ754310087.jpg",
     "pagination":{
      "pgfolios":{
       "value":"56a"
      }
     }
    },
    {
     "filename":"I4CZ754310088.jpg",
     "pagination":{
      "pgfolios":{
       "value":"56b"
      }
     }
    },
    {
     "filename":"I4CZ754310089.jpg",
     "pagination":{
      "pgfolios":{
       "value":"57a"
      }
     }
    },
    {
     "filename":"I4CZ754310090.jpg",
     "pagination":{
      "pgfolios":{
       "value":"57b"
      }
     }
    },
    {
     "filename":"I4CZ754310091.jpg",
     "pagination":{
      "pgfolios":{
       "value":"58a"
      }
     }
    },
    {
     "filename":"I4CZ754310092.jpg",
     "pagination":{
      "pgfolios":{
       "value":"58b"
      }
     }
    },
    {
     "pagination":{
      "pgfolios":{
       "value":"59a"
      }
     },
     "tags":[
      "T0020"
     ]
    },
    {
     "pagination":{
      "pgfolios":{
       "value":"59b"
      }
     },
     "tags":[
      "T0020"
     ]
    },
    {
     "filename":"I4CZ754310093.jpg",
     "pagination":{
      "pgfolios":{
       "value":"60a"
      }
     }
    },
    {
     "filename":"I4CZ754310094.jpg",
     "pagination":{
      "pgfolios":{
       "value":"60b"
      }
     }
    },
    {
     "filename":"I4CZ754310095.jpg",
     "pagination":{
      "pgfolios":{
       "value":"61a"
      }
     }
    },
    {
     "filename":"I4CZ754310096.jpg",
     "pagination":{
      "pgfolios":{
       "value":"61b"
      }
     }
    },
    {
     "filename":"I4CZ754310097.jpg",
     "pagination":{
      "pgfolios":{
       "value":"62a"
      }
     }
    },
    {
     "filename":"I4CZ754310098.jpg",
     "pagination":{
      "pgfolios":{
       "value":"62b"
      }
     }
    },
    {
     "filename":"I4CZ754310099.jpg",
     "pagination":{
      "pgfolios":{
       "value":"63a"
      }
     }
    },
    {
     "filename":"I4CZ754310100.jpg",
     "pagination":{
      "pgfolios":{
       "value":"63b"
      }
     }
    },
    {
     "filename":"I4CZ754310101.jpg",
     "pagination":{
      "pgfolios":{
       "value":"64a"
      }
     }
    },
    {
     "filename":"I4CZ754310102.jpg",
     "pagination":{
      "pgfolios":{
       "value":"64b"
      }
     }
    },
    {
     "filename":"I4CZ754310103.jpg",
     "pagination":{
      "pgfolios":{
       "value":"65a"
      }
     }
    },
    {
     "filename":"I4CZ754310104.jpg",
     "pagination":{
      "pgfolios":{
       "value":"65b"
      }
     }
    },
    {
     "filename":"I4CZ754310105.jpg",
     "pagination":{
      "pgfolios":{
       "value":"66a"
      }
     }
    },
    {
     "filename":"I4CZ754310106.jpg",
     "pagination":{
      "pgfolios":{
       "value":"66b"
      }
     }
    },
    {
     "filename":"I4CZ754310107.jpg",
     "pagination":{
      "pgfolios":{
       "value":"67a"
      }
     }
    },
    {
     "filename":"I4CZ754310108.jpg",
     "pagination":{
      "pgfolios":{
       "value":"67b"
      }
     }
    },
    {
     "filename":"I4CZ754310109.jpg",
     "pagination":{
      "pgfolios":{
       "value":"68a"
      }
     }
    },
    {
     "filename":"I4CZ754310110.jpg",
     "pagination":{
      "pgfolios":{
       "value":"68b"
      }
     }
    },
    {
     "filename":"I4CZ754310111.jpg",
     "pagination":{
      "pgfolios":{
       "value":"69a"
      }
     }
    },
    {
     "filename":"I4CZ754310112.jpg",
     "pagination":{
      "pgfolios":{
       "value":"69b"
      }
     }
    },
    {
     "filename":"I4CZ754310113.jpg",
     "pagination":{
      "pgfolios":{
       "value":"69'a"
      }
     }
    },
    {
     "filename":"I4CZ754310114.jpg",
     "pagination":{
      "pgfolios":{
       "value":"69'b"
      }
     }
    },
    {
     "filename":"I4CZ754310115.jpg",
     "pagination":{
      "pgfolios":{
       "value":"70a"
      }
     }
    },
    {
     "filename":"I4CZ754310116.jpg",
     "pagination":{
      "pgfolios":{
       "value":"70b"
      }
     }
    },
    {
     "filename":"I4CZ754310117.jpg",
     "pagination":{
      "pgfolios":{
       "value":"71a"
      }
     }
    },
    {
     "filename":"I4CZ754310118.jpg",
     "pagination":{
      "pgfolios":{
       "value":"71b"
      }
     }
    },
    {
     "filename":"I4CZ754310119.jpg",
     "pagination":{
      "pgfolios":{
       "value":"72a"
      }
     }
    },
    {
     "filename":"I4CZ754310120.jpg",
     "pagination":{
      "pgfolios":{
       "value":"72b"
      }
     }
    },
    {
     "filename":"I4CZ754310121.jpg",
     "pagination":{
      "pgfolios":{
       "value":"73a"
      }
     }
    },
    {
     "filename":"I4CZ754310122.jpg",
     "pagination":{
      "pgfolios":{
       "value":"73b"
      }
     }
    },
    {
     "filename":"I4CZ754310123.jpg",
     "pagination":{
      "pgfolios":{
       "value":"74a"
      }
     }
    },
    {
     "filename":"I4CZ754310124.jpg",
     "pagination":{
      "pgfolios":{
       "value":"74b"
      }
     }
    },
    {
     "filename":"I4CZ754310125.jpg",
     "pagination":{
      "pgfolios":{
       "value":"75a"
      }
     }
    },
    {
     "filename":"I4CZ754310126.jpg",
     "pagination":{
      "pgfolios":{
       "value":"75b"
      }
     }
    },
    {
     "filename":"I4CZ754310127.jpg",
     "pagination":{
      "pgfolios":{
       "value":"76a"
      }
     }
    },
    {
     "filename":"I4CZ754310128.jpg",
     "pagination":{
      "pgfolios":{
       "value":"76b"
      }
     }
    },
    {
     "filename":"I4CZ754310129.jpg",
     "pagination":{
      "pgfolios":{
       "value":"77a"
      }
     }
    },
    {
     "filename":"I4CZ754310130.jpg",
     "pagination":{
      "pgfolios":{
       "value":"77b"
      }
     }
    },
    {
     "filename":"I4CZ754310131.jpg",
     "pagination":{
      "pgfolios":{
       "value":"78a"
      }
     }
    },
    {
     "filename":"I4CZ754310132.jpg",
     "pagination":{
      "pgfolios":{
       "value":"78b"
      }
     }
    },
    {
     "filename":"I4CZ754310133.jpg",
     "pagination":{
      "pgfolios":{
       "value":"79a"
      }
     }
    },
    {
     "filename":"I4CZ754310134.jpg",
     "pagination":{
      "pgfolios":{
       "value":"79b"
      }
     }
    },
    {
     "filename":"I4CZ754310135.jpg",
     "pagination":{
      "pgfolios":{
       "value":"80a"
      }
     }
    },
    {
     "filename":"I4CZ754310136.jpg",
     "pagination":{
      "pgfolios":{
       "value":"80b"
      }
     }
    },
    {
     "filename":"I4CZ754310137.jpg",
     "pagination":{
      "pgfolios":{
       "value":"81a"
      }
     }
    },
    {
     "filename":"I4CZ754310138.jpg",
     "pagination":{
      "pgfolios":{
       "value":"81b"
      }
     }
    },
    {
     "filename":"I4CZ754310139.jpg",
     "pagination":{
      "pgfolios":{
       "value":"82a"
      }
     }
    },
    {
     "filename":"I4CZ754310140.jpg",
     "pagination":{
      "pgfolios":{
       "value":"82b"
      }
     }
    },
    {
     "filename":"I4CZ754310141.jpg",
     "pagination":{
      "pgfolios":{
       "value":"83a"
      }
     }
    },
    {
     "filename":"I4CZ754310142.jpg",
     "pagination":{
      "pgfolios":{
       "value":"83b"
      }
     }
    },
    {
     "filename":"I4CZ754310143.jpg",
     "pagination":{
      "pgfolios":{
       "value":"84a"
      }
     }
    },
    {
     "filename":"I4CZ754310144.jpg",
     "pagination":{
      "pgfolios":{
       "value":"84b"
      }
     }
    },
    {
     "filename":"I4CZ754310145.jpg",
     "pagination":{
      "pgfolios":{
       "value":"85a"
      }
     }
    },
    {
     "filename":"I4CZ754310146.jpg",
     "pagination":{
      "pgfolios":{
       "value":"85b"
      }
     }
    },
    {
     "filename":"I4CZ754310147.jpg",
     "pagination":{
      "pgfolios":{
       "value":"86a"
      }
     }
    },
    {
     "filename":"I4CZ754310148.jpg",
     "pagination":{
      "pgfolios":{
       "value":"86b"
      }
     }
    },
    {
     "filename":"I4CZ754310149.jpg",
     "pagination":{
      "pgfolios":{
       "value":"87a"
      }
     }
    },
    {
     "filename":"I4CZ754310150.jpg",
     "pagination":{
      "pgfolios":{
       "value":"87b"
      }
     }
    },
    {
     "filename":"I4CZ754310151.jpg",
     "pagination":{
      "pgfolios":{
       "value":"88a"
      }
     }
    },
    {
     "filename":"I4CZ754310152.jpg",
     "pagination":{
      "pgfolios":{
       "value":"88b"
      }
     }
    },
    {
     "filename":"I4CZ754310153.jpg",
     "pagination":{
      "pgfolios":{
       "value":"89a"
      }
     }
    },
    {
     "filename":"I4CZ754310154.jpg",
     "pagination":{
      "pgfolios":{
       "value":"89b"
      }
     }
    },
    {
     "filename":"I4CZ754310155.jpg",
     "pagination":{
      "pgfolios":{
       "value":"90a"
      }
     }
    },
    {
     "filename":"I4CZ754310156.jpg",
     "pagination":{
      "pgfolios":{
       "value":"90b"
      }
     }
    },
    {
     "filename":"I4CZ754310157.jpg",
     "pagination":{
      "pgfolios":{
       "value":"90'a"
      }
     }
    },
    {
     "filename":"I4CZ754310158.jpg",
     "pagination":{
      "pgfolios":{
       "value":"90'b"
      }
     }
    },
    {
     "filename":"I4CZ754310159.jpg",
     "pagination":{
      "pgfolios":{
       "value":"91a"
      }
     }
    },
    {
     "filename":"I4CZ754310160.jpg",
     "pagination":{
      "pgfolios":{
       "value":"91b"
      }
     }
    },
    {
     "filename":"I4CZ754310161.jpg",
     "pagination":{
      "pgfolios":{
       "value":"92a"
      }
     }
    },
    {
     "filename":"I4CZ754310162.jpg",
     "pagination":{
      "pgfolios":{
       "value":"92b"
      }
     }
    },
    {
     "filename":"I4CZ754310163.jpg",
     "pagination":{
      "pgfolios":{
       "value":"93a"
      }
     }
    },
    {
     "filename":"I4CZ754310164.jpg",
     "pagination":{
      "pgfolios":{
       "value":"93b"
      }
     }
    },
    {
     "filename":"I4CZ754310165.jpg",
     "pagination":{
      "pgfolios":{
       "value":"94a"
      }
     }
    },
    {
     "filename":"I4CZ754310166.jpg",
     "pagination":{
      "pgfolios":{
       "value":"94b"
      }
     }
    },
    {
     "filename":"I4CZ754310167.jpg",
     "pagination":{
      "pgfolios":{
       "value":"95a"
      }
     }
    },
    {
     "filename":"I4CZ754310168.jpg",
     "pagination":{
      "pgfolios":{
       "value":"95b"
      }
     }
    },
    {
     "filename":"I4CZ754310169.jpg",
     "pagination":{
      "pgfolios":{
       "value":"96a"
      }
     }
    },
    {
     "filename":"I4CZ754310170.jpg",
     "pagination":{
      "pgfolios":{
       "value":"96b"
      }
     }
    },
    {
     "filename":"I4CZ754310171.jpg",
     "pagination":{
      "pgfolios":{
       "value":"97a"
      }
     }
    },
    {
     "filename":"I4CZ754310172.jpg",
     "pagination":{
      "pgfolios":{
       "value":"97b"
      }
     }
    },
    {
     "filename":"I4CZ754310173.jpg",
     "pagination":{
      "pgfolios":{
       "value":"98a"
      }
     }
    },
    {
     "filename":"I4CZ754310174.jpg",
     "pagination":{
      "pgfolios":{
       "value":"98b"
      }
     }
    },
    {
     "pagination":{
      "pgfolios":{
       "value":"99a"
      }
     },
     "tags":[
      "T0020"
     ]
    },
    {
     "pagination":{
      "pgfolios":{
       "value":"99b"
      }
     },
     "tags":[
      "T0020"
     ]
    },
    {
     "filename":"I4CZ754310175.jpg",
     "pagination":{
      "pgfolios":{
       "value":"100a"
      }
     }
    },
    {
     "filename":"I4CZ754310176.jpg",
     "pagination":{
      "pgfolios":{
       "value":"100b"
      }
     }
    },
    {
     "filename":"I4CZ754310177.jpg",
     "pagination":{
      "pgfolios":{
       "value":"101a"
      }
     }
    },
    {
     "filename":"I4CZ754310178.jpg",
     "pagination":{
      "pgfolios":{
       "value":"101b"
      }
     }
    },
    {
     "filename":"I4CZ754310179.jpg",
     "pagination":{
      "pgfolios":{
       "value":"102a"
      }
     }
    },
    {
     "filename":"I4CZ754310180.jpg",
     "pagination":{
      "pgfolios":{
       "value":"102b"
      }
     }
    },
    {
     "filename":"I4CZ754310181.jpg",
     "pagination":{
      "pgfolios":{
       "value":"103a"
      }
     }
    },
    {
     "filename":"I4CZ754310182.jpg",
     "pagination":{
      "pgfolios":{
       "value":"103b"
      }
     }
    },
    {
     "filename":"I4CZ754310183.jpg",
     "pagination":{
      "pgfolios":{
       "value":"104a"
      }
     }
    },
    {
     "filename":"I4CZ754310184.jpg",
     "pagination":{
      "pgfolios":{
       "value":"104b"
      }
     }
    },
    {
     "filename":"I4CZ754310185.jpg",
     "pagination":{
      "pgfolios":{
       "value":"105a"
      }
     }
    },
    {
     "filename":"I4CZ754310186.jpg",
     "pagination":{
      "pgfolios":{
       "value":"105b"
      }
     }
    },
    {
     "filename":"I4CZ754310187.jpg",
     "pagination":{
      "pgfolios":{
       "value":"106a"
      }
     }
    },
    {
     "filename":"I4CZ754310188.jpg",
     "pagination":{
      "pgfolios":{
       "value":"106b"
      }
     }
    },
    {
     "filename":"I4CZ754310189.jpg",
     "pagination":{
      "pgfolios":{
       "value":"107a"
      }
     }
    },
    {
     "filename":"I4CZ754310190.jpg",
     "pagination":{
      "pgfolios":{
       "value":"107b"
      }
     }
    },
    {
     "filename":"I4CZ754310191.jpg",
     "pagination":{
      "pgfolios":{
       "value":"108a"
      }
     }
    },
    {
     "filename":"I4CZ754310192.jpg",
     "pagination":{
      "pgfolios":{
       "value":"108b"
      }
     }
    },
    {
     "filename":"I4CZ754310193.jpg",
     "pagination":{
      "pgfolios":{
       "value":"109a"
      }
     }
    },
    {
     "filename":"I4CZ754310194.jpg",
     "pagination":{
      "pgfolios":{
       "value":"109b"
      }
     }
    },
    {
     "pagination":{
      "pgfolios":{
       "value":"110a"
      }
     },
     "tags":[
      "T0020"
     ]
    },
    {
     "pagination":{
      "pgfolios":{
       "value":"110b"
      }
     },
     "tags":[
      "T0020"
     ]
    },
    {
     "filename":"I4CZ754310195.jpg",
     "pagination":{
      "pgfolios":{
       "value":"111a"
      }
     }
    },
    {
     "filename":"I4CZ754310196.jpg",
     "pagination":{
      "pgfolios":{
       "value":"111b"
      }
     }
    },
    {
     "filename":"I4CZ754310197.jpg",
     "pagination":{
      "pgfolios":{
       "value":"112a"
      }
     }
    },
    {
     "filename":"I4CZ754310198.jpg",
     "pagination":{
      "pgfolios":{
       "value":"112b"
      }
     }
    },
    {
     "filename":"I4CZ754310199.jpg",
     "pagination":{
      "pgfolios":{
       "value":"113a"
      }
     }
    },
    {
     "filename":"I4CZ754310200.jpg",
     "pagination":{
      "pgfolios":{
       "value":"113b"
      }
     }
    },
    {
     "filename":"I4CZ754310201.jpg",
     "pagination":{
      "pgfolios":{
       "value":"114a"
      }
     }
    },
    {
     "filename":"I4CZ754310202.jpg",
     "pagination":{
      "pgfolios":{
       "value":"114b"
      }
     }
    },
    {
     "filename":"I4CZ754310203.jpg",
     "pagination":{
      "pgfolios":{
       "value":"115a"
      }
     }
    },
    {
     "filename":"I4CZ754310204.jpg",
     "pagination":{
      "pgfolios":{
       "value":"115b"
      }
     }
    },
    {
     "filename":"I4CZ754310205.jpg",
     "pagination":{
      "pgfolios":{
       "value":"116a"
      }
     }
    },
    {
     "filename":"I4CZ754310206.jpg",
     "pagination":{
      "pgfolios":{
       "value":"116b"
      }
     }
    },
    {
     "filename":"I4CZ754310207.jpg",
     "pagination":{
      "pgfolios":{
       "value":"117a"
      }
     }
    },
    {
     "filename":"I4CZ754310208.jpg",
     "pagination":{
      "pgfolios":{
       "value":"117b"
      }
     }
    },
    {
     "filename":"I4CZ754310209.jpg",
     "pagination":{
      "pgfolios":{
       "value":"118a"
      }
     }
    },
    {
     "filename":"I4CZ754310210.jpg",
     "pagination":{
      "pgfolios":{
       "value":"118b"
      }
     }
    },
    {
     "filename":"I4CZ754310211.jpg",
     "pagination":{
      "pgfolios":{
       "value":"119a"
      }
     }
    },
    {
     "filename":"I4CZ754310212.jpg",
     "pagination":{
      "pgfolios":{
       "value":"119b"
      }
     }
    },
    {
     "filename":"I4CZ754310213.jpg",
     "pagination":{
      "pgfolios":{
       "value":"120a"
      }
     }
    },
    {
     "filename":"I4CZ754310214.jpg",
     "pagination":{
      "pgfolios":{
       "value":"120b"
      }
     }
    },
    {
     "filename":"I4CZ754310215.jpg",
     "pagination":{
      "pgfolios":{
       "value":"121a"
      }
     }
    },
    {
     "filename":"I4CZ754310216.jpg",
     "pagination":{
      "pgfolios":{
       "value":"121b"
      }
     }
    },
    {
     "filename":"I4CZ754310217.jpg",
     "pagination":{
      "pgfolios":{
       "value":"122a"
      }
     }
    },
    {
     "filename":"I4CZ754310218.jpg",
     "pagination":{
      "pgfolios":{
       "value":"122b"
      }
     }
    },
    {
     "filename":"I4CZ754310219.jpg",
     "pagination":{
      "pgfolios":{
       "value":"123a"
      }
     }
    },
    {
     "filename":"I4CZ754310220.jpg",
     "pagination":{
      "pgfolios":{
       "value":"123b"
      }
     }
    },
    {
     "filename":"I4CZ754310221.jpg",
     "pagination":{
      "pgfolios":{
       "value":"124a"
      }
     }
    },
    {
     "filename":"I4CZ754310222.jpg",
     "pagination":{
      "pgfolios":{
       "value":"124b"
      }
     }
    },
    {
     "pagination":{
      "pgfolios":{
       "value":"125a"
      }
     },
     "tags":[
      "T0020"
     ]
    },
    {
     "pagination":{
      "pgfolios":{
       "value":"125b"
      }
     },
     "tags":[
      "T0020"
     ]
    },
    {
     "filename":"I4CZ754310223.jpg",
     "pagination":{
      "pgfolios":{
       "value":"126a"
      }
     }
    },
    {
     "filename":"I4CZ754310224.jpg",
     "pagination":{
      "pgfolios":{
       "value":"126b"
      }
     }
    },
    {
     "filename":"I4CZ754310225.jpg",
     "pagination":{
      "pgfolios":{
       "value":"127a"
      }
     }
    },
    {
     "filename":"I4CZ754310226.jpg",
     "pagination":{
      "pgfolios":{
       "value":"127b"
      }
     }
    },
    {
     "filename":"I4CZ754310227.jpg",
     "hidden":true
    },
    {
     "filename":"I4CZ754310228.jpg",
     "hidden":true
    },
    {
     "filename":"I4CZ754310229.jpg",
     "pagination":{
      "pgfolios":{
       "value":"128a"
      }
     }
    },
    {
     "filename":"I4CZ754310230.jpg",
     "pagination":{
      "pgfolios":{
       "value":"128b"
      }
     }
    },
    {
     "filename":"I4CZ754310231.jpg",
     "pagination":{
      "pgfolios":{
       "value":"129a"
      }
     }
    },
    {
     "filename":"I4CZ754310232.jpg",
     "pagination":{
      "pgfolios":{
       "value":"129b"
      }
     }
    },
    {
     "filename":"I4CZ754310233.jpg",
     "pagination":{
      "pgfolios":{
       "value":"130a"
      }
     }
    },
    {
     "filename":"I4CZ754310234.jpg",
     "pagination":{
      "pgfolios":{
       "value":"130b"
      }
     }
    },
    {
     "filename":"I4CZ754310235.jpg",
     "pagination":{
      "pgfolios":{
       "value":"131a"
      }
     }
    },
    {
     "filename":"I4CZ754310236.jpg",
     "pagination":{
      "pgfolios":{
       "value":"131b"
      }
     }
    },
    {
     "filename":"I4CZ754310237.jpg",
     "pagination":{
      "pgfolios":{
       "value":"132a"
      }
     }
    },
    {
     "filename":"I4CZ754310238.jpg",
     "pagination":{
      "pgfolios":{
       "value":"132b"
      }
     }
    },
    {
     "filename":"I4CZ754310239.jpg",
     "hidden":true
    },
    {
     "filename":"I4CZ754310240.jpg",
     "hidden":true
    },
    {
     "filename":"I4CZ754310241.jpg",
     "pagination":{
      "pgfolios":{
       "value":"133a"
      }
     }
    },
    {
     "filename":"I4CZ754310242.jpg",
     "pagination":{
      "pgfolios":{
       "value":"133b"
      }
     }
    },
    {
     "filename":"I4CZ754310243.jpg",
     "pagination":{
      "pgfolios":{
       "value":"134a"
      }
     }
    },
    {
     "filename":"I4CZ754310244.jpg",
     "pagination":{
      "pgfolios":{
       "value":"134b"
      }
     }
    },
    {
     "filename":"I4CZ754310245.jpg",
     "pagination":{
      "pgfolios":{
       "value":"135a"
      }
     }
    },
    {
     "filename":"I4CZ754310246.jpg",
     "pagination":{
      "pgfolios":{
       "value":"135b"
      }
     }
    },
    {
     "filename":"I4CZ754310247.jpg",
     "pagination":{
      "pgfolios":{
       "value":"136a"
      }
     }
    },
    {
     "filename":"I4CZ754310248.jpg",
     "pagination":{
      "pgfolios":{
       "value":"136b"
      }
     }
    },
    {
     "filename":"I4CZ754310249.jpg",
     "hidden":true
    },
    {
     "filename":"I4CZ754310250.jpg",
     "hidden":true
    },
    {
     "filename":"I4CZ754310251.jpg",
     "pagination":{
      "pgfolios":{
       "value":"137a"
      }
     }
    },
    {
     "filename":"I4CZ754310252.jpg",
     "pagination":{
      "pgfolios":{
       "value":"137b"
      }
     }
    },
    {
     "filename":"I4CZ754310253.jpg",
     "pagination":{
      "pgfolios":{
       "value":"138a"
      }
     }
    },
    {
     "filename":"I4CZ754310254.jpg",
     "pagination":{
      "pgfolios":{
       "value":"138b"
      }
     }
    },
    {
     "filename":"I4CZ754310255.jpg",
     "pagination":{
      "pgfolios":{
       "value":"139a"
      }
     }
    },
    {
     "filename":"I4CZ754310256.jpg",
     "pagination":{
      "pgfolios":{
       "value":"139b"
      }
     }
    },
    {
     "filename":"I4CZ754310257.jpg",
     "pagination":{
      "pgfolios":{
       "value":"140a"
      }
     }
    },
    {
     "filename":"I4CZ754310258.jpg",
     "pagination":{
      "pgfolios":{
       "value":"140b"
      }
     }
    },
    {
     "filename":"I4CZ754310259.jpg",
     "pagination":{
      "pgfolios":{
       "value":"141a"
      }
     }
    },
    {
     "filename":"I4CZ754310260.jpg",
     "pagination":{
      "pgfolios":{
       "value":"141b"
      }
     }
    },
    {
     "pagination":{
      "pgfolios":{
       "value":"142a"
      }
     },
     "tags":[
      "T0020"
     ]
    },
    {
     "pagination":{
      "pgfolios":{
       "value":"142b"
      }
     },
     "tags":[
      "T0020"
     ]
    },
    {
     "pagination":{
      "pgfolios":{
       "value":"143a"
      }
     },
     "tags":[
      "T0020"
     ]
    },
    {
     "pagination":{
      "pgfolios":{
       "value":"143b"
      }
     },
     "tags":[
      "T0020"
     ]
    },
    {
     "filename":"I4CZ754310261.jpg",
     "pagination":{
      "pgfolios":{
       "value":"144a"
      }
     }
    },
    {
     "filename":"I4CZ754310262.jpg",
     "pagination":{
      "pgfolios":{
       "value":"144b"
      }
     }
    },
    {
     "filename":"I4CZ754310263.jpg",
     "pagination":{
      "pgfolios":{
       "value":"145a"
      }
     }
    },
    {
     "filename":"I4CZ754310264.jpg",
     "pagination":{
      "pgfolios":{
       "value":"145b"
      }
     }
    },
    {
     "filename":"I4CZ754310265.jpg",
     "pagination":{
      "pgfolios":{
       "value":"146a"
      }
     }
    },
    {
     "filename":"I4CZ754310266.jpg",
     "pagination":{
      "pgfolios":{
       "value":"146b"
      }
     }
    },
    {
     "filename":"I4CZ754310267.jpg",
     "pagination":{
      "pgfolios":{
       "value":"147a"
      }
     }
    },
    {
     "filename":"I4CZ754310268.jpg",
     "pagination":{
      "pgfolios":{
       "value":"147b"
      }
     }
    },
    {
     "filename":"I4CZ754310269.jpg",
     "pagination":{
      "pgfolios":{
       "value":"148a"
      }
     }
    },
    {
     "filename":"I4CZ754310270.jpg",
     "pagination":{
      "pgfolios":{
       "value":"148b"
      }
     }
    },
    {
     "filename":"I4CZ754310271.jpg",
     "pagination":{
      "pgfolios":{
       "value":"149a"
      }
     }
    },
    {
     "filename":"I4CZ754310272.jpg",
     "pagination":{
      "pgfolios":{
       "value":"149b"
      }
     }
    },
    {
     "filename":"I4CZ754310273.jpg",
     "pagination":{
      "pgfolios":{
       "value":"150a"
      }
     }
    },
    {
     "filename":"I4CZ754310274.jpg",
     "pagination":{
      "pgfolios":{
       "value":"150b"
      }
     }
    },
    {
     "filename":"I4CZ754310275.jpg",
     "pagination":{
      "pgfolios":{
       "value":"151a"
      }
     }
    },
    {
     "filename":"I4CZ754310276.jpg",
     "pagination":{
      "pgfolios":{
       "value":"151b"
      }
     }
    },
    {
     "filename":"I4CZ754310277.jpg",
     "pagination":{
      "pgfolios":{
       "value":"152a"
      }
     }
    },
    {
     "filename":"I4CZ754310278.jpg",
     "pagination":{
      "pgfolios":{
       "value":"152b"
      }
     }
    },
    {
     "pagination":{
      "pgfolios":{
       "value":"153a"
      }
     },
     "tags":[
      "T0020"
     ]
    },
    {
     "pagination":{
      "pgfolios":{
       "value":"153b"
      }
     },
     "tags":[
      "T0020"
     ]
    },
    {
     "filename":"I4CZ754310279.jpg",
     "pagination":{
      "pgfolios":{
       "value":"154a"
      }
     }
    },
    {
     "filename":"I4CZ754310280.jpg",
     "pagination":{
      "pgfolios":{
       "value":"154b"
      }
     }
    },
    {
     "filename":"I4CZ754310281.jpg",
     "pagination":{
      "pgfolios":{
       "value":"155a"
      }
     }
    },
    {
     "filename":"I4CZ754310282.jpg",
     "pagination":{
      "pgfolios":{
       "value":"155b"
      }
     }
    },
    {
     "filename":"I4CZ754310283.jpg",
     "pagination":{
      "pgfolios":{
       "value":"156a"
      }
     }
    },
    {
     "filename":"I4CZ754310284.jpg",
     "pagination":{
      "pgfolios":{
       "value":"156b"
      }
     }
    },
    {
     "pagination":{
      "pgfolios":{
       "value":"157a"
      }
     },
     "tags":[
      "T0020"
     ]
    },
    {
     "pagination":{
      "pgfolios":{
       "value":"157b"
      }
     },
     "tags":[
      "T0020"
     ]
    },
    {
     "filename":"I4CZ754310285.jpg",
     "pagination":{
      "pgfolios":{
       "value":"158a"
      }
     }
    },
    {
     "filename":"I4CZ754310286.jpg",
     "pagination":{
      "pgfolios":{
       "value":"158b"
      }
     }
    },
    {
     "filename":"I4CZ754310287.jpg",
     "pagination":{
      "pgfolios":{
       "value":"159a"
      }
     }
    },
    {
     "filename":"I4CZ754310288.jpg",
     "pagination":{
      "pgfolios":{
       "value":"159b"
      }
     }
    },
    {
     "filename":"I4CZ754310289.jpg",
     "pagination":{
      "pgfolios":{
       "value":"160a"
      }
     }
    },
    {
     "filename":"I4CZ754310290.jpg",
     "pagination":{
      "pgfolios":{
       "value":"160b"
      }
     }
    },
    {
     "filename":"I4CZ754310291.jpg",
     "pagination":{
      "pgfolios":{
       "value":"161a"
      }
     }
    },
    {
     "filename":"I4CZ754310292.jpg",
     "pagination":{
      "pgfolios":{
       "value":"161b"
      }
     }
    },
    {
     "filename":"I4CZ754310293.jpg",
     "pagination":{
      "pgfolios":{
       "value":"162a"
      }
     }
    },
    {
     "filename":"I4CZ754310294.jpg",
     "pagination":{
      "pgfolios":{
       "value":"162b"
      }
     }
    },
    {
     "filename":"I4CZ754310295.jpg",
     "pagination":{
      "pgfolios":{
       "value":"163a"
      }
     }
    },
    {
     "filename":"I4CZ754310296.jpg",
     "pagination":{
      "pgfolios":{
       "value":"163b"
      }
     }
    },
    {
     "filename":"I4CZ754310297.jpg",
     "pagination":{
      "pgfolios":{
       "value":"164a"
      }
     }
    },
    {
     "filename":"I4CZ754310298.jpg",
     "pagination":{
      "pgfolios":{
       "value":"164b"
      }
     }
    },
    {
     "filename":"I4CZ754310299.jpg",
     "pagination":{
      "pgfolios":{
       "value":"165a"
      }
     }
    },
    {
     "filename":"I4CZ754310300.jpg",
     "pagination":{
      "pgfolios":{
       "value":"165b"
      }
     }
    },
    {
     "filename":"I4CZ754310301.jpg",
     "pagination":{
      "pgfolios":{
       "value":"166a"
      }
     }
    },
    {
     "filename":"I4CZ754310302.jpg",
     "pagination":{
      "pgfolios":{
       "value":"166b"
      }
     }
    },
    {
     "filename":"I4CZ754310303.jpg",
     "pagination":{
      "pgfolios":{
       "value":"167a"
      }
     }
    },
    {
     "filename":"I4CZ754310304.jpg",
     "pagination":{
      "pgfolios":{
       "value":"167b"
      }
     }
    },
    {
     "filename":"I4CZ754310305.jpg",
     "pagination":{
      "pgfolios":{
       "value":"168a"
      }
     }
    },
    {
     "filename":"I4CZ754310306.jpg",
     "pagination":{
      "pgfolios":{
       "value":"168b"
      }
     }
    },
    {
     "filename":"I4CZ754310307.jpg",
     "pagination":{
      "pgfolios":{
       "value":"169a"
      }
     }
    },
    {
     "filename":"I4CZ754310308.jpg",
     "pagination":{
      "pgfolios":{
       "value":"169b"
      }
     }
    },
    {
     "filename":"I4CZ754310309.jpg",
     "pagination":{
      "pgfolios":{
       "value":"170a"
      }
     }
    },
    {
     "filename":"I4CZ754310310.jpg",
     "pagination":{
      "pgfolios":{
       "value":"170b"
      }
     }
    },
    {
     "filename":"I4CZ754310311.jpg",
     "pagination":{
      "pgfolios":{
       "value":"171a"
      }
     }
    },
    {
     "filename":"I4CZ754310312.jpg",
     "pagination":{
      "pgfolios":{
       "value":"171b"
      }
     }
    },
    {
     "pagination":{
      "pgfolios":{
       "value":"172a"
      }
     },
     "tags":[
      "T0020"
     ]
    },
    {
     "pagination":{
      "pgfolios":{
       "value":"172b"
      }
     },
     "tags":[
      "T0020"
     ]
    },
    {
     "filename":"I4CZ754310313.jpg",
     "pagination":{
      "pgfolios":{
       "value":"173a"
      }
     }
    },
    {
     "filename":"I4CZ754310314.jpg",
     "pagination":{
      "pgfolios":{
       "value":"173b"
      }
     }
    },
    {
     "filename":"I4CZ754310315.jpg",
     "pagination":{
      "pgfolios":{
       "value":"174a"
      }
     }
    },
    {
     "filename":"I4CZ754310316.jpg",
     "pagination":{
      "pgfolios":{
       "value":"174b"
      }
     }
    },
    {
     "filename":"I4CZ754310317.jpg",
     "pagination":{
      "pgfolios":{
       "value":"175a"
      }
     }
    },
    {
     "filename":"I4CZ754310318.jpg",
     "pagination":{
      "pgfolios":{
       "value":"175b"
      }
     }
    },
    {
     "filename":"I4CZ754310319.jpg",
     "pagination":{
      "pgfolios":{
       "value":"176a"
      }
     }
    },
    {
     "filename":"I4CZ754310320.jpg",
     "pagination":{
      "pgfolios":{
       "value":"176b"
      }
     }
    },
    {
     "filename":"I4CZ754310321.jpg",
     "pagination":{
      "pgfolios":{
       "value":"177a"
      }
     }
    },
    {
     "filename":"I4CZ754310322.jpg",
     "pagination":{
      "pgfolios":{
       "value":"177b"
      }
     }
    },
    {
     "pagination":{
      "pgfolios":{
       "value":"178a"
      }
     },
     "tags":[
      "T0020"
     ]
    },
    {
     "pagination":{
      "pgfolios":{
       "value":"178b"
      }
     },
     "tags":[
      "T0020"
     ]
    },
    {
     "filename":"I4CZ754310323.jpg",
     "pagination":{
      "pgfolios":{
       "value":"179a"
      }
     }
    },
    {
     "filename":"I4CZ754310324.jpg",
     "pagination":{
      "pgfolios":{
       "value":"179b"
      }
     }
    },
    {
     "filename":"I4CZ754310325.jpg",
     "pagination":{
      "pgfolios":{
       "value":"180a"
      }
     }
    },
    {
     "filename":"I4CZ754310326.jpg",
     "pagination":{
      "pgfolios":{
       "value":"180b"
      }
     }
    },
    {
     "pagination":{
      "pgfolios":{
       "value":"181a"
      }
     },
     "tags":[
      "T0020"
     ]
    },
    {
     "pagination":{
      "pgfolios":{
       "value":"181b"
      }
     },
     "tags":[
      "T0020"
     ]
    },
    {
     "filename":"I4CZ754310327.jpg",
     "pagination":{
      "pgfolios":{
       "value":"182a"
      }
     }
    },
    {
     "filename":"I4CZ754310328.jpg",
     "pagination":{
      "pgfolios":{
       "value":"182b"
      }
     }
    },
    {
     "filename":"I4CZ754310329.jpg",
     "pagination":{
      "pgfolios":{
       "value":"183a"
      }
     }
    },
    {
     "filename":"I4CZ754310330.jpg",
     "pagination":{
      "pgfolios":{
       "value":"183b"
      }
     }
    },
    {
     "filename":"I4CZ754310331.jpg",
     "pagination":{
      "pgfolios":{
       "value":"184a"
      }
     }
    },
    {
     "filename":"I4CZ754310332.jpg",
     "pagination":{
      "pgfolios":{
       "value":"184b"
      }
     }
    },
    {
     "filename":"I4CZ754310333.jpg",
     "pagination":{
      "pgfolios":{
       "value":"185a"
      }
     }
    },
    {
     "filename":"I4CZ754310334.jpg",
     "pagination":{
      "pgfolios":{
       "value":"185b"
      }
     }
    },
    {
     "filename":"I4CZ754310335.jpg",
     "pagination":{
      "pgfolios":{
       "value":"186a"
      }
     }
    },
    {
     "filename":"I4CZ754310336.jpg",
     "pagination":{
      "pgfolios":{
       "value":"186b"
      }
     }
    },
    {
     "filename":"I4CZ754310337.jpg",
     "pagination":{
      "pgfolios":{
       "value":"187a"
      }
     }
    },
    {
     "filename":"I4CZ754310338.jpg",
     "pagination":{
      "pgfolios":{
       "value":"187b"
      }
     }
    },
    {
     "filename":"I4CZ754310339.jpg",
     "pagination":{
      "pgfolios":{
       "value":"188a"
      }
     }
    },
    {
     "filename":"I4CZ754310340.jpg",
     "pagination":{
      "pgfolios":{
       "value":"188b"
      }
     }
    },
    {
     "filename":"I4CZ754310341.jpg",
     "pagination":{
      "pgfolios":{
       "value":"189a"
      }
     }
    },
    {
     "filename":"I4CZ754310342.jpg",
     "pagination":{
      "pgfolios":{
       "value":"189b"
      }
     }
    },
    {
     "filename":"I4CZ754310343.jpg",
     "pagination":{
      "pgfolios":{
       "value":"190a"
      }
     }
    },
    {
     "filename":"I4CZ754310344.jpg",
     "pagination":{
      "pgfolios":{
       "value":"190b"
      }
     }
    },
    {
     "filename":"I4CZ754310345.jpg",
     "pagination":{
      "pgfolios":{
       "value":"191a"
      }
     }
    },
    {
     "filename":"I4CZ754310346.jpg",
     "pagination":{
      "pgfolios":{
       "value":"191b"
      }
     }
    },
    {
     "filename":"I4CZ754310347.jpg",
     "pagination":{
      "pgfolios":{
       "value":"192a"
      }
     }
    },
    {
     "filename":"I4CZ754310348.jpg",
     "pagination":{
      "pgfolios":{
       "value":"192b"
      }
     }
    },
    {
     "filename":"I4CZ754310349.jpg",
     "pagination":{
      "pgfolios":{
       "value":"193a"
      }
     }
    },
    {
     "filename":"I4CZ754310350.jpg",
     "pagination":{
      "pgfolios":{
       "value":"193b"
      }
     }
    },
    {
     "filename":"I4CZ754310351.jpg",
     "pagination":{
      "pgfolios":{
       "value":"194a"
      }
     }
    },
    {
     "filename":"I4CZ754310352.jpg",
     "pagination":{
      "pgfolios":{
       "value":"194b"
      }
     }
    },
    {
     "filename":"I4CZ754310353.jpg",
     "pagination":{
      "pgfolios":{
       "value":"195a"
      }
     }
    },
    {
     "filename":"I4CZ754310354.jpg",
     "pagination":{
      "pgfolios":{
       "value":"195b"
      }
     }
    },
    {
     "filename":"I4CZ754310355.jpg",
     "pagination":{
      "pgfolios":{
       "value":"196a"
      }
     }
    },
    {
     "filename":"I4CZ754310356.jpg",
     "pagination":{
      "pgfolios":{
       "value":"196b"
      }
     }
    },
    {
     "filename":"I4CZ754310357.jpg",
     "pagination":{
      "pgfolios":{
       "value":"197a"
      }
     }
    },
    {
     "filename":"I4CZ754310358.jpg",
     "pagination":{
      "pgfolios":{
       "value":"197b"
      }
     }
    },
    {
     "filename":"I4CZ754310359.jpg",
     "pagination":{
      "pgfolios":{
       "value":"198a"
      }
     }
    },
    {
     "filename":"I4CZ754310360.jpg",
     "pagination":{
      "pgfolios":{
       "value":"198b"
      }
     }
    },
    {
     "pagination":{
      "pgfolios":{
       "value":"199a"
      }
     },
     "tags":[
      "T0020"
     ]
    },
    {
     "pagination":{
      "pgfolios":{
       "value":"199b"
      }
     },
     "tags":[
      "T0020"
     ]
    },
    {
     "filename":"I4CZ754310361.jpg",
     "pagination":{
      "pgfolios":{
       "value":"200a"
      }
     }
    },
    {
     "filename":"I4CZ754310362.jpg",
     "pagination":{
      "pgfolios":{
       "value":"200b"
      }
     }
    },
    {
     "filename":"I4CZ754310363.jpg",
     "pagination":{
      "pgfolios":{
       "value":"201a"
      }
     }
    },
    {
     "filename":"I4CZ754310364.jpg",
     "pagination":{
      "pgfolios":{
       "value":"201b"
      }
     }
    },
    {
     "filename":"I4CZ754310365.jpg",
     "pagination":{
      "pgfolios":{
       "value":"202a"
      }
     }
    },
    {
     "filename":"I4CZ754310366.jpg",
     "pagination":{
      "pgfolios":{
       "value":"202b"
      }
     }
    },
    {
     "filename":"I4CZ754310367.jpg",
     "pagination":{
      "pgfolios":{
       "value":"203a"
      }
     }
    },
    {
     "filename":"I4CZ754310368.jpg",
     "pagination":{
      "pgfolios":{
       "value":"203b"
      }
     }
    },
    {
     "filename":"I4CZ754310369.jpg",
     "pagination":{
      "pgfolios":{
       "value":"204a"
      }
     }
    },
    {
     "filename":"I4CZ754310370.jpg",
     "pagination":{
      "pgfolios":{
       "value":"204b"
      }
     }
    },
    {
     "filename":"I4CZ754310371.jpg",
     "pagination":{
      "pgfolios":{
       "value":"205a"
      }
     }
    },
    {
     "filename":"I4CZ754310372.jpg",
     "pagination":{
      "pgfolios":{
       "value":"205b"
      }
     }
    },
    {
     "filename":"I4CZ754310373.jpg",
     "pagination":{
      "pgfolios":{
       "value":"206a"
      }
     }
    },
    {
     "filename":"I4CZ754310374.jpg",
     "pagination":{
      "pgfolios":{
       "value":"206b"
      }
     }
    },
    {
     "filename":"I4CZ754310375.jpg",
     "pagination":{
      "pgfolios":{
       "value":"207a"
      }
     }
    },
    {
     "filename":"I4CZ754310376.jpg",
     "pagination":{
      "pgfolios":{
       "value":"207b"
      }
     }
    },
    {
     "filename":"I4CZ754310377.jpg",
     "pagination":{
      "pgfolios":{
       "value":"208a"
      }
     }
    },
    {
     "filename":"I4CZ754310378.jpg",
     "pagination":{
      "pgfolios":{
       "value":"208b"
      }
     }
    },
    {
     "pagination":{
      "pgfolios":{
       "value":"209a"
      }
     },
     "tags":[
      "T0020"
     ]
    },
    {
     "pagination":{
      "pgfolios":{
       "value":"209b"
      }
     },
     "tags":[
      "T0020"
     ]
    },
    {
     "filename":"I4CZ754310379.jpg",
     "pagination":{
      "pgfolios":{
       "value":"210a"
      }
     }
    },
    {
     "filename":"I4CZ754310380.jpg",
     "pagination":{
      "pgfolios":{
       "value":"210b"
      }
     }
    },
    {
     "filename":"I4CZ754310381.jpg",
     "pagination":{
      "pgfolios":{
       "value":"211a"
      }
     }
    },
    {
     "filename":"I4CZ754310382.jpg",
     "pagination":{
      "pgfolios":{
       "value":"211b"
      }
     }
    },
    {
     "filename":"I4CZ754310383.jpg",
     "pagination":{
      "pgfolios":{
       "value":"212a"
      }
     }
    },
    {
     "filename":"I4CZ754310384.jpg",
     "pagination":{
      "pgfolios":{
       "value":"212b"
      }
     }
    },
    {
     "filename":"I4CZ754310385.jpg",
     "pagination":{
      "pgfolios":{
       "value":"213a"
      }
     }
    },
    {
     "filename":"I4CZ754310386.jpg",
     "pagination":{
      "pgfolios":{
       "value":"213b"
      }
     }
    },
    {
     "filename":"I4CZ754310387.jpg",
     "pagination":{
      "pgfolios":{
       "value":"214a"
      }
     }
    },
    {
     "filename":"I4CZ754310388.jpg",
     "pagination":{
      "pgfolios":{
       "value":"214b"
      }
     }
    },
    {
     "pagination":{
      "pgfolios":{
       "value":"215a"
      }
     },
     "tags":[
      "T0020"
     ]
    },
    {
     "pagination":{
      "pgfolios":{
       "value":"215b"
      }
     },
     "tags":[
      "T0020"
     ]
    },
    {
     "filename":"I4CZ754310389.jpg",
     "pagination":{
      "pgfolios":{
       "value":"216a"
      }
     }
    },
    {
     "filename":"I4CZ754310390.jpg",
     "pagination":{
      "pgfolios":{
       "value":"216b"
      }
     }
    },
    {
     "pagination":{
      "pgfolios":{
       "value":"217a"
      }
     },
     "tags":[
      "T0020"
     ]
    },
    {
     "pagination":{
      "pgfolios":{
       "value":"217b"
      }
     },
     "tags":[
      "T0020"
     ]
    },
    {
     "filename":"I4CZ754310391.jpg",
     "pagination":{
      "pgfolios":{
       "value":"218a"
      }
     }
    },
    {
     "filename":"I4CZ754310392.jpg",
     "pagination":{
      "pgfolios":{
       "value":"218b"
      }
     }
    },
    {
     "pagination":{
      "pgfolios":{
       "value":"219a"
      }
     },
     "tags":[
      "T0020"
     ]
    },
    {
     "pagination":{
      "pgfolios":{
       "value":"219b"
      }
     },
     "tags":[
      "T0020"
     ]
    },
    {
     "pagination":{
      "pgfolios":{
       "value":"220a"
      }
     },
     "tags":[
      "T0020"
     ]
    },
    {
     "pagination":{
      "pgfolios":{
       "value":"220b"
      }
     },
     "tags":[
      "T0020"
     ]
    },
    {
     "pagination":{
      "pgfolios":{
       "value":"221a"
      }
     },
     "tags":[
      "T0020"
     ]
    },
    {
     "pagination":{
      "pgfolios":{
       "value":"221b"
      }
     },
     "tags":[
      "T0020"
     ]
    },
    {
     "filename":"I4CZ754310393.jpg",
     "pagination":{
      "pgfolios":{
       "value":"222a"
      }
     }
    },
    {
     "filename":"I4CZ754310394.jpg",
     "pagination":{
      "pgfolios":{
       "value":"222b"
      }
     }
    },
    {
     "pagination":{
      "pgfolios":{
       "value":"223a"
      }
     },
     "tags":[
      "T0020"
     ]
    },
    {
     "pagination":{
      "pgfolios":{
       "value":"223b"
      }
     },
     "tags":[
      "T0020"
     ]
    },
    {
     "filename":"I4CZ754310395.jpg",
     "pagination":{
      "pgfolios":{
       "value":"224a"
      }
     }
    },
    {
     "filename":"I4CZ754310396.jpg",
     "pagination":{
      "pgfolios":{
       "value":"224b"
      }
     }
    },
    {
     "filename":"I4CZ754310397.jpg",
     "pagination":{
      "pgfolios":{
       "value":"225a"
      }
     }
    },
    {
     "filename":"I4CZ754310398.jpg",
     "pagination":{
      "pgfolios":{
       "value":"225b"
      }
     }
    },
    {
     "filename":"I4CZ754310399.jpg",
     "pagination":{
      "pgfolios":{
       "value":"226a"
      }
     }
    },
    {
     "filename":"I4CZ754310400.jpg",
     "pagination":{
      "pgfolios":{
       "value":"226b"
      }
     }
    },
    {
     "filename":"I4CZ754310401.jpg",
     "pagination":{
      "pgfolios":{
       "value":"227a"
      }
     }
    },
    {
     "filename":"I4CZ754310402.jpg",
     "pagination":{
      "pgfolios":{
       "value":"227b"
      }
     }
    },
    {
     "pagination":{
      "pgfolios":{
       "value":"228a"
      }
     },
     "tags":[
      "T0020"
     ]
    },
    {
     "pagination":{
      "pgfolios":{
       "value":"228b"
      }
     },
     "tags":[
      "T0020"
     ]
    },
    {
     "pagination":{
      "pgfolios":{
       "value":"229a"
      }
     },
     "tags":[
      "T0020"
     ]
    },
    {
     "pagination":{
      "pgfolios":{
       "value":"229b"
      }
     },
     "tags":[
      "T0020"
     ]
    },
    {
     "filename":"I4CZ754310403.jpg",
     "pagination":{
      "pgfolios":{
       "value":"230a"
      }
     }
    },
    {
     "filename":"I4CZ754310404.jpg",
     "pagination":{
      "pgfolios":{
       "value":"230b"
      }
     }
    },
    {
     "filename":"I4CZ754310405.jpg",
     "pagination":{
      "pgfolios":{
       "value":"231a"
      }
     }
    },
    {
     "filename":"I4CZ754310406.jpg",
     "pagination":{
      "pgfolios":{
       "value":"231b"
      }
     }
    },
    {
     "filename":"I4CZ754310407.jpg",
     "pagination":{
      "pgfolios":{
       "value":"232a"
      }
     }
    },
    {
     "filename":"I4CZ754310408.jpg",
     "pagination":{
      "pgfolios":{
       "value":"232b"
      }
     }
    },
    {
     "filename":"I4CZ754310409.jpg",
     "pagination":{
      "pgfolios":{
       "value":"233a"
      }
     }
    },
    {
     "filename":"I4CZ754310410.jpg",
     "pagination":{
      "pgfolios":{
       "value":"233b"
      }
     }
    },
    {
     "pagination":{
      "pgfolios":{
       "value":"234a"
      }
     },
     "tags":[
      "T0020"
     ]
    },
    {
     "pagination":{
      "pgfolios":{
       "value":"234b"
      }
     },
     "tags":[
      "T0020"
     ]
    },
    {
     "filename":"I4CZ754310411.jpg",
     "pagination":{
      "pgfolios":{
       "value":"235a"
      }
     }
    },
    {
     "filename":"I4CZ754310412.jpg",
     "pagination":{
      "pgfolios":{
       "value":"235b"
      }
     }
    },
    {
     "filename":"I4CZ754310413.jpg",
     "pagination":{
      "pgfolios":{
       "value":"236a"
      }
     }
    },
    {
     "filename":"I4CZ754310414.jpg",
     "pagination":{
      "pgfolios":{
       "value":"236b"
      }
     }
    },
    {
     "filename":"I4CZ754310415.jpg",
     "pagination":{
      "pgfolios":{
       "value":"237a"
      }
     }
    },
    {
     "filename":"I4CZ754310416.jpg",
     "pagination":{
      "pgfolios":{
       "value":"237b"
      }
     }
    },
    {
     "pagination":{
      "pgfolios":{
       "value":"238a"
      }
     },
     "tags":[
      "T0020"
     ]
    },
    {
     "pagination":{
      "pgfolios":{
       "value":"238b"
      }
     },
     "tags":[
      "T0020"
     ]
    },
    {
     "filename":"I4CZ754310417.jpg",
     "pagination":{
      "pgfolios":{
       "value":"239a"
      }
     }
    },
    {
     "filename":"I4CZ754310418.jpg",
     "pagination":{
      "pgfolios":{
       "value":"239b"
      }
     }
    },
    {
     "filename":"I4CZ754310419.jpg",
     "pagination":{
      "pgfolios":{
       "value":"240a"
      }
     }
    },
    {
     "filename":"I4CZ754310420.jpg",
     "pagination":{
      "pgfolios":{
       "value":"240b"
      }
     }
    },
    {
     "filename":"I4CZ754310421.jpg",
     "pagination":{
      "pgfolios":{
       "value":"241a"
      }
     }
    },
    {
     "filename":"I4CZ754310422.jpg",
     "pagination":{
      "pgfolios":{
       "value":"241b"
      }
     }
    },
    {
     "filename":"I4CZ754310423.jpg",
     "pagination":{
      "pgfolios":{
       "value":"242a"
      }
     }
    },
    {
     "filename":"I4CZ754310424.jpg",
     "pagination":{
      "pgfolios":{
       "value":"242b"
      }
     }
    },
    {
     "filename":"I4CZ754310425.jpg",
     "pagination":{
      "pgfolios":{
       "value":"243a"
      }
     }
    },
    {
     "filename":"I4CZ754310426.jpg",
     "pagination":{
      "pgfolios":{
       "value":"243b"
      }
     }
    },
    {
     "filename":"I4CZ754310427.jpg",
     "pagination":{
      "pgfolios":{
       "value":"244a"
      }
     }
    },
    {
     "filename":"I4CZ754310428.jpg",
     "pagination":{
      "pgfolios":{
       "value":"244b"
      }
     }
    },
    {
     "filename":"I4CZ754310429.jpg",
     "pagination":{
      "pgfolios":{
       "value":"245a"
      }
     }
    },
    {
     "filename":"I4CZ754310430.jpg",
     "pagination":{
      "pgfolios":{
       "value":"245b"
      }
     }
    },
    {
     "filename":"I4CZ754310431.jpg",
     "pagination":{
      "pgfolios":{
       "value":"246a"
      }
     }
    },
    {
     "filename":"I4CZ754310432.jpg",
     "pagination":{
      "pgfolios":{
       "value":"246b"
      }
     }
    },
    {
     "filename":"I4CZ754310433.jpg",
     "pagination":{
      "pgfolios":{
       "value":"247a"
      }
     }
    },
    {
     "filename":"I4CZ754310434.jpg",
     "pagination":{
      "pgfolios":{
       "value":"247b"
      }
     }
    },
    {
     "filename":"I4CZ754310435.jpg",
     "pagination":{
      "pgfolios":{
       "value":"248a"
      }
     }
    },
    {
     "filename":"I4CZ754310436.jpg",
     "pagination":{
      "pgfolios":{
       "value":"248b"
      }
     }
    },
    {
     "filename":"I4CZ754310437.jpg",
     "pagination":{
      "pgfolios":{
       "value":"249a"
      }
     }
    },
    {
     "filename":"I4CZ754310438.jpg",
     "pagination":{
      "pgfolios":{
       "value":"249b"
      }
     }
    },
    {
     "filename":"I4CZ754310439.jpg",
     "pagination":{
      "pgfolios":{
       "value":"250a"
      }
     }
    },
    {
     "filename":"I4CZ754310440.jpg",
     "pagination":{
      "pgfolios":{
       "value":"250b"
      }
     }
    },
    {
     "pagination":{
      "pgfolios":{
       "value":"251a"
      }
     },
     "tags":[
      "T0020"
     ]
    },
    {
     "pagination":{
      "pgfolios":{
       "value":"251b"
      }
     },
     "tags":[
      "T0020"
     ]
    },
    {
     "filename":"I4CZ754310441.jpg",
     "pagination":{
      "pgfolios":{
       "value":"252a"
      }
     }
    },
    {
     "filename":"I4CZ754310442.jpg",
     "pagination":{
      "pgfolios":{
       "value":"252b"
      }
     }
    },
    {
     "filename":"I4CZ754310443.jpg",
     "pagination":{
      "pgfolios":{
       "value":"253a"
      }
     }
    },
    {
     "filename":"I4CZ754310444.jpg",
     "pagination":{
      "pgfolios":{
       "value":"253b"
      }
     }
    },
    {
     "pagination":{
      "pgfolios":{
       "value":"254a"
      }
     },
     "tags":[
      "T0020"
     ]
    },
    {
     "pagination":{
      "pgfolios":{
       "value":"254b"
      }
     },
     "tags":[
      "T0020"
     ]
    },
    {
     "pagination":{
      "pgfolios":{
       "value":"255a"
      }
     },
     "tags":[
      "T0020"
     ]
    },
    {
     "pagination":{
      "pgfolios":{
       "value":"255b"
      }
     },
     "tags":[
      "T0020"
     ]
    },
    {
     "filename":"I4CZ754310445.jpg",
     "pagination":{
      "pgfolios":{
       "value":"256a"
      }
     }
    },
    {
     "filename":"I4CZ754310446.jpg",
     "pagination":{
      "pgfolios":{
       "value":"256b"
      }
     }
    },
    {
     "filename":"I4CZ754310447.jpg",
     "pagination":{
      "pgfolios":{
       "value":"257a"
      }
     }
    },
    {
     "filename":"I4CZ754310448.jpg",
     "pagination":{
      "pgfolios":{
       "value":"257b"
      }
     }
    },
    {
     "filename":"I4CZ754310449.jpg",
     "pagination":{
      "pgfolios":{
       "value":"258a"
      }
     }
    },
    {
     "filename":"I4CZ754310450.jpg",
     "pagination":{
      "pgfolios":{
       "value":"258b"
      }
     }
    },
    {
     "pagination":{
      "pgfolios":{
       "value":"259a"
      }
     },
     "tags":[
      "T0020"
     ]
    },
    {
     "pagination":{
      "pgfolios":{
       "value":"259b"
      }
     },
     "tags":[
      "T0020"
     ]
    },
    {
     "filename":"I4CZ754310451.jpg",
     "pagination":{
      "pgfolios":{
       "value":"260a"
      }
     }
    },
    {
     "filename":"I4CZ754310452.jpg",
     "pagination":{
      "pgfolios":{
       "value":"260b"
      }
     }
    },
    {
     "filename":"I4CZ754310453.jpg",
     "pagination":{
      "pgfolios":{
       "value":"261a"
      }
     }
    },
    {
     "filename":"I4CZ754310454.jpg",
     "pagination":{
      "pgfolios":{
       "value":"261b"
      }
     }
    }
   ]
  }
 },
 "viewing-direction":"top-to-bottom"
}