{
 "appData":{
  "bvmt":{
   "default-vol-string-lang":"bo",
   "metadata-for-bvmt-ver":"0.1.0"
  }
 },
 "attribution":[
  {
   "@language":"en",
   "@value":"Data provided by rKTs under the CC0 license"
  }
 ],
 "changes":[
  {
   "message":{
    "@language":"en",
    "@value":"migration from rKTs data"
   },
   "time":"2020-10-03T11:35:30Z",
   "user":"bdu:U1653882847"
  }
 ],
 "default-view":"view1",
 "imggroup":"bdr:I1CZ4765",
 "pagination":[
  {
   "id":"pgfolios",
   "type":"folios"
  }
 ],
 "sections":[
  {
   "id":"1",
   "name":{
    "@language":"bo-x-ewts",
    "@value":"1"
   }
  },
  {
   "id":"2",
   "name":{
    "@language":"bo-x-ewts",
    "@value":"2"
   }
  }
 ],
 "spec-version":"0.1.0",
 "status":"released",
 "view":{
  "view1":{
   "imagelist":[
    {
     "filename":"I1CZ47650001.tif",
     "hidden":true,
     "tags":[
      "T0005"
     ]
    },
    {
     "filename":"I1CZ47650002.tif",
     "hidden":true,
     "tags":[
      "T0005"
     ]
    },
    {
     "filename":"I1CZ47650003.tif",
     "pagination":{
      "pgfolios":{
       "section":"1",
       "value":"1a"
      }
     }
    },
    {
     "filename":"I1CZ47650004.tif",
     "pagination":{
      "pgfolios":{
       "section":"1",
       "value":"1b"
      }
     }
    },
    {
     "filename":"I1CZ47650005.tif",
     "pagination":{
      "pgfolios":{
       "section":"1",
       "value":"2a"
      }
     }
    },
    {
     "filename":"I1CZ47650006.tif",
     "pagination":{
      "pgfolios":{
       "section":"1",
       "value":"2b"
      }
     }
    },
    {
     "filename":"I1CZ47650007.tif",
     "pagination":{
      "pgfolios":{
       "section":"1",
       "value":"3a"
      }
     }
    },
    {
     "filename":"I1CZ47650008.tif",
     "pagination":{
      "pgfolios":{
       "section":"1",
       "value":"3b"
      }
     }
    },
    {
     "filename":"I1CZ47650009.tif",
     "pagination":{
      "pgfolios":{
       "section":"1",
       "value":"4a"
      }
     }
    },
    {
     "filename":"I1CZ47650010.tif",
     "pagination":{
      "pgfolios":{
       "section":"1",
       "value":"4b"
      }
     }
    },
    {
     "filename":"I1CZ47650011.tif",
     "pagination":{
      "pgfolios":{
       "section":"1",
       "value":"5a"
      }
     }
    },
    {
     "filename":"I1CZ47650012.tif",
     "pagination":{
      "pgfolios":{
       "section":"1",
       "value":"5b"
      }
     }
    },
    {
     "filename":"I1CZ47650013.tif",
     "pagination":{
      "pgfolios":{
       "section":"1",
       "value":"6a"
      }
     }
    },
    {
     "filename":"I1CZ47650014.tif",
     "pagination":{
      "pgfolios":{
       "section":"1",
       "value":"6b"
      }
     }
    },
    {
     "filename":"I1CZ47650015.tif",
     "pagination":{
      "pgfolios":{
       "section":"1",
       "value":"7a"
      }
     }
    },
    {
     "filename":"I1CZ47650016.tif",
     "pagination":{
      "pgfolios":{
       "section":"1",
       "value":"7b"
      }
     }
    },
    {
     "filename":"I1CZ47650017.tif",
     "pagination":{
      "pgfolios":{
       "section":"1",
       "value":"8a"
      }
     }
    },
    {
     "filename":"I1CZ47650018.tif",
     "pagination":{
      "pgfolios":{
       "section":"1",
       "value":"8b"
      }
     }
    },
    {
     "filename":"I1CZ47650019.tif",
     "pagination":{
      "pgfolios":{
       "section":"1",
       "value":"9a"
      }
     }
    },
    {
     "filename":"I1CZ47650020.tif",
     "pagination":{
      "pgfolios":{
       "section":"1",
       "value":"9b"
      }
     }
    },
    {
     "filename":"I1CZ47650021.tif",
     "pagination":{
      "pgfolios":{
       "section":"1",
       "value":"10a"
      }
     }
    },
    {
     "filename":"I1CZ47650022.tif",
     "pagination":{
      "pgfolios":{
       "section":"1",
       "value":"10b"
      }
     }
    },
    {
     "filename":"I1CZ47650023.tif",
     "pagination":{
      "pgfolios":{
       "section":"1",
       "value":"11a"
      }
     }
    },
    {
     "filename":"I1CZ47650024.tif",
     "pagination":{
      "pgfolios":{
       "section":"1",
       "value":"11b"
      }
     }
    },
    {
     "filename":"I1CZ47650025.tif",
     "pagination":{
      "pgfolios":{
       "section":"1",
       "value":"12a"
      }
     }
    },
    {
     "filename":"I1CZ47650026.tif",
     "pagination":{
      "pgfolios":{
       "section":"1",
       "value":"12b"
      }
     }
    },
    {
     "filename":"I1CZ47650027.tif",
     "pagination":{
      "pgfolios":{
       "section":"1",
       "value":"13a"
      }
     }
    },
    {
     "filename":"I1CZ47650028.tif",
     "pagination":{
      "pgfolios":{
       "section":"1",
       "value":"13b"
      }
     }
    },
    {
     "filename":"I1CZ47650029.tif",
     "pagination":{
      "pgfolios":{
       "section":"1",
       "value":"14a"
      }
     }
    },
    {
     "filename":"I1CZ47650030.tif",
     "pagination":{
      "pgfolios":{
       "section":"1",
       "value":"14b"
      }
     }
    },
    {
     "filename":"I1CZ47650031.tif",
     "pagination":{
      "pgfolios":{
       "section":"1",
       "value":"15a"
      }
     }
    },
    {
     "filename":"I1CZ47650032.tif",
     "pagination":{
      "pgfolios":{
       "section":"1",
       "value":"15b"
      }
     }
    },
    {
     "filename":"I1CZ47650033.tif",
     "pagination":{
      "pgfolios":{
       "section":"1",
       "value":"16a"
      }
     }
    },
    {
     "filename":"I1CZ47650034.tif",
     "pagination":{
      "pgfolios":{
       "section":"1",
       "value":"16b"
      }
     }
    },
    {
     "filename":"I1CZ47650035.tif",
     "pagination":{
      "pgfolios":{
       "section":"1",
       "value":"17a"
      }
     }
    },
    {
     "filename":"I1CZ47650036.tif",
     "pagination":{
      "pgfolios":{
       "section":"1",
       "value":"17b"
      }
     }
    },
    {
     "filename":"I1CZ47650037.tif",
     "pagination":{
      "pgfolios":{
       "section":"1",
       "value":"18a"
      }
     }
    },
    {
     "filename":"I1CZ47650038.tif",
     "pagination":{
      "pgfolios":{
       "section":"1",
       "value":"18b"
      }
     }
    },
    {
     "filename":"I1CZ47650039.tif",
     "pagination":{
      "pgfolios":{
       "section":"1",
       "value":"19a"
      }
     }
    },
    {
     "filename":"I1CZ47650040.tif",
     "pagination":{
      "pgfolios":{
       "section":"1",
       "value":"19b"
      }
     }
    },
    {
     "filename":"I1CZ47650041.tif",
     "pagination":{
      "pgfolios":{
       "section":"1",
       "value":"20a"
      }
     }
    },
    {
     "filename":"I1CZ47650042.tif",
     "pagination":{
      "pgfolios":{
       "section":"1",
       "value":"20b"
      }
     }
    },
    {
     "filename":"I1CZ47650043.tif",
     "pagination":{
      "pgfolios":{
       "section":"1",
       "value":"21a"
      }
     }
    },
    {
     "filename":"I1CZ47650044.tif",
     "pagination":{
      "pgfolios":{
       "section":"1",
       "value":"21b"
      }
     }
    },
    {
     "filename":"I1CZ47650045.tif",
     "pagination":{
      "pgfolios":{
       "section":"1",
       "value":"22a"
      }
     }
    },
    {
     "filename":"I1CZ47650046.tif",
     "pagination":{
      "pgfolios":{
       "section":"1",
       "value":"22b"
      }
     }
    },
    {
     "filename":"I1CZ47650047.tif",
     "pagination":{
      "pgfolios":{
       "section":"1",
       "value":"23a"
      }
     }
    },
    {
     "filename":"I1CZ47650048.tif",
     "pagination":{
      "pgfolios":{
       "section":"1",
       "value":"23b"
      }
     }
    },
    {
     "filename":"I1CZ47650049.tif",
     "pagination":{
      "pgfolios":{
       "section":"1",
       "value":"24a"
      }
     }
    },
    {
     "filename":"I1CZ47650050.tif",
     "pagination":{
      "pgfolios":{
       "section":"1",
       "value":"24b"
      }
     }
    },
    {
     "filename":"I1CZ47650051.tif",
     "pagination":{
      "pgfolios":{
       "section":"1",
       "value":"25a"
      }
     }
    },
    {
     "filename":"I1CZ47650052.tif",
     "pagination":{
      "pgfolios":{
       "section":"1",
       "value":"25b"
      }
     }
    },
    {
     "filename":"I1CZ47650053.tif",
     "pagination":{
      "pgfolios":{
       "section":"1",
       "value":"26a"
      }
     }
    },
    {
     "filename":"I1CZ47650054.tif",
     "pagination":{
      "pgfolios":{
       "section":"1",
       "value":"26b"
      }
     }
    },
    {
     "filename":"I1CZ47650055.tif",
     "pagination":{
      "pgfolios":{
       "section":"1",
       "value":"27a"
      }
     }
    },
    {
     "filename":"I1CZ47650056.tif",
     "pagination":{
      "pgfolios":{
       "section":"1",
       "value":"27b"
      }
     }
    },
    {
     "filename":"I1CZ47650057.tif",
     "pagination":{
      "pgfolios":{
       "section":"1",
       "value":"28a"
      }
     }
    },
    {
     "filename":"I1CZ47650058.tif",
     "pagination":{
      "pgfolios":{
       "section":"1",
       "value":"28b"
      }
     }
    },
    {
     "filename":"I1CZ47650059.tif",
     "pagination":{
      "pgfolios":{
       "section":"1",
       "value":"29a"
      }
     }
    },
    {
     "filename":"I1CZ47650060.tif",
     "pagination":{
      "pgfolios":{
       "section":"1",
       "value":"29b"
      }
     }
    },
    {
     "filename":"I1CZ47650061.tif",
     "pagination":{
      "pgfolios":{
       "section":"1",
       "value":"30a"
      }
     }
    },
    {
     "filename":"I1CZ47650062.tif",
     "pagination":{
      "pgfolios":{
       "section":"1",
       "value":"30b"
      }
     }
    },
    {
     "filename":"I1CZ47650063.tif",
     "pagination":{
      "pgfolios":{
       "section":"1",
       "value":"31a"
      }
     }
    },
    {
     "filename":"I1CZ47650064.tif",
     "pagination":{
      "pgfolios":{
       "section":"1",
       "value":"31b"
      }
     }
    },
    {
     "filename":"I1CZ47650065.tif",
     "pagination":{
      "pgfolios":{
       "section":"1",
       "value":"32a"
      }
     }
    },
    {
     "filename":"I1CZ47650066.tif",
     "pagination":{
      "pgfolios":{
       "section":"1",
       "value":"32b"
      }
     }
    },
    {
     "filename":"I1CZ47650067.tif",
     "pagination":{
      "pgfolios":{
       "section":"1",
       "value":"33a"
      }
     }
    },
    {
     "filename":"I1CZ47650068.tif",
     "pagination":{
      "pgfolios":{
       "section":"1",
       "value":"33b"
      }
     }
    },
    {
     "filename":"I1CZ47650069.tif",
     "pagination":{
      "pgfolios":{
       "section":"1",
       "value":"34a"
      }
     }
    },
    {
     "filename":"I1CZ47650070.tif",
     "pagination":{
      "pgfolios":{
       "section":"1",
       "value":"34b"
      }
     }
    },
    {
     "filename":"I1CZ47650071.tif",
     "pagination":{
      "pgfolios":{
       "section":"1",
       "value":"35a"
      }
     }
    },
    {
     "filename":"I1CZ47650072.tif",
     "pagination":{
      "pgfolios":{
       "section":"1",
       "value":"35b"
      }
     }
    },
    {
     "filename":"I1CZ47650073.tif",
     "pagination":{
      "pgfolios":{
       "section":"1",
       "value":"36a"
      }
     }
    },
    {
     "filename":"I1CZ47650074.tif",
     "pagination":{
      "pgfolios":{
       "section":"1",
       "value":"36b"
      }
     }
    },
    {
     "filename":"I1CZ47650075.tif",
     "pagination":{
      "pgfolios":{
       "section":"1",
       "value":"37a"
      }
     }
    },
    {
     "filename":"I1CZ47650076.tif",
     "pagination":{
      "pgfolios":{
       "section":"1",
       "value":"37b"
      }
     }
    },
    {
     "filename":"I1CZ47650077.tif",
     "pagination":{
      "pgfolios":{
       "section":"1",
       "value":"38a"
      }
     }
    },
    {
     "filename":"I1CZ47650078.tif",
     "pagination":{
      "pgfolios":{
       "section":"1",
       "value":"38b"
      }
     }
    },
    {
     "filename":"I1CZ47650079.tif",
     "pagination":{
      "pgfolios":{
       "section":"1",
       "value":"39a"
      }
     }
    },
    {
     "filename":"I1CZ47650080.tif",
     "pagination":{
      "pgfolios":{
       "section":"1",
       "value":"39b"
      }
     }
    },
    {
     "filename":"I1CZ47650081.tif",
     "pagination":{
      "pgfolios":{
       "section":"1",
       "value":"40a"
      }
     }
    },
    {
     "filename":"I1CZ47650082.tif",
     "pagination":{
      "pgfolios":{
       "section":"1",
       "value":"40b"
      }
     }
    },
    {
     "filename":"I1CZ47650083.tif",
     "pagination":{
      "pgfolios":{
       "section":"1",
       "value":"41a"
      }
     }
    },
    {
     "filename":"I1CZ47650084.tif",
     "pagination":{
      "pgfolios":{
       "section":"1",
       "value":"41b"
      }
     }
    },
    {
     "filename":"I1CZ47650085.tif",
     "pagination":{
      "pgfolios":{
       "section":"1",
       "value":"42a"
      }
     }
    },
    {
     "filename":"I1CZ47650086.tif",
     "pagination":{
      "pgfolios":{
       "section":"1",
       "value":"42b"
      }
     }
    },
    {
     "filename":"I1CZ47650087.tif",
     "pagination":{
      "pgfolios":{
       "section":"1",
       "value":"43a"
      }
     }
    },
    {
     "filename":"I1CZ47650088.tif",
     "pagination":{
      "pgfolios":{
       "section":"1",
       "value":"43b"
      }
     }
    },
    {
     "filename":"I1CZ47650089.tif",
     "pagination":{
      "pgfolios":{
       "section":"1",
       "value":"44a"
      }
     }
    },
    {
     "filename":"I1CZ47650090.tif",
     "pagination":{
      "pgfolios":{
       "section":"1",
       "value":"44b"
      }
     }
    },
    {
     "filename":"I1CZ47650091.tif",
     "pagination":{
      "pgfolios":{
       "section":"1",
       "value":"45a"
      }
     }
    },
    {
     "filename":"I1CZ47650092.tif",
     "pagination":{
      "pgfolios":{
       "section":"1",
       "value":"45b"
      }
     }
    },
    {
     "filename":"I1CZ47650093.tif",
     "pagination":{
      "pgfolios":{
       "section":"1",
       "value":"46a"
      }
     }
    },
    {
     "filename":"I1CZ47650094.tif",
     "pagination":{
      "pgfolios":{
       "section":"1",
       "value":"46b"
      }
     }
    },
    {
     "filename":"I1CZ47650095.tif",
     "pagination":{
      "pgfolios":{
       "section":"1",
       "value":"47a"
      }
     }
    },
    {
     "filename":"I1CZ47650096.tif",
     "pagination":{
      "pgfolios":{
       "section":"1",
       "value":"47b"
      }
     }
    },
    {
     "filename":"I1CZ47650097.tif",
     "pagination":{
      "pgfolios":{
       "section":"1",
       "value":"48a"
      }
     }
    },
    {
     "filename":"I1CZ47650098.tif",
     "pagination":{
      "pgfolios":{
       "section":"1",
       "value":"48b"
      }
     }
    },
    {
     "filename":"I1CZ47650099.tif",
     "pagination":{
      "pgfolios":{
       "section":"1",
       "value":"49a"
      }
     }
    },
    {
     "filename":"I1CZ47650100.tif",
     "pagination":{
      "pgfolios":{
       "section":"1",
       "value":"49b"
      }
     }
    },
    {
     "filename":"I1CZ47650101.tif",
     "pagination":{
      "pgfolios":{
       "section":"1",
       "value":"50a"
      }
     }
    },
    {
     "filename":"I1CZ47650102.tif",
     "pagination":{
      "pgfolios":{
       "section":"1",
       "value":"50b"
      }
     }
    },
    {
     "filename":"I1CZ47650103.tif",
     "pagination":{
      "pgfolios":{
       "section":"1",
       "value":"51a"
      }
     }
    },
    {
     "filename":"I1CZ47650104.tif",
     "pagination":{
      "pgfolios":{
       "section":"1",
       "value":"51b"
      }
     }
    },
    {
     "filename":"I1CZ47650105.tif",
     "pagination":{
      "pgfolios":{
       "section":"1",
       "value":"52a"
      }
     }
    },
    {
     "filename":"I1CZ47650106.tif",
     "pagination":{
      "pgfolios":{
       "section":"1",
       "value":"52b"
      }
     }
    },
    {
     "filename":"I1CZ47650107.tif",
     "pagination":{
      "pgfolios":{
       "section":"1",
       "value":"53a"
      }
     }
    },
    {
     "filename":"I1CZ47650108.tif",
     "pagination":{
      "pgfolios":{
       "section":"1",
       "value":"53b"
      }
     }
    },
    {
     "filename":"I1CZ47650109.tif",
     "pagination":{
      "pgfolios":{
       "section":"1",
       "value":"54a"
      }
     }
    },
    {
     "filename":"I1CZ47650110.tif",
     "pagination":{
      "pgfolios":{
       "section":"1",
       "value":"54b"
      }
     }
    },
    {
     "filename":"I1CZ47650111.tif",
     "pagination":{
      "pgfolios":{
       "section":"1",
       "value":"55a"
      }
     }
    },
    {
     "filename":"I1CZ47650112.tif",
     "pagination":{
      "pgfolios":{
       "section":"1",
       "value":"55b"
      }
     }
    },
    {
     "filename":"I1CZ47650113.tif",
     "pagination":{
      "pgfolios":{
       "section":"2",
       "value":"1a"
      }
     }
    },
    {
     "filename":"I1CZ47650114.tif",
     "pagination":{
      "pgfolios":{
       "section":"2",
       "value":"1b"
      }
     }
    },
    {
     "filename":"I1CZ47650115.tif",
     "pagination":{
      "pgfolios":{
       "section":"2",
       "value":"2a"
      }
     }
    },
    {
     "filename":"I1CZ47650116.tif",
     "pagination":{
      "pgfolios":{
       "section":"2",
       "value":"2b"
      }
     }
    },
    {
     "filename":"I1CZ47650117.tif",
     "pagination":{
      "pgfolios":{
       "section":"2",
       "value":"3a"
      }
     }
    },
    {
     "filename":"I1CZ47650118.tif",
     "pagination":{
      "pgfolios":{
       "section":"2",
       "value":"3b"
      }
     }
    },
    {
     "filename":"I1CZ47650119.tif",
     "pagination":{
      "pgfolios":{
       "section":"2",
       "value":"4a"
      }
     }
    },
    {
     "filename":"I1CZ47650120.tif",
     "pagination":{
      "pgfolios":{
       "section":"2",
       "value":"4b"
      }
     }
    },
    {
     "filename":"I1CZ47650121.tif",
     "pagination":{
      "pgfolios":{
       "section":"2",
       "value":"5a"
      }
     }
    },
    {
     "filename":"I1CZ47650122.tif",
     "pagination":{
      "pgfolios":{
       "section":"2",
       "value":"5b"
      }
     }
    },
    {
     "filename":"I1CZ47650123.tif",
     "pagination":{
      "pgfolios":{
       "section":"2",
       "value":"6a"
      }
     }
    },
    {
     "filename":"I1CZ47650124.tif",
     "pagination":{
      "pgfolios":{
       "section":"2",
       "value":"6b"
      }
     }
    },
    {
     "filename":"I1CZ47650125.tif",
     "pagination":{
      "pgfolios":{
       "section":"2",
       "value":"7a"
      }
     }
    },
    {
     "filename":"I1CZ47650126.tif",
     "pagination":{
      "pgfolios":{
       "section":"2",
       "value":"7b"
      }
     }
    },
    {
     "filename":"I1CZ47650127.tif",
     "pagination":{
      "pgfolios":{
       "section":"2",
       "value":"8a"
      }
     }
    },
    {
     "filename":"I1CZ47650128.tif",
     "pagination":{
      "pgfolios":{
       "section":"2",
       "value":"8b"
      }
     }
    },
    {
     "filename":"I1CZ47650129.tif",
     "pagination":{
      "pgfolios":{
       "section":"2",
       "value":"9a"
      }
     }
    },
    {
     "filename":"I1CZ47650130.tif",
     "pagination":{
      "pgfolios":{
       "section":"2",
       "value":"9b"
      }
     }
    },
    {
     "filename":"I1CZ47650131.tif",
     "pagination":{
      "pgfolios":{
       "section":"2",
       "value":"10a"
      }
     }
    },
    {
     "filename":"I1CZ47650132.tif",
     "pagination":{
      "pgfolios":{
       "section":"2",
       "value":"10b"
      }
     }
    },
    {
     "filename":"I1CZ47650133.tif",
     "pagination":{
      "pgfolios":{
       "section":"2",
       "value":"11a"
      }
     }
    },
    {
     "filename":"I1CZ47650134.tif",
     "pagination":{
      "pgfolios":{
       "section":"2",
       "value":"11b"
      }
     }
    },
    {
     "filename":"I1CZ47650135.tif",
     "pagination":{
      "pgfolios":{
       "section":"2",
       "value":"12a"
      }
     }
    },
    {
     "filename":"I1CZ47650136.tif",
     "pagination":{
      "pgfolios":{
       "section":"2",
       "value":"12b"
      }
     }
    },
    {
     "filename":"I1CZ47650137.tif",
     "pagination":{
      "pgfolios":{
       "section":"2",
       "value":"13a"
      }
     }
    },
    {
     "filename":"I1CZ47650138.tif",
     "pagination":{
      "pgfolios":{
       "section":"2",
       "value":"13b"
      }
     }
    },
    {
     "filename":"I1CZ47650139.tif",
     "pagination":{
      "pgfolios":{
       "section":"2",
       "value":"14a"
      }
     }
    },
    {
     "filename":"I1CZ47650140.tif",
     "pagination":{
      "pgfolios":{
       "section":"2",
       "value":"14b"
      }
     }
    },
    {
     "filename":"I1CZ47650141.tif",
     "pagination":{
      "pgfolios":{
       "section":"2",
       "value":"15a"
      }
     }
    },
    {
     "filename":"I1CZ47650142.tif",
     "pagination":{
      "pgfolios":{
       "section":"2",
       "value":"15b"
      }
     }
    },
    {
     "filename":"I1CZ47650143.tif",
     "pagination":{
      "pgfolios":{
       "section":"2",
       "value":"16a"
      }
     }
    },
    {
     "filename":"I1CZ47650144.tif",
     "pagination":{
      "pgfolios":{
       "section":"2",
       "value":"16b"
      }
     }
    },
    {
     "filename":"I1CZ47650145.tif",
     "pagination":{
      "pgfolios":{
       "section":"2",
       "value":"17a"
      }
     }
    },
    {
     "filename":"I1CZ47650146.tif",
     "pagination":{
      "pgfolios":{
       "section":"2",
       "value":"17b"
      }
     }
    },
    {
     "filename":"I1CZ47650147.tif",
     "pagination":{
      "pgfolios":{
       "section":"2",
       "value":"18a"
      }
     }
    },
    {
     "filename":"I1CZ47650148.tif",
     "pagination":{
      "pgfolios":{
       "section":"2",
       "value":"18b"
      }
     }
    },
    {
     "filename":"I1CZ47650149.tif",
     "pagination":{
      "pgfolios":{
       "section":"2",
       "value":"19a"
      }
     }
    },
    {
     "filename":"I1CZ47650150.tif",
     "pagination":{
      "pgfolios":{
       "section":"2",
       "value":"19b"
      }
     }
    },
    {
     "filename":"I1CZ47650151.tif",
     "pagination":{
      "pgfolios":{
       "section":"2",
       "value":"20a"
      }
     }
    },
    {
     "filename":"I1CZ47650152.tif",
     "pagination":{
      "pgfolios":{
       "section":"2",
       "value":"20b"
      }
     }
    },
    {
     "filename":"I1CZ47650153.tif",
     "pagination":{
      "pgfolios":{
       "section":"2",
       "value":"21a"
      }
     }
    },
    {
     "filename":"I1CZ47650154.tif",
     "pagination":{
      "pgfolios":{
       "section":"2",
       "value":"21b"
      }
     }
    },
    {
     "filename":"I1CZ47650155.tif",
     "pagination":{
      "pgfolios":{
       "section":"2",
       "value":"22a"
      }
     }
    },
    {
     "filename":"I1CZ47650156.tif",
     "pagination":{
      "pgfolios":{
       "section":"2",
       "value":"22b"
      }
     }
    },
    {
     "filename":"I1CZ47650157.tif",
     "pagination":{
      "pgfolios":{
       "section":"2",
       "value":"23a"
      }
     }
    },
    {
     "filename":"I1CZ47650158.tif",
     "pagination":{
      "pgfolios":{
       "section":"2",
       "value":"23b"
      }
     }
    },
    {
     "filename":"I1CZ47650159.tif",
     "pagination":{
      "pgfolios":{
       "section":"2",
       "value":"24a"
      }
     }
    },
    {
     "filename":"I1CZ47650160.tif",
     "pagination":{
      "pgfolios":{
       "section":"2",
       "value":"24b"
      }
     }
    },
    {
     "filename":"I1CZ47650161.tif",
     "pagination":{
      "pgfolios":{
       "section":"2",
       "value":"25a"
      }
     }
    },
    {
     "filename":"I1CZ47650162.tif",
     "pagination":{
      "pgfolios":{
       "section":"2",
       "value":"25b"
      }
     }
    },
    {
     "filename":"I1CZ47650163.tif",
     "pagination":{
      "pgfolios":{
       "section":"2",
       "value":"26a"
      }
     }
    },
    {
     "filename":"I1CZ47650164.tif",
     "pagination":{
      "pgfolios":{
       "section":"2",
       "value":"26b"
      }
     }
    },
    {
     "filename":"I1CZ47650165.tif",
     "pagination":{
      "pgfolios":{
       "section":"2",
       "value":"27a"
      }
     }
    },
    {
     "filename":"I1CZ47650166.tif",
     "pagination":{
      "pgfolios":{
       "section":"2",
       "value":"27b"
      }
     }
    },
    {
     "filename":"I1CZ47650167.tif",
     "pagination":{
      "pgfolios":{
       "section":"2",
       "value":"28a"
      }
     }
    },
    {
     "filename":"I1CZ47650168.tif",
     "pagination":{
      "pgfolios":{
       "section":"2",
       "value":"28b"
      }
     }
    },
    {
     "filename":"I1CZ47650169.tif",
     "pagination":{
      "pgfolios":{
       "section":"2",
       "value":"29a"
      }
     }
    },
    {
     "filename":"I1CZ47650170.tif",
     "pagination":{
      "pgfolios":{
       "section":"2",
       "value":"29b"
      }
     }
    },
    {
     "filename":"I1CZ47650171.tif",
     "pagination":{
      "pgfolios":{
       "section":"2",
       "value":"30a"
      }
     }
    },
    {
     "filename":"I1CZ47650172.tif",
     "pagination":{
      "pgfolios":{
       "section":"2",
       "value":"30b"
      }
     }
    },
    {
     "filename":"I1CZ47650173.tif",
     "pagination":{
      "pgfolios":{
       "section":"2",
       "value":"31a"
      }
     }
    },
    {
     "filename":"I1CZ47650174.tif",
     "pagination":{
      "pgfolios":{
       "section":"2",
       "value":"31b"
      }
     }
    },
    {
     "filename":"I1CZ47650175.tif",
     "pagination":{
      "pgfolios":{
       "section":"2",
       "value":"32a"
      }
     }
    },
    {
     "filename":"I1CZ47650176.tif",
     "pagination":{
      "pgfolios":{
       "section":"2",
       "value":"32b"
      }
     }
    },
    {
     "filename":"I1CZ47650177.tif",
     "pagination":{
      "pgfolios":{
       "section":"2",
       "value":"33a"
      }
     }
    },
    {
     "filename":"I1CZ47650178.tif",
     "pagination":{
      "pgfolios":{
       "section":"2",
       "value":"33b"
      }
     }
    },
    {
     "filename":"I1CZ47650179.tif",
     "pagination":{
      "pgfolios":{
       "section":"2",
       "value":"34a"
      }
     }
    },
    {
     "filename":"I1CZ47650180.tif",
     "pagination":{
      "pgfolios":{
       "section":"2",
       "value":"34b"
      }
     }
    },
    {
     "filename":"I1CZ47650181.tif",
     "pagination":{
      "pgfolios":{
       "section":"2",
       "value":"35a"
      }
     }
    },
    {
     "filename":"I1CZ47650182.tif",
     "pagination":{
      "pgfolios":{
       "section":"2",
       "value":"35b"
      }
     }
    },
    {
     "filename":"I1CZ47650183.tif",
     "pagination":{
      "pgfolios":{
       "section":"2",
       "value":"36a"
      }
     }
    },
    {
     "filename":"I1CZ47650184.tif",
     "pagination":{
      "pgfolios":{
       "section":"2",
       "value":"36b"
      }
     }
    },
    {
     "filename":"I1CZ47650185.tif",
     "pagination":{
      "pgfolios":{
       "section":"2",
       "value":"37a"
      }
     }
    },
    {
     "filename":"I1CZ47650186.tif",
     "pagination":{
      "pgfolios":{
       "section":"2",
       "value":"37b"
      }
     }
    },
    {
     "filename":"I1CZ47650187.tif",
     "pagination":{
      "pgfolios":{
       "section":"2",
       "value":"38a"
      }
     }
    },
    {
     "filename":"I1CZ47650188.tif",
     "pagination":{
      "pgfolios":{
       "section":"2",
       "value":"38b"
      }
     }
    },
    {
     "filename":"I1CZ47650189.tif",
     "pagination":{
      "pgfolios":{
       "section":"2",
       "value":"39a"
      }
     }
    },
    {
     "filename":"I1CZ47650190.tif",
     "pagination":{
      "pgfolios":{
       "section":"2",
       "value":"39b"
      }
     }
    },
    {
     "filename":"I1CZ47650191.tif",
     "pagination":{
      "pgfolios":{
       "section":"2",
       "value":"40a"
      }
     }
    },
    {
     "filename":"I1CZ47650192.tif",
     "pagination":{
      "pgfolios":{
       "section":"2",
       "value":"40b"
      }
     }
    }
   ]
  }
 },
 "viewing-direction":"top-to-bottom"
}