{
 "appData":{
  "bvmt":{
   "default-vol-string-lang":"bo",
   "metadata-for-bvmt-ver":"0.1.0"
  }
 },
 "attribution":[
  {
   "@language":"en",
   "@value":"Data provided by rKTs under the CC0 license"
  }
 ],
 "changes":[
  {
   "message":{
    "@language":"en",
    "@value":"migration from rKTs data"
   },
   "time":"2020-10-03T11:35:30Z",
   "user":"bdu:U1653882847"
  }
 ],
 "default-view":"view1",
 "imggroup":"bdr:I4CZ75078",
 "pagination":[
  {
   "id":"pgfolios",
   "type":"folios"
  }
 ],
 "sections":[
  {
   "id":"1",
   "name":{
    "@language":"bo-x-ewts",
    "@value":"1"
   }
  },
  {
   "id":"2",
   "name":{
    "@language":"bo-x-ewts",
    "@value":"2"
   }
  },
  {
   "id":"3",
   "name":{
    "@language":"bo-x-ewts",
    "@value":"3"
   }
  },
  {
   "id":"4",
   "name":{
    "@language":"bo-x-ewts",
    "@value":"4"
   }
  },
  {
   "id":"5",
   "name":{
    "@language":"bo-x-ewts",
    "@value":"5"
   }
  },
  {
   "id":"6",
   "name":{
    "@language":"bo-x-ewts",
    "@value":"6"
   }
  }
 ],
 "spec-version":"0.1.0",
 "status":"released",
 "view":{
  "view1":{
   "imagelist":[
    {
     "filename":"I4CZ750780001.tif",
     "hidden":true,
     "tags":[
      "T0005"
     ]
    },
    {
     "filename":"I4CZ750780002.tif",
     "hidden":true,
     "tags":[
      "T0005"
     ]
    },
    {
     "filename":"I4CZ750780003.jpg",
     "hidden":true,
     "tags":[
      "T0005"
     ]
    },
    {
     "filename":"I4CZ750780004.jpg"
    },
    {
     "filename":"I4CZ750780005.jpg",
     "pagination":{
      "pgfolios":{
       "section":"1",
       "value":"1a"
      }
     }
    },
    {
     "filename":"I4CZ750780006.jpg",
     "pagination":{
      "pgfolios":{
       "section":"1",
       "value":"1b"
      }
     }
    },
    {
     "filename":"I4CZ750780007.jpg",
     "pagination":{
      "pgfolios":{
       "section":"1",
       "value":"2a"
      }
     }
    },
    {
     "filename":"I4CZ750780008.jpg",
     "hidden":true
    },
    {
     "filename":"I4CZ750780009.jpg",
     "hidden":true
    },
    {
     "filename":"I4CZ750780010.jpg",
     "hidden":true
    },
    {
     "filename":"I4CZ750780011.jpg",
     "hidden":true
    },
    {
     "pagination":{
      "pgfolios":{
       "section":"1",
       "value":"2b"
      }
     },
     "tags":[
      "T0020"
     ]
    },
    {
     "pagination":{
      "pgfolios":{
       "section":"1",
       "value":"3a"
      }
     },
     "tags":[
      "T0020"
     ]
    },
    {
     "pagination":{
      "pgfolios":{
       "section":"1",
       "value":"3b"
      }
     },
     "tags":[
      "T0020"
     ]
    },
    {
     "pagination":{
      "pgfolios":{
       "section":"1",
       "value":"4a"
      }
     },
     "tags":[
      "T0020"
     ]
    },
    {
     "pagination":{
      "pgfolios":{
       "section":"1",
       "value":"4b"
      }
     },
     "tags":[
      "T0020"
     ]
    },
    {
     "pagination":{
      "pgfolios":{
       "section":"1",
       "value":"5a"
      }
     },
     "tags":[
      "T0020"
     ]
    },
    {
     "pagination":{
      "pgfolios":{
       "section":"1",
       "value":"5b"
      }
     },
     "tags":[
      "T0020"
     ]
    },
    {
     "pagination":{
      "pgfolios":{
       "section":"1",
       "value":"6a"
      }
     },
     "tags":[
      "T0020"
     ]
    },
    {
     "pagination":{
      "pgfolios":{
       "section":"1",
       "value":"6b"
      }
     },
     "tags":[
      "T0020"
     ]
    },
    {
     "pagination":{
      "pgfolios":{
       "section":"1",
       "value":"7a"
      }
     },
     "tags":[
      "T0020"
     ]
    },
    {
     "pagination":{
      "pgfolios":{
       "section":"1",
       "value":"7b"
      }
     },
     "tags":[
      "T0020"
     ]
    },
    {
     "pagination":{
      "pgfolios":{
       "section":"1",
       "value":"8a"
      }
     },
     "tags":[
      "T0020"
     ]
    },
    {
     "filename":"I4CZ750780012.jpg",
     "pagination":{
      "pgfolios":{
       "section":"1",
       "value":"8b"
      }
     }
    },
    {
     "filename":"I4CZ750780013.jpg",
     "pagination":{
      "pgfolios":{
       "section":"1",
       "value":"9a"
      }
     }
    },
    {
     "filename":"I4CZ750780014.jpg",
     "pagination":{
      "pgfolios":{
       "section":"1",
       "value":"9b"
      }
     }
    },
    {
     "filename":"I4CZ750780015.jpg",
     "pagination":{
      "pgfolios":{
       "section":"1",
       "value":"10a"
      }
     }
    },
    {
     "filename":"I4CZ750780016.jpg",
     "pagination":{
      "pgfolios":{
       "section":"1",
       "value":"10b"
      }
     }
    },
    {
     "filename":"I4CZ750780017.jpg",
     "pagination":{
      "pgfolios":{
       "section":"1",
       "value":"11a"
      }
     }
    },
    {
     "filename":"I4CZ750780018.jpg",
     "pagination":{
      "pgfolios":{
       "section":"1",
       "value":"11b"
      }
     }
    },
    {
     "filename":"I4CZ750780019.jpg",
     "pagination":{
      "pgfolios":{
       "section":"1",
       "value":"12a"
      }
     }
    },
    {
     "filename":"I4CZ750780020.jpg",
     "pagination":{
      "pgfolios":{
       "section":"1",
       "value":"12b"
      }
     }
    },
    {
     "filename":"I4CZ750780021.jpg",
     "pagination":{
      "pgfolios":{
       "section":"1",
       "value":"13a"
      }
     }
    },
    {
     "filename":"I4CZ750780022.jpg",
     "pagination":{
      "pgfolios":{
       "section":"1",
       "value":"13b"
      }
     }
    },
    {
     "filename":"I4CZ750780023.jpg",
     "pagination":{
      "pgfolios":{
       "section":"1",
       "value":"14a"
      }
     }
    },
    {
     "filename":"I4CZ750780024.jpg",
     "pagination":{
      "pgfolios":{
       "section":"1",
       "value":"14b"
      }
     }
    },
    {
     "filename":"I4CZ750780025.jpg",
     "pagination":{
      "pgfolios":{
       "section":"1",
       "value":"15a"
      }
     }
    },
    {
     "filename":"I4CZ750780026.jpg",
     "pagination":{
      "pgfolios":{
       "section":"1",
       "value":"15b"
      }
     }
    },
    {
     "filename":"I4CZ750780027.jpg",
     "pagination":{
      "pgfolios":{
       "section":"1",
       "value":"16a"
      }
     }
    },
    {
     "filename":"I4CZ750780028.jpg",
     "pagination":{
      "pgfolios":{
       "section":"1",
       "value":"16b"
      }
     }
    },
    {
     "filename":"I4CZ750780029.jpg",
     "pagination":{
      "pgfolios":{
       "section":"1",
       "value":"17a"
      }
     }
    },
    {
     "filename":"I4CZ750780030.jpg",
     "pagination":{
      "pgfolios":{
       "section":"1",
       "value":"17b"
      }
     }
    },
    {
     "filename":"I4CZ750780031.jpg",
     "pagination":{
      "pgfolios":{
       "section":"1",
       "value":"18a"
      }
     }
    },
    {
     "filename":"I4CZ750780032.jpg",
     "pagination":{
      "pgfolios":{
       "section":"1",
       "value":"18b"
      }
     }
    },
    {
     "filename":"I4CZ750780033.jpg",
     "pagination":{
      "pgfolios":{
       "section":"1",
       "value":"19a"
      }
     }
    },
    {
     "filename":"I4CZ750780034.jpg",
     "pagination":{
      "pgfolios":{
       "section":"1",
       "value":"19b"
      }
     }
    },
    {
     "filename":"I4CZ750780035.jpg",
     "pagination":{
      "pgfolios":{
       "section":"1",
       "value":"20a"
      }
     }
    },
    {
     "filename":"I4CZ750780036.jpg",
     "pagination":{
      "pgfolios":{
       "section":"1",
       "value":"20b"
      }
     }
    },
    {
     "filename":"I4CZ750780037.jpg",
     "pagination":{
      "pgfolios":{
       "section":"1",
       "value":"21a"
      }
     }
    },
    {
     "filename":"I4CZ750780038.jpg",
     "pagination":{
      "pgfolios":{
       "section":"1",
       "value":"21b"
      }
     }
    },
    {
     "filename":"I4CZ750780039.jpg",
     "pagination":{
      "pgfolios":{
       "section":"1",
       "value":"22a"
      }
     }
    },
    {
     "filename":"I4CZ750780040.jpg",
     "pagination":{
      "pgfolios":{
       "section":"1",
       "value":"22b"
      }
     }
    },
    {
     "filename":"I4CZ750780041.jpg",
     "pagination":{
      "pgfolios":{
       "section":"1",
       "value":"23a"
      }
     }
    },
    {
     "filename":"I4CZ750780042.jpg",
     "pagination":{
      "pgfolios":{
       "section":"1",
       "value":"23b"
      }
     }
    },
    {
     "filename":"I4CZ750780043.jpg",
     "pagination":{
      "pgfolios":{
       "section":"1",
       "value":"24a"
      }
     }
    },
    {
     "filename":"I4CZ750780044.jpg",
     "pagination":{
      "pgfolios":{
       "section":"1",
       "value":"24b"
      }
     }
    },
    {
     "filename":"I4CZ750780045.jpg",
     "pagination":{
      "pgfolios":{
       "section":"1",
       "value":"25a"
      }
     }
    },
    {
     "filename":"I4CZ750780046.jpg",
     "pagination":{
      "pgfolios":{
       "section":"1",
       "value":"25b"
      }
     }
    },
    {
     "filename":"I4CZ750780047.jpg",
     "pagination":{
      "pgfolios":{
       "section":"1",
       "value":"26a"
      }
     }
    },
    {
     "filename":"I4CZ750780048.jpg",
     "pagination":{
      "pgfolios":{
       "section":"1",
       "value":"26b"
      }
     }
    },
    {
     "filename":"I4CZ750780049.jpg",
     "pagination":{
      "pgfolios":{
       "section":"1",
       "value":"27a"
      }
     }
    },
    {
     "filename":"I4CZ750780050.jpg",
     "pagination":{
      "pgfolios":{
       "section":"1",
       "value":"27b"
      }
     }
    },
    {
     "filename":"I4CZ750780051.jpg",
     "pagination":{
      "pgfolios":{
       "section":"1",
       "value":"28a"
      }
     }
    },
    {
     "filename":"I4CZ750780052.jpg",
     "pagination":{
      "pgfolios":{
       "section":"1",
       "value":"28b"
      }
     }
    },
    {
     "filename":"I4CZ750780053.jpg",
     "pagination":{
      "pgfolios":{
       "section":"1",
       "value":"29a"
      }
     }
    },
    {
     "filename":"I4CZ750780054.jpg",
     "pagination":{
      "pgfolios":{
       "section":"1",
       "value":"29b"
      }
     }
    },
    {
     "filename":"I4CZ750780055.jpg",
     "pagination":{
      "pgfolios":{
       "section":"1",
       "value":"30a"
      }
     }
    },
    {
     "filename":"I4CZ750780056.jpg",
     "pagination":{
      "pgfolios":{
       "section":"1",
       "value":"30b"
      }
     }
    },
    {
     "filename":"I4CZ750780057.jpg",
     "pagination":{
      "pgfolios":{
       "section":"1",
       "value":"31a"
      }
     }
    },
    {
     "filename":"I4CZ750780058.jpg",
     "pagination":{
      "pgfolios":{
       "section":"1",
       "value":"31b"
      }
     }
    },
    {
     "filename":"I4CZ750780059.jpg",
     "pagination":{
      "pgfolios":{
       "section":"1",
       "value":"32a"
      }
     }
    },
    {
     "filename":"I4CZ750780060.jpg",
     "pagination":{
      "pgfolios":{
       "section":"1",
       "value":"32b"
      }
     }
    },
    {
     "filename":"I4CZ750780061.jpg",
     "pagination":{
      "pgfolios":{
       "section":"1",
       "value":"33a"
      }
     }
    },
    {
     "filename":"I4CZ750780062.jpg",
     "pagination":{
      "pgfolios":{
       "section":"1",
       "value":"33b"
      }
     }
    },
    {
     "filename":"I4CZ750780063.jpg",
     "pagination":{
      "pgfolios":{
       "section":"1",
       "value":"34a"
      }
     }
    },
    {
     "filename":"I4CZ750780064.jpg",
     "pagination":{
      "pgfolios":{
       "section":"1",
       "value":"34b"
      }
     }
    },
    {
     "filename":"I4CZ750780065.jpg",
     "pagination":{
      "pgfolios":{
       "section":"1",
       "value":"35a"
      }
     }
    },
    {
     "filename":"I4CZ750780066.jpg",
     "pagination":{
      "pgfolios":{
       "section":"1",
       "value":"35b"
      }
     }
    },
    {
     "filename":"I4CZ750780067.jpg",
     "pagination":{
      "pgfolios":{
       "section":"1",
       "value":"36a"
      }
     }
    },
    {
     "filename":"I4CZ750780068.jpg",
     "pagination":{
      "pgfolios":{
       "section":"1",
       "value":"36b"
      }
     }
    },
    {
     "filename":"I4CZ750780069.jpg",
     "pagination":{
      "pgfolios":{
       "section":"1",
       "value":"37a"
      }
     }
    },
    {
     "filename":"I4CZ750780070.jpg",
     "pagination":{
      "pgfolios":{
       "section":"1",
       "value":"37b"
      }
     }
    },
    {
     "filename":"I4CZ750780071.jpg",
     "pagination":{
      "pgfolios":{
       "section":"1",
       "value":"38a"
      }
     }
    },
    {
     "filename":"I4CZ750780072.jpg",
     "pagination":{
      "pgfolios":{
       "section":"1",
       "value":"38b"
      }
     }
    },
    {
     "filename":"I4CZ750780073.jpg",
     "pagination":{
      "pgfolios":{
       "section":"1",
       "value":"39a"
      }
     }
    },
    {
     "filename":"I4CZ750780074.jpg",
     "pagination":{
      "pgfolios":{
       "section":"1",
       "value":"39b"
      }
     }
    },
    {
     "filename":"I4CZ750780075.jpg",
     "pagination":{
      "pgfolios":{
       "section":"1",
       "value":"40a"
      }
     }
    },
    {
     "filename":"I4CZ750780076.jpg",
     "pagination":{
      "pgfolios":{
       "section":"1",
       "value":"40b"
      }
     }
    },
    {
     "filename":"I4CZ750780077.jpg",
     "pagination":{
      "pgfolios":{
       "section":"1",
       "value":"41a"
      }
     }
    },
    {
     "filename":"I4CZ750780078.jpg",
     "pagination":{
      "pgfolios":{
       "section":"1",
       "value":"41b"
      }
     }
    },
    {
     "filename":"I4CZ750780079.jpg",
     "pagination":{
      "pgfolios":{
       "section":"1",
       "value":"42a"
      }
     }
    },
    {
     "filename":"I4CZ750780080.jpg",
     "pagination":{
      "pgfolios":{
       "section":"1",
       "value":"42b"
      }
     }
    },
    {
     "filename":"I4CZ750780081.jpg",
     "pagination":{
      "pgfolios":{
       "section":"1",
       "value":"43a"
      }
     }
    },
    {
     "filename":"I4CZ750780082.jpg",
     "pagination":{
      "pgfolios":{
       "section":"1",
       "value":"43b"
      }
     }
    },
    {
     "filename":"I4CZ750780083.jpg",
     "pagination":{
      "pgfolios":{
       "section":"1",
       "value":"44a"
      }
     }
    },
    {
     "filename":"I4CZ750780084.jpg",
     "pagination":{
      "pgfolios":{
       "section":"1",
       "value":"44b"
      }
     }
    },
    {
     "filename":"I4CZ750780085.jpg",
     "pagination":{
      "pgfolios":{
       "section":"1",
       "value":"45a"
      }
     }
    },
    {
     "filename":"I4CZ750780086.jpg",
     "pagination":{
      "pgfolios":{
       "section":"1",
       "value":"45b"
      }
     }
    },
    {
     "filename":"I4CZ750780087.jpg",
     "pagination":{
      "pgfolios":{
       "section":"1",
       "value":"46a"
      }
     }
    },
    {
     "filename":"I4CZ750780088.jpg",
     "pagination":{
      "pgfolios":{
       "section":"1",
       "value":"46b"
      }
     }
    },
    {
     "filename":"I4CZ750780089.jpg",
     "hidden":true
    },
    {
     "filename":"I4CZ750780090.jpg",
     "hidden":true
    },
    {
     "filename":"I4CZ750780091.jpg",
     "pagination":{
      "pgfolios":{
       "section":"1",
       "value":"47a"
      }
     }
    },
    {
     "filename":"I4CZ750780092.jpg",
     "pagination":{
      "pgfolios":{
       "section":"1",
       "value":"47b"
      }
     }
    },
    {
     "filename":"I4CZ750780093.jpg",
     "pagination":{
      "pgfolios":{
       "section":"1",
       "value":"48a"
      }
     }
    },
    {
     "filename":"I4CZ750780094.jpg",
     "pagination":{
      "pgfolios":{
       "section":"1",
       "value":"48b"
      }
     }
    },
    {
     "filename":"I4CZ750780095.jpg",
     "pagination":{
      "pgfolios":{
       "section":"1",
       "value":"49a"
      }
     }
    },
    {
     "filename":"I4CZ750780096.jpg",
     "pagination":{
      "pgfolios":{
       "section":"1",
       "value":"49b"
      }
     }
    },
    {
     "filename":"I4CZ750780097.jpg",
     "pagination":{
      "pgfolios":{
       "section":"1",
       "value":"50a"
      }
     }
    },
    {
     "filename":"I4CZ750780098.jpg",
     "pagination":{
      "pgfolios":{
       "section":"1",
       "value":"50b"
      }
     }
    },
    {
     "filename":"I4CZ750780099.jpg",
     "pagination":{
      "pgfolios":{
       "section":"1",
       "value":"51a"
      }
     }
    },
    {
     "filename":"I4CZ750780100.jpg",
     "pagination":{
      "pgfolios":{
       "section":"1",
       "value":"51b"
      }
     }
    },
    {
     "filename":"I4CZ750780101.jpg",
     "pagination":{
      "pgfolios":{
       "section":"1",
       "value":"52a"
      }
     }
    },
    {
     "filename":"I4CZ750780102.jpg",
     "pagination":{
      "pgfolios":{
       "section":"1",
       "value":"52b"
      }
     }
    },
    {
     "filename":"I4CZ750780103.jpg",
     "pagination":{
      "pgfolios":{
       "section":"1",
       "value":"53a"
      }
     }
    },
    {
     "filename":"I4CZ750780104.jpg",
     "pagination":{
      "pgfolios":{
       "section":"1",
       "value":"53b"
      }
     }
    },
    {
     "filename":"I4CZ750780105.jpg",
     "pagination":{
      "pgfolios":{
       "section":"1",
       "value":"54a"
      }
     }
    },
    {
     "filename":"I4CZ750780106.jpg",
     "pagination":{
      "pgfolios":{
       "section":"1",
       "value":"54b"
      }
     }
    },
    {
     "filename":"I4CZ750780107.jpg",
     "pagination":{
      "pgfolios":{
       "section":"1",
       "value":"55a"
      }
     }
    },
    {
     "filename":"I4CZ750780108.jpg",
     "pagination":{
      "pgfolios":{
       "section":"1",
       "value":"55b"
      }
     }
    },
    {
     "filename":"I4CZ750780109.jpg",
     "pagination":{
      "pgfolios":{
       "section":"1",
       "value":"56a"
      }
     }
    },
    {
     "filename":"I4CZ750780110.jpg",
     "pagination":{
      "pgfolios":{
       "section":"1",
       "value":"56b"
      }
     }
    },
    {
     "filename":"I4CZ750780111.jpg",
     "pagination":{
      "pgfolios":{
       "section":"1",
       "value":"57a"
      }
     }
    },
    {
     "filename":"I4CZ750780112.jpg",
     "pagination":{
      "pgfolios":{
       "section":"1",
       "value":"57b"
      }
     }
    },
    {
     "filename":"I4CZ750780113.jpg",
     "pagination":{
      "pgfolios":{
       "section":"1",
       "value":"58a"
      }
     }
    },
    {
     "filename":"I4CZ750780114.jpg",
     "pagination":{
      "pgfolios":{
       "section":"1",
       "value":"58b"
      }
     }
    },
    {
     "filename":"I4CZ750780115.jpg",
     "pagination":{
      "pgfolios":{
       "section":"1",
       "value":"59a"
      }
     }
    },
    {
     "filename":"I4CZ750780116.jpg",
     "pagination":{
      "pgfolios":{
       "section":"1",
       "value":"59b"
      }
     }
    },
    {
     "filename":"I4CZ750780117.jpg",
     "pagination":{
      "pgfolios":{
       "section":"1",
       "value":"60a"
      }
     }
    },
    {
     "filename":"I4CZ750780118.jpg",
     "pagination":{
      "pgfolios":{
       "section":"1",
       "value":"60b"
      }
     }
    },
    {
     "filename":"I4CZ750780119.jpg",
     "pagination":{
      "pgfolios":{
       "section":"1",
       "value":"61a"
      }
     }
    },
    {
     "filename":"I4CZ750780120.jpg",
     "pagination":{
      "pgfolios":{
       "section":"1",
       "value":"61b"
      }
     }
    },
    {
     "filename":"I4CZ750780121.jpg",
     "pagination":{
      "pgfolios":{
       "section":"1",
       "value":"62a"
      }
     }
    },
    {
     "filename":"I4CZ750780122.jpg",
     "pagination":{
      "pgfolios":{
       "section":"1",
       "value":"62b"
      }
     }
    },
    {
     "filename":"I4CZ750780123.jpg",
     "pagination":{
      "pgfolios":{
       "section":"1",
       "value":"63a"
      }
     }
    },
    {
     "filename":"I4CZ750780124.jpg",
     "pagination":{
      "pgfolios":{
       "section":"1",
       "value":"63b"
      }
     }
    },
    {
     "filename":"I4CZ750780125.jpg",
     "pagination":{
      "pgfolios":{
       "section":"1",
       "value":"64a"
      }
     }
    },
    {
     "filename":"I4CZ750780126.jpg",
     "pagination":{
      "pgfolios":{
       "section":"1",
       "value":"64b"
      }
     }
    },
    {
     "filename":"I4CZ750780127.jpg",
     "pagination":{
      "pgfolios":{
       "section":"1",
       "value":"65a"
      }
     }
    },
    {
     "filename":"I4CZ750780128.jpg",
     "pagination":{
      "pgfolios":{
       "section":"1",
       "value":"65b"
      }
     }
    },
    {
     "filename":"I4CZ750780129.jpg",
     "pagination":{
      "pgfolios":{
       "section":"1",
       "value":"66a"
      }
     }
    },
    {
     "filename":"I4CZ750780130.jpg",
     "pagination":{
      "pgfolios":{
       "section":"1",
       "value":"66b"
      }
     }
    },
    {
     "filename":"I4CZ750780131.jpg",
     "pagination":{
      "pgfolios":{
       "section":"1",
       "value":"67a"
      }
     }
    },
    {
     "filename":"I4CZ750780132.jpg",
     "pagination":{
      "pgfolios":{
       "section":"1",
       "value":"67b"
      }
     }
    },
    {
     "filename":"I4CZ750780133.jpg",
     "pagination":{
      "pgfolios":{
       "section":"1",
       "value":"68a"
      }
     }
    },
    {
     "filename":"I4CZ750780134.jpg",
     "pagination":{
      "pgfolios":{
       "section":"1",
       "value":"68b"
      }
     }
    },
    {
     "filename":"I4CZ750780135.jpg",
     "pagination":{
      "pgfolios":{
       "section":"2",
       "value":"1a"
      }
     }
    },
    {
     "filename":"I4CZ750780136.jpg",
     "pagination":{
      "pgfolios":{
       "section":"2",
       "value":"1b"
      }
     }
    },
    {
     "filename":"I4CZ750780137.jpg",
     "pagination":{
      "pgfolios":{
       "section":"2",
       "value":"2a"
      }
     }
    },
    {
     "filename":"I4CZ750780138.jpg",
     "pagination":{
      "pgfolios":{
       "section":"2",
       "value":"2b"
      }
     }
    },
    {
     "filename":"I4CZ750780139.jpg",
     "pagination":{
      "pgfolios":{
       "section":"2",
       "value":"3a"
      }
     }
    },
    {
     "filename":"I4CZ750780140.jpg",
     "pagination":{
      "pgfolios":{
       "section":"2",
       "value":"3b"
      }
     }
    },
    {
     "filename":"I4CZ750780141.jpg",
     "pagination":{
      "pgfolios":{
       "section":"2",
       "value":"4a"
      }
     }
    },
    {
     "filename":"I4CZ750780142.jpg",
     "pagination":{
      "pgfolios":{
       "section":"2",
       "value":"4b"
      }
     }
    },
    {
     "filename":"I4CZ750780143.jpg",
     "pagination":{
      "pgfolios":{
       "section":"2",
       "value":"5a"
      }
     }
    },
    {
     "filename":"I4CZ750780144.jpg",
     "pagination":{
      "pgfolios":{
       "section":"2",
       "value":"5b"
      }
     }
    },
    {
     "filename":"I4CZ750780145.jpg",
     "pagination":{
      "pgfolios":{
       "section":"2",
       "value":"6a"
      }
     }
    },
    {
     "filename":"I4CZ750780146.jpg",
     "pagination":{
      "pgfolios":{
       "section":"2",
       "value":"6b"
      }
     }
    },
    {
     "filename":"I4CZ750780147.jpg",
     "pagination":{
      "pgfolios":{
       "section":"2",
       "value":"7a"
      }
     }
    },
    {
     "filename":"I4CZ750780148.jpg",
     "pagination":{
      "pgfolios":{
       "section":"2",
       "value":"7b"
      }
     }
    },
    {
     "filename":"I4CZ750780149.jpg",
     "pagination":{
      "pgfolios":{
       "section":"2",
       "value":"8a"
      }
     }
    },
    {
     "filename":"I4CZ750780150.jpg",
     "pagination":{
      "pgfolios":{
       "section":"2",
       "value":"8b"
      }
     }
    },
    {
     "filename":"I4CZ750780151.jpg",
     "pagination":{
      "pgfolios":{
       "section":"2",
       "value":"9a"
      }
     }
    },
    {
     "filename":"I4CZ750780152.jpg",
     "pagination":{
      "pgfolios":{
       "section":"2",
       "value":"9b"
      }
     }
    },
    {
     "filename":"I4CZ750780153.jpg",
     "pagination":{
      "pgfolios":{
       "section":"2",
       "value":"10a"
      }
     }
    },
    {
     "filename":"I4CZ750780154.jpg",
     "pagination":{
      "pgfolios":{
       "section":"2",
       "value":"10b"
      }
     }
    },
    {
     "filename":"I4CZ750780155.jpg",
     "pagination":{
      "pgfolios":{
       "section":"2",
       "value":"11a"
      }
     }
    },
    {
     "filename":"I4CZ750780156.jpg",
     "pagination":{
      "pgfolios":{
       "section":"2",
       "value":"11b"
      }
     }
    },
    {
     "filename":"I4CZ750780157.jpg",
     "pagination":{
      "pgfolios":{
       "section":"2",
       "value":"12a"
      }
     }
    },
    {
     "filename":"I4CZ750780158.jpg",
     "pagination":{
      "pgfolios":{
       "section":"2",
       "value":"12b"
      }
     }
    },
    {
     "filename":"I4CZ750780159.jpg",
     "pagination":{
      "pgfolios":{
       "section":"2",
       "value":"13a"
      }
     }
    },
    {
     "filename":"I4CZ750780160.jpg",
     "pagination":{
      "pgfolios":{
       "section":"2",
       "value":"13b"
      }
     }
    },
    {
     "filename":"I4CZ750780161.jpg",
     "pagination":{
      "pgfolios":{
       "section":"2",
       "value":"14a"
      }
     }
    },
    {
     "filename":"I4CZ750780162.jpg",
     "pagination":{
      "pgfolios":{
       "section":"2",
       "value":"14b"
      }
     }
    },
    {
     "filename":"I4CZ750780163.jpg",
     "pagination":{
      "pgfolios":{
       "section":"2",
       "value":"15a"
      }
     }
    },
    {
     "filename":"I4CZ750780164.jpg",
     "pagination":{
      "pgfolios":{
       "section":"2",
       "value":"15b"
      }
     }
    },
    {
     "filename":"I4CZ750780165.jpg",
     "pagination":{
      "pgfolios":{
       "section":"2",
       "value":"16a"
      }
     }
    },
    {
     "filename":"I4CZ750780166.jpg",
     "pagination":{
      "pgfolios":{
       "section":"2",
       "value":"16b"
      }
     }
    },
    {
     "filename":"I4CZ750780167.jpg",
     "pagination":{
      "pgfolios":{
       "section":"2",
       "value":"17a"
      }
     }
    },
    {
     "filename":"I4CZ750780168.jpg",
     "pagination":{
      "pgfolios":{
       "section":"2",
       "value":"17b"
      }
     }
    },
    {
     "filename":"I4CZ750780169.jpg",
     "pagination":{
      "pgfolios":{
       "section":"2",
       "value":"18a"
      }
     }
    },
    {
     "filename":"I4CZ750780170.jpg",
     "pagination":{
      "pgfolios":{
       "section":"2",
       "value":"18b"
      }
     }
    },
    {
     "filename":"I4CZ750780171.jpg",
     "pagination":{
      "pgfolios":{
       "section":"2",
       "value":"19a"
      }
     }
    },
    {
     "filename":"I4CZ750780172.jpg",
     "pagination":{
      "pgfolios":{
       "section":"2",
       "value":"19b"
      }
     }
    },
    {
     "filename":"I4CZ750780173.jpg",
     "pagination":{
      "pgfolios":{
       "section":"2",
       "value":"20a"
      }
     }
    },
    {
     "filename":"I4CZ750780174.jpg",
     "pagination":{
      "pgfolios":{
       "section":"2",
       "value":"20b"
      }
     }
    },
    {
     "pagination":{
      "pgfolios":{
       "section":"2",
       "value":"21a"
      }
     },
     "tags":[
      "T0020"
     ]
    },
    {
     "pagination":{
      "pgfolios":{
       "section":"2",
       "value":"21b"
      }
     },
     "tags":[
      "T0020"
     ]
    },
    {
     "filename":"I4CZ750780175.jpg",
     "pagination":{
      "pgfolios":{
       "section":"2",
       "value":"22a"
      }
     }
    },
    {
     "filename":"I4CZ750780176.jpg",
     "pagination":{
      "pgfolios":{
       "section":"2",
       "value":"22b"
      }
     }
    },
    {
     "filename":"I4CZ750780177.jpg",
     "pagination":{
      "pgfolios":{
       "section":"2",
       "value":"23a"
      }
     }
    },
    {
     "filename":"I4CZ750780178.jpg",
     "pagination":{
      "pgfolios":{
       "section":"2",
       "value":"23b"
      }
     }
    },
    {
     "filename":"I4CZ750780179.jpg",
     "pagination":{
      "pgfolios":{
       "section":"2",
       "value":"24a"
      }
     }
    },
    {
     "filename":"I4CZ750780180.jpg",
     "pagination":{
      "pgfolios":{
       "section":"2",
       "value":"24b"
      }
     }
    },
    {
     "filename":"I4CZ750780181.jpg",
     "pagination":{
      "pgfolios":{
       "section":"2",
       "value":"25a"
      }
     }
    },
    {
     "filename":"I4CZ750780182.jpg",
     "pagination":{
      "pgfolios":{
       "section":"2",
       "value":"25b"
      }
     }
    },
    {
     "filename":"I4CZ750780183.jpg",
     "pagination":{
      "pgfolios":{
       "section":"2",
       "value":"26a"
      }
     }
    },
    {
     "filename":"I4CZ750780184.jpg",
     "pagination":{
      "pgfolios":{
       "section":"2",
       "value":"26b"
      }
     }
    },
    {
     "filename":"I4CZ750780185.jpg",
     "pagination":{
      "pgfolios":{
       "section":"3",
       "value":"1a"
      }
     }
    },
    {
     "filename":"I4CZ750780186.jpg",
     "pagination":{
      "pgfolios":{
       "section":"3",
       "value":"1b"
      }
     }
    },
    {
     "filename":"I4CZ750780187.jpg",
     "pagination":{
      "pgfolios":{
       "section":"3",
       "value":"2a"
      }
     }
    },
    {
     "filename":"I4CZ750780188.jpg",
     "pagination":{
      "pgfolios":{
       "section":"3",
       "value":"2b"
      }
     }
    },
    {
     "filename":"I4CZ750780189.jpg",
     "pagination":{
      "pgfolios":{
       "section":"3",
       "value":"3a"
      }
     }
    },
    {
     "filename":"I4CZ750780190.jpg",
     "pagination":{
      "pgfolios":{
       "section":"3",
       "value":"3b"
      }
     }
    },
    {
     "filename":"I4CZ750780191.jpg",
     "pagination":{
      "pgfolios":{
       "section":"3",
       "value":"4a"
      }
     }
    },
    {
     "filename":"I4CZ750780192.jpg",
     "pagination":{
      "pgfolios":{
       "section":"3",
       "value":"4b"
      }
     }
    },
    {
     "filename":"I4CZ750780193.jpg",
     "pagination":{
      "pgfolios":{
       "section":"3",
       "value":"5a"
      }
     }
    },
    {
     "filename":"I4CZ750780194.jpg",
     "pagination":{
      "pgfolios":{
       "section":"3",
       "value":"5b"
      }
     }
    },
    {
     "filename":"I4CZ750780195.jpg",
     "pagination":{
      "pgfolios":{
       "section":"3",
       "value":"6a"
      }
     }
    },
    {
     "filename":"I4CZ750780196.jpg",
     "pagination":{
      "pgfolios":{
       "section":"3",
       "value":"6b"
      }
     }
    },
    {
     "filename":"I4CZ750780197.jpg",
     "pagination":{
      "pgfolios":{
       "section":"3",
       "value":"7a"
      }
     }
    },
    {
     "filename":"I4CZ750780198.jpg",
     "pagination":{
      "pgfolios":{
       "section":"3",
       "value":"7b"
      }
     }
    },
    {
     "filename":"I4CZ750780199.jpg",
     "pagination":{
      "pgfolios":{
       "section":"3",
       "value":"8a"
      }
     }
    },
    {
     "filename":"I4CZ750780200.jpg",
     "pagination":{
      "pgfolios":{
       "section":"3",
       "value":"8b"
      }
     }
    },
    {
     "filename":"I4CZ750780201.jpg",
     "pagination":{
      "pgfolios":{
       "section":"3",
       "value":"9a"
      }
     }
    },
    {
     "filename":"I4CZ750780202.jpg",
     "pagination":{
      "pgfolios":{
       "section":"3",
       "value":"9b"
      }
     }
    },
    {
     "filename":"I4CZ750780203.jpg",
     "pagination":{
      "pgfolios":{
       "section":"4",
       "value":"1a"
      }
     }
    },
    {
     "filename":"I4CZ750780204.jpg",
     "pagination":{
      "pgfolios":{
       "section":"4",
       "value":"1b"
      }
     }
    },
    {
     "filename":"I4CZ750780205.jpg",
     "pagination":{
      "pgfolios":{
       "section":"4",
       "value":"2a"
      }
     }
    },
    {
     "filename":"I4CZ750780206.jpg",
     "pagination":{
      "pgfolios":{
       "section":"4",
       "value":"2b"
      }
     }
    },
    {
     "filename":"I4CZ750780207.jpg",
     "pagination":{
      "pgfolios":{
       "section":"4",
       "value":"3a"
      }
     }
    },
    {
     "filename":"I4CZ750780208.jpg",
     "pagination":{
      "pgfolios":{
       "section":"4",
       "value":"3b"
      }
     }
    },
    {
     "filename":"I4CZ750780209.jpg",
     "pagination":{
      "pgfolios":{
       "section":"4",
       "value":"4a"
      }
     }
    },
    {
     "filename":"I4CZ750780210.jpg",
     "pagination":{
      "pgfolios":{
       "section":"4",
       "value":"4b"
      }
     }
    },
    {
     "filename":"I4CZ750780211.jpg",
     "pagination":{
      "pgfolios":{
       "section":"4",
       "value":"5a"
      }
     }
    },
    {
     "filename":"I4CZ750780212.jpg",
     "pagination":{
      "pgfolios":{
       "section":"4",
       "value":"5b"
      }
     }
    },
    {
     "filename":"I4CZ750780213.jpg",
     "pagination":{
      "pgfolios":{
       "section":"4",
       "value":"6a"
      }
     }
    },
    {
     "filename":"I4CZ750780214.jpg",
     "pagination":{
      "pgfolios":{
       "section":"4",
       "value":"6b"
      }
     }
    },
    {
     "filename":"I4CZ750780215.jpg",
     "pagination":{
      "pgfolios":{
       "section":"4",
       "value":"7a"
      }
     }
    },
    {
     "filename":"I4CZ750780216.jpg",
     "pagination":{
      "pgfolios":{
       "section":"4",
       "value":"7b"
      }
     }
    },
    {
     "filename":"I4CZ750780217.jpg",
     "pagination":{
      "pgfolios":{
       "section":"4",
       "value":"8a"
      }
     }
    },
    {
     "filename":"I4CZ750780218.jpg",
     "pagination":{
      "pgfolios":{
       "section":"4",
       "value":"8b"
      }
     }
    },
    {
     "filename":"I4CZ750780219.jpg",
     "pagination":{
      "pgfolios":{
       "section":"4",
       "value":"9a"
      }
     }
    },
    {
     "filename":"I4CZ750780220.jpg",
     "pagination":{
      "pgfolios":{
       "section":"4",
       "value":"9b"
      }
     }
    },
    {
     "filename":"I4CZ750780221.jpg",
     "pagination":{
      "pgfolios":{
       "section":"4",
       "value":"10a"
      }
     }
    },
    {
     "filename":"I4CZ750780222.jpg",
     "pagination":{
      "pgfolios":{
       "section":"4",
       "value":"10b"
      }
     }
    },
    {
     "filename":"I4CZ750780223.jpg",
     "pagination":{
      "pgfolios":{
       "section":"4",
       "value":"11a"
      }
     }
    },
    {
     "filename":"I4CZ750780224.jpg",
     "pagination":{
      "pgfolios":{
       "section":"4",
       "value":"11b"
      }
     }
    },
    {
     "filename":"I4CZ750780225.jpg",
     "pagination":{
      "pgfolios":{
       "section":"5",
       "value":"1a"
      }
     }
    },
    {
     "filename":"I4CZ750780226.jpg",
     "pagination":{
      "pgfolios":{
       "section":"5",
       "value":"1b"
      }
     }
    },
    {
     "filename":"I4CZ750780227.jpg",
     "pagination":{
      "pgfolios":{
       "section":"5",
       "value":"2a"
      }
     }
    },
    {
     "filename":"I4CZ750780228.jpg",
     "pagination":{
      "pgfolios":{
       "section":"5",
       "value":"2b"
      }
     }
    },
    {
     "filename":"I4CZ750780229.jpg",
     "pagination":{
      "pgfolios":{
       "section":"5",
       "value":"3a"
      }
     }
    },
    {
     "filename":"I4CZ750780230.jpg",
     "pagination":{
      "pgfolios":{
       "section":"5",
       "value":"3b"
      }
     }
    },
    {
     "filename":"I4CZ750780231.jpg",
     "pagination":{
      "pgfolios":{
       "section":"5",
       "value":"4a"
      }
     }
    },
    {
     "filename":"I4CZ750780232.jpg",
     "pagination":{
      "pgfolios":{
       "section":"5",
       "value":"4b"
      }
     }
    },
    {
     "filename":"I4CZ750780233.jpg",
     "pagination":{
      "pgfolios":{
       "section":"5",
       "value":"5a"
      }
     }
    },
    {
     "filename":"I4CZ750780234.jpg",
     "pagination":{
      "pgfolios":{
       "section":"5",
       "value":"5b"
      }
     }
    },
    {
     "filename":"I4CZ750780235.jpg",
     "pagination":{
      "pgfolios":{
       "section":"5",
       "value":"6a"
      }
     }
    },
    {
     "filename":"I4CZ750780236.jpg",
     "pagination":{
      "pgfolios":{
       "section":"5",
       "value":"6b"
      }
     }
    },
    {
     "filename":"I4CZ750780237.jpg",
     "pagination":{
      "pgfolios":{
       "section":"5",
       "value":"7a"
      }
     }
    },
    {
     "filename":"I4CZ750780238.jpg",
     "pagination":{
      "pgfolios":{
       "section":"5",
       "value":"7b"
      }
     }
    },
    {
     "filename":"I4CZ750780239.jpg",
     "pagination":{
      "pgfolios":{
       "section":"5",
       "value":"8a"
      }
     }
    },
    {
     "filename":"I4CZ750780240.jpg",
     "pagination":{
      "pgfolios":{
       "section":"5",
       "value":"8b"
      }
     }
    },
    {
     "filename":"I4CZ750780241.jpg",
     "pagination":{
      "pgfolios":{
       "section":"5",
       "value":"9a"
      }
     }
    },
    {
     "filename":"I4CZ750780242.jpg",
     "pagination":{
      "pgfolios":{
       "section":"5",
       "value":"9b"
      }
     }
    },
    {
     "filename":"I4CZ750780243.jpg",
     "pagination":{
      "pgfolios":{
       "section":"5",
       "value":"10a"
      }
     }
    },
    {
     "filename":"I4CZ750780244.jpg",
     "pagination":{
      "pgfolios":{
       "section":"5",
       "value":"10b"
      }
     }
    },
    {
     "filename":"I4CZ750780245.jpg",
     "pagination":{
      "pgfolios":{
       "section":"5",
       "value":"11a"
      }
     }
    },
    {
     "filename":"I4CZ750780246.jpg",
     "pagination":{
      "pgfolios":{
       "section":"5",
       "value":"11b"
      }
     }
    },
    {
     "filename":"I4CZ750780247.jpg",
     "pagination":{
      "pgfolios":{
       "section":"5",
       "value":"12a"
      }
     }
    },
    {
     "filename":"I4CZ750780248.jpg",
     "pagination":{
      "pgfolios":{
       "section":"5",
       "value":"12b"
      }
     }
    },
    {
     "filename":"I4CZ750780249.jpg",
     "pagination":{
      "pgfolios":{
       "section":"5",
       "value":"13a"
      }
     }
    },
    {
     "filename":"I4CZ750780250.jpg",
     "pagination":{
      "pgfolios":{
       "section":"5",
       "value":"13b"
      }
     }
    },
    {
     "filename":"I4CZ750780251.jpg",
     "pagination":{
      "pgfolios":{
       "section":"5",
       "value":"14a"
      }
     }
    },
    {
     "filename":"I4CZ750780252.jpg",
     "pagination":{
      "pgfolios":{
       "section":"5",
       "value":"14b"
      }
     }
    },
    {
     "filename":"I4CZ750780253.jpg",
     "pagination":{
      "pgfolios":{
       "section":"5",
       "value":"15a"
      }
     }
    },
    {
     "filename":"I4CZ750780254.jpg",
     "pagination":{
      "pgfolios":{
       "section":"5",
       "value":"15b"
      }
     }
    },
    {
     "filename":"I4CZ750780255.jpg",
     "pagination":{
      "pgfolios":{
       "section":"5",
       "value":"16a"
      }
     }
    },
    {
     "filename":"I4CZ750780256.jpg",
     "pagination":{
      "pgfolios":{
       "section":"5",
       "value":"16b"
      }
     }
    },
    {
     "filename":"I4CZ750780257.jpg",
     "pagination":{
      "pgfolios":{
       "section":"5",
       "value":"17a"
      }
     }
    },
    {
     "filename":"I4CZ750780258.jpg",
     "pagination":{
      "pgfolios":{
       "section":"5",
       "value":"17b"
      }
     }
    },
    {
     "filename":"I4CZ750780259.jpg",
     "pagination":{
      "pgfolios":{
       "section":"5",
       "value":"18a"
      }
     }
    },
    {
     "filename":"I4CZ750780260.jpg",
     "pagination":{
      "pgfolios":{
       "section":"5",
       "value":"18b"
      }
     }
    },
    {
     "filename":"I4CZ750780261.jpg",
     "pagination":{
      "pgfolios":{
       "section":"6",
       "value":"1a"
      }
     }
    },
    {
     "filename":"I4CZ750780262.jpg",
     "pagination":{
      "pgfolios":{
       "section":"6",
       "value":"1b"
      }
     }
    },
    {
     "filename":"I4CZ750780263.jpg",
     "pagination":{
      "pgfolios":{
       "section":"6",
       "value":"2a"
      }
     }
    },
    {
     "filename":"I4CZ750780264.jpg",
     "pagination":{
      "pgfolios":{
       "section":"6",
       "value":"2b"
      }
     }
    },
    {
     "filename":"I4CZ750780265.jpg",
     "pagination":{
      "pgfolios":{
       "section":"6",
       "value":"3a"
      }
     }
    },
    {
     "filename":"I4CZ750780266.jpg",
     "pagination":{
      "pgfolios":{
       "section":"6",
       "value":"3b"
      }
     }
    },
    {
     "filename":"I4CZ750780267.jpg",
     "pagination":{
      "pgfolios":{
       "section":"6",
       "value":"4a"
      }
     }
    },
    {
     "filename":"I4CZ750780268.jpg",
     "pagination":{
      "pgfolios":{
       "section":"6",
       "value":"4b"
      }
     }
    },
    {
     "filename":"I4CZ750780269.jpg",
     "pagination":{
      "pgfolios":{
       "section":"6",
       "value":"5a"
      }
     }
    },
    {
     "filename":"I4CZ750780270.jpg",
     "pagination":{
      "pgfolios":{
       "section":"6",
       "value":"5b"
      }
     }
    },
    {
     "filename":"I4CZ750780271.jpg",
     "pagination":{
      "pgfolios":{
       "section":"6",
       "value":"6a"
      }
     }
    },
    {
     "filename":"I4CZ750780272.jpg",
     "pagination":{
      "pgfolios":{
       "section":"6",
       "value":"6b"
      }
     }
    },
    {
     "filename":"I4CZ750780273.jpg",
     "pagination":{
      "pgfolios":{
       "section":"6",
       "value":"7a"
      }
     }
    },
    {
     "filename":"I4CZ750780274.jpg",
     "pagination":{
      "pgfolios":{
       "section":"6",
       "value":"7b"
      }
     }
    },
    {
     "filename":"I4CZ750780275.jpg",
     "pagination":{
      "pgfolios":{
       "section":"6",
       "value":"8a"
      }
     }
    },
    {
     "filename":"I4CZ750780276.jpg",
     "pagination":{
      "pgfolios":{
       "section":"6",
       "value":"8b"
      }
     }
    },
    {
     "filename":"I4CZ750780277.jpg",
     "pagination":{
      "pgfolios":{
       "section":"6",
       "value":"9a"
      }
     }
    },
    {
     "filename":"I4CZ750780278.jpg",
     "pagination":{
      "pgfolios":{
       "section":"6",
       "value":"9b"
      }
     }
    },
    {
     "filename":"I4CZ750780279.jpg",
     "hidden":true
    },
    {
     "filename":"I4CZ750780280.jpg",
     "hidden":true
    }
   ]
  }
 },
 "viewing-direction":"top-to-bottom"
}