{
 "appData":{
  "bvmt":{
   "default-vol-string-lang":"bo",
   "metadata-for-bvmt-ver":"0.1.0"
  }
 },
 "attribution":[
  {
   "@language":"en",
   "@value":"Data provided by rKTs under the CC0 license"
  }
 ],
 "changes":[
  {
   "message":{
    "@language":"en",
    "@value":"migration from rKTs data"
   },
   "time":"2020-10-03T11:35:30Z",
   "user":"bdu:U1653882847"
  }
 ],
 "default-view":"view1",
 "imggroup":"bdr:I1KG9150",
 "pagination":[
  {
   "id":"pgfolios",
   "type":"folios"
  }
 ],
 "spec-version":"0.1.0",
 "status":"released",
 "view":{
  "view1":{
   "imagelist":[
    {
     "filename":"I1KG91500001.tif",
     "hidden":true,
     "tags":[
      "T0005"
     ]
    },
    {
     "filename":"I1KG91500002.tif",
     "hidden":true,
     "tags":[
      "T0005"
     ]
    },
    {
     "filename":"I1KG91500003.jpg",
     "pagination":{
      "pgfolios":{
       "value":"1a"
      }
     }
    },
    {
     "filename":"I1KG91500004.jpg",
     "hidden":true
    },
    {
     "filename":"I1KG91500005.jpg",
     "hidden":true
    },
    {
     "filename":"I1KG91500006.jpg",
     "pagination":{
      "pgfolios":{
       "value":"1b"
      }
     }
    },
    {
     "filename":"I1KG91500007.jpg",
     "pagination":{
      "pgfolios":{
       "value":"2a"
      }
     }
    },
    {
     "filename":"I1KG91500008.jpg",
     "pagination":{
      "pgfolios":{
       "value":"2b"
      }
     }
    },
    {
     "filename":"I1KG91500009.jpg",
     "pagination":{
      "pgfolios":{
       "value":"3a"
      }
     }
    },
    {
     "filename":"I1KG91500010.jpg",
     "pagination":{
      "pgfolios":{
       "value":"3b"
      }
     }
    },
    {
     "filename":"I1KG91500011.jpg",
     "pagination":{
      "pgfolios":{
       "value":"4a"
      }
     }
    },
    {
     "filename":"I1KG91500012.jpg",
     "pagination":{
      "pgfolios":{
       "value":"4b"
      }
     }
    },
    {
     "filename":"I1KG91500013.jpg",
     "pagination":{
      "pgfolios":{
       "value":"5a"
      }
     }
    },
    {
     "filename":"I1KG91500014.jpg",
     "pagination":{
      "pgfolios":{
       "value":"5b"
      }
     }
    },
    {
     "filename":"I1KG91500015.jpg",
     "pagination":{
      "pgfolios":{
       "value":"6a"
      }
     }
    },
    {
     "filename":"I1KG91500016.jpg",
     "pagination":{
      "pgfolios":{
       "value":"6b"
      }
     }
    },
    {
     "filename":"I1KG91500017.jpg",
     "pagination":{
      "pgfolios":{
       "value":"7a"
      }
     }
    },
    {
     "filename":"I1KG91500018.jpg",
     "pagination":{
      "pgfolios":{
       "value":"7b"
      }
     }
    },
    {
     "filename":"I1KG91500019.jpg",
     "pagination":{
      "pgfolios":{
       "value":"8a"
      }
     }
    },
    {
     "filename":"I1KG91500020.jpg",
     "pagination":{
      "pgfolios":{
       "value":"8b"
      }
     }
    },
    {
     "filename":"I1KG91500021.jpg",
     "pagination":{
      "pgfolios":{
       "value":"9a"
      }
     }
    },
    {
     "filename":"I1KG91500022.jpg",
     "pagination":{
      "pgfolios":{
       "value":"9b"
      }
     }
    },
    {
     "filename":"I1KG91500023.jpg",
     "pagination":{
      "pgfolios":{
       "value":"10a"
      }
     }
    },
    {
     "filename":"I1KG91500024.jpg",
     "pagination":{
      "pgfolios":{
       "value":"10b"
      }
     }
    },
    {
     "filename":"I1KG91500025.jpg",
     "pagination":{
      "pgfolios":{
       "value":"11a"
      }
     }
    },
    {
     "filename":"I1KG91500026.jpg",
     "pagination":{
      "pgfolios":{
       "value":"11b"
      }
     }
    },
    {
     "filename":"I1KG91500027.jpg",
     "pagination":{
      "pgfolios":{
       "value":"12a"
      }
     }
    },
    {
     "filename":"I1KG91500028.jpg",
     "pagination":{
      "pgfolios":{
       "value":"12b"
      }
     }
    },
    {
     "filename":"I1KG91500029.jpg",
     "pagination":{
      "pgfolios":{
       "value":"13a"
      }
     }
    },
    {
     "filename":"I1KG91500030.jpg",
     "pagination":{
      "pgfolios":{
       "value":"13b"
      }
     }
    },
    {
     "filename":"I1KG91500031.jpg",
     "pagination":{
      "pgfolios":{
       "value":"14a"
      }
     }
    },
    {
     "filename":"I1KG91500032.jpg",
     "pagination":{
      "pgfolios":{
       "value":"14b"
      }
     }
    },
    {
     "filename":"I1KG91500033.jpg",
     "pagination":{
      "pgfolios":{
       "value":"15a"
      }
     }
    },
    {
     "filename":"I1KG91500034.jpg",
     "pagination":{
      "pgfolios":{
       "value":"15b"
      }
     }
    },
    {
     "filename":"I1KG91500035.jpg",
     "pagination":{
      "pgfolios":{
       "value":"16a"
      }
     }
    },
    {
     "filename":"I1KG91500036.jpg",
     "pagination":{
      "pgfolios":{
       "value":"16b"
      }
     }
    },
    {
     "filename":"I1KG91500037.jpg",
     "pagination":{
      "pgfolios":{
       "value":"17a"
      }
     }
    },
    {
     "filename":"I1KG91500038.jpg",
     "pagination":{
      "pgfolios":{
       "value":"17b"
      }
     }
    },
    {
     "filename":"I1KG91500039.jpg",
     "pagination":{
      "pgfolios":{
       "value":"18a"
      }
     }
    },
    {
     "filename":"I1KG91500040.jpg",
     "pagination":{
      "pgfolios":{
       "value":"18b"
      }
     }
    },
    {
     "filename":"I1KG91500041.jpg",
     "pagination":{
      "pgfolios":{
       "value":"19a"
      }
     }
    },
    {
     "filename":"I1KG91500042.jpg",
     "pagination":{
      "pgfolios":{
       "value":"19b"
      }
     }
    },
    {
     "filename":"I1KG91500043.jpg",
     "pagination":{
      "pgfolios":{
       "value":"20a"
      }
     }
    },
    {
     "filename":"I1KG91500044.jpg",
     "pagination":{
      "pgfolios":{
       "value":"20b"
      }
     }
    },
    {
     "filename":"I1KG91500045.jpg",
     "pagination":{
      "pgfolios":{
       "value":"21a"
      }
     }
    },
    {
     "filename":"I1KG91500046.jpg",
     "pagination":{
      "pgfolios":{
       "value":"21b"
      }
     }
    },
    {
     "filename":"I1KG91500047.jpg",
     "pagination":{
      "pgfolios":{
       "value":"22a"
      }
     }
    },
    {
     "filename":"I1KG91500048.jpg",
     "pagination":{
      "pgfolios":{
       "value":"22b"
      }
     }
    },
    {
     "filename":"I1KG91500049.jpg",
     "pagination":{
      "pgfolios":{
       "value":"23a"
      }
     }
    },
    {
     "filename":"I1KG91500050.jpg",
     "pagination":{
      "pgfolios":{
       "value":"23b"
      }
     }
    },
    {
     "filename":"I1KG91500051.jpg",
     "pagination":{
      "pgfolios":{
       "value":"24a"
      }
     }
    },
    {
     "filename":"I1KG91500052.jpg",
     "pagination":{
      "pgfolios":{
       "value":"24b"
      }
     }
    },
    {
     "filename":"I1KG91500053.jpg",
     "pagination":{
      "pgfolios":{
       "value":"25a"
      }
     }
    },
    {
     "filename":"I1KG91500054.jpg",
     "pagination":{
      "pgfolios":{
       "value":"25b"
      }
     }
    },
    {
     "filename":"I1KG91500055.jpg",
     "pagination":{
      "pgfolios":{
       "value":"26a"
      }
     }
    },
    {
     "filename":"I1KG91500056.jpg",
     "pagination":{
      "pgfolios":{
       "value":"26b"
      }
     }
    },
    {
     "filename":"I1KG91500057.jpg",
     "pagination":{
      "pgfolios":{
       "value":"27a"
      }
     }
    },
    {
     "filename":"I1KG91500058.jpg",
     "pagination":{
      "pgfolios":{
       "value":"27b"
      }
     }
    },
    {
     "filename":"I1KG91500059.jpg",
     "pagination":{
      "pgfolios":{
       "value":"28a"
      }
     }
    },
    {
     "filename":"I1KG91500060.jpg",
     "pagination":{
      "pgfolios":{
       "value":"28b"
      }
     }
    },
    {
     "filename":"I1KG91500061.jpg",
     "pagination":{
      "pgfolios":{
       "value":"29a"
      }
     }
    },
    {
     "filename":"I1KG91500062.jpg",
     "pagination":{
      "pgfolios":{
       "value":"29b"
      }
     }
    },
    {
     "filename":"I1KG91500063.jpg",
     "pagination":{
      "pgfolios":{
       "value":"30a"
      }
     }
    },
    {
     "filename":"I1KG91500064.jpg",
     "pagination":{
      "pgfolios":{
       "value":"30b"
      }
     }
    },
    {
     "filename":"I1KG91500065.jpg",
     "pagination":{
      "pgfolios":{
       "value":"31a"
      }
     }
    },
    {
     "filename":"I1KG91500066.jpg",
     "pagination":{
      "pgfolios":{
       "value":"31b"
      }
     }
    },
    {
     "filename":"I1KG91500067.jpg",
     "pagination":{
      "pgfolios":{
       "value":"32a"
      }
     }
    },
    {
     "filename":"I1KG91500068.jpg",
     "pagination":{
      "pgfolios":{
       "value":"32b"
      }
     }
    },
    {
     "filename":"I1KG91500069.jpg",
     "pagination":{
      "pgfolios":{
       "value":"33a"
      }
     }
    },
    {
     "filename":"I1KG91500070.jpg",
     "pagination":{
      "pgfolios":{
       "value":"33b"
      }
     }
    },
    {
     "filename":"I1KG91500071.jpg",
     "pagination":{
      "pgfolios":{
       "value":"34a"
      }
     }
    },
    {
     "filename":"I1KG91500072.jpg",
     "pagination":{
      "pgfolios":{
       "value":"34b"
      }
     }
    },
    {
     "filename":"I1KG91500073.jpg",
     "pagination":{
      "pgfolios":{
       "value":"35a"
      }
     }
    },
    {
     "filename":"I1KG91500074.jpg",
     "pagination":{
      "pgfolios":{
       "value":"35b"
      }
     }
    },
    {
     "filename":"I1KG91500075.jpg",
     "pagination":{
      "pgfolios":{
       "value":"36a"
      }
     }
    },
    {
     "filename":"I1KG91500076.jpg",
     "pagination":{
      "pgfolios":{
       "value":"36b"
      }
     }
    },
    {
     "filename":"I1KG91500077.jpg",
     "pagination":{
      "pgfolios":{
       "value":"37a"
      }
     }
    },
    {
     "filename":"I1KG91500078.jpg",
     "pagination":{
      "pgfolios":{
       "value":"37b"
      }
     }
    },
    {
     "filename":"I1KG91500079.jpg",
     "pagination":{
      "pgfolios":{
       "value":"38a"
      }
     }
    },
    {
     "filename":"I1KG91500080.jpg",
     "pagination":{
      "pgfolios":{
       "value":"38b"
      }
     }
    },
    {
     "filename":"I1KG91500081.jpg",
     "pagination":{
      "pgfolios":{
       "value":"39a"
      }
     }
    },
    {
     "filename":"I1KG91500082.jpg",
     "pagination":{
      "pgfolios":{
       "value":"39b"
      }
     }
    },
    {
     "filename":"I1KG91500083.jpg",
     "pagination":{
      "pgfolios":{
       "value":"40a"
      }
     }
    },
    {
     "filename":"I1KG91500084.jpg",
     "pagination":{
      "pgfolios":{
       "value":"40b"
      }
     }
    },
    {
     "filename":"I1KG91500085.jpg",
     "pagination":{
      "pgfolios":{
       "value":"41a"
      }
     }
    },
    {
     "filename":"I1KG91500086.jpg",
     "pagination":{
      "pgfolios":{
       "value":"41b"
      }
     }
    },
    {
     "filename":"I1KG91500087.jpg",
     "pagination":{
      "pgfolios":{
       "value":"42a"
      }
     }
    },
    {
     "filename":"I1KG91500088.jpg",
     "pagination":{
      "pgfolios":{
       "value":"42b"
      }
     }
    },
    {
     "filename":"I1KG91500089.jpg",
     "pagination":{
      "pgfolios":{
       "value":"43a"
      }
     }
    },
    {
     "filename":"I1KG91500090.jpg",
     "pagination":{
      "pgfolios":{
       "value":"43b"
      }
     }
    },
    {
     "filename":"I1KG91500091.jpg",
     "pagination":{
      "pgfolios":{
       "value":"44a"
      }
     }
    },
    {
     "filename":"I1KG91500092.jpg",
     "pagination":{
      "pgfolios":{
       "value":"44b"
      }
     }
    },
    {
     "filename":"I1KG91500093.jpg",
     "pagination":{
      "pgfolios":{
       "value":"45a"
      }
     }
    },
    {
     "filename":"I1KG91500094.jpg",
     "pagination":{
      "pgfolios":{
       "value":"45b"
      }
     }
    },
    {
     "filename":"I1KG91500095.jpg",
     "pagination":{
      "pgfolios":{
       "value":"46a"
      }
     }
    },
    {
     "filename":"I1KG91500096.jpg",
     "pagination":{
      "pgfolios":{
       "value":"46b"
      }
     }
    },
    {
     "filename":"I1KG91500097.jpg",
     "pagination":{
      "pgfolios":{
       "value":"47a"
      }
     }
    },
    {
     "filename":"I1KG91500098.jpg",
     "pagination":{
      "pgfolios":{
       "value":"47b"
      }
     }
    },
    {
     "filename":"I1KG91500099.jpg",
     "pagination":{
      "pgfolios":{
       "value":"48a"
      }
     }
    },
    {
     "filename":"I1KG91500100.jpg",
     "pagination":{
      "pgfolios":{
       "value":"48b"
      }
     }
    },
    {
     "filename":"I1KG91500101.jpg",
     "pagination":{
      "pgfolios":{
       "value":"49a"
      }
     }
    },
    {
     "filename":"I1KG91500102.jpg",
     "pagination":{
      "pgfolios":{
       "value":"49b"
      }
     }
    },
    {
     "filename":"I1KG91500103.jpg",
     "pagination":{
      "pgfolios":{
       "value":"50a"
      }
     }
    },
    {
     "filename":"I1KG91500104.jpg",
     "pagination":{
      "pgfolios":{
       "value":"50b"
      }
     }
    },
    {
     "filename":"I1KG91500105.jpg",
     "pagination":{
      "pgfolios":{
       "value":"51a"
      }
     }
    },
    {
     "filename":"I1KG91500106.jpg",
     "pagination":{
      "pgfolios":{
       "value":"51b"
      }
     }
    },
    {
     "filename":"I1KG91500107.jpg",
     "pagination":{
      "pgfolios":{
       "value":"52a"
      }
     }
    },
    {
     "filename":"I1KG91500108.jpg",
     "pagination":{
      "pgfolios":{
       "value":"52b"
      }
     }
    },
    {
     "filename":"I1KG91500109.jpg",
     "pagination":{
      "pgfolios":{
       "value":"53a"
      }
     }
    },
    {
     "filename":"I1KG91500110.jpg",
     "pagination":{
      "pgfolios":{
       "value":"53b"
      }
     }
    },
    {
     "filename":"I1KG91500111.jpg",
     "pagination":{
      "pgfolios":{
       "value":"54a"
      }
     }
    },
    {
     "filename":"I1KG91500112.jpg",
     "pagination":{
      "pgfolios":{
       "value":"54b"
      }
     }
    },
    {
     "filename":"I1KG91500113.jpg",
     "pagination":{
      "pgfolios":{
       "value":"55a"
      }
     }
    },
    {
     "filename":"I1KG91500114.jpg",
     "pagination":{
      "pgfolios":{
       "value":"55b"
      }
     }
    },
    {
     "filename":"I1KG91500115.jpg",
     "pagination":{
      "pgfolios":{
       "value":"56a"
      }
     }
    },
    {
     "filename":"I1KG91500116.jpg",
     "pagination":{
      "pgfolios":{
       "value":"56b"
      }
     }
    },
    {
     "filename":"I1KG91500117.jpg",
     "pagination":{
      "pgfolios":{
       "value":"57a"
      }
     }
    },
    {
     "filename":"I1KG91500118.jpg",
     "pagination":{
      "pgfolios":{
       "value":"57b"
      }
     }
    },
    {
     "filename":"I1KG91500119.jpg",
     "pagination":{
      "pgfolios":{
       "value":"58a"
      }
     }
    },
    {
     "filename":"I1KG91500120.jpg",
     "pagination":{
      "pgfolios":{
       "value":"58b"
      }
     }
    },
    {
     "filename":"I1KG91500121.jpg",
     "pagination":{
      "pgfolios":{
       "value":"59a"
      }
     }
    },
    {
     "filename":"I1KG91500122.jpg",
     "pagination":{
      "pgfolios":{
       "value":"59b"
      }
     }
    },
    {
     "filename":"I1KG91500123.jpg",
     "pagination":{
      "pgfolios":{
       "value":"60a"
      }
     }
    },
    {
     "filename":"I1KG91500124.jpg",
     "pagination":{
      "pgfolios":{
       "value":"60b"
      }
     }
    },
    {
     "filename":"I1KG91500125.jpg",
     "pagination":{
      "pgfolios":{
       "value":"61a"
      }
     }
    },
    {
     "filename":"I1KG91500126.jpg",
     "pagination":{
      "pgfolios":{
       "value":"61b"
      }
     }
    },
    {
     "filename":"I1KG91500127.jpg",
     "pagination":{
      "pgfolios":{
       "value":"62a"
      }
     }
    },
    {
     "filename":"I1KG91500128.jpg",
     "pagination":{
      "pgfolios":{
       "value":"62b"
      }
     }
    },
    {
     "filename":"I1KG91500129.jpg",
     "pagination":{
      "pgfolios":{
       "value":"63a"
      }
     }
    },
    {
     "filename":"I1KG91500130.jpg",
     "pagination":{
      "pgfolios":{
       "value":"63b"
      }
     }
    },
    {
     "filename":"I1KG91500131.jpg",
     "pagination":{
      "pgfolios":{
       "value":"64a"
      }
     }
    },
    {
     "filename":"I1KG91500132.jpg",
     "pagination":{
      "pgfolios":{
       "value":"64b"
      }
     }
    },
    {
     "filename":"I1KG91500133.jpg",
     "pagination":{
      "pgfolios":{
       "value":"65a"
      }
     }
    },
    {
     "filename":"I1KG91500134.jpg",
     "pagination":{
      "pgfolios":{
       "value":"65b"
      }
     }
    },
    {
     "filename":"I1KG91500135.jpg",
     "pagination":{
      "pgfolios":{
       "value":"66a"
      }
     }
    },
    {
     "filename":"I1KG91500136.jpg",
     "pagination":{
      "pgfolios":{
       "value":"66b"
      }
     }
    },
    {
     "filename":"I1KG91500137.jpg",
     "pagination":{
      "pgfolios":{
       "value":"67a"
      }
     }
    },
    {
     "filename":"I1KG91500138.jpg",
     "pagination":{
      "pgfolios":{
       "value":"67b"
      }
     }
    },
    {
     "filename":"I1KG91500139.jpg",
     "pagination":{
      "pgfolios":{
       "value":"68a"
      }
     }
    },
    {
     "filename":"I1KG91500140.jpg",
     "pagination":{
      "pgfolios":{
       "value":"68b"
      }
     }
    },
    {
     "filename":"I1KG91500141.jpg",
     "pagination":{
      "pgfolios":{
       "value":"69a"
      }
     }
    },
    {
     "filename":"I1KG91500142.jpg",
     "pagination":{
      "pgfolios":{
       "value":"69b"
      }
     }
    },
    {
     "filename":"I1KG91500143.jpg",
     "pagination":{
      "pgfolios":{
       "value":"70a"
      }
     }
    },
    {
     "filename":"I1KG91500144.jpg",
     "pagination":{
      "pgfolios":{
       "value":"70b"
      }
     }
    },
    {
     "filename":"I1KG91500145.jpg",
     "pagination":{
      "pgfolios":{
       "value":"71a"
      }
     }
    },
    {
     "filename":"I1KG91500146.jpg",
     "pagination":{
      "pgfolios":{
       "value":"71b"
      }
     }
    },
    {
     "filename":"I1KG91500147.jpg",
     "pagination":{
      "pgfolios":{
       "value":"72a"
      }
     }
    },
    {
     "filename":"I1KG91500148.jpg",
     "pagination":{
      "pgfolios":{
       "value":"72b"
      }
     }
    },
    {
     "filename":"I1KG91500149.jpg",
     "pagination":{
      "pgfolios":{
       "value":"73a"
      }
     }
    },
    {
     "filename":"I1KG91500150.jpg",
     "pagination":{
      "pgfolios":{
       "value":"73b"
      }
     }
    },
    {
     "filename":"I1KG91500151.jpg",
     "pagination":{
      "pgfolios":{
       "value":"74a"
      }
     }
    },
    {
     "filename":"I1KG91500152.jpg",
     "pagination":{
      "pgfolios":{
       "value":"74b"
      }
     }
    },
    {
     "filename":"I1KG91500153.jpg",
     "pagination":{
      "pgfolios":{
       "value":"75a"
      }
     }
    },
    {
     "filename":"I1KG91500154.jpg",
     "pagination":{
      "pgfolios":{
       "value":"75b"
      }
     }
    },
    {
     "filename":"I1KG91500155.jpg",
     "pagination":{
      "pgfolios":{
       "value":"76a"
      }
     }
    },
    {
     "filename":"I1KG91500156.jpg",
     "pagination":{
      "pgfolios":{
       "value":"76b"
      }
     }
    },
    {
     "filename":"I1KG91500157.jpg",
     "pagination":{
      "pgfolios":{
       "value":"77a"
      }
     }
    },
    {
     "filename":"I1KG91500158.jpg",
     "pagination":{
      "pgfolios":{
       "value":"77b"
      }
     }
    },
    {
     "filename":"I1KG91500159.jpg",
     "pagination":{
      "pgfolios":{
       "value":"78a"
      }
     }
    },
    {
     "filename":"I1KG91500160.jpg",
     "pagination":{
      "pgfolios":{
       "value":"78b"
      }
     }
    },
    {
     "filename":"I1KG91500161.jpg",
     "pagination":{
      "pgfolios":{
       "value":"79a"
      }
     }
    },
    {
     "filename":"I1KG91500162.jpg",
     "pagination":{
      "pgfolios":{
       "value":"79b"
      }
     }
    },
    {
     "filename":"I1KG91500163.jpg",
     "pagination":{
      "pgfolios":{
       "value":"80a"
      }
     }
    },
    {
     "filename":"I1KG91500164.jpg",
     "pagination":{
      "pgfolios":{
       "value":"80b"
      }
     }
    },
    {
     "filename":"I1KG91500165.jpg",
     "pagination":{
      "pgfolios":{
       "value":"81a"
      }
     }
    },
    {
     "filename":"I1KG91500166.jpg",
     "pagination":{
      "pgfolios":{
       "value":"81b"
      }
     }
    },
    {
     "filename":"I1KG91500167.jpg",
     "pagination":{
      "pgfolios":{
       "value":"82a"
      }
     }
    },
    {
     "filename":"I1KG91500168.jpg",
     "pagination":{
      "pgfolios":{
       "value":"82b"
      }
     }
    },
    {
     "filename":"I1KG91500169.jpg",
     "pagination":{
      "pgfolios":{
       "value":"83a"
      }
     }
    },
    {
     "filename":"I1KG91500170.jpg",
     "pagination":{
      "pgfolios":{
       "value":"83b"
      }
     }
    },
    {
     "filename":"I1KG91500171.jpg",
     "pagination":{
      "pgfolios":{
       "value":"84a"
      }
     }
    },
    {
     "filename":"I1KG91500172.jpg",
     "pagination":{
      "pgfolios":{
       "value":"84b"
      }
     }
    },
    {
     "filename":"I1KG91500173.jpg",
     "pagination":{
      "pgfolios":{
       "value":"85a"
      }
     }
    },
    {
     "filename":"I1KG91500174.jpg",
     "pagination":{
      "pgfolios":{
       "value":"85b"
      }
     }
    },
    {
     "filename":"I1KG91500175.jpg",
     "pagination":{
      "pgfolios":{
       "value":"86a"
      }
     }
    },
    {
     "filename":"I1KG91500176.jpg",
     "pagination":{
      "pgfolios":{
       "value":"86b"
      }
     }
    },
    {
     "filename":"I1KG91500177.jpg",
     "pagination":{
      "pgfolios":{
       "value":"87a"
      }
     }
    },
    {
     "filename":"I1KG91500178.jpg",
     "pagination":{
      "pgfolios":{
       "value":"87b"
      }
     }
    },
    {
     "filename":"I1KG91500179.jpg",
     "pagination":{
      "pgfolios":{
       "value":"88a"
      }
     }
    },
    {
     "filename":"I1KG91500180.jpg",
     "pagination":{
      "pgfolios":{
       "value":"88b"
      }
     }
    },
    {
     "filename":"I1KG91500181.jpg",
     "pagination":{
      "pgfolios":{
       "value":"89a"
      }
     }
    },
    {
     "filename":"I1KG91500182.jpg",
     "pagination":{
      "pgfolios":{
       "value":"89b"
      }
     }
    },
    {
     "filename":"I1KG91500183.jpg",
     "pagination":{
      "pgfolios":{
       "value":"90a"
      }
     }
    },
    {
     "filename":"I1KG91500184.jpg",
     "pagination":{
      "pgfolios":{
       "value":"90b"
      }
     }
    },
    {
     "filename":"I1KG91500185.jpg",
     "pagination":{
      "pgfolios":{
       "value":"91a"
      }
     }
    },
    {
     "filename":"I1KG91500186.jpg",
     "pagination":{
      "pgfolios":{
       "value":"91b"
      }
     }
    },
    {
     "filename":"I1KG91500187.jpg",
     "pagination":{
      "pgfolios":{
       "value":"92a"
      }
     }
    },
    {
     "filename":"I1KG91500188.jpg",
     "pagination":{
      "pgfolios":{
       "value":"92b"
      }
     }
    },
    {
     "filename":"I1KG91500189.jpg",
     "pagination":{
      "pgfolios":{
       "value":"93a"
      }
     }
    },
    {
     "filename":"I1KG91500190.jpg",
     "pagination":{
      "pgfolios":{
       "value":"93b"
      }
     }
    },
    {
     "filename":"I1KG91500191.jpg",
     "pagination":{
      "pgfolios":{
       "value":"94a"
      }
     }
    },
    {
     "filename":"I1KG91500192.jpg",
     "pagination":{
      "pgfolios":{
       "value":"94b"
      }
     }
    },
    {
     "filename":"I1KG91500193.jpg",
     "pagination":{
      "pgfolios":{
       "value":"95a"
      }
     }
    },
    {
     "filename":"I1KG91500194.jpg",
     "pagination":{
      "pgfolios":{
       "value":"95b"
      }
     }
    },
    {
     "filename":"I1KG91500195.jpg",
     "pagination":{
      "pgfolios":{
       "value":"96a"
      }
     }
    },
    {
     "filename":"I1KG91500196.jpg",
     "pagination":{
      "pgfolios":{
       "value":"96b"
      }
     }
    },
    {
     "filename":"I1KG91500197.jpg",
     "pagination":{
      "pgfolios":{
       "value":"97a"
      }
     }
    },
    {
     "filename":"I1KG91500198.jpg",
     "pagination":{
      "pgfolios":{
       "value":"97b"
      }
     }
    },
    {
     "filename":"I1KG91500199.jpg",
     "pagination":{
      "pgfolios":{
       "value":"98a"
      }
     }
    },
    {
     "filename":"I1KG91500200.jpg",
     "pagination":{
      "pgfolios":{
       "value":"98b"
      }
     }
    },
    {
     "filename":"I1KG91500201.jpg",
     "pagination":{
      "pgfolios":{
       "value":"99a"
      }
     }
    },
    {
     "filename":"I1KG91500202.jpg",
     "pagination":{
      "pgfolios":{
       "value":"99b"
      }
     }
    },
    {
     "filename":"I1KG91500203.jpg",
     "pagination":{
      "pgfolios":{
       "value":"100a"
      }
     }
    },
    {
     "filename":"I1KG91500204.jpg",
     "pagination":{
      "pgfolios":{
       "value":"100b"
      }
     }
    },
    {
     "filename":"I1KG91500205.jpg",
     "pagination":{
      "pgfolios":{
       "value":"101a"
      }
     }
    },
    {
     "filename":"I1KG91500206.jpg",
     "pagination":{
      "pgfolios":{
       "value":"101b"
      }
     }
    },
    {
     "filename":"I1KG91500207.jpg",
     "pagination":{
      "pgfolios":{
       "value":"102a"
      }
     }
    },
    {
     "filename":"I1KG91500208.jpg",
     "pagination":{
      "pgfolios":{
       "value":"102b"
      }
     }
    },
    {
     "filename":"I1KG91500209.jpg",
     "pagination":{
      "pgfolios":{
       "value":"103a"
      }
     }
    },
    {
     "filename":"I1KG91500210.jpg",
     "pagination":{
      "pgfolios":{
       "value":"103b"
      }
     }
    },
    {
     "filename":"I1KG91500211.jpg",
     "pagination":{
      "pgfolios":{
       "value":"104a"
      }
     }
    },
    {
     "filename":"I1KG91500212.jpg",
     "pagination":{
      "pgfolios":{
       "value":"104b"
      }
     }
    },
    {
     "filename":"I1KG91500213.jpg",
     "pagination":{
      "pgfolios":{
       "value":"105a"
      }
     }
    },
    {
     "filename":"I1KG91500214.jpg",
     "pagination":{
      "pgfolios":{
       "value":"105b"
      }
     }
    },
    {
     "filename":"I1KG91500215.jpg",
     "pagination":{
      "pgfolios":{
       "value":"106a"
      }
     }
    },
    {
     "filename":"I1KG91500216.jpg",
     "pagination":{
      "pgfolios":{
       "value":"106b"
      }
     }
    },
    {
     "filename":"I1KG91500217.jpg",
     "pagination":{
      "pgfolios":{
       "value":"107a"
      }
     }
    },
    {
     "filename":"I1KG91500218.jpg",
     "pagination":{
      "pgfolios":{
       "value":"107b"
      }
     }
    },
    {
     "filename":"I1KG91500219.jpg",
     "pagination":{
      "pgfolios":{
       "value":"108a"
      }
     }
    },
    {
     "filename":"I1KG91500220.jpg",
     "pagination":{
      "pgfolios":{
       "value":"108b"
      }
     }
    },
    {
     "filename":"I1KG91500221.jpg",
     "pagination":{
      "pgfolios":{
       "value":"109a"
      }
     }
    },
    {
     "filename":"I1KG91500222.jpg",
     "pagination":{
      "pgfolios":{
       "value":"109b"
      }
     }
    },
    {
     "filename":"I1KG91500223.jpg",
     "pagination":{
      "pgfolios":{
       "value":"110a"
      }
     }
    },
    {
     "filename":"I1KG91500224.jpg",
     "pagination":{
      "pgfolios":{
       "value":"110b"
      }
     }
    },
    {
     "filename":"I1KG91500225.jpg",
     "pagination":{
      "pgfolios":{
       "value":"111a"
      }
     }
    },
    {
     "filename":"I1KG91500226.jpg",
     "pagination":{
      "pgfolios":{
       "value":"111b"
      }
     }
    },
    {
     "filename":"I1KG91500227.jpg",
     "pagination":{
      "pgfolios":{
       "value":"112a"
      }
     }
    },
    {
     "filename":"I1KG91500228.jpg",
     "pagination":{
      "pgfolios":{
       "value":"112b"
      }
     }
    },
    {
     "filename":"I1KG91500229.jpg",
     "pagination":{
      "pgfolios":{
       "value":"113a"
      }
     }
    },
    {
     "filename":"I1KG91500230.jpg",
     "pagination":{
      "pgfolios":{
       "value":"113b"
      }
     }
    },
    {
     "filename":"I1KG91500231.jpg",
     "pagination":{
      "pgfolios":{
       "value":"114a"
      }
     }
    },
    {
     "filename":"I1KG91500232.jpg",
     "pagination":{
      "pgfolios":{
       "value":"114b"
      }
     }
    },
    {
     "filename":"I1KG91500233.jpg",
     "pagination":{
      "pgfolios":{
       "value":"115a"
      }
     }
    },
    {
     "filename":"I1KG91500234.jpg",
     "pagination":{
      "pgfolios":{
       "value":"115b"
      }
     }
    },
    {
     "filename":"I1KG91500235.jpg",
     "pagination":{
      "pgfolios":{
       "value":"116a"
      }
     }
    },
    {
     "filename":"I1KG91500236.jpg",
     "pagination":{
      "pgfolios":{
       "value":"116b"
      }
     }
    },
    {
     "filename":"I1KG91500237.jpg",
     "pagination":{
      "pgfolios":{
       "value":"117a"
      }
     }
    },
    {
     "filename":"I1KG91500238.jpg",
     "pagination":{
      "pgfolios":{
       "value":"117b"
      }
     }
    },
    {
     "filename":"I1KG91500239.jpg",
     "pagination":{
      "pgfolios":{
       "value":"118a"
      }
     }
    },
    {
     "filename":"I1KG91500240.jpg",
     "pagination":{
      "pgfolios":{
       "value":"118b"
      }
     }
    },
    {
     "filename":"I1KG91500241.jpg",
     "pagination":{
      "pgfolios":{
       "value":"119a"
      }
     }
    },
    {
     "filename":"I1KG91500242.jpg",
     "pagination":{
      "pgfolios":{
       "value":"119b"
      }
     }
    },
    {
     "filename":"I1KG91500243.jpg",
     "pagination":{
      "pgfolios":{
       "value":"120a"
      }
     }
    },
    {
     "filename":"I1KG91500244.jpg",
     "pagination":{
      "pgfolios":{
       "value":"120b"
      }
     }
    },
    {
     "filename":"I1KG91500245.jpg",
     "pagination":{
      "pgfolios":{
       "value":"121a"
      }
     }
    },
    {
     "filename":"I1KG91500246.jpg",
     "pagination":{
      "pgfolios":{
       "value":"121b"
      }
     }
    },
    {
     "filename":"I1KG91500247.jpg",
     "pagination":{
      "pgfolios":{
       "value":"122a"
      }
     }
    },
    {
     "filename":"I1KG91500248.jpg",
     "pagination":{
      "pgfolios":{
       "value":"122b"
      }
     }
    },
    {
     "filename":"I1KG91500249.jpg",
     "pagination":{
      "pgfolios":{
       "value":"123a"
      }
     }
    },
    {
     "filename":"I1KG91500250.jpg",
     "pagination":{
      "pgfolios":{
       "value":"123b"
      }
     }
    },
    {
     "filename":"I1KG91500251.jpg",
     "pagination":{
      "pgfolios":{
       "value":"124a"
      }
     }
    },
    {
     "filename":"I1KG91500252.jpg",
     "pagination":{
      "pgfolios":{
       "value":"124b"
      }
     }
    },
    {
     "filename":"I1KG91500253.jpg",
     "pagination":{
      "pgfolios":{
       "value":"125a"
      }
     }
    },
    {
     "filename":"I1KG91500254.jpg",
     "pagination":{
      "pgfolios":{
       "value":"125b"
      }
     }
    },
    {
     "filename":"I1KG91500255.jpg",
     "pagination":{
      "pgfolios":{
       "value":"126a"
      }
     }
    },
    {
     "filename":"I1KG91500256.jpg",
     "pagination":{
      "pgfolios":{
       "value":"126b"
      }
     }
    },
    {
     "filename":"I1KG91500257.jpg",
     "pagination":{
      "pgfolios":{
       "value":"127a"
      }
     }
    },
    {
     "filename":"I1KG91500258.jpg",
     "pagination":{
      "pgfolios":{
       "value":"127b"
      }
     }
    },
    {
     "filename":"I1KG91500259.jpg",
     "pagination":{
      "pgfolios":{
       "value":"128a"
      }
     }
    },
    {
     "filename":"I1KG91500260.jpg",
     "pagination":{
      "pgfolios":{
       "value":"128b"
      }
     }
    },
    {
     "filename":"I1KG91500261.jpg",
     "pagination":{
      "pgfolios":{
       "value":"129a"
      }
     }
    },
    {
     "filename":"I1KG91500262.jpg",
     "pagination":{
      "pgfolios":{
       "value":"129b"
      }
     }
    },
    {
     "filename":"I1KG91500263.jpg",
     "pagination":{
      "pgfolios":{
       "value":"130a"
      }
     }
    },
    {
     "filename":"I1KG91500264.jpg",
     "pagination":{
      "pgfolios":{
       "value":"130b"
      }
     }
    },
    {
     "filename":"I1KG91500265.jpg",
     "pagination":{
      "pgfolios":{
       "value":"131a"
      }
     }
    },
    {
     "filename":"I1KG91500266.jpg",
     "pagination":{
      "pgfolios":{
       "value":"131b"
      }
     }
    },
    {
     "filename":"I1KG91500267.jpg",
     "pagination":{
      "pgfolios":{
       "value":"132a"
      }
     }
    },
    {
     "filename":"I1KG91500268.jpg",
     "pagination":{
      "pgfolios":{
       "value":"132b"
      }
     }
    },
    {
     "filename":"I1KG91500269.jpg",
     "pagination":{
      "pgfolios":{
       "value":"133a"
      }
     }
    },
    {
     "filename":"I1KG91500270.jpg",
     "pagination":{
      "pgfolios":{
       "value":"133b"
      }
     }
    },
    {
     "filename":"I1KG91500271.jpg",
     "pagination":{
      "pgfolios":{
       "value":"134a"
      }
     }
    },
    {
     "filename":"I1KG91500272.jpg",
     "pagination":{
      "pgfolios":{
       "value":"134b"
      }
     }
    },
    {
     "filename":"I1KG91500273.jpg",
     "pagination":{
      "pgfolios":{
       "value":"135a"
      }
     }
    },
    {
     "filename":"I1KG91500274.jpg",
     "pagination":{
      "pgfolios":{
       "value":"135b"
      }
     }
    },
    {
     "filename":"I1KG91500275.jpg",
     "pagination":{
      "pgfolios":{
       "value":"136a"
      }
     }
    },
    {
     "filename":"I1KG91500276.jpg",
     "pagination":{
      "pgfolios":{
       "value":"136b"
      }
     }
    },
    {
     "filename":"I1KG91500277.jpg",
     "pagination":{
      "pgfolios":{
       "value":"137a"
      }
     }
    },
    {
     "pagination":{
      "pgfolios":{
       "value":"137b"
      }
     },
     "tags":[
      "T0020"
     ]
    },
    {
     "filename":"I1KG91500278.jpg",
     "pagination":{
      "pgfolios":{
       "value":"138a"
      }
     }
    },
    {
     "filename":"I1KG91500279.jpg",
     "pagination":{
      "pgfolios":{
       "value":"138b"
      }
     }
    },
    {
     "filename":"I1KG91500280.jpg",
     "pagination":{
      "pgfolios":{
       "value":"139a"
      }
     }
    },
    {
     "filename":"I1KG91500281.jpg",
     "pagination":{
      "pgfolios":{
       "value":"139b"
      }
     }
    },
    {
     "filename":"I1KG91500282.jpg",
     "pagination":{
      "pgfolios":{
       "value":"140a"
      }
     }
    },
    {
     "filename":"I1KG91500283.jpg",
     "pagination":{
      "pgfolios":{
       "value":"140b"
      }
     }
    },
    {
     "filename":"I1KG91500284.jpg",
     "pagination":{
      "pgfolios":{
       "value":"141a"
      }
     }
    },
    {
     "filename":"I1KG91500285.jpg",
     "pagination":{
      "pgfolios":{
       "value":"141b"
      }
     }
    },
    {
     "filename":"I1KG91500286.jpg",
     "pagination":{
      "pgfolios":{
       "value":"142a"
      }
     }
    },
    {
     "filename":"I1KG91500287.jpg",
     "pagination":{
      "pgfolios":{
       "value":"142b"
      }
     }
    },
    {
     "filename":"I1KG91500288.jpg",
     "pagination":{
      "pgfolios":{
       "value":"143a"
      }
     }
    },
    {
     "filename":"I1KG91500289.jpg",
     "pagination":{
      "pgfolios":{
       "value":"143b"
      }
     }
    },
    {
     "filename":"I1KG91500290.jpg",
     "pagination":{
      "pgfolios":{
       "value":"144a"
      }
     }
    },
    {
     "filename":"I1KG91500291.jpg",
     "pagination":{
      "pgfolios":{
       "value":"144b"
      }
     }
    },
    {
     "filename":"I1KG91500292.jpg",
     "pagination":{
      "pgfolios":{
       "value":"145a"
      }
     }
    },
    {
     "filename":"I1KG91500293.jpg",
     "pagination":{
      "pgfolios":{
       "value":"145b"
      }
     }
    },
    {
     "filename":"I1KG91500294.jpg",
     "pagination":{
      "pgfolios":{
       "value":"146a"
      }
     }
    },
    {
     "filename":"I1KG91500295.jpg",
     "pagination":{
      "pgfolios":{
       "value":"146b"
      }
     }
    },
    {
     "filename":"I1KG91500296.jpg",
     "pagination":{
      "pgfolios":{
       "value":"147a"
      }
     }
    },
    {
     "filename":"I1KG91500297.jpg",
     "pagination":{
      "pgfolios":{
       "value":"147b"
      }
     }
    },
    {
     "filename":"I1KG91500298.jpg",
     "pagination":{
      "pgfolios":{
       "value":"148a"
      }
     }
    },
    {
     "filename":"I1KG91500299.jpg",
     "pagination":{
      "pgfolios":{
       "value":"148b"
      }
     }
    },
    {
     "filename":"I1KG91500300.jpg",
     "pagination":{
      "pgfolios":{
       "value":"149a"
      }
     }
    },
    {
     "filename":"I1KG91500301.jpg",
     "pagination":{
      "pgfolios":{
       "value":"149b"
      }
     }
    },
    {
     "filename":"I1KG91500302.jpg",
     "pagination":{
      "pgfolios":{
       "value":"150a"
      }
     }
    },
    {
     "filename":"I1KG91500303.jpg",
     "pagination":{
      "pgfolios":{
       "value":"150b"
      }
     }
    },
    {
     "filename":"I1KG91500304.jpg",
     "pagination":{
      "pgfolios":{
       "value":"151a"
      }
     }
    },
    {
     "filename":"I1KG91500305.jpg",
     "pagination":{
      "pgfolios":{
       "value":"151b"
      }
     }
    },
    {
     "filename":"I1KG91500306.jpg",
     "pagination":{
      "pgfolios":{
       "value":"152a"
      }
     }
    },
    {
     "filename":"I1KG91500307.jpg",
     "pagination":{
      "pgfolios":{
       "value":"152b"
      }
     }
    },
    {
     "filename":"I1KG91500308.jpg",
     "pagination":{
      "pgfolios":{
       "value":"153a"
      }
     }
    },
    {
     "filename":"I1KG91500309.jpg",
     "pagination":{
      "pgfolios":{
       "value":"153b"
      }
     }
    },
    {
     "filename":"I1KG91500310.jpg",
     "pagination":{
      "pgfolios":{
       "value":"154a"
      }
     }
    },
    {
     "filename":"I1KG91500311.jpg",
     "pagination":{
      "pgfolios":{
       "value":"154b"
      }
     }
    },
    {
     "filename":"I1KG91500312.jpg",
     "pagination":{
      "pgfolios":{
       "value":"155a"
      }
     }
    },
    {
     "filename":"I1KG91500313.jpg",
     "pagination":{
      "pgfolios":{
       "value":"155b"
      }
     }
    },
    {
     "filename":"I1KG91500314.jpg",
     "pagination":{
      "pgfolios":{
       "value":"156a"
      }
     }
    },
    {
     "filename":"I1KG91500315.jpg",
     "pagination":{
      "pgfolios":{
       "value":"156b"
      }
     }
    },
    {
     "filename":"I1KG91500316.jpg",
     "pagination":{
      "pgfolios":{
       "value":"157a"
      }
     }
    },
    {
     "filename":"I1KG91500317.jpg",
     "pagination":{
      "pgfolios":{
       "value":"157b"
      }
     }
    },
    {
     "filename":"I1KG91500318.jpg",
     "pagination":{
      "pgfolios":{
       "value":"158a"
      }
     }
    },
    {
     "filename":"I1KG91500319.jpg",
     "pagination":{
      "pgfolios":{
       "value":"158b"
      }
     }
    },
    {
     "filename":"I1KG91500320.jpg",
     "pagination":{
      "pgfolios":{
       "value":"159a"
      }
     }
    },
    {
     "filename":"I1KG91500321.jpg",
     "pagination":{
      "pgfolios":{
       "value":"159b"
      }
     }
    },
    {
     "filename":"I1KG91500322.jpg",
     "pagination":{
      "pgfolios":{
       "value":"160a"
      }
     }
    },
    {
     "filename":"I1KG91500323.jpg",
     "pagination":{
      "pgfolios":{
       "value":"160b"
      }
     }
    },
    {
     "filename":"I1KG91500324.jpg",
     "pagination":{
      "pgfolios":{
       "value":"161a"
      }
     }
    },
    {
     "filename":"I1KG91500325.jpg",
     "pagination":{
      "pgfolios":{
       "value":"161b"
      }
     }
    },
    {
     "filename":"I1KG91500326.jpg",
     "pagination":{
      "pgfolios":{
       "value":"162a"
      }
     }
    },
    {
     "filename":"I1KG91500327.jpg",
     "pagination":{
      "pgfolios":{
       "value":"162b"
      }
     }
    },
    {
     "filename":"I1KG91500328.jpg",
     "pagination":{
      "pgfolios":{
       "value":"163a"
      }
     }
    },
    {
     "filename":"I1KG91500329.jpg",
     "pagination":{
      "pgfolios":{
       "value":"163b"
      }
     }
    },
    {
     "filename":"I1KG91500330.jpg",
     "pagination":{
      "pgfolios":{
       "value":"164a"
      }
     }
    },
    {
     "filename":"I1KG91500331.jpg",
     "pagination":{
      "pgfolios":{
       "value":"164b"
      }
     }
    },
    {
     "filename":"I1KG91500332.jpg",
     "pagination":{
      "pgfolios":{
       "value":"165a"
      }
     }
    },
    {
     "filename":"I1KG91500333.jpg",
     "pagination":{
      "pgfolios":{
       "value":"165b"
      }
     }
    },
    {
     "filename":"I1KG91500334.jpg",
     "pagination":{
      "pgfolios":{
       "value":"166a"
      }
     }
    },
    {
     "filename":"I1KG91500335.jpg",
     "pagination":{
      "pgfolios":{
       "value":"166b"
      }
     }
    },
    {
     "filename":"I1KG91500336.jpg",
     "pagination":{
      "pgfolios":{
       "value":"167a"
      }
     }
    },
    {
     "filename":"I1KG91500337.jpg",
     "pagination":{
      "pgfolios":{
       "value":"167b"
      }
     }
    },
    {
     "filename":"I1KG91500338.jpg",
     "pagination":{
      "pgfolios":{
       "value":"168a"
      }
     }
    },
    {
     "filename":"I1KG91500339.jpg",
     "pagination":{
      "pgfolios":{
       "value":"168b"
      }
     }
    },
    {
     "filename":"I1KG91500340.jpg",
     "pagination":{
      "pgfolios":{
       "value":"169a"
      }
     }
    },
    {
     "filename":"I1KG91500341.jpg",
     "pagination":{
      "pgfolios":{
       "value":"169b"
      }
     }
    },
    {
     "filename":"I1KG91500342.jpg",
     "pagination":{
      "pgfolios":{
       "value":"170a"
      }
     }
    },
    {
     "filename":"I1KG91500343.jpg",
     "pagination":{
      "pgfolios":{
       "value":"170b"
      }
     }
    },
    {
     "filename":"I1KG91500344.jpg",
     "pagination":{
      "pgfolios":{
       "value":"171a"
      }
     }
    },
    {
     "filename":"I1KG91500345.jpg",
     "pagination":{
      "pgfolios":{
       "value":"171b"
      }
     }
    },
    {
     "filename":"I1KG91500346.jpg",
     "pagination":{
      "pgfolios":{
       "value":"172a"
      }
     }
    },
    {
     "filename":"I1KG91500347.jpg",
     "pagination":{
      "pgfolios":{
       "value":"172b"
      }
     }
    },
    {
     "filename":"I1KG91500348.jpg",
     "pagination":{
      "pgfolios":{
       "value":"173a"
      }
     }
    },
    {
     "filename":"I1KG91500349.jpg",
     "pagination":{
      "pgfolios":{
       "value":"173b"
      }
     }
    },
    {
     "filename":"I1KG91500350.jpg",
     "pagination":{
      "pgfolios":{
       "value":"174a"
      }
     }
    },
    {
     "filename":"I1KG91500351.jpg",
     "pagination":{
      "pgfolios":{
       "value":"174b"
      }
     }
    },
    {
     "filename":"I1KG91500352.jpg",
     "pagination":{
      "pgfolios":{
       "value":"175a"
      }
     }
    },
    {
     "filename":"I1KG91500353.jpg",
     "pagination":{
      "pgfolios":{
       "value":"175b"
      }
     }
    },
    {
     "filename":"I1KG91500354.jpg",
     "pagination":{
      "pgfolios":{
       "value":"176a"
      }
     }
    },
    {
     "filename":"I1KG91500355.jpg",
     "pagination":{
      "pgfolios":{
       "value":"176b"
      }
     }
    },
    {
     "filename":"I1KG91500356.jpg",
     "pagination":{
      "pgfolios":{
       "value":"177a"
      }
     }
    },
    {
     "filename":"I1KG91500357.jpg",
     "pagination":{
      "pgfolios":{
       "value":"177b"
      }
     }
    },
    {
     "filename":"I1KG91500358.jpg",
     "pagination":{
      "pgfolios":{
       "value":"178a"
      }
     }
    },
    {
     "filename":"I1KG91500359.jpg",
     "pagination":{
      "pgfolios":{
       "value":"178b"
      }
     }
    },
    {
     "filename":"I1KG91500360.jpg",
     "pagination":{
      "pgfolios":{
       "value":"179a"
      }
     }
    },
    {
     "filename":"I1KG91500361.jpg",
     "pagination":{
      "pgfolios":{
       "value":"179b"
      }
     }
    },
    {
     "filename":"I1KG91500362.jpg",
     "pagination":{
      "pgfolios":{
       "value":"180a"
      }
     }
    },
    {
     "filename":"I1KG91500363.jpg",
     "pagination":{
      "pgfolios":{
       "value":"180b"
      }
     }
    },
    {
     "filename":"I1KG91500364.jpg",
     "pagination":{
      "pgfolios":{
       "value":"181a"
      }
     }
    },
    {
     "filename":"I1KG91500365.jpg",
     "pagination":{
      "pgfolios":{
       "value":"181b"
      }
     }
    },
    {
     "filename":"I1KG91500366.jpg",
     "pagination":{
      "pgfolios":{
       "value":"182a"
      }
     }
    },
    {
     "filename":"I1KG91500367.jpg",
     "pagination":{
      "pgfolios":{
       "value":"182b"
      }
     }
    },
    {
     "filename":"I1KG91500368.jpg",
     "pagination":{
      "pgfolios":{
       "value":"183a"
      }
     }
    },
    {
     "filename":"I1KG91500369.jpg",
     "pagination":{
      "pgfolios":{
       "value":"183b"
      }
     }
    },
    {
     "filename":"I1KG91500370.jpg",
     "pagination":{
      "pgfolios":{
       "value":"184a"
      }
     }
    },
    {
     "filename":"I1KG91500371.jpg",
     "pagination":{
      "pgfolios":{
       "value":"184b"
      }
     }
    },
    {
     "filename":"I1KG91500372.jpg",
     "pagination":{
      "pgfolios":{
       "value":"185a"
      }
     }
    },
    {
     "filename":"I1KG91500373.jpg",
     "pagination":{
      "pgfolios":{
       "value":"185b"
      }
     }
    },
    {
     "filename":"I1KG91500374.jpg",
     "pagination":{
      "pgfolios":{
       "value":"186a"
      }
     }
    },
    {
     "filename":"I1KG91500375.jpg",
     "pagination":{
      "pgfolios":{
       "value":"186b"
      }
     }
    },
    {
     "filename":"I1KG91500376.jpg",
     "pagination":{
      "pgfolios":{
       "value":"187a"
      }
     }
    },
    {
     "filename":"I1KG91500377.jpg",
     "pagination":{
      "pgfolios":{
       "value":"187b"
      }
     }
    },
    {
     "filename":"I1KG91500378.jpg",
     "pagination":{
      "pgfolios":{
       "value":"188a"
      }
     }
    },
    {
     "filename":"I1KG91500379.jpg",
     "pagination":{
      "pgfolios":{
       "value":"188b"
      }
     }
    },
    {
     "filename":"I1KG91500380.jpg",
     "pagination":{
      "pgfolios":{
       "value":"189a"
      }
     }
    },
    {
     "filename":"I1KG91500381.jpg",
     "pagination":{
      "pgfolios":{
       "value":"189b"
      }
     }
    },
    {
     "filename":"I1KG91500382.jpg",
     "pagination":{
      "pgfolios":{
       "value":"190a"
      }
     }
    },
    {
     "filename":"I1KG91500383.jpg",
     "pagination":{
      "pgfolios":{
       "value":"190b"
      }
     }
    },
    {
     "filename":"I1KG91500384.jpg",
     "pagination":{
      "pgfolios":{
       "value":"191a"
      }
     }
    },
    {
     "filename":"I1KG91500385.jpg",
     "pagination":{
      "pgfolios":{
       "value":"191b"
      }
     }
    },
    {
     "filename":"I1KG91500386.jpg",
     "pagination":{
      "pgfolios":{
       "value":"192a"
      }
     }
    },
    {
     "filename":"I1KG91500387.jpg",
     "pagination":{
      "pgfolios":{
       "value":"192b"
      }
     }
    },
    {
     "filename":"I1KG91500388.jpg",
     "pagination":{
      "pgfolios":{
       "value":"193a"
      }
     }
    },
    {
     "filename":"I1KG91500389.jpg",
     "pagination":{
      "pgfolios":{
       "value":"193b"
      }
     }
    },
    {
     "filename":"I1KG91500390.jpg",
     "pagination":{
      "pgfolios":{
       "value":"194a"
      }
     }
    },
    {
     "filename":"I1KG91500391.jpg",
     "pagination":{
      "pgfolios":{
       "value":"194b"
      }
     }
    },
    {
     "filename":"I1KG91500392.jpg",
     "pagination":{
      "pgfolios":{
       "value":"195a"
      }
     }
    },
    {
     "filename":"I1KG91500393.jpg",
     "pagination":{
      "pgfolios":{
       "value":"195b"
      }
     }
    },
    {
     "filename":"I1KG91500394.jpg",
     "pagination":{
      "pgfolios":{
       "value":"196a"
      }
     }
    },
    {
     "filename":"I1KG91500395.jpg",
     "pagination":{
      "pgfolios":{
       "value":"196b"
      }
     }
    },
    {
     "filename":"I1KG91500396.jpg",
     "pagination":{
      "pgfolios":{
       "value":"197a"
      }
     }
    },
    {
     "filename":"I1KG91500397.jpg",
     "pagination":{
      "pgfolios":{
       "value":"197b"
      }
     }
    },
    {
     "filename":"I1KG91500398.jpg",
     "pagination":{
      "pgfolios":{
       "value":"198a"
      }
     }
    },
    {
     "filename":"I1KG91500399.jpg",
     "pagination":{
      "pgfolios":{
       "value":"198b"
      }
     }
    },
    {
     "filename":"I1KG91500400.jpg",
     "pagination":{
      "pgfolios":{
       "value":"199a"
      }
     }
    },
    {
     "filename":"I1KG91500401.jpg",
     "pagination":{
      "pgfolios":{
       "value":"199b"
      }
     }
    },
    {
     "filename":"I1KG91500402.jpg",
     "pagination":{
      "pgfolios":{
       "value":"200a"
      }
     }
    },
    {
     "filename":"I1KG91500403.jpg",
     "pagination":{
      "pgfolios":{
       "value":"200b"
      }
     }
    },
    {
     "filename":"I1KG91500404.jpg",
     "pagination":{
      "pgfolios":{
       "value":"201a"
      }
     }
    },
    {
     "filename":"I1KG91500405.jpg",
     "pagination":{
      "pgfolios":{
       "value":"201b"
      }
     }
    },
    {
     "filename":"I1KG91500406.jpg",
     "pagination":{
      "pgfolios":{
       "value":"202a"
      }
     }
    },
    {
     "filename":"I1KG91500407.jpg",
     "pagination":{
      "pgfolios":{
       "value":"202b"
      }
     }
    },
    {
     "filename":"I1KG91500408.jpg",
     "pagination":{
      "pgfolios":{
       "value":"203a"
      }
     }
    },
    {
     "filename":"I1KG91500409.jpg",
     "pagination":{
      "pgfolios":{
       "value":"203b"
      }
     }
    },
    {
     "filename":"I1KG91500410.jpg",
     "pagination":{
      "pgfolios":{
       "value":"204a"
      }
     }
    },
    {
     "filename":"I1KG91500411.jpg",
     "pagination":{
      "pgfolios":{
       "value":"204b"
      }
     }
    },
    {
     "filename":"I1KG91500412.jpg",
     "pagination":{
      "pgfolios":{
       "value":"205a"
      }
     }
    },
    {
     "filename":"I1KG91500413.jpg",
     "pagination":{
      "pgfolios":{
       "value":"205b"
      }
     }
    },
    {
     "filename":"I1KG91500414.jpg",
     "pagination":{
      "pgfolios":{
       "value":"206a"
      }
     }
    },
    {
     "filename":"I1KG91500415.jpg",
     "pagination":{
      "pgfolios":{
       "value":"206b"
      }
     }
    },
    {
     "filename":"I1KG91500416.jpg",
     "pagination":{
      "pgfolios":{
       "value":"207a"
      }
     }
    },
    {
     "filename":"I1KG91500417.jpg",
     "pagination":{
      "pgfolios":{
       "value":"207b"
      }
     }
    },
    {
     "filename":"I1KG91500418.jpg",
     "pagination":{
      "pgfolios":{
       "value":"208a"
      }
     }
    },
    {
     "filename":"I1KG91500419.jpg",
     "pagination":{
      "pgfolios":{
       "value":"208b"
      }
     }
    },
    {
     "filename":"I1KG91500420.jpg",
     "pagination":{
      "pgfolios":{
       "value":"209a"
      }
     }
    },
    {
     "filename":"I1KG91500421.jpg",
     "pagination":{
      "pgfolios":{
       "value":"209b"
      }
     }
    },
    {
     "filename":"I1KG91500422.jpg",
     "pagination":{
      "pgfolios":{
       "value":"210a"
      }
     }
    },
    {
     "filename":"I1KG91500423.jpg",
     "pagination":{
      "pgfolios":{
       "value":"210b"
      }
     }
    },
    {
     "filename":"I1KG91500424.jpg",
     "pagination":{
      "pgfolios":{
       "value":"211a"
      }
     }
    },
    {
     "filename":"I1KG91500425.jpg",
     "pagination":{
      "pgfolios":{
       "value":"211b"
      }
     }
    },
    {
     "filename":"I1KG91500426.jpg",
     "pagination":{
      "pgfolios":{
       "value":"212a"
      }
     }
    },
    {
     "filename":"I1KG91500427.jpg",
     "pagination":{
      "pgfolios":{
       "value":"212b"
      }
     }
    },
    {
     "filename":"I1KG91500428.jpg",
     "pagination":{
      "pgfolios":{
       "value":"213a"
      }
     }
    },
    {
     "filename":"I1KG91500429.jpg",
     "pagination":{
      "pgfolios":{
       "value":"213b"
      }
     }
    },
    {
     "filename":"I1KG91500430.jpg",
     "pagination":{
      "pgfolios":{
       "value":"214a"
      }
     }
    },
    {
     "filename":"I1KG91500431.jpg",
     "pagination":{
      "pgfolios":{
       "value":"214b"
      }
     }
    },
    {
     "filename":"I1KG91500432.jpg",
     "pagination":{
      "pgfolios":{
       "value":"215a"
      }
     }
    },
    {
     "filename":"I1KG91500433.jpg",
     "pagination":{
      "pgfolios":{
       "value":"215b"
      }
     }
    },
    {
     "filename":"I1KG91500434.jpg",
     "pagination":{
      "pgfolios":{
       "value":"216a"
      }
     }
    },
    {
     "filename":"I1KG91500435.jpg",
     "pagination":{
      "pgfolios":{
       "value":"216b"
      }
     }
    },
    {
     "filename":"I1KG91500436.jpg",
     "pagination":{
      "pgfolios":{
       "value":"217a"
      }
     }
    },
    {
     "filename":"I1KG91500437.jpg",
     "pagination":{
      "pgfolios":{
       "value":"217b"
      }
     }
    },
    {
     "filename":"I1KG91500438.jpg",
     "pagination":{
      "pgfolios":{
       "value":"218a"
      }
     }
    },
    {
     "filename":"I1KG91500439.jpg",
     "pagination":{
      "pgfolios":{
       "value":"218b"
      }
     }
    },
    {
     "filename":"I1KG91500440.jpg",
     "pagination":{
      "pgfolios":{
       "value":"219a"
      }
     }
    },
    {
     "filename":"I1KG91500441.jpg",
     "pagination":{
      "pgfolios":{
       "value":"219b"
      }
     }
    },
    {
     "filename":"I1KG91500442.jpg",
     "pagination":{
      "pgfolios":{
       "value":"220a"
      }
     }
    },
    {
     "filename":"I1KG91500443.jpg",
     "pagination":{
      "pgfolios":{
       "value":"220b"
      }
     }
    },
    {
     "filename":"I1KG91500444.jpg",
     "pagination":{
      "pgfolios":{
       "value":"221a"
      }
     }
    },
    {
     "filename":"I1KG91500445.jpg",
     "pagination":{
      "pgfolios":{
       "value":"221b"
      }
     }
    },
    {
     "filename":"I1KG91500446.jpg",
     "pagination":{
      "pgfolios":{
       "value":"222a"
      }
     }
    },
    {
     "filename":"I1KG91500447.jpg",
     "pagination":{
      "pgfolios":{
       "value":"222b"
      }
     }
    },
    {
     "filename":"I1KG91500448.jpg",
     "pagination":{
      "pgfolios":{
       "value":"223a"
      }
     }
    },
    {
     "filename":"I1KG91500449.jpg",
     "pagination":{
      "pgfolios":{
       "value":"223b"
      }
     }
    },
    {
     "filename":"I1KG91500450.jpg",
     "pagination":{
      "pgfolios":{
       "value":"224a"
      }
     }
    },
    {
     "filename":"I1KG91500451.jpg",
     "pagination":{
      "pgfolios":{
       "value":"224b"
      }
     }
    },
    {
     "filename":"I1KG91500452.jpg",
     "pagination":{
      "pgfolios":{
       "value":"225a"
      }
     }
    },
    {
     "filename":"I1KG91500453.jpg",
     "pagination":{
      "pgfolios":{
       "value":"225b"
      }
     }
    },
    {
     "filename":"I1KG91500454.jpg",
     "pagination":{
      "pgfolios":{
       "value":"226a"
      }
     }
    },
    {
     "filename":"I1KG91500455.jpg",
     "pagination":{
      "pgfolios":{
       "value":"226b"
      }
     }
    },
    {
     "filename":"I1KG91500456.jpg",
     "pagination":{
      "pgfolios":{
       "value":"227a"
      }
     }
    },
    {
     "filename":"I1KG91500457.jpg",
     "pagination":{
      "pgfolios":{
       "value":"227b"
      }
     }
    },
    {
     "filename":"I1KG91500458.jpg",
     "pagination":{
      "pgfolios":{
       "value":"228a"
      }
     }
    },
    {
     "filename":"I1KG91500459.jpg",
     "pagination":{
      "pgfolios":{
       "value":"228b"
      }
     }
    },
    {
     "filename":"I1KG91500460.jpg",
     "pagination":{
      "pgfolios":{
       "value":"229a"
      }
     }
    },
    {
     "filename":"I1KG91500461.jpg",
     "pagination":{
      "pgfolios":{
       "value":"229b"
      }
     }
    },
    {
     "filename":"I1KG91500462.jpg",
     "pagination":{
      "pgfolios":{
       "value":"230a"
      }
     }
    },
    {
     "filename":"I1KG91500463.jpg",
     "pagination":{
      "pgfolios":{
       "value":"230b"
      }
     }
    },
    {
     "filename":"I1KG91500464.jpg",
     "pagination":{
      "pgfolios":{
       "value":"231a"
      }
     }
    },
    {
     "filename":"I1KG91500465.jpg",
     "pagination":{
      "pgfolios":{
       "value":"231b"
      }
     }
    },
    {
     "filename":"I1KG91500466.jpg",
     "pagination":{
      "pgfolios":{
       "value":"232a"
      }
     }
    },
    {
     "filename":"I1KG91500467.jpg",
     "pagination":{
      "pgfolios":{
       "value":"232b"
      }
     }
    },
    {
     "filename":"I1KG91500468.jpg",
     "pagination":{
      "pgfolios":{
       "value":"233a"
      }
     }
    },
    {
     "filename":"I1KG91500469.jpg",
     "pagination":{
      "pgfolios":{
       "value":"233b"
      }
     }
    },
    {
     "filename":"I1KG91500470.jpg",
     "pagination":{
      "pgfolios":{
       "value":"234a"
      }
     }
    },
    {
     "filename":"I1KG91500471.jpg",
     "pagination":{
      "pgfolios":{
       "value":"234b"
      }
     }
    },
    {
     "filename":"I1KG91500472.jpg",
     "pagination":{
      "pgfolios":{
       "value":"235a"
      }
     }
    },
    {
     "filename":"I1KG91500473.jpg",
     "pagination":{
      "pgfolios":{
       "value":"235b"
      }
     }
    },
    {
     "filename":"I1KG91500474.jpg",
     "pagination":{
      "pgfolios":{
       "value":"236a"
      }
     }
    },
    {
     "filename":"I1KG91500475.jpg",
     "pagination":{
      "pgfolios":{
       "value":"236b"
      }
     }
    },
    {
     "filename":"I1KG91500476.jpg",
     "pagination":{
      "pgfolios":{
       "value":"237a"
      }
     }
    },
    {
     "filename":"I1KG91500477.jpg",
     "pagination":{
      "pgfolios":{
       "value":"237b"
      }
     }
    },
    {
     "filename":"I1KG91500478.jpg",
     "pagination":{
      "pgfolios":{
       "value":"238a"
      }
     }
    },
    {
     "filename":"I1KG91500479.jpg",
     "pagination":{
      "pgfolios":{
       "value":"238b"
      }
     }
    },
    {
     "filename":"I1KG91500480.jpg",
     "pagination":{
      "pgfolios":{
       "value":"239a"
      }
     }
    },
    {
     "filename":"I1KG91500481.jpg",
     "pagination":{
      "pgfolios":{
       "value":"239b"
      }
     }
    },
    {
     "filename":"I1KG91500482.jpg",
     "pagination":{
      "pgfolios":{
       "value":"240a"
      }
     }
    },
    {
     "filename":"I1KG91500483.jpg",
     "pagination":{
      "pgfolios":{
       "value":"240b"
      }
     }
    },
    {
     "filename":"I1KG91500484.jpg",
     "pagination":{
      "pgfolios":{
       "value":"241a"
      }
     }
    },
    {
     "filename":"I1KG91500485.jpg",
     "pagination":{
      "pgfolios":{
       "value":"241b"
      }
     }
    },
    {
     "filename":"I1KG91500486.jpg",
     "pagination":{
      "pgfolios":{
       "value":"242a"
      }
     }
    },
    {
     "filename":"I1KG91500487.jpg",
     "pagination":{
      "pgfolios":{
       "value":"242b"
      }
     }
    },
    {
     "filename":"I1KG91500488.jpg",
     "pagination":{
      "pgfolios":{
       "value":"243a"
      }
     }
    },
    {
     "filename":"I1KG91500489.jpg",
     "pagination":{
      "pgfolios":{
       "value":"243b"
      }
     }
    },
    {
     "filename":"I1KG91500490.jpg",
     "pagination":{
      "pgfolios":{
       "value":"244a"
      }
     }
    },
    {
     "filename":"I1KG91500491.jpg",
     "pagination":{
      "pgfolios":{
       "value":"244b"
      }
     }
    },
    {
     "filename":"I1KG91500492.jpg",
     "pagination":{
      "pgfolios":{
       "value":"245a"
      }
     }
    },
    {
     "filename":"I1KG91500493.jpg",
     "pagination":{
      "pgfolios":{
       "value":"245b"
      }
     }
    },
    {
     "filename":"I1KG91500494.jpg",
     "pagination":{
      "pgfolios":{
       "value":"246a"
      }
     }
    },
    {
     "filename":"I1KG91500495.jpg",
     "pagination":{
      "pgfolios":{
       "value":"246b"
      }
     }
    },
    {
     "filename":"I1KG91500496.jpg",
     "pagination":{
      "pgfolios":{
       "value":"247a"
      }
     }
    },
    {
     "filename":"I1KG91500497.jpg",
     "pagination":{
      "pgfolios":{
       "value":"247b"
      }
     }
    },
    {
     "filename":"I1KG91500498.jpg",
     "pagination":{
      "pgfolios":{
       "value":"248a"
      }
     }
    },
    {
     "filename":"I1KG91500499.jpg",
     "pagination":{
      "pgfolios":{
       "value":"248b"
      }
     }
    },
    {
     "filename":"I1KG91500500.jpg",
     "pagination":{
      "pgfolios":{
       "value":"249a"
      }
     }
    },
    {
     "filename":"I1KG91500501.jpg",
     "pagination":{
      "pgfolios":{
       "value":"249b"
      }
     }
    },
    {
     "filename":"I1KG91500502.jpg",
     "pagination":{
      "pgfolios":{
       "value":"250a"
      }
     }
    },
    {
     "filename":"I1KG91500503.jpg",
     "pagination":{
      "pgfolios":{
       "value":"250b"
      }
     }
    },
    {
     "filename":"I1KG91500504.jpg",
     "pagination":{
      "pgfolios":{
       "value":"251a"
      }
     }
    },
    {
     "filename":"I1KG91500505.jpg",
     "pagination":{
      "pgfolios":{
       "value":"251b"
      }
     }
    },
    {
     "filename":"I1KG91500506.jpg",
     "pagination":{
      "pgfolios":{
       "value":"252a"
      }
     }
    },
    {
     "filename":"I1KG91500507.jpg",
     "pagination":{
      "pgfolios":{
       "value":"252b"
      }
     }
    },
    {
     "filename":"I1KG91500508.jpg",
     "pagination":{
      "pgfolios":{
       "value":"253a"
      }
     }
    },
    {
     "filename":"I1KG91500509.jpg",
     "pagination":{
      "pgfolios":{
       "value":"253b"
      }
     }
    },
    {
     "filename":"I1KG91500510.jpg",
     "pagination":{
      "pgfolios":{
       "value":"254a"
      }
     }
    },
    {
     "filename":"I1KG91500511.jpg",
     "pagination":{
      "pgfolios":{
       "value":"254b"
      }
     }
    },
    {
     "filename":"I1KG91500512.jpg",
     "pagination":{
      "pgfolios":{
       "value":"255a"
      }
     }
    },
    {
     "filename":"I1KG91500513.jpg",
     "pagination":{
      "pgfolios":{
       "value":"255b"
      }
     }
    },
    {
     "filename":"I1KG91500514.jpg",
     "pagination":{
      "pgfolios":{
       "value":"256a"
      }
     }
    },
    {
     "filename":"I1KG91500515.jpg",
     "pagination":{
      "pgfolios":{
       "value":"256b"
      }
     }
    },
    {
     "filename":"I1KG91500516.jpg",
     "pagination":{
      "pgfolios":{
       "value":"257a"
      }
     }
    },
    {
     "filename":"I1KG91500517.jpg",
     "pagination":{
      "pgfolios":{
       "value":"257b"
      }
     }
    },
    {
     "filename":"I1KG91500518.jpg",
     "pagination":{
      "pgfolios":{
       "value":"258a"
      }
     }
    },
    {
     "filename":"I1KG91500519.jpg",
     "pagination":{
      "pgfolios":{
       "value":"258b"
      }
     }
    },
    {
     "filename":"I1KG91500520.jpg",
     "pagination":{
      "pgfolios":{
       "value":"259a"
      }
     }
    },
    {
     "filename":"I1KG91500521.jpg",
     "pagination":{
      "pgfolios":{
       "value":"259b"
      }
     }
    },
    {
     "filename":"I1KG91500522.jpg",
     "pagination":{
      "pgfolios":{
       "value":"260a"
      }
     }
    },
    {
     "filename":"I1KG91500523.jpg",
     "pagination":{
      "pgfolios":{
       "value":"260b"
      }
     }
    },
    {
     "filename":"I1KG91500524.jpg",
     "pagination":{
      "pgfolios":{
       "value":"261a"
      }
     }
    },
    {
     "filename":"I1KG91500525.jpg",
     "pagination":{
      "pgfolios":{
       "value":"261b"
      }
     }
    },
    {
     "filename":"I1KG91500526.jpg",
     "pagination":{
      "pgfolios":{
       "value":"262a"
      }
     }
    },
    {
     "filename":"I1KG91500527.jpg",
     "pagination":{
      "pgfolios":{
       "value":"262b"
      }
     }
    },
    {
     "filename":"I1KG91500528.jpg",
     "pagination":{
      "pgfolios":{
       "value":"263a"
      }
     }
    },
    {
     "filename":"I1KG91500529.jpg",
     "pagination":{
      "pgfolios":{
       "value":"263b"
      }
     }
    },
    {
     "filename":"I1KG91500530.jpg",
     "pagination":{
      "pgfolios":{
       "value":"264a"
      }
     }
    },
    {
     "filename":"I1KG91500531.jpg",
     "pagination":{
      "pgfolios":{
       "value":"264b"
      }
     }
    },
    {
     "filename":"I1KG91500532.jpg",
     "pagination":{
      "pgfolios":{
       "value":"265a"
      }
     }
    },
    {
     "filename":"I1KG91500533.jpg",
     "pagination":{
      "pgfolios":{
       "value":"265b"
      }
     }
    },
    {
     "filename":"I1KG91500534.jpg",
     "pagination":{
      "pgfolios":{
       "value":"266a"
      }
     }
    },
    {
     "filename":"I1KG91500535.jpg",
     "pagination":{
      "pgfolios":{
       "value":"266b"
      }
     }
    },
    {
     "filename":"I1KG91500536.jpg",
     "pagination":{
      "pgfolios":{
       "value":"267a"
      }
     }
    },
    {
     "filename":"I1KG91500537.jpg",
     "pagination":{
      "pgfolios":{
       "value":"267b"
      }
     }
    },
    {
     "filename":"I1KG91500538.jpg",
     "pagination":{
      "pgfolios":{
       "value":"268a"
      }
     }
    },
    {
     "filename":"I1KG91500539.jpg",
     "pagination":{
      "pgfolios":{
       "value":"268b"
      }
     }
    },
    {
     "filename":"I1KG91500540.jpg",
     "pagination":{
      "pgfolios":{
       "value":"269a"
      }
     }
    },
    {
     "filename":"I1KG91500541.jpg",
     "pagination":{
      "pgfolios":{
       "value":"269b"
      }
     }
    },
    {
     "filename":"I1KG91500542.jpg",
     "pagination":{
      "pgfolios":{
       "value":"270a"
      }
     }
    },
    {
     "filename":"I1KG91500543.jpg",
     "pagination":{
      "pgfolios":{
       "value":"270b"
      }
     }
    },
    {
     "filename":"I1KG91500544.jpg",
     "pagination":{
      "pgfolios":{
       "value":"271a"
      }
     }
    },
    {
     "filename":"I1KG91500545.jpg",
     "pagination":{
      "pgfolios":{
       "value":"271b"
      }
     }
    },
    {
     "filename":"I1KG91500546.jpg",
     "pagination":{
      "pgfolios":{
       "value":"272a"
      }
     }
    },
    {
     "filename":"I1KG91500547.jpg",
     "pagination":{
      "pgfolios":{
       "value":"272b"
      }
     }
    },
    {
     "filename":"I1KG91500548.jpg",
     "pagination":{
      "pgfolios":{
       "value":"273a"
      }
     }
    },
    {
     "filename":"I1KG91500549.jpg",
     "pagination":{
      "pgfolios":{
       "value":"273b"
      }
     }
    },
    {
     "filename":"I1KG91500550.jpg",
     "pagination":{
      "pgfolios":{
       "value":"274a"
      }
     }
    },
    {
     "filename":"I1KG91500551.jpg",
     "pagination":{
      "pgfolios":{
       "value":"274b"
      }
     }
    },
    {
     "filename":"I1KG91500552.jpg",
     "pagination":{
      "pgfolios":{
       "value":"275a"
      }
     }
    },
    {
     "filename":"I1KG91500553.jpg",
     "pagination":{
      "pgfolios":{
       "value":"275b"
      }
     }
    },
    {
     "filename":"I1KG91500554.jpg",
     "pagination":{
      "pgfolios":{
       "value":"276a"
      }
     }
    },
    {
     "filename":"I1KG91500555.jpg",
     "pagination":{
      "pgfolios":{
       "value":"276b"
      }
     }
    },
    {
     "filename":"I1KG91500556.jpg",
     "pagination":{
      "pgfolios":{
       "value":"277a"
      }
     }
    },
    {
     "filename":"I1KG91500557.jpg",
     "pagination":{
      "pgfolios":{
       "value":"277b"
      }
     }
    },
    {
     "filename":"I1KG91500558.jpg",
     "pagination":{
      "pgfolios":{
       "value":"278a"
      }
     }
    },
    {
     "filename":"I1KG91500559.jpg",
     "pagination":{
      "pgfolios":{
       "value":"278b"
      }
     }
    },
    {
     "filename":"I1KG91500560.jpg",
     "pagination":{
      "pgfolios":{
       "value":"279a"
      }
     }
    },
    {
     "filename":"I1KG91500561.jpg",
     "pagination":{
      "pgfolios":{
       "value":"279b"
      }
     }
    },
    {
     "filename":"I1KG91500562.jpg",
     "pagination":{
      "pgfolios":{
       "value":"280a"
      }
     }
    },
    {
     "filename":"I1KG91500563.jpg",
     "pagination":{
      "pgfolios":{
       "value":"280b"
      }
     }
    },
    {
     "filename":"I1KG91500564.jpg",
     "pagination":{
      "pgfolios":{
       "value":"281a"
      }
     }
    },
    {
     "filename":"I1KG91500565.jpg",
     "pagination":{
      "pgfolios":{
       "value":"281b"
      }
     }
    },
    {
     "filename":"I1KG91500566.jpg",
     "pagination":{
      "pgfolios":{
       "value":"282a"
      }
     }
    },
    {
     "filename":"I1KG91500567.jpg",
     "pagination":{
      "pgfolios":{
       "value":"282b"
      }
     }
    },
    {
     "filename":"I1KG91500568.jpg",
     "pagination":{
      "pgfolios":{
       "value":"283a"
      }
     }
    },
    {
     "filename":"I1KG91500569.jpg",
     "pagination":{
      "pgfolios":{
       "value":"283b"
      }
     }
    },
    {
     "filename":"I1KG91500570.jpg",
     "pagination":{
      "pgfolios":{
       "value":"284a"
      }
     }
    },
    {
     "filename":"I1KG91500571.jpg",
     "pagination":{
      "pgfolios":{
       "value":"284b"
      }
     }
    },
    {
     "filename":"I1KG91500572.jpg",
     "pagination":{
      "pgfolios":{
       "value":"285a"
      }
     }
    },
    {
     "filename":"I1KG91500573.jpg",
     "pagination":{
      "pgfolios":{
       "value":"285b"
      }
     }
    },
    {
     "filename":"I1KG91500574.jpg",
     "pagination":{
      "pgfolios":{
       "value":"286a"
      }
     }
    },
    {
     "filename":"I1KG91500575.jpg",
     "pagination":{
      "pgfolios":{
       "value":"286b"
      }
     }
    },
    {
     "filename":"I1KG91500576.jpg",
     "pagination":{
      "pgfolios":{
       "value":"287a"
      }
     }
    },
    {
     "filename":"I1KG91500577.jpg",
     "pagination":{
      "pgfolios":{
       "value":"287b"
      }
     }
    },
    {
     "filename":"I1KG91500578.jpg",
     "pagination":{
      "pgfolios":{
       "value":"288a"
      }
     }
    },
    {
     "filename":"I1KG91500579.jpg",
     "pagination":{
      "pgfolios":{
       "value":"288b"
      }
     }
    },
    {
     "filename":"I1KG91500580.jpg",
     "pagination":{
      "pgfolios":{
       "value":"289a"
      }
     }
    },
    {
     "filename":"I1KG91500581.jpg",
     "pagination":{
      "pgfolios":{
       "value":"289b"
      }
     }
    },
    {
     "filename":"I1KG91500582.jpg",
     "pagination":{
      "pgfolios":{
       "value":"290a"
      }
     }
    },
    {
     "filename":"I1KG91500583.jpg",
     "pagination":{
      "pgfolios":{
       "value":"290b"
      }
     }
    },
    {
     "filename":"I1KG91500584.jpg",
     "pagination":{
      "pgfolios":{
       "value":"291a"
      }
     }
    },
    {
     "filename":"I1KG91500585.jpg",
     "pagination":{
      "pgfolios":{
       "value":"291b"
      }
     }
    },
    {
     "filename":"I1KG91500586.jpg",
     "pagination":{
      "pgfolios":{
       "value":"292a"
      }
     }
    },
    {
     "filename":"I1KG91500587.jpg",
     "pagination":{
      "pgfolios":{
       "value":"292b"
      }
     }
    },
    {
     "filename":"I1KG91500588.jpg",
     "pagination":{
      "pgfolios":{
       "value":"293a"
      }
     }
    },
    {
     "filename":"I1KG91500589.jpg",
     "pagination":{
      "pgfolios":{
       "value":"293b"
      }
     }
    },
    {
     "filename":"I1KG91500590.jpg",
     "pagination":{
      "pgfolios":{
       "value":"294a"
      }
     }
    },
    {
     "filename":"I1KG91500591.jpg",
     "pagination":{
      "pgfolios":{
       "value":"294b"
      }
     }
    },
    {
     "filename":"I1KG91500592.jpg",
     "pagination":{
      "pgfolios":{
       "value":"295a"
      }
     }
    },
    {
     "filename":"I1KG91500593.jpg",
     "pagination":{
      "pgfolios":{
       "value":"295b"
      }
     }
    },
    {
     "filename":"I1KG91500594.jpg",
     "pagination":{
      "pgfolios":{
       "value":"296a"
      }
     }
    },
    {
     "filename":"I1KG91500595.jpg",
     "pagination":{
      "pgfolios":{
       "value":"296b"
      }
     }
    },
    {
     "filename":"I1KG91500596.jpg",
     "pagination":{
      "pgfolios":{
       "value":"297a"
      }
     }
    },
    {
     "filename":"I1KG91500597.jpg",
     "pagination":{
      "pgfolios":{
       "value":"297b"
      }
     }
    },
    {
     "filename":"I1KG91500598.jpg",
     "pagination":{
      "pgfolios":{
       "value":"298a"
      }
     }
    },
    {
     "filename":"I1KG91500599.jpg",
     "pagination":{
      "pgfolios":{
       "value":"298b"
      }
     }
    },
    {
     "filename":"I1KG91500600.jpg",
     "pagination":{
      "pgfolios":{
       "value":"299a"
      }
     }
    },
    {
     "filename":"I1KG91500601.jpg",
     "pagination":{
      "pgfolios":{
       "value":"299b"
      }
     }
    },
    {
     "filename":"I1KG91500602.jpg",
     "pagination":{
      "pgfolios":{
       "value":"300a"
      }
     }
    },
    {
     "filename":"I1KG91500603.jpg",
     "pagination":{
      "pgfolios":{
       "value":"300b"
      }
     }
    },
    {
     "filename":"I1KG91500604.jpg",
     "pagination":{
      "pgfolios":{
       "value":"301a"
      }
     }
    },
    {
     "filename":"I1KG91500605.jpg",
     "pagination":{
      "pgfolios":{
       "value":"301b"
      }
     }
    },
    {
     "filename":"I1KG91500606.jpg",
     "pagination":{
      "pgfolios":{
       "value":"302a"
      }
     }
    },
    {
     "filename":"I1KG91500607.jpg",
     "pagination":{
      "pgfolios":{
       "value":"302b"
      }
     }
    },
    {
     "filename":"I1KG91500608.jpg",
     "pagination":{
      "pgfolios":{
       "value":"303a"
      }
     }
    },
    {
     "filename":"I1KG91500609.jpg",
     "pagination":{
      "pgfolios":{
       "value":"303b"
      }
     }
    },
    {
     "filename":"I1KG91500610.jpg",
     "pagination":{
      "pgfolios":{
       "value":"304a"
      }
     }
    },
    {
     "filename":"I1KG91500611.jpg",
     "pagination":{
      "pgfolios":{
       "value":"304b"
      }
     }
    },
    {
     "filename":"I1KG91500612.jpg",
     "pagination":{
      "pgfolios":{
       "value":"305a"
      }
     }
    },
    {
     "filename":"I1KG91500613.jpg",
     "pagination":{
      "pgfolios":{
       "value":"305b"
      }
     }
    },
    {
     "filename":"I1KG91500614.jpg",
     "pagination":{
      "pgfolios":{
       "value":"306a"
      }
     }
    },
    {
     "filename":"I1KG91500615.jpg",
     "pagination":{
      "pgfolios":{
       "value":"306b"
      }
     }
    },
    {
     "filename":"I1KG91500616.jpg",
     "pagination":{
      "pgfolios":{
       "value":"307a"
      }
     }
    },
    {
     "filename":"I1KG91500617.jpg",
     "pagination":{
      "pgfolios":{
       "value":"307b"
      }
     }
    },
    {
     "filename":"I1KG91500618.jpg",
     "pagination":{
      "pgfolios":{
       "value":"308a"
      }
     }
    },
    {
     "filename":"I1KG91500619.jpg",
     "pagination":{
      "pgfolios":{
       "value":"308b"
      }
     }
    },
    {
     "filename":"I1KG91500620.jpg",
     "pagination":{
      "pgfolios":{
       "value":"309a"
      }
     }
    },
    {
     "filename":"I1KG91500621.jpg",
     "pagination":{
      "pgfolios":{
       "value":"309b"
      }
     }
    },
    {
     "filename":"I1KG91500622.jpg",
     "pagination":{
      "pgfolios":{
       "value":"310a"
      }
     }
    },
    {
     "filename":"I1KG91500623.jpg",
     "pagination":{
      "pgfolios":{
       "value":"310b"
      }
     }
    },
    {
     "filename":"I1KG91500624.jpg",
     "pagination":{
      "pgfolios":{
       "value":"311a"
      }
     }
    },
    {
     "filename":"I1KG91500625.jpg",
     "pagination":{
      "pgfolios":{
       "value":"311b"
      }
     }
    },
    {
     "filename":"I1KG91500626.jpg",
     "pagination":{
      "pgfolios":{
       "value":"312a"
      }
     }
    },
    {
     "filename":"I1KG91500627.jpg",
     "pagination":{
      "pgfolios":{
       "value":"312b"
      }
     }
    },
    {
     "filename":"I1KG91500628.jpg",
     "pagination":{
      "pgfolios":{
       "value":"313a"
      }
     }
    },
    {
     "filename":"I1KG91500629.jpg",
     "pagination":{
      "pgfolios":{
       "value":"313b"
      }
     }
    },
    {
     "filename":"I1KG91500630.jpg",
     "pagination":{
      "pgfolios":{
       "value":"314a"
      }
     }
    },
    {
     "filename":"I1KG91500631.jpg",
     "pagination":{
      "pgfolios":{
       "value":"314b"
      }
     }
    },
    {
     "filename":"I1KG91500632.jpg",
     "pagination":{
      "pgfolios":{
       "value":"315a"
      }
     }
    },
    {
     "filename":"I1KG91500633.jpg",
     "pagination":{
      "pgfolios":{
       "value":"315b"
      }
     }
    },
    {
     "filename":"I1KG91500634.jpg",
     "pagination":{
      "pgfolios":{
       "value":"316a"
      }
     }
    },
    {
     "filename":"I1KG91500635.jpg",
     "pagination":{
      "pgfolios":{
       "value":"316b"
      }
     }
    },
    {
     "filename":"I1KG91500636.jpg",
     "pagination":{
      "pgfolios":{
       "value":"317a"
      }
     }
    },
    {
     "filename":"I1KG91500637.jpg",
     "pagination":{
      "pgfolios":{
       "value":"317b"
      }
     }
    },
    {
     "filename":"I1KG91500638.jpg",
     "pagination":{
      "pgfolios":{
       "value":"318a"
      }
     }
    },
    {
     "filename":"I1KG91500639.jpg",
     "pagination":{
      "pgfolios":{
       "value":"318b"
      }
     }
    },
    {
     "filename":"I1KG91500640.jpg",
     "pagination":{
      "pgfolios":{
       "value":"319a"
      }
     }
    },
    {
     "filename":"I1KG91500641.jpg",
     "pagination":{
      "pgfolios":{
       "value":"319b"
      }
     }
    },
    {
     "filename":"I1KG91500642.jpg",
     "pagination":{
      "pgfolios":{
       "value":"320a"
      }
     }
    },
    {
     "filename":"I1KG91500643.jpg",
     "pagination":{
      "pgfolios":{
       "value":"320b"
      }
     }
    },
    {
     "filename":"I1KG91500644.jpg",
     "pagination":{
      "pgfolios":{
       "value":"321a"
      }
     }
    },
    {
     "filename":"I1KG91500645.jpg",
     "pagination":{
      "pgfolios":{
       "value":"321b"
      }
     }
    },
    {
     "filename":"I1KG91500646.jpg",
     "pagination":{
      "pgfolios":{
       "value":"322a"
      }
     }
    },
    {
     "filename":"I1KG91500647.jpg",
     "pagination":{
      "pgfolios":{
       "value":"322b"
      }
     }
    },
    {
     "filename":"I1KG91500648.jpg",
     "pagination":{
      "pgfolios":{
       "value":"323a"
      }
     }
    },
    {
     "filename":"I1KG91500649.jpg",
     "pagination":{
      "pgfolios":{
       "value":"323b"
      }
     }
    },
    {
     "filename":"I1KG91500650.jpg",
     "pagination":{
      "pgfolios":{
       "value":"324a"
      }
     }
    },
    {
     "filename":"I1KG91500651.jpg",
     "pagination":{
      "pgfolios":{
       "value":"324b"
      }
     }
    },
    {
     "filename":"I1KG91500652.jpg",
     "pagination":{
      "pgfolios":{
       "value":"325a"
      }
     }
    },
    {
     "filename":"I1KG91500653.jpg",
     "pagination":{
      "pgfolios":{
       "value":"325b"
      }
     }
    },
    {
     "filename":"I1KG91500654.jpg",
     "pagination":{
      "pgfolios":{
       "value":"326a"
      }
     }
    },
    {
     "filename":"I1KG91500655.jpg",
     "pagination":{
      "pgfolios":{
       "value":"326b"
      }
     }
    },
    {
     "filename":"I1KG91500656.jpg",
     "pagination":{
      "pgfolios":{
       "value":"327a"
      }
     }
    },
    {
     "filename":"I1KG91500657.jpg",
     "pagination":{
      "pgfolios":{
       "value":"327b"
      }
     }
    },
    {
     "filename":"I1KG91500658.jpg",
     "pagination":{
      "pgfolios":{
       "value":"328a"
      }
     }
    },
    {
     "filename":"I1KG91500659.jpg",
     "pagination":{
      "pgfolios":{
       "value":"328b"
      }
     }
    },
    {
     "filename":"I1KG91500660.jpg",
     "pagination":{
      "pgfolios":{
       "value":"329a"
      }
     }
    },
    {
     "filename":"I1KG91500661.jpg",
     "pagination":{
      "pgfolios":{
       "value":"329b"
      }
     }
    },
    {
     "filename":"I1KG91500662.jpg",
     "pagination":{
      "pgfolios":{
       "value":"330a"
      }
     }
    },
    {
     "filename":"I1KG91500663.jpg",
     "pagination":{
      "pgfolios":{
       "value":"330b"
      }
     }
    },
    {
     "filename":"I1KG91500664.jpg",
     "pagination":{
      "pgfolios":{
       "value":"331a"
      }
     }
    },
    {
     "filename":"I1KG91500665.jpg",
     "pagination":{
      "pgfolios":{
       "value":"331b"
      }
     }
    },
    {
     "filename":"I1KG91500666.jpg",
     "pagination":{
      "pgfolios":{
       "value":"332a"
      }
     }
    },
    {
     "filename":"I1KG91500667.jpg",
     "pagination":{
      "pgfolios":{
       "value":"332b"
      }
     }
    },
    {
     "filename":"I1KG91500668.jpg",
     "pagination":{
      "pgfolios":{
       "value":"333a"
      }
     }
    },
    {
     "filename":"I1KG91500669.jpg",
     "pagination":{
      "pgfolios":{
       "value":"333b"
      }
     }
    },
    {
     "filename":"I1KG91500670.jpg",
     "pagination":{
      "pgfolios":{
       "value":"334a"
      }
     }
    },
    {
     "filename":"I1KG91500671.jpg",
     "pagination":{
      "pgfolios":{
       "value":"334b"
      }
     }
    },
    {
     "filename":"I1KG91500672.jpg",
     "pagination":{
      "pgfolios":{
       "value":"335a"
      }
     }
    },
    {
     "filename":"I1KG91500673.jpg",
     "pagination":{
      "pgfolios":{
       "value":"335b"
      }
     }
    },
    {
     "filename":"I1KG91500674.jpg",
     "pagination":{
      "pgfolios":{
       "value":"336a"
      }
     }
    },
    {
     "filename":"I1KG91500675.jpg",
     "pagination":{
      "pgfolios":{
       "value":"336b"
      }
     }
    },
    {
     "filename":"I1KG91500676.jpg",
     "pagination":{
      "pgfolios":{
       "value":"337a"
      }
     }
    },
    {
     "filename":"I1KG91500677.jpg",
     "pagination":{
      "pgfolios":{
       "value":"337b"
      }
     }
    },
    {
     "filename":"I1KG91500678.jpg",
     "pagination":{
      "pgfolios":{
       "value":"338a"
      }
     }
    },
    {
     "filename":"I1KG91500679.jpg",
     "pagination":{
      "pgfolios":{
       "value":"338b"
      }
     }
    },
    {
     "filename":"I1KG91500680.jpg",
     "pagination":{
      "pgfolios":{
       "value":"339a"
      }
     }
    },
    {
     "filename":"I1KG91500681.jpg",
     "pagination":{
      "pgfolios":{
       "value":"339b"
      }
     }
    },
    {
     "filename":"I1KG91500682.jpg",
     "pagination":{
      "pgfolios":{
       "value":"340a"
      }
     }
    },
    {
     "filename":"I1KG91500683.jpg",
     "pagination":{
      "pgfolios":{
       "value":"340b"
      }
     }
    },
    {
     "filename":"I1KG91500684.jpg",
     "pagination":{
      "pgfolios":{
       "value":"341a"
      }
     }
    },
    {
     "filename":"I1KG91500685.jpg",
     "pagination":{
      "pgfolios":{
       "value":"341b"
      }
     }
    },
    {
     "filename":"I1KG91500686.jpg",
     "pagination":{
      "pgfolios":{
       "value":"342a"
      }
     }
    },
    {
     "filename":"I1KG91500687.jpg",
     "pagination":{
      "pgfolios":{
       "value":"342b"
      }
     }
    },
    {
     "filename":"I1KG91500688.jpg",
     "pagination":{
      "pgfolios":{
       "value":"343a"
      }
     }
    },
    {
     "filename":"I1KG91500689.jpg",
     "pagination":{
      "pgfolios":{
       "value":"343b"
      }
     }
    },
    {
     "filename":"I1KG91500690.jpg",
     "pagination":{
      "pgfolios":{
       "value":"344a"
      }
     }
    },
    {
     "filename":"I1KG91500691.jpg",
     "pagination":{
      "pgfolios":{
       "value":"344b"
      }
     }
    },
    {
     "filename":"I1KG91500692.jpg",
     "pagination":{
      "pgfolios":{
       "value":"345a"
      }
     }
    },
    {
     "filename":"I1KG91500693.jpg",
     "pagination":{
      "pgfolios":{
       "value":"345b"
      }
     }
    },
    {
     "filename":"I1KG91500694.jpg",
     "pagination":{
      "pgfolios":{
       "value":"346a"
      }
     }
    },
    {
     "filename":"I1KG91500695.jpg",
     "pagination":{
      "pgfolios":{
       "value":"346b"
      }
     }
    },
    {
     "filename":"I1KG91500696.jpg",
     "pagination":{
      "pgfolios":{
       "value":"347a"
      }
     }
    },
    {
     "filename":"I1KG91500697.jpg",
     "pagination":{
      "pgfolios":{
       "value":"347b"
      }
     }
    },
    {
     "filename":"I1KG91500698.jpg",
     "pagination":{
      "pgfolios":{
       "value":"348a"
      }
     }
    },
    {
     "filename":"I1KG91500699.jpg",
     "pagination":{
      "pgfolios":{
       "value":"348b"
      }
     }
    },
    {
     "filename":"I1KG91500700.jpg",
     "pagination":{
      "pgfolios":{
       "value":"349a"
      }
     }
    },
    {
     "filename":"I1KG91500701.jpg",
     "pagination":{
      "pgfolios":{
       "value":"349b"
      }
     }
    },
    {
     "filename":"I1KG91500702.jpg",
     "pagination":{
      "pgfolios":{
       "value":"350a"
      }
     }
    },
    {
     "filename":"I1KG91500703.jpg",
     "pagination":{
      "pgfolios":{
       "value":"350b"
      }
     }
    },
    {
     "filename":"I1KG91500704.jpg",
     "pagination":{
      "pgfolios":{
       "value":"351a"
      }
     }
    },
    {
     "filename":"I1KG91500705.jpg",
     "pagination":{
      "pgfolios":{
       "value":"351b"
      }
     }
    },
    {
     "filename":"I1KG91500706.jpg",
     "pagination":{
      "pgfolios":{
       "value":"352a"
      }
     }
    },
    {
     "filename":"I1KG91500707.jpg",
     "pagination":{
      "pgfolios":{
       "value":"352b"
      }
     }
    },
    {
     "filename":"I1KG91500708.jpg",
     "pagination":{
      "pgfolios":{
       "value":"353a"
      }
     }
    },
    {
     "filename":"I1KG91500709.jpg",
     "pagination":{
      "pgfolios":{
       "value":"353b"
      }
     }
    },
    {
     "filename":"I1KG91500710.jpg",
     "pagination":{
      "pgfolios":{
       "value":"354a"
      }
     }
    },
    {
     "filename":"I1KG91500711.jpg",
     "pagination":{
      "pgfolios":{
       "value":"354b"
      }
     }
    },
    {
     "filename":"I1KG91500712.jpg",
     "pagination":{
      "pgfolios":{
       "value":"355a"
      }
     }
    },
    {
     "filename":"I1KG91500713.jpg",
     "pagination":{
      "pgfolios":{
       "value":"355b"
      }
     }
    },
    {
     "filename":"I1KG91500714.jpg",
     "pagination":{
      "pgfolios":{
       "value":"356a"
      }
     }
    },
    {
     "filename":"I1KG91500715.jpg",
     "pagination":{
      "pgfolios":{
       "value":"356b"
      }
     }
    },
    {
     "filename":"I1KG91500716.jpg",
     "pagination":{
      "pgfolios":{
       "value":"357a"
      }
     }
    },
    {
     "filename":"I1KG91500717.jpg",
     "pagination":{
      "pgfolios":{
       "value":"357b"
      }
     }
    },
    {
     "filename":"I1KG91500718.jpg",
     "pagination":{
      "pgfolios":{
       "value":"358a"
      }
     }
    },
    {
     "filename":"I1KG91500719.jpg",
     "pagination":{
      "pgfolios":{
       "value":"358b"
      }
     }
    },
    {
     "filename":"I1KG91500720.jpg",
     "pagination":{
      "pgfolios":{
       "value":"359a"
      }
     }
    },
    {
     "filename":"I1KG91500721.jpg",
     "pagination":{
      "pgfolios":{
       "value":"359b"
      }
     }
    },
    {
     "filename":"I1KG91500722.jpg",
     "pagination":{
      "pgfolios":{
       "value":"360a"
      }
     }
    },
    {
     "filename":"I1KG91500723.jpg",
     "pagination":{
      "pgfolios":{
       "value":"360b"
      }
     }
    },
    {
     "filename":"I1KG91500724.jpg",
     "pagination":{
      "pgfolios":{
       "value":"361a"
      }
     }
    },
    {
     "filename":"I1KG91500725.jpg",
     "pagination":{
      "pgfolios":{
       "value":"361b"
      }
     }
    },
    {
     "filename":"I1KG91500726.jpg",
     "pagination":{
      "pgfolios":{
       "value":"362a"
      }
     }
    },
    {
     "filename":"I1KG91500727.jpg",
     "pagination":{
      "pgfolios":{
       "value":"362b"
      }
     }
    },
    {
     "filename":"I1KG91500728.jpg",
     "pagination":{
      "pgfolios":{
       "value":"363a"
      }
     }
    },
    {
     "filename":"I1KG91500729.jpg",
     "pagination":{
      "pgfolios":{
       "value":"363b"
      }
     }
    },
    {
     "filename":"I1KG91500730.jpg",
     "pagination":{
      "pgfolios":{
       "value":"364a"
      }
     }
    },
    {
     "filename":"I1KG91500731.jpg",
     "pagination":{
      "pgfolios":{
       "value":"364b"
      }
     }
    },
    {
     "filename":"I1KG91500732.jpg",
     "pagination":{
      "pgfolios":{
       "value":"365a"
      }
     }
    },
    {
     "filename":"I1KG91500733.jpg",
     "pagination":{
      "pgfolios":{
       "value":"365b"
      }
     }
    },
    {
     "filename":"I1KG91500734.jpg",
     "pagination":{
      "pgfolios":{
       "value":"366a"
      }
     }
    },
    {
     "filename":"I1KG91500735.jpg",
     "pagination":{
      "pgfolios":{
       "value":"366b"
      }
     }
    },
    {
     "filename":"I1KG91500736.jpg",
     "pagination":{
      "pgfolios":{
       "value":"367a"
      }
     }
    },
    {
     "filename":"I1KG91500737.jpg",
     "pagination":{
      "pgfolios":{
       "value":"367b"
      }
     }
    },
    {
     "filename":"I1KG91500738.jpg",
     "pagination":{
      "pgfolios":{
       "value":"368a"
      }
     }
    },
    {
     "filename":"I1KG91500739.jpg",
     "pagination":{
      "pgfolios":{
       "value":"368b"
      }
     }
    },
    {
     "filename":"I1KG91500740.jpg",
     "pagination":{
      "pgfolios":{
       "value":"369a"
      }
     }
    },
    {
     "filename":"I1KG91500741.jpg",
     "pagination":{
      "pgfolios":{
       "value":"369b"
      }
     }
    },
    {
     "filename":"I1KG91500742.jpg",
     "pagination":{
      "pgfolios":{
       "value":"370a"
      }
     }
    },
    {
     "filename":"I1KG91500743.jpg",
     "pagination":{
      "pgfolios":{
       "value":"370b"
      }
     }
    },
    {
     "filename":"I1KG91500744.jpg",
     "pagination":{
      "pgfolios":{
       "value":"371a"
      }
     }
    },
    {
     "filename":"I1KG91500745.jpg",
     "pagination":{
      "pgfolios":{
       "value":"371b"
      }
     }
    },
    {
     "filename":"I1KG91500746.jpg",
     "pagination":{
      "pgfolios":{
       "value":"372a"
      }
     }
    },
    {
     "filename":"I1KG91500747.jpg",
     "pagination":{
      "pgfolios":{
       "value":"372b"
      }
     }
    },
    {
     "filename":"I1KG91500748.jpg",
     "pagination":{
      "pgfolios":{
       "value":"373a"
      }
     }
    },
    {
     "filename":"I1KG91500749.jpg",
     "pagination":{
      "pgfolios":{
       "value":"373b"
      }
     }
    },
    {
     "filename":"I1KG91500750.jpg",
     "pagination":{
      "pgfolios":{
       "value":"374a"
      }
     }
    },
    {
     "filename":"I1KG91500751.jpg",
     "pagination":{
      "pgfolios":{
       "value":"374b"
      }
     }
    },
    {
     "filename":"I1KG91500752.jpg",
     "pagination":{
      "pgfolios":{
       "value":"375a"
      }
     }
    },
    {
     "filename":"I1KG91500753.jpg",
     "pagination":{
      "pgfolios":{
       "value":"375b"
      }
     }
    },
    {
     "filename":"I1KG91500754.jpg",
     "pagination":{
      "pgfolios":{
       "value":"376a"
      }
     }
    },
    {
     "filename":"I1KG91500755.jpg",
     "pagination":{
      "pgfolios":{
       "value":"376b"
      }
     }
    },
    {
     "filename":"I1KG91500756.jpg",
     "pagination":{
      "pgfolios":{
       "value":"377a"
      }
     }
    },
    {
     "filename":"I1KG91500757.jpg",
     "pagination":{
      "pgfolios":{
       "value":"377b"
      }
     }
    },
    {
     "filename":"I1KG91500758.jpg",
     "pagination":{
      "pgfolios":{
       "value":"378a"
      }
     }
    },
    {
     "filename":"I1KG91500759.jpg",
     "pagination":{
      "pgfolios":{
       "value":"378b"
      }
     }
    },
    {
     "filename":"I1KG91500760.jpg",
     "pagination":{
      "pgfolios":{
       "value":"379a"
      }
     }
    },
    {
     "filename":"I1KG91500761.jpg",
     "pagination":{
      "pgfolios":{
       "value":"379b"
      }
     }
    },
    {
     "filename":"I1KG91500762.jpg",
     "pagination":{
      "pgfolios":{
       "value":"380a"
      }
     }
    },
    {
     "filename":"I1KG91500763.jpg",
     "pagination":{
      "pgfolios":{
       "value":"380b"
      }
     }
    },
    {
     "filename":"I1KG91500764.jpg",
     "pagination":{
      "pgfolios":{
       "value":"381a"
      }
     }
    },
    {
     "filename":"I1KG91500765.jpg",
     "pagination":{
      "pgfolios":{
       "value":"381b"
      }
     }
    },
    {
     "filename":"I1KG91500766.jpg",
     "pagination":{
      "pgfolios":{
       "value":"382a"
      }
     }
    },
    {
     "filename":"I1KG91500767.jpg",
     "pagination":{
      "pgfolios":{
       "value":"382b"
      }
     }
    },
    {
     "filename":"I1KG91500768.jpg",
     "pagination":{
      "pgfolios":{
       "value":"383a"
      }
     }
    },
    {
     "filename":"I1KG91500769.jpg",
     "pagination":{
      "pgfolios":{
       "value":"383b"
      }
     }
    },
    {
     "filename":"I1KG91500770.jpg",
     "pagination":{
      "pgfolios":{
       "value":"384a"
      }
     }
    },
    {
     "filename":"I1KG91500771.jpg",
     "pagination":{
      "pgfolios":{
       "value":"384b"
      }
     }
    },
    {
     "filename":"I1KG91500772.jpg",
     "pagination":{
      "pgfolios":{
       "value":"385a"
      }
     }
    },
    {
     "filename":"I1KG91500773.jpg",
     "pagination":{
      "pgfolios":{
       "value":"385b"
      }
     }
    },
    {
     "filename":"I1KG91500774.jpg",
     "pagination":{
      "pgfolios":{
       "value":"386a"
      }
     }
    },
    {
     "filename":"I1KG91500775.jpg",
     "pagination":{
      "pgfolios":{
       "value":"386b"
      }
     }
    },
    {
     "filename":"I1KG91500776.jpg",
     "pagination":{
      "pgfolios":{
       "value":"387a"
      }
     }
    },
    {
     "filename":"I1KG91500777.jpg",
     "pagination":{
      "pgfolios":{
       "value":"387b"
      }
     }
    },
    {
     "filename":"I1KG91500778.jpg",
     "pagination":{
      "pgfolios":{
       "value":"388a"
      }
     }
    },
    {
     "filename":"I1KG91500779.jpg",
     "pagination":{
      "pgfolios":{
       "value":"388b"
      }
     }
    },
    {
     "filename":"I1KG91500780.jpg",
     "pagination":{
      "pgfolios":{
       "value":"389a"
      }
     }
    },
    {
     "filename":"I1KG91500781.jpg",
     "pagination":{
      "pgfolios":{
       "value":"389b"
      }
     }
    },
    {
     "filename":"I1KG91500782.jpg",
     "pagination":{
      "pgfolios":{
       "value":"390a"
      }
     }
    }
   ]
  }
 },
 "viewing-direction":"top-to-bottom"
}