{
 "appData":{
  "bvmt":{
   "default-vol-string-lang":"bo",
   "metadata-for-bvmt-ver":"0.1.0"
  }
 },
 "attribution":[
  {
   "@language":"en",
   "@value":"Data provided by rKTs under the CC0 license"
  }
 ],
 "changes":[
  {
   "message":{
    "@language":"en",
    "@value":"migration from rKTs data"
   },
   "time":"2020-10-03T11:35:30Z",
   "user":"bdu:U1653882847"
  }
 ],
 "default-view":"view1",
 "imggroup":"bdr:I3CN1077",
 "pagination":[
  {
   "id":"pgfolios",
   "type":"folios"
  }
 ],
 "spec-version":"0.1.0",
 "status":"released",
 "view":{
  "view1":{
   "imagelist":[
    {
     "filename":"I3CN10770001.jpg",
     "pagination":{
      "pgfolios":{
       "value":"1b"
      }
     }
    },
    {
     "filename":"I3CN10770002.jpg",
     "pagination":{
      "pgfolios":{
       "value":"2a"
      }
     }
    },
    {
     "filename":"I3CN10770003.jpg",
     "pagination":{
      "pgfolios":{
       "value":"2b"
      }
     }
    },
    {
     "filename":"I3CN10770004.jpg",
     "pagination":{
      "pgfolios":{
       "value":"3a"
      }
     }
    },
    {
     "filename":"I3CN10770005.jpg",
     "pagination":{
      "pgfolios":{
       "value":"3b"
      }
     }
    },
    {
     "filename":"I3CN10770006.jpg",
     "pagination":{
      "pgfolios":{
       "value":"4a"
      }
     }
    },
    {
     "filename":"I3CN10770007.jpg",
     "pagination":{
      "pgfolios":{
       "value":"4b"
      }
     }
    },
    {
     "filename":"I3CN10770008.jpg",
     "pagination":{
      "pgfolios":{
       "value":"5a"
      }
     }
    },
    {
     "filename":"I3CN10770009.jpg",
     "pagination":{
      "pgfolios":{
       "value":"5b"
      }
     }
    },
    {
     "filename":"I3CN10770010.jpg",
     "pagination":{
      "pgfolios":{
       "value":"6a"
      }
     }
    },
    {
     "filename":"I3CN10770011.jpg",
     "pagination":{
      "pgfolios":{
       "value":"6b"
      }
     }
    },
    {
     "filename":"I3CN10770012.jpg",
     "pagination":{
      "pgfolios":{
       "value":"7a"
      }
     }
    },
    {
     "filename":"I3CN10770013.jpg",
     "pagination":{
      "pgfolios":{
       "value":"7b"
      }
     }
    },
    {
     "filename":"I3CN10770014.jpg",
     "pagination":{
      "pgfolios":{
       "value":"8a"
      }
     }
    },
    {
     "filename":"I3CN10770015.jpg",
     "pagination":{
      "pgfolios":{
       "value":"8b"
      }
     }
    },
    {
     "filename":"I3CN10770016.jpg",
     "pagination":{
      "pgfolios":{
       "value":"9a"
      }
     }
    },
    {
     "filename":"I3CN10770017.jpg",
     "pagination":{
      "pgfolios":{
       "value":"9b"
      }
     }
    },
    {
     "filename":"I3CN10770018.jpg",
     "pagination":{
      "pgfolios":{
       "value":"10a"
      }
     }
    },
    {
     "filename":"I3CN10770019.jpg",
     "pagination":{
      "pgfolios":{
       "value":"10b"
      }
     }
    },
    {
     "filename":"I3CN10770020.jpg",
     "pagination":{
      "pgfolios":{
       "value":"11a"
      }
     }
    },
    {
     "filename":"I3CN10770021.jpg",
     "pagination":{
      "pgfolios":{
       "value":"11b"
      }
     }
    },
    {
     "filename":"I3CN10770022.jpg",
     "pagination":{
      "pgfolios":{
       "value":"12a"
      }
     }
    },
    {
     "filename":"I3CN10770023.jpg",
     "pagination":{
      "pgfolios":{
       "value":"12b"
      }
     }
    },
    {
     "filename":"I3CN10770024.jpg",
     "pagination":{
      "pgfolios":{
       "value":"13a"
      }
     }
    },
    {
     "filename":"I3CN10770025.jpg",
     "pagination":{
      "pgfolios":{
       "value":"13b"
      }
     }
    },
    {
     "filename":"I3CN10770026.jpg",
     "pagination":{
      "pgfolios":{
       "value":"14a"
      }
     }
    },
    {
     "filename":"I3CN10770027.jpg",
     "pagination":{
      "pgfolios":{
       "value":"14b"
      }
     }
    },
    {
     "filename":"I3CN10770028.jpg",
     "pagination":{
      "pgfolios":{
       "value":"15a"
      }
     }
    },
    {
     "filename":"I3CN10770029.jpg",
     "pagination":{
      "pgfolios":{
       "value":"15b"
      }
     }
    },
    {
     "filename":"I3CN10770030.jpg",
     "pagination":{
      "pgfolios":{
       "value":"16a"
      }
     }
    },
    {
     "filename":"I3CN10770031.jpg",
     "pagination":{
      "pgfolios":{
       "value":"16b"
      }
     }
    },
    {
     "filename":"I3CN10770032.jpg",
     "pagination":{
      "pgfolios":{
       "value":"17a"
      }
     }
    },
    {
     "filename":"I3CN10770033.jpg",
     "pagination":{
      "pgfolios":{
       "value":"17b"
      }
     }
    },
    {
     "filename":"I3CN10770034.jpg",
     "pagination":{
      "pgfolios":{
       "value":"18a"
      }
     }
    },
    {
     "filename":"I3CN10770035.jpg",
     "pagination":{
      "pgfolios":{
       "value":"18b"
      }
     }
    },
    {
     "filename":"I3CN10770036.jpg",
     "pagination":{
      "pgfolios":{
       "value":"19a"
      }
     }
    },
    {
     "filename":"I3CN10770037.jpg",
     "pagination":{
      "pgfolios":{
       "value":"19b"
      }
     }
    },
    {
     "filename":"I3CN10770038.jpg",
     "pagination":{
      "pgfolios":{
       "value":"20a"
      }
     }
    },
    {
     "filename":"I3CN10770039.jpg",
     "pagination":{
      "pgfolios":{
       "value":"20b"
      }
     }
    },
    {
     "filename":"I3CN10770040.jpg",
     "pagination":{
      "pgfolios":{
       "value":"21a"
      }
     }
    },
    {
     "filename":"I3CN10770041.jpg",
     "pagination":{
      "pgfolios":{
       "value":"21b"
      }
     }
    },
    {
     "filename":"I3CN10770042.jpg",
     "pagination":{
      "pgfolios":{
       "value":"22a"
      }
     }
    },
    {
     "filename":"I3CN10770043.jpg",
     "pagination":{
      "pgfolios":{
       "value":"22b"
      }
     }
    },
    {
     "filename":"I3CN10770044.jpg",
     "pagination":{
      "pgfolios":{
       "value":"23a"
      }
     }
    },
    {
     "filename":"I3CN10770045.jpg",
     "pagination":{
      "pgfolios":{
       "value":"23b"
      }
     }
    },
    {
     "filename":"I3CN10770046.jpg",
     "pagination":{
      "pgfolios":{
       "value":"24a"
      }
     }
    },
    {
     "filename":"I3CN10770047.jpg",
     "pagination":{
      "pgfolios":{
       "value":"24b"
      }
     }
    },
    {
     "filename":"I3CN10770048.jpg",
     "pagination":{
      "pgfolios":{
       "value":"25a"
      }
     }
    },
    {
     "filename":"I3CN10770049.jpg",
     "pagination":{
      "pgfolios":{
       "value":"25b"
      }
     }
    },
    {
     "filename":"I3CN10770050.jpg",
     "pagination":{
      "pgfolios":{
       "value":"26a"
      }
     }
    },
    {
     "filename":"I3CN10770051.jpg",
     "pagination":{
      "pgfolios":{
       "value":"26b"
      }
     }
    },
    {
     "filename":"I3CN10770052.jpg",
     "pagination":{
      "pgfolios":{
       "value":"27a"
      }
     }
    },
    {
     "filename":"I3CN10770053.jpg",
     "pagination":{
      "pgfolios":{
       "value":"27b"
      }
     }
    },
    {
     "filename":"I3CN10770054.jpg",
     "pagination":{
      "pgfolios":{
       "value":"28a"
      }
     }
    },
    {
     "filename":"I3CN10770055.jpg",
     "pagination":{
      "pgfolios":{
       "value":"28b"
      }
     }
    },
    {
     "filename":"I3CN10770056.jpg",
     "pagination":{
      "pgfolios":{
       "value":"29a"
      }
     }
    },
    {
     "filename":"I3CN10770057.jpg",
     "pagination":{
      "pgfolios":{
       "value":"29b"
      }
     }
    },
    {
     "filename":"I3CN10770058.jpg",
     "pagination":{
      "pgfolios":{
       "value":"30a"
      }
     }
    },
    {
     "filename":"I3CN10770059.jpg",
     "pagination":{
      "pgfolios":{
       "value":"30b"
      }
     }
    },
    {
     "filename":"I3CN10770060.jpg",
     "pagination":{
      "pgfolios":{
       "value":"31a"
      }
     }
    },
    {
     "filename":"I3CN10770061.jpg",
     "pagination":{
      "pgfolios":{
       "value":"31b"
      }
     }
    },
    {
     "filename":"I3CN10770062.jpg",
     "pagination":{
      "pgfolios":{
       "value":"32a"
      }
     }
    },
    {
     "filename":"I3CN10770063.jpg",
     "pagination":{
      "pgfolios":{
       "value":"32b"
      }
     }
    },
    {
     "filename":"I3CN10770064.jpg",
     "pagination":{
      "pgfolios":{
       "value":"33a"
      }
     }
    },
    {
     "filename":"I3CN10770065.jpg",
     "pagination":{
      "pgfolios":{
       "value":"33b"
      }
     }
    },
    {
     "filename":"I3CN10770066.jpg",
     "pagination":{
      "pgfolios":{
       "value":"34a"
      }
     }
    },
    {
     "filename":"I3CN10770067.jpg",
     "pagination":{
      "pgfolios":{
       "value":"34b"
      }
     }
    },
    {
     "filename":"I3CN10770068.jpg",
     "pagination":{
      "pgfolios":{
       "value":"35a"
      }
     }
    },
    {
     "filename":"I3CN10770069.jpg",
     "pagination":{
      "pgfolios":{
       "value":"35b"
      }
     }
    },
    {
     "filename":"I3CN10770070.jpg",
     "pagination":{
      "pgfolios":{
       "value":"36a"
      }
     }
    },
    {
     "filename":"I3CN10770071.jpg",
     "pagination":{
      "pgfolios":{
       "value":"36b"
      }
     }
    },
    {
     "filename":"I3CN10770072.jpg",
     "pagination":{
      "pgfolios":{
       "value":"37a"
      }
     }
    },
    {
     "filename":"I3CN10770073.jpg",
     "pagination":{
      "pgfolios":{
       "value":"37b"
      }
     }
    },
    {
     "filename":"I3CN10770074.jpg",
     "pagination":{
      "pgfolios":{
       "value":"38a"
      }
     }
    },
    {
     "filename":"I3CN10770075.jpg",
     "pagination":{
      "pgfolios":{
       "value":"38b"
      }
     }
    },
    {
     "filename":"I3CN10770076.jpg",
     "pagination":{
      "pgfolios":{
       "value":"39a"
      }
     }
    },
    {
     "filename":"I3CN10770077.jpg",
     "pagination":{
      "pgfolios":{
       "value":"39b"
      }
     }
    },
    {
     "filename":"I3CN10770078.jpg",
     "pagination":{
      "pgfolios":{
       "value":"40a"
      }
     }
    },
    {
     "filename":"I3CN10770079.jpg",
     "pagination":{
      "pgfolios":{
       "value":"40b"
      }
     }
    },
    {
     "filename":"I3CN10770080.jpg",
     "pagination":{
      "pgfolios":{
       "value":"41a"
      }
     }
    },
    {
     "filename":"I3CN10770081.jpg",
     "pagination":{
      "pgfolios":{
       "value":"41b"
      }
     }
    },
    {
     "filename":"I3CN10770082.jpg",
     "pagination":{
      "pgfolios":{
       "value":"42a"
      }
     }
    },
    {
     "filename":"I3CN10770083.jpg",
     "pagination":{
      "pgfolios":{
       "value":"42b"
      }
     }
    },
    {
     "filename":"I3CN10770084.jpg",
     "pagination":{
      "pgfolios":{
       "value":"43a"
      }
     }
    },
    {
     "filename":"I3CN10770085.jpg",
     "pagination":{
      "pgfolios":{
       "value":"43b"
      }
     }
    },
    {
     "filename":"I3CN10770086.jpg",
     "pagination":{
      "pgfolios":{
       "value":"44a"
      }
     }
    },
    {
     "filename":"I3CN10770087.jpg",
     "pagination":{
      "pgfolios":{
       "value":"44b"
      }
     }
    },
    {
     "filename":"I3CN10770088.jpg",
     "pagination":{
      "pgfolios":{
       "value":"45a"
      }
     }
    },
    {
     "filename":"I3CN10770089.jpg",
     "pagination":{
      "pgfolios":{
       "value":"45b"
      }
     }
    },
    {
     "filename":"I3CN10770090.jpg",
     "pagination":{
      "pgfolios":{
       "value":"46a"
      }
     }
    },
    {
     "filename":"I3CN10770091.jpg",
     "pagination":{
      "pgfolios":{
       "value":"46b"
      }
     }
    },
    {
     "filename":"I3CN10770092.jpg",
     "pagination":{
      "pgfolios":{
       "value":"47a"
      }
     }
    },
    {
     "filename":"I3CN10770093.jpg",
     "pagination":{
      "pgfolios":{
       "value":"47b"
      }
     }
    },
    {
     "filename":"I3CN10770094.jpg",
     "pagination":{
      "pgfolios":{
       "value":"48a"
      }
     }
    },
    {
     "filename":"I3CN10770095.jpg",
     "pagination":{
      "pgfolios":{
       "value":"48b"
      }
     }
    },
    {
     "filename":"I3CN10770096.jpg",
     "pagination":{
      "pgfolios":{
       "value":"49a"
      }
     }
    },
    {
     "filename":"I3CN10770097.jpg",
     "pagination":{
      "pgfolios":{
       "value":"49b"
      }
     }
    },
    {
     "filename":"I3CN10770098.jpg",
     "pagination":{
      "pgfolios":{
       "value":"50a"
      }
     }
    },
    {
     "filename":"I3CN10770099.jpg",
     "pagination":{
      "pgfolios":{
       "value":"50b"
      }
     }
    },
    {
     "filename":"I3CN10770100.jpg",
     "pagination":{
      "pgfolios":{
       "value":"51a"
      }
     }
    },
    {
     "filename":"I3CN10770101.jpg",
     "pagination":{
      "pgfolios":{
       "value":"51b"
      }
     }
    },
    {
     "filename":"I3CN10770102.jpg",
     "pagination":{
      "pgfolios":{
       "value":"52a"
      }
     }
    },
    {
     "filename":"I3CN10770103.jpg",
     "pagination":{
      "pgfolios":{
       "value":"52b"
      }
     }
    },
    {
     "filename":"I3CN10770104.jpg",
     "pagination":{
      "pgfolios":{
       "value":"53a"
      }
     }
    },
    {
     "filename":"I3CN10770105.jpg",
     "pagination":{
      "pgfolios":{
       "value":"53b"
      }
     }
    },
    {
     "filename":"I3CN10770106.jpg",
     "pagination":{
      "pgfolios":{
       "value":"54a"
      }
     }
    },
    {
     "filename":"I3CN10770107.jpg",
     "pagination":{
      "pgfolios":{
       "value":"54b"
      }
     }
    },
    {
     "filename":"I3CN10770108.jpg",
     "pagination":{
      "pgfolios":{
       "value":"55a"
      }
     }
    },
    {
     "filename":"I3CN10770109.jpg",
     "pagination":{
      "pgfolios":{
       "value":"55b"
      }
     }
    },
    {
     "filename":"I3CN10770110.jpg",
     "pagination":{
      "pgfolios":{
       "value":"56a"
      }
     }
    },
    {
     "filename":"I3CN10770111.jpg",
     "pagination":{
      "pgfolios":{
       "value":"56b"
      }
     }
    },
    {
     "filename":"I3CN10770112.jpg",
     "pagination":{
      "pgfolios":{
       "value":"57a"
      }
     }
    },
    {
     "filename":"I3CN10770113.jpg",
     "pagination":{
      "pgfolios":{
       "value":"57b"
      }
     }
    },
    {
     "filename":"I3CN10770114.jpg",
     "pagination":{
      "pgfolios":{
       "value":"58a"
      }
     }
    },
    {
     "filename":"I3CN10770115.jpg",
     "pagination":{
      "pgfolios":{
       "value":"58b"
      }
     }
    },
    {
     "filename":"I3CN10770116.jpg",
     "pagination":{
      "pgfolios":{
       "value":"59a"
      }
     }
    },
    {
     "filename":"I3CN10770117.jpg",
     "pagination":{
      "pgfolios":{
       "value":"59b"
      }
     }
    },
    {
     "filename":"I3CN10770118.jpg",
     "pagination":{
      "pgfolios":{
       "value":"60a"
      }
     }
    },
    {
     "filename":"I3CN10770119.jpg",
     "pagination":{
      "pgfolios":{
       "value":"60b"
      }
     }
    },
    {
     "filename":"I3CN10770120.jpg",
     "pagination":{
      "pgfolios":{
       "value":"61a"
      }
     }
    },
    {
     "filename":"I3CN10770121.jpg",
     "pagination":{
      "pgfolios":{
       "value":"61b"
      }
     }
    },
    {
     "filename":"I3CN10770122.jpg",
     "pagination":{
      "pgfolios":{
       "value":"62a"
      }
     }
    },
    {
     "filename":"I3CN10770123.jpg",
     "pagination":{
      "pgfolios":{
       "value":"62b"
      }
     }
    },
    {
     "filename":"I3CN10770124.jpg",
     "pagination":{
      "pgfolios":{
       "value":"63a"
      }
     }
    },
    {
     "filename":"I3CN10770125.jpg",
     "pagination":{
      "pgfolios":{
       "value":"63b"
      }
     }
    },
    {
     "filename":"I3CN10770126.jpg",
     "pagination":{
      "pgfolios":{
       "value":"64a"
      }
     }
    },
    {
     "filename":"I3CN10770127.jpg",
     "pagination":{
      "pgfolios":{
       "value":"64b"
      }
     }
    },
    {
     "filename":"I3CN10770128.jpg",
     "pagination":{
      "pgfolios":{
       "value":"65a"
      }
     }
    },
    {
     "filename":"I3CN10770129.jpg",
     "pagination":{
      "pgfolios":{
       "value":"65b"
      }
     }
    },
    {
     "filename":"I3CN10770130.jpg",
     "pagination":{
      "pgfolios":{
       "value":"66a"
      }
     }
    },
    {
     "filename":"I3CN10770131.jpg",
     "pagination":{
      "pgfolios":{
       "value":"66b"
      }
     }
    },
    {
     "filename":"I3CN10770132.jpg",
     "pagination":{
      "pgfolios":{
       "value":"67a"
      }
     }
    },
    {
     "filename":"I3CN10770133.jpg",
     "pagination":{
      "pgfolios":{
       "value":"67b"
      }
     }
    },
    {
     "filename":"I3CN10770134.jpg",
     "pagination":{
      "pgfolios":{
       "value":"68a"
      }
     }
    },
    {
     "filename":"I3CN10770135.jpg",
     "pagination":{
      "pgfolios":{
       "value":"68b"
      }
     }
    },
    {
     "filename":"I3CN10770136.jpg",
     "pagination":{
      "pgfolios":{
       "value":"69a"
      }
     }
    },
    {
     "filename":"I3CN10770137.jpg",
     "pagination":{
      "pgfolios":{
       "value":"69b"
      }
     }
    },
    {
     "filename":"I3CN10770138.jpg",
     "pagination":{
      "pgfolios":{
       "value":"70a"
      }
     }
    },
    {
     "filename":"I3CN10770139.jpg",
     "pagination":{
      "pgfolios":{
       "value":"70b"
      }
     }
    },
    {
     "filename":"I3CN10770140.jpg",
     "pagination":{
      "pgfolios":{
       "value":"71a"
      }
     }
    },
    {
     "filename":"I3CN10770141.jpg",
     "pagination":{
      "pgfolios":{
       "value":"71b"
      }
     }
    },
    {
     "filename":"I3CN10770142.jpg",
     "pagination":{
      "pgfolios":{
       "value":"72a"
      }
     }
    },
    {
     "filename":"I3CN10770143.jpg",
     "pagination":{
      "pgfolios":{
       "value":"72b"
      }
     }
    },
    {
     "filename":"I3CN10770144.jpg",
     "pagination":{
      "pgfolios":{
       "value":"73a"
      }
     }
    },
    {
     "filename":"I3CN10770145.jpg",
     "pagination":{
      "pgfolios":{
       "value":"73b"
      }
     }
    },
    {
     "filename":"I3CN10770146.jpg",
     "pagination":{
      "pgfolios":{
       "value":"74a"
      }
     }
    },
    {
     "filename":"I3CN10770147.jpg",
     "pagination":{
      "pgfolios":{
       "value":"74b"
      }
     }
    },
    {
     "filename":"I3CN10770148.jpg",
     "pagination":{
      "pgfolios":{
       "value":"75a"
      }
     }
    },
    {
     "filename":"I3CN10770149.jpg",
     "pagination":{
      "pgfolios":{
       "value":"75b"
      }
     }
    },
    {
     "filename":"I3CN10770150.jpg",
     "pagination":{
      "pgfolios":{
       "value":"76a"
      }
     }
    },
    {
     "filename":"I3CN10770151.jpg",
     "pagination":{
      "pgfolios":{
       "value":"76b"
      }
     }
    },
    {
     "filename":"I3CN10770152.jpg",
     "pagination":{
      "pgfolios":{
       "value":"77a"
      }
     }
    },
    {
     "filename":"I3CN10770153.jpg",
     "pagination":{
      "pgfolios":{
       "value":"77b"
      }
     }
    },
    {
     "filename":"I3CN10770154.jpg",
     "pagination":{
      "pgfolios":{
       "value":"78a"
      }
     }
    },
    {
     "filename":"I3CN10770155.jpg",
     "pagination":{
      "pgfolios":{
       "value":"78b"
      }
     }
    },
    {
     "filename":"I3CN10770156.jpg",
     "pagination":{
      "pgfolios":{
       "value":"79a"
      }
     }
    },
    {
     "filename":"I3CN10770157.jpg",
     "pagination":{
      "pgfolios":{
       "value":"79b"
      }
     }
    },
    {
     "filename":"I3CN10770158.jpg",
     "pagination":{
      "pgfolios":{
       "value":"80a"
      }
     }
    },
    {
     "filename":"I3CN10770159.jpg",
     "pagination":{
      "pgfolios":{
       "value":"80b"
      }
     }
    },
    {
     "filename":"I3CN10770160.jpg",
     "pagination":{
      "pgfolios":{
       "value":"81a"
      }
     }
    },
    {
     "filename":"I3CN10770161.jpg",
     "pagination":{
      "pgfolios":{
       "value":"81b"
      }
     }
    },
    {
     "filename":"I3CN10770162.jpg",
     "pagination":{
      "pgfolios":{
       "value":"82a"
      }
     }
    },
    {
     "filename":"I3CN10770163.jpg",
     "pagination":{
      "pgfolios":{
       "value":"82b"
      }
     }
    },
    {
     "filename":"I3CN10770164.jpg",
     "pagination":{
      "pgfolios":{
       "value":"83a"
      }
     }
    },
    {
     "filename":"I3CN10770165.jpg",
     "pagination":{
      "pgfolios":{
       "value":"83b"
      }
     }
    },
    {
     "filename":"I3CN10770166.jpg",
     "pagination":{
      "pgfolios":{
       "value":"84a"
      }
     }
    },
    {
     "filename":"I3CN10770167.jpg",
     "pagination":{
      "pgfolios":{
       "value":"84b"
      }
     }
    },
    {
     "filename":"I3CN10770168.jpg",
     "pagination":{
      "pgfolios":{
       "value":"85a"
      }
     }
    },
    {
     "filename":"I3CN10770169.jpg",
     "pagination":{
      "pgfolios":{
       "value":"85b"
      }
     }
    },
    {
     "filename":"I3CN10770170.jpg",
     "pagination":{
      "pgfolios":{
       "value":"86a"
      }
     }
    },
    {
     "filename":"I3CN10770171.jpg",
     "pagination":{
      "pgfolios":{
       "value":"86b"
      }
     }
    },
    {
     "filename":"I3CN10770172.jpg",
     "pagination":{
      "pgfolios":{
       "value":"87a"
      }
     }
    },
    {
     "filename":"I3CN10770173.jpg",
     "pagination":{
      "pgfolios":{
       "value":"87b"
      }
     }
    },
    {
     "filename":"I3CN10770174.jpg",
     "pagination":{
      "pgfolios":{
       "value":"88a"
      }
     }
    },
    {
     "filename":"I3CN10770175.jpg",
     "pagination":{
      "pgfolios":{
       "value":"88b"
      }
     }
    },
    {
     "filename":"I3CN10770176.jpg",
     "pagination":{
      "pgfolios":{
       "value":"89a"
      }
     }
    },
    {
     "filename":"I3CN10770177.jpg",
     "pagination":{
      "pgfolios":{
       "value":"89b"
      }
     }
    },
    {
     "filename":"I3CN10770178.jpg",
     "pagination":{
      "pgfolios":{
       "value":"90a"
      }
     }
    },
    {
     "filename":"I3CN10770179.jpg",
     "pagination":{
      "pgfolios":{
       "value":"90b"
      }
     }
    },
    {
     "filename":"I3CN10770180.jpg",
     "pagination":{
      "pgfolios":{
       "value":"91a"
      }
     }
    },
    {
     "filename":"I3CN10770181.jpg",
     "pagination":{
      "pgfolios":{
       "value":"91b"
      }
     }
    },
    {
     "filename":"I3CN10770182.jpg",
     "pagination":{
      "pgfolios":{
       "value":"92a"
      }
     }
    },
    {
     "filename":"I3CN10770183.jpg",
     "pagination":{
      "pgfolios":{
       "value":"92b"
      }
     }
    },
    {
     "filename":"I3CN10770184.jpg",
     "pagination":{
      "pgfolios":{
       "value":"93a"
      }
     }
    },
    {
     "filename":"I3CN10770185.jpg",
     "pagination":{
      "pgfolios":{
       "value":"93b"
      }
     }
    },
    {
     "filename":"I3CN10770186.jpg",
     "pagination":{
      "pgfolios":{
       "value":"94a"
      }
     }
    },
    {
     "filename":"I3CN10770187.jpg",
     "pagination":{
      "pgfolios":{
       "value":"94b"
      }
     }
    },
    {
     "filename":"I3CN10770188.jpg",
     "pagination":{
      "pgfolios":{
       "value":"95a"
      }
     }
    },
    {
     "filename":"I3CN10770189.jpg",
     "pagination":{
      "pgfolios":{
       "value":"95b"
      }
     }
    },
    {
     "filename":"I3CN10770190.jpg",
     "pagination":{
      "pgfolios":{
       "value":"96a"
      }
     }
    },
    {
     "filename":"I3CN10770191.jpg",
     "pagination":{
      "pgfolios":{
       "value":"96b"
      }
     }
    },
    {
     "filename":"I3CN10770192.jpg",
     "pagination":{
      "pgfolios":{
       "value":"97a"
      }
     }
    },
    {
     "filename":"I3CN10770193.jpg",
     "pagination":{
      "pgfolios":{
       "value":"97b"
      }
     }
    },
    {
     "filename":"I3CN10770194.jpg",
     "pagination":{
      "pgfolios":{
       "value":"98a"
      }
     }
    },
    {
     "filename":"I3CN10770195.jpg",
     "pagination":{
      "pgfolios":{
       "value":"98b"
      }
     }
    },
    {
     "filename":"I3CN10770196.jpg",
     "pagination":{
      "pgfolios":{
       "value":"99a"
      }
     }
    },
    {
     "filename":"I3CN10770197.jpg",
     "pagination":{
      "pgfolios":{
       "value":"99b"
      }
     }
    },
    {
     "filename":"I3CN10770198.jpg",
     "pagination":{
      "pgfolios":{
       "value":"100a"
      }
     }
    },
    {
     "filename":"I3CN10770199.jpg",
     "pagination":{
      "pgfolios":{
       "value":"100b"
      }
     }
    },
    {
     "filename":"I3CN10770200.jpg",
     "pagination":{
      "pgfolios":{
       "value":"101a"
      }
     }
    },
    {
     "filename":"I3CN10770201.jpg",
     "pagination":{
      "pgfolios":{
       "value":"101b"
      }
     }
    },
    {
     "filename":"I3CN10770202.jpg",
     "pagination":{
      "pgfolios":{
       "value":"102a"
      }
     }
    },
    {
     "filename":"I3CN10770203.jpg",
     "pagination":{
      "pgfolios":{
       "value":"102b"
      }
     }
    },
    {
     "filename":"I3CN10770204.jpg",
     "pagination":{
      "pgfolios":{
       "value":"103a"
      }
     }
    },
    {
     "filename":"I3CN10770205.jpg",
     "pagination":{
      "pgfolios":{
       "value":"103b"
      }
     }
    },
    {
     "filename":"I3CN10770206.jpg",
     "pagination":{
      "pgfolios":{
       "value":"104a"
      }
     }
    },
    {
     "filename":"I3CN10770207.jpg",
     "pagination":{
      "pgfolios":{
       "value":"104b"
      }
     }
    },
    {
     "filename":"I3CN10770208.jpg",
     "pagination":{
      "pgfolios":{
       "value":"105a"
      }
     }
    },
    {
     "filename":"I3CN10770209.jpg",
     "pagination":{
      "pgfolios":{
       "value":"105b"
      }
     }
    },
    {
     "filename":"I3CN10770210.jpg",
     "pagination":{
      "pgfolios":{
       "value":"106a"
      }
     }
    },
    {
     "filename":"I3CN10770211.jpg",
     "pagination":{
      "pgfolios":{
       "value":"106b"
      }
     }
    },
    {
     "filename":"I3CN10770212.jpg",
     "pagination":{
      "pgfolios":{
       "value":"107a"
      }
     }
    },
    {
     "filename":"I3CN10770213.jpg",
     "pagination":{
      "pgfolios":{
       "value":"107b"
      }
     }
    },
    {
     "filename":"I3CN10770214.jpg",
     "pagination":{
      "pgfolios":{
       "value":"108a"
      }
     }
    },
    {
     "filename":"I3CN10770215.jpg",
     "pagination":{
      "pgfolios":{
       "value":"108b"
      }
     }
    },
    {
     "filename":"I3CN10770216.jpg",
     "pagination":{
      "pgfolios":{
       "value":"109a"
      }
     }
    },
    {
     "filename":"I3CN10770217.jpg",
     "pagination":{
      "pgfolios":{
       "value":"109b"
      }
     }
    },
    {
     "filename":"I3CN10770218.jpg",
     "pagination":{
      "pgfolios":{
       "value":"110a"
      }
     }
    },
    {
     "filename":"I3CN10770219.jpg",
     "pagination":{
      "pgfolios":{
       "value":"110b"
      }
     }
    },
    {
     "filename":"I3CN10770220.jpg",
     "pagination":{
      "pgfolios":{
       "value":"111a"
      }
     }
    },
    {
     "filename":"I3CN10770221.jpg",
     "pagination":{
      "pgfolios":{
       "value":"111b"
      }
     }
    },
    {
     "filename":"I3CN10770222.jpg",
     "pagination":{
      "pgfolios":{
       "value":"111'a"
      }
     }
    },
    {
     "filename":"I3CN10770223.jpg",
     "pagination":{
      "pgfolios":{
       "value":"111'b"
      }
     }
    },
    {
     "filename":"I3CN10770224.jpg",
     "pagination":{
      "pgfolios":{
       "value":"112a"
      }
     }
    },
    {
     "filename":"I3CN10770225.jpg",
     "pagination":{
      "pgfolios":{
       "value":"112b"
      }
     }
    },
    {
     "filename":"I3CN10770226.jpg",
     "pagination":{
      "pgfolios":{
       "value":"113a"
      }
     }
    },
    {
     "filename":"I3CN10770227.jpg",
     "pagination":{
      "pgfolios":{
       "value":"113b"
      }
     }
    },
    {
     "filename":"I3CN10770228.jpg",
     "pagination":{
      "pgfolios":{
       "value":"114a"
      }
     }
    },
    {
     "filename":"I3CN10770229.jpg",
     "pagination":{
      "pgfolios":{
       "value":"114b"
      }
     }
    },
    {
     "filename":"I3CN10770230.jpg",
     "pagination":{
      "pgfolios":{
       "value":"115a"
      }
     }
    },
    {
     "filename":"I3CN10770231.jpg",
     "pagination":{
      "pgfolios":{
       "value":"115b"
      }
     }
    },
    {
     "filename":"I3CN10770232.jpg",
     "pagination":{
      "pgfolios":{
       "value":"116a"
      }
     }
    },
    {
     "filename":"I3CN10770233.jpg",
     "pagination":{
      "pgfolios":{
       "value":"116b"
      }
     }
    },
    {
     "filename":"I3CN10770234.jpg",
     "pagination":{
      "pgfolios":{
       "value":"117a"
      }
     }
    },
    {
     "filename":"I3CN10770235.jpg",
     "pagination":{
      "pgfolios":{
       "value":"117b"
      }
     }
    },
    {
     "filename":"I3CN10770236.jpg",
     "pagination":{
      "pgfolios":{
       "value":"118a"
      }
     }
    },
    {
     "filename":"I3CN10770237.jpg",
     "pagination":{
      "pgfolios":{
       "value":"118b"
      }
     }
    },
    {
     "filename":"I3CN10770238.jpg",
     "pagination":{
      "pgfolios":{
       "value":"119a"
      }
     }
    },
    {
     "filename":"I3CN10770239.jpg",
     "pagination":{
      "pgfolios":{
       "value":"119b"
      }
     }
    },
    {
     "filename":"I3CN10770240.jpg",
     "pagination":{
      "pgfolios":{
       "value":"120a"
      }
     }
    },
    {
     "filename":"I3CN10770241.jpg",
     "pagination":{
      "pgfolios":{
       "value":"120b"
      }
     }
    },
    {
     "filename":"I3CN10770242.jpg",
     "pagination":{
      "pgfolios":{
       "value":"121a"
      }
     }
    },
    {
     "filename":"I3CN10770243.jpg",
     "pagination":{
      "pgfolios":{
       "value":"121b"
      }
     }
    },
    {
     "filename":"I3CN10770244.jpg",
     "pagination":{
      "pgfolios":{
       "value":"122a"
      }
     }
    },
    {
     "filename":"I3CN10770245.jpg",
     "pagination":{
      "pgfolios":{
       "value":"122b"
      }
     }
    },
    {
     "filename":"I3CN10770246.jpg",
     "pagination":{
      "pgfolios":{
       "value":"123a"
      }
     }
    },
    {
     "filename":"I3CN10770247.jpg",
     "pagination":{
      "pgfolios":{
       "value":"123b"
      }
     }
    },
    {
     "filename":"I3CN10770248.jpg",
     "pagination":{
      "pgfolios":{
       "value":"124a"
      }
     }
    },
    {
     "filename":"I3CN10770249.jpg",
     "pagination":{
      "pgfolios":{
       "value":"124b"
      }
     }
    },
    {
     "filename":"I3CN10770250.jpg",
     "pagination":{
      "pgfolios":{
       "value":"125a"
      }
     }
    },
    {
     "filename":"I3CN10770251.jpg",
     "pagination":{
      "pgfolios":{
       "value":"125b"
      }
     }
    },
    {
     "filename":"I3CN10770252.jpg",
     "pagination":{
      "pgfolios":{
       "value":"126a"
      }
     }
    },
    {
     "filename":"I3CN10770253.jpg",
     "pagination":{
      "pgfolios":{
       "value":"126b"
      }
     }
    },
    {
     "filename":"I3CN10770254.jpg",
     "pagination":{
      "pgfolios":{
       "value":"127a"
      }
     }
    },
    {
     "filename":"I3CN10770255.jpg",
     "pagination":{
      "pgfolios":{
       "value":"127b"
      }
     }
    },
    {
     "filename":"I3CN10770256.jpg",
     "pagination":{
      "pgfolios":{
       "value":"128a"
      }
     }
    },
    {
     "filename":"I3CN10770257.jpg",
     "pagination":{
      "pgfolios":{
       "value":"128b"
      }
     }
    },
    {
     "filename":"I3CN10770258.jpg",
     "pagination":{
      "pgfolios":{
       "value":"129a"
      }
     }
    },
    {
     "filename":"I3CN10770259.jpg",
     "pagination":{
      "pgfolios":{
       "value":"129b"
      }
     }
    },
    {
     "filename":"I3CN10770260.jpg",
     "pagination":{
      "pgfolios":{
       "value":"130a"
      }
     }
    },
    {
     "filename":"I3CN10770261.jpg",
     "pagination":{
      "pgfolios":{
       "value":"130b"
      }
     }
    },
    {
     "filename":"I3CN10770262.jpg",
     "pagination":{
      "pgfolios":{
       "value":"131a"
      }
     }
    },
    {
     "filename":"I3CN10770263.jpg",
     "pagination":{
      "pgfolios":{
       "value":"131b"
      }
     }
    },
    {
     "filename":"I3CN10770264.jpg",
     "pagination":{
      "pgfolios":{
       "value":"132a"
      }
     }
    },
    {
     "filename":"I3CN10770265.jpg",
     "pagination":{
      "pgfolios":{
       "value":"132b"
      }
     }
    },
    {
     "filename":"I3CN10770266.jpg",
     "pagination":{
      "pgfolios":{
       "value":"133a"
      }
     }
    },
    {
     "filename":"I3CN10770267.jpg",
     "pagination":{
      "pgfolios":{
       "value":"133b"
      }
     }
    },
    {
     "filename":"I3CN10770268.jpg",
     "pagination":{
      "pgfolios":{
       "value":"134a"
      }
     }
    },
    {
     "filename":"I3CN10770269.jpg",
     "pagination":{
      "pgfolios":{
       "value":"134b"
      }
     }
    },
    {
     "filename":"I3CN10770270.jpg",
     "pagination":{
      "pgfolios":{
       "value":"135a"
      }
     }
    },
    {
     "filename":"I3CN10770271.jpg",
     "pagination":{
      "pgfolios":{
       "value":"135b"
      }
     }
    },
    {
     "filename":"I3CN10770272.jpg",
     "pagination":{
      "pgfolios":{
       "value":"136a"
      }
     }
    },
    {
     "filename":"I3CN10770273.jpg",
     "pagination":{
      "pgfolios":{
       "value":"136b"
      }
     }
    },
    {
     "filename":"I3CN10770274.jpg",
     "pagination":{
      "pgfolios":{
       "value":"137a"
      }
     }
    },
    {
     "filename":"I3CN10770275.jpg",
     "pagination":{
      "pgfolios":{
       "value":"137b"
      }
     }
    },
    {
     "filename":"I3CN10770276.jpg",
     "pagination":{
      "pgfolios":{
       "value":"138a"
      }
     }
    },
    {
     "filename":"I3CN10770277.jpg",
     "pagination":{
      "pgfolios":{
       "value":"138b"
      }
     }
    },
    {
     "filename":"I3CN10770278.jpg",
     "pagination":{
      "pgfolios":{
       "value":"139a"
      }
     }
    },
    {
     "filename":"I3CN10770279.jpg",
     "pagination":{
      "pgfolios":{
       "value":"139b"
      }
     }
    },
    {
     "filename":"I3CN10770280.jpg",
     "pagination":{
      "pgfolios":{
       "value":"140a"
      }
     }
    },
    {
     "filename":"I3CN10770281.jpg",
     "pagination":{
      "pgfolios":{
       "value":"140b"
      }
     }
    },
    {
     "filename":"I3CN10770282.jpg",
     "pagination":{
      "pgfolios":{
       "value":"141a"
      }
     }
    },
    {
     "filename":"I3CN10770283.jpg",
     "pagination":{
      "pgfolios":{
       "value":"141b"
      }
     }
    },
    {
     "filename":"I3CN10770284.jpg",
     "pagination":{
      "pgfolios":{
       "value":"142a"
      }
     }
    },
    {
     "filename":"I3CN10770285.jpg",
     "pagination":{
      "pgfolios":{
       "value":"142b"
      }
     }
    },
    {
     "filename":"I3CN10770286.jpg",
     "pagination":{
      "pgfolios":{
       "value":"143a"
      }
     }
    },
    {
     "filename":"I3CN10770287.jpg",
     "pagination":{
      "pgfolios":{
       "value":"143b"
      }
     }
    },
    {
     "filename":"I3CN10770288.jpg",
     "pagination":{
      "pgfolios":{
       "value":"144a"
      }
     }
    },
    {
     "filename":"I3CN10770289.jpg",
     "pagination":{
      "pgfolios":{
       "value":"144b"
      }
     }
    },
    {
     "filename":"I3CN10770290.jpg",
     "pagination":{
      "pgfolios":{
       "value":"145a"
      }
     }
    },
    {
     "filename":"I3CN10770291.jpg",
     "pagination":{
      "pgfolios":{
       "value":"145b"
      }
     }
    },
    {
     "filename":"I3CN10770292.jpg",
     "pagination":{
      "pgfolios":{
       "value":"146a"
      }
     }
    },
    {
     "filename":"I3CN10770293.jpg",
     "pagination":{
      "pgfolios":{
       "value":"146b"
      }
     }
    },
    {
     "filename":"I3CN10770294.jpg",
     "pagination":{
      "pgfolios":{
       "value":"147a"
      }
     }
    },
    {
     "filename":"I3CN10770295.jpg",
     "pagination":{
      "pgfolios":{
       "value":"147b"
      }
     }
    },
    {
     "filename":"I3CN10770296.jpg",
     "pagination":{
      "pgfolios":{
       "value":"148a"
      }
     }
    },
    {
     "filename":"I3CN10770297.jpg",
     "pagination":{
      "pgfolios":{
       "value":"148b"
      }
     }
    },
    {
     "filename":"I3CN10770298.jpg",
     "pagination":{
      "pgfolios":{
       "value":"149a"
      }
     }
    },
    {
     "filename":"I3CN10770299.jpg",
     "pagination":{
      "pgfolios":{
       "value":"149b"
      }
     }
    },
    {
     "filename":"I3CN10770300.jpg",
     "pagination":{
      "pgfolios":{
       "value":"150a"
      }
     }
    },
    {
     "filename":"I3CN10770301.jpg",
     "pagination":{
      "pgfolios":{
       "value":"150b"
      }
     }
    },
    {
     "filename":"I3CN10770302.jpg",
     "pagination":{
      "pgfolios":{
       "value":"151a"
      }
     }
    },
    {
     "filename":"I3CN10770303.jpg",
     "pagination":{
      "pgfolios":{
       "value":"151b"
      }
     }
    },
    {
     "filename":"I3CN10770304.jpg",
     "pagination":{
      "pgfolios":{
       "value":"152a"
      }
     }
    },
    {
     "filename":"I3CN10770305.jpg",
     "pagination":{
      "pgfolios":{
       "value":"152b"
      }
     }
    },
    {
     "filename":"I3CN10770306.jpg",
     "pagination":{
      "pgfolios":{
       "value":"153a"
      }
     }
    },
    {
     "filename":"I3CN10770307.jpg",
     "pagination":{
      "pgfolios":{
       "value":"153b"
      }
     }
    },
    {
     "filename":"I3CN10770308.jpg",
     "pagination":{
      "pgfolios":{
       "value":"154a"
      }
     }
    },
    {
     "filename":"I3CN10770309.jpg",
     "pagination":{
      "pgfolios":{
       "value":"154b"
      }
     }
    },
    {
     "filename":"I3CN10770310.jpg",
     "hidden":true
    },
    {
     "filename":"I3CN10770311.jpg",
     "hidden":true
    },
    {
     "filename":"I3CN10770312.jpg",
     "pagination":{
      "pgfolios":{
       "value":"155a"
      }
     }
    },
    {
     "filename":"I3CN10770313.jpg",
     "pagination":{
      "pgfolios":{
       "value":"155b"
      }
     }
    },
    {
     "filename":"I3CN10770314.jpg",
     "pagination":{
      "pgfolios":{
       "value":"156a"
      }
     }
    },
    {
     "filename":"I3CN10770315.jpg",
     "pagination":{
      "pgfolios":{
       "value":"156b"
      }
     }
    },
    {
     "filename":"I3CN10770316.jpg",
     "pagination":{
      "pgfolios":{
       "value":"157a"
      }
     }
    },
    {
     "filename":"I3CN10770317.jpg",
     "pagination":{
      "pgfolios":{
       "value":"157b"
      }
     }
    },
    {
     "filename":"I3CN10770318.jpg",
     "pagination":{
      "pgfolios":{
       "value":"158a"
      }
     }
    },
    {
     "filename":"I3CN10770319.jpg",
     "pagination":{
      "pgfolios":{
       "value":"158b"
      }
     }
    },
    {
     "filename":"I3CN10770320.jpg",
     "pagination":{
      "pgfolios":{
       "value":"159a"
      }
     }
    },
    {
     "filename":"I3CN10770321.jpg",
     "pagination":{
      "pgfolios":{
       "value":"159b"
      }
     }
    },
    {
     "filename":"I3CN10770322.jpg",
     "pagination":{
      "pgfolios":{
       "value":"160a"
      }
     }
    },
    {
     "filename":"I3CN10770323.jpg",
     "pagination":{
      "pgfolios":{
       "value":"160b"
      }
     }
    },
    {
     "filename":"I3CN10770324.jpg",
     "pagination":{
      "pgfolios":{
       "value":"161a"
      }
     }
    },
    {
     "filename":"I3CN10770325.jpg",
     "pagination":{
      "pgfolios":{
       "value":"161b"
      }
     }
    },
    {
     "filename":"I3CN10770326.jpg",
     "pagination":{
      "pgfolios":{
       "value":"162a"
      }
     }
    },
    {
     "filename":"I3CN10770327.jpg",
     "pagination":{
      "pgfolios":{
       "value":"162b"
      }
     }
    },
    {
     "filename":"I3CN10770328.jpg",
     "pagination":{
      "pgfolios":{
       "value":"163a"
      }
     }
    },
    {
     "filename":"I3CN10770329.jpg",
     "pagination":{
      "pgfolios":{
       "value":"163b"
      }
     }
    },
    {
     "filename":"I3CN10770330.jpg",
     "pagination":{
      "pgfolios":{
       "value":"164a"
      }
     }
    },
    {
     "filename":"I3CN10770331.jpg",
     "pagination":{
      "pgfolios":{
       "value":"164b"
      }
     }
    },
    {
     "filename":"I3CN10770332.jpg",
     "pagination":{
      "pgfolios":{
       "value":"165a"
      }
     }
    },
    {
     "filename":"I3CN10770333.jpg",
     "pagination":{
      "pgfolios":{
       "value":"165b"
      }
     }
    },
    {
     "filename":"I3CN10770334.jpg",
     "pagination":{
      "pgfolios":{
       "value":"166a"
      }
     }
    },
    {
     "filename":"I3CN10770335.jpg",
     "pagination":{
      "pgfolios":{
       "value":"166b"
      }
     }
    },
    {
     "filename":"I3CN10770336.jpg",
     "pagination":{
      "pgfolios":{
       "value":"167a"
      }
     }
    },
    {
     "filename":"I3CN10770337.jpg",
     "pagination":{
      "pgfolios":{
       "value":"167b"
      }
     }
    },
    {
     "filename":"I3CN10770338.jpg",
     "pagination":{
      "pgfolios":{
       "value":"168a"
      }
     }
    },
    {
     "filename":"I3CN10770339.jpg",
     "pagination":{
      "pgfolios":{
       "value":"168b"
      }
     }
    },
    {
     "filename":"I3CN10770340.jpg",
     "pagination":{
      "pgfolios":{
       "value":"169a"
      }
     }
    },
    {
     "filename":"I3CN10770341.jpg",
     "pagination":{
      "pgfolios":{
       "value":"169b"
      }
     }
    },
    {
     "filename":"I3CN10770342.jpg",
     "pagination":{
      "pgfolios":{
       "value":"170a"
      }
     }
    },
    {
     "filename":"I3CN10770343.jpg",
     "pagination":{
      "pgfolios":{
       "value":"170b"
      }
     }
    },
    {
     "filename":"I3CN10770344.jpg",
     "pagination":{
      "pgfolios":{
       "value":"171a"
      }
     }
    },
    {
     "filename":"I3CN10770345.jpg",
     "pagination":{
      "pgfolios":{
       "value":"171b"
      }
     }
    },
    {
     "filename":"I3CN10770346.jpg",
     "pagination":{
      "pgfolios":{
       "value":"172a"
      }
     }
    },
    {
     "filename":"I3CN10770347.jpg",
     "pagination":{
      "pgfolios":{
       "value":"172b"
      }
     }
    },
    {
     "filename":"I3CN10770348.jpg",
     "pagination":{
      "pgfolios":{
       "value":"173a"
      }
     }
    },
    {
     "filename":"I3CN10770349.jpg",
     "pagination":{
      "pgfolios":{
       "value":"173b"
      }
     }
    },
    {
     "filename":"I3CN10770350.jpg",
     "pagination":{
      "pgfolios":{
       "value":"174a"
      }
     }
    },
    {
     "filename":"I3CN10770351.jpg",
     "pagination":{
      "pgfolios":{
       "value":"174b"
      }
     }
    },
    {
     "filename":"I3CN10770352.jpg",
     "pagination":{
      "pgfolios":{
       "value":"175a"
      }
     }
    },
    {
     "filename":"I3CN10770353.jpg",
     "pagination":{
      "pgfolios":{
       "value":"175b"
      }
     }
    },
    {
     "filename":"I3CN10770354.jpg",
     "pagination":{
      "pgfolios":{
       "value":"176a"
      }
     }
    },
    {
     "filename":"I3CN10770355.jpg",
     "pagination":{
      "pgfolios":{
       "value":"176b"
      }
     }
    },
    {
     "filename":"I3CN10770356.jpg",
     "pagination":{
      "pgfolios":{
       "value":"177a"
      }
     }
    },
    {
     "filename":"I3CN10770357.jpg",
     "pagination":{
      "pgfolios":{
       "value":"177b"
      }
     }
    },
    {
     "filename":"I3CN10770358.jpg",
     "pagination":{
      "pgfolios":{
       "value":"178a"
      }
     }
    },
    {
     "filename":"I3CN10770359.jpg",
     "pagination":{
      "pgfolios":{
       "value":"178b"
      }
     }
    },
    {
     "filename":"I3CN10770360.jpg",
     "pagination":{
      "pgfolios":{
       "value":"179a"
      }
     }
    },
    {
     "filename":"I3CN10770361.jpg",
     "pagination":{
      "pgfolios":{
       "value":"179b"
      }
     }
    },
    {
     "filename":"I3CN10770362.jpg",
     "pagination":{
      "pgfolios":{
       "value":"180a"
      }
     }
    },
    {
     "filename":"I3CN10770363.jpg",
     "pagination":{
      "pgfolios":{
       "value":"180b"
      }
     }
    },
    {
     "filename":"I3CN10770364.jpg",
     "pagination":{
      "pgfolios":{
       "value":"181a"
      }
     }
    },
    {
     "filename":"I3CN10770365.jpg",
     "pagination":{
      "pgfolios":{
       "value":"181b"
      }
     }
    },
    {
     "filename":"I3CN10770366.jpg",
     "pagination":{
      "pgfolios":{
       "value":"182a"
      }
     }
    },
    {
     "filename":"I3CN10770367.jpg",
     "pagination":{
      "pgfolios":{
       "value":"182b"
      }
     }
    },
    {
     "filename":"I3CN10770368.jpg",
     "pagination":{
      "pgfolios":{
       "value":"183a"
      }
     }
    },
    {
     "filename":"I3CN10770369.jpg",
     "pagination":{
      "pgfolios":{
       "value":"183b"
      }
     }
    },
    {
     "filename":"I3CN10770370.jpg",
     "pagination":{
      "pgfolios":{
       "value":"184a"
      }
     }
    },
    {
     "filename":"I3CN10770371.jpg",
     "pagination":{
      "pgfolios":{
       "value":"184b"
      }
     }
    },
    {
     "filename":"I3CN10770372.jpg",
     "pagination":{
      "pgfolios":{
       "value":"185a"
      }
     }
    },
    {
     "filename":"I3CN10770373.jpg",
     "pagination":{
      "pgfolios":{
       "value":"185b"
      }
     }
    },
    {
     "filename":"I3CN10770374.jpg",
     "pagination":{
      "pgfolios":{
       "value":"186a"
      }
     }
    },
    {
     "filename":"I3CN10770375.jpg",
     "pagination":{
      "pgfolios":{
       "value":"186b"
      }
     }
    },
    {
     "filename":"I3CN10770376.jpg",
     "pagination":{
      "pgfolios":{
       "value":"187a"
      }
     }
    },
    {
     "filename":"I3CN10770377.jpg",
     "pagination":{
      "pgfolios":{
       "value":"187b"
      }
     }
    },
    {
     "filename":"I3CN10770378.jpg",
     "pagination":{
      "pgfolios":{
       "value":"188a"
      }
     }
    },
    {
     "filename":"I3CN10770379.jpg",
     "pagination":{
      "pgfolios":{
       "value":"188b"
      }
     }
    },
    {
     "filename":"I3CN10770380.jpg",
     "pagination":{
      "pgfolios":{
       "value":"189a"
      }
     }
    },
    {
     "filename":"I3CN10770381.jpg",
     "pagination":{
      "pgfolios":{
       "value":"189b"
      }
     }
    },
    {
     "filename":"I3CN10770382.jpg",
     "pagination":{
      "pgfolios":{
       "value":"190a"
      }
     }
    },
    {
     "filename":"I3CN10770383.jpg",
     "pagination":{
      "pgfolios":{
       "value":"190b"
      }
     }
    },
    {
     "filename":"I3CN10770384.jpg",
     "pagination":{
      "pgfolios":{
       "value":"191a"
      }
     }
    },
    {
     "filename":"I3CN10770385.jpg",
     "pagination":{
      "pgfolios":{
       "value":"191b"
      }
     }
    },
    {
     "filename":"I3CN10770386.jpg",
     "pagination":{
      "pgfolios":{
       "value":"192a"
      }
     }
    },
    {
     "filename":"I3CN10770387.jpg",
     "pagination":{
      "pgfolios":{
       "value":"192b"
      }
     }
    },
    {
     "filename":"I3CN10770388.jpg",
     "pagination":{
      "pgfolios":{
       "value":"193a"
      }
     }
    },
    {
     "filename":"I3CN10770389.jpg",
     "pagination":{
      "pgfolios":{
       "value":"193b"
      }
     }
    },
    {
     "filename":"I3CN10770390.jpg",
     "pagination":{
      "pgfolios":{
       "value":"194a"
      }
     }
    },
    {
     "filename":"I3CN10770391.jpg",
     "pagination":{
      "pgfolios":{
       "value":"194b"
      }
     }
    },
    {
     "filename":"I3CN10770392.jpg",
     "pagination":{
      "pgfolios":{
       "value":"195a"
      }
     }
    },
    {
     "filename":"I3CN10770393.jpg",
     "pagination":{
      "pgfolios":{
       "value":"195b"
      }
     }
    },
    {
     "filename":"I3CN10770394.jpg",
     "pagination":{
      "pgfolios":{
       "value":"196a"
      }
     }
    },
    {
     "filename":"I3CN10770395.jpg",
     "pagination":{
      "pgfolios":{
       "value":"196b"
      }
     }
    },
    {
     "filename":"I3CN10770396.jpg",
     "pagination":{
      "pgfolios":{
       "value":"197a"
      }
     }
    },
    {
     "filename":"I3CN10770397.jpg",
     "pagination":{
      "pgfolios":{
       "value":"197b"
      }
     }
    },
    {
     "filename":"I3CN10770398.jpg",
     "pagination":{
      "pgfolios":{
       "value":"198a"
      }
     }
    },
    {
     "filename":"I3CN10770399.jpg",
     "pagination":{
      "pgfolios":{
       "value":"198b"
      }
     }
    },
    {
     "filename":"I3CN10770400.jpg",
     "pagination":{
      "pgfolios":{
       "value":"199a"
      }
     }
    },
    {
     "filename":"I3CN10770401.jpg",
     "pagination":{
      "pgfolios":{
       "value":"199b"
      }
     }
    },
    {
     "filename":"I3CN10770402.jpg",
     "pagination":{
      "pgfolios":{
       "value":"200a"
      }
     }
    },
    {
     "filename":"I3CN10770403.jpg",
     "pagination":{
      "pgfolios":{
       "value":"200b"
      }
     }
    },
    {
     "filename":"I3CN10770404.jpg",
     "pagination":{
      "pgfolios":{
       "value":"201a"
      }
     }
    },
    {
     "filename":"I3CN10770405.jpg",
     "pagination":{
      "pgfolios":{
       "value":"201b"
      }
     }
    },
    {
     "filename":"I3CN10770406.jpg",
     "pagination":{
      "pgfolios":{
       "value":"202a"
      }
     }
    },
    {
     "filename":"I3CN10770407.jpg",
     "pagination":{
      "pgfolios":{
       "value":"202b"
      }
     }
    },
    {
     "filename":"I3CN10770408.jpg",
     "pagination":{
      "pgfolios":{
       "value":"203a"
      }
     }
    },
    {
     "filename":"I3CN10770409.jpg",
     "pagination":{
      "pgfolios":{
       "value":"203b"
      }
     }
    },
    {
     "filename":"I3CN10770410.jpg",
     "pagination":{
      "pgfolios":{
       "value":"204a"
      }
     }
    },
    {
     "filename":"I3CN10770411.jpg",
     "pagination":{
      "pgfolios":{
       "value":"204b"
      }
     }
    },
    {
     "filename":"I3CN10770412.jpg",
     "pagination":{
      "pgfolios":{
       "value":"205a"
      }
     }
    },
    {
     "filename":"I3CN10770413.jpg",
     "pagination":{
      "pgfolios":{
       "value":"205b"
      }
     }
    },
    {
     "filename":"I3CN10770414.jpg",
     "pagination":{
      "pgfolios":{
       "value":"206a"
      }
     }
    },
    {
     "filename":"I3CN10770415.jpg",
     "pagination":{
      "pgfolios":{
       "value":"206b"
      }
     }
    },
    {
     "filename":"I3CN10770416.jpg",
     "pagination":{
      "pgfolios":{
       "value":"207a"
      }
     }
    },
    {
     "filename":"I3CN10770417.jpg",
     "pagination":{
      "pgfolios":{
       "value":"207b"
      }
     }
    },
    {
     "filename":"I3CN10770418.jpg",
     "pagination":{
      "pgfolios":{
       "value":"208a"
      }
     }
    },
    {
     "filename":"I3CN10770419.jpg",
     "pagination":{
      "pgfolios":{
       "value":"208b"
      }
     }
    },
    {
     "filename":"I3CN10770420.jpg",
     "pagination":{
      "pgfolios":{
       "value":"209a"
      }
     }
    },
    {
     "filename":"I3CN10770421.jpg",
     "pagination":{
      "pgfolios":{
       "value":"209b"
      }
     }
    },
    {
     "filename":"I3CN10770422.jpg",
     "pagination":{
      "pgfolios":{
       "value":"210a"
      }
     }
    },
    {
     "filename":"I3CN10770423.jpg",
     "pagination":{
      "pgfolios":{
       "value":"210b"
      }
     }
    },
    {
     "filename":"I3CN10770424.jpg",
     "pagination":{
      "pgfolios":{
       "value":"211a"
      }
     }
    },
    {
     "filename":"I3CN10770425.jpg",
     "pagination":{
      "pgfolios":{
       "value":"211b"
      }
     }
    },
    {
     "filename":"I3CN10770426.jpg",
     "pagination":{
      "pgfolios":{
       "value":"212a"
      }
     }
    },
    {
     "filename":"I3CN10770427.jpg",
     "pagination":{
      "pgfolios":{
       "value":"212b"
      }
     }
    },
    {
     "filename":"I3CN10770428.jpg",
     "pagination":{
      "pgfolios":{
       "value":"213a"
      }
     }
    },
    {
     "filename":"I3CN10770429.jpg",
     "pagination":{
      "pgfolios":{
       "value":"213b"
      }
     }
    },
    {
     "filename":"I3CN10770430.jpg",
     "pagination":{
      "pgfolios":{
       "value":"214a"
      }
     }
    },
    {
     "filename":"I3CN10770431.jpg",
     "pagination":{
      "pgfolios":{
       "value":"214b"
      }
     }
    },
    {
     "filename":"I3CN10770432.jpg",
     "pagination":{
      "pgfolios":{
       "value":"215a"
      }
     }
    },
    {
     "filename":"I3CN10770433.jpg",
     "pagination":{
      "pgfolios":{
       "value":"215b"
      }
     }
    },
    {
     "filename":"I3CN10770434.jpg",
     "pagination":{
      "pgfolios":{
       "value":"216a"
      }
     }
    },
    {
     "filename":"I3CN10770435.jpg",
     "pagination":{
      "pgfolios":{
       "value":"216b"
      }
     }
    },
    {
     "filename":"I3CN10770436.jpg",
     "pagination":{
      "pgfolios":{
       "value":"217a"
      }
     }
    },
    {
     "filename":"I3CN10770437.jpg",
     "pagination":{
      "pgfolios":{
       "value":"217b"
      }
     }
    },
    {
     "filename":"I3CN10770438.jpg",
     "pagination":{
      "pgfolios":{
       "value":"218a"
      }
     }
    },
    {
     "filename":"I3CN10770439.jpg",
     "pagination":{
      "pgfolios":{
       "value":"218b"
      }
     }
    },
    {
     "filename":"I3CN10770440.jpg",
     "pagination":{
      "pgfolios":{
       "value":"219a"
      }
     }
    },
    {
     "filename":"I3CN10770441.jpg",
     "pagination":{
      "pgfolios":{
       "value":"219b"
      }
     }
    },
    {
     "filename":"I3CN10770442.jpg",
     "pagination":{
      "pgfolios":{
       "value":"220a"
      }
     }
    },
    {
     "filename":"I3CN10770443.jpg",
     "pagination":{
      "pgfolios":{
       "value":"220b"
      }
     }
    },
    {
     "filename":"I3CN10770444.jpg",
     "pagination":{
      "pgfolios":{
       "value":"221a"
      }
     }
    },
    {
     "filename":"I3CN10770445.jpg",
     "pagination":{
      "pgfolios":{
       "value":"221b"
      }
     }
    },
    {
     "filename":"I3CN10770446.jpg",
     "pagination":{
      "pgfolios":{
       "value":"222a"
      }
     }
    },
    {
     "filename":"I3CN10770447.jpg",
     "pagination":{
      "pgfolios":{
       "value":"222b"
      }
     }
    },
    {
     "filename":"I3CN10770448.jpg",
     "pagination":{
      "pgfolios":{
       "value":"223a"
      }
     }
    },
    {
     "filename":"I3CN10770449.jpg",
     "pagination":{
      "pgfolios":{
       "value":"223b"
      }
     }
    },
    {
     "filename":"I3CN10770450.jpg",
     "pagination":{
      "pgfolios":{
       "value":"224a"
      }
     }
    },
    {
     "filename":"I3CN10770451.jpg",
     "pagination":{
      "pgfolios":{
       "value":"224b"
      }
     }
    },
    {
     "filename":"I3CN10770452.jpg",
     "pagination":{
      "pgfolios":{
       "value":"225a"
      }
     }
    },
    {
     "filename":"I3CN10770453.jpg",
     "pagination":{
      "pgfolios":{
       "value":"225b"
      }
     }
    },
    {
     "filename":"I3CN10770454.jpg",
     "pagination":{
      "pgfolios":{
       "value":"226a"
      }
     }
    },
    {
     "filename":"I3CN10770455.jpg",
     "pagination":{
      "pgfolios":{
       "value":"226b"
      }
     }
    },
    {
     "filename":"I3CN10770456.jpg",
     "pagination":{
      "pgfolios":{
       "value":"227a"
      }
     }
    },
    {
     "filename":"I3CN10770457.jpg",
     "pagination":{
      "pgfolios":{
       "value":"227b"
      }
     }
    },
    {
     "filename":"I3CN10770458.jpg",
     "pagination":{
      "pgfolios":{
       "value":"228a"
      }
     }
    },
    {
     "filename":"I3CN10770459.jpg",
     "pagination":{
      "pgfolios":{
       "value":"228b"
      }
     }
    },
    {
     "filename":"I3CN10770460.jpg",
     "pagination":{
      "pgfolios":{
       "value":"229a"
      }
     }
    },
    {
     "filename":"I3CN10770461.jpg",
     "pagination":{
      "pgfolios":{
       "value":"229b"
      }
     }
    },
    {
     "filename":"I3CN10770462.jpg",
     "pagination":{
      "pgfolios":{
       "value":"230a"
      }
     }
    },
    {
     "filename":"I3CN10770463.jpg",
     "pagination":{
      "pgfolios":{
       "value":"230b"
      }
     }
    },
    {
     "filename":"I3CN10770464.jpg",
     "pagination":{
      "pgfolios":{
       "value":"231a"
      }
     }
    },
    {
     "filename":"I3CN10770465.jpg",
     "pagination":{
      "pgfolios":{
       "value":"231b"
      }
     }
    },
    {
     "filename":"I3CN10770466.jpg",
     "pagination":{
      "pgfolios":{
       "value":"232a"
      }
     }
    },
    {
     "filename":"I3CN10770467.jpg",
     "pagination":{
      "pgfolios":{
       "value":"232b"
      }
     }
    },
    {
     "filename":"I3CN10770468.jpg",
     "pagination":{
      "pgfolios":{
       "value":"233a"
      }
     }
    },
    {
     "filename":"I3CN10770469.jpg",
     "pagination":{
      "pgfolios":{
       "value":"233b"
      }
     }
    },
    {
     "filename":"I3CN10770470.jpg",
     "pagination":{
      "pgfolios":{
       "value":"234a"
      }
     }
    },
    {
     "filename":"I3CN10770471.jpg",
     "pagination":{
      "pgfolios":{
       "value":"234b"
      }
     }
    },
    {
     "filename":"I3CN10770472.jpg",
     "pagination":{
      "pgfolios":{
       "value":"235a"
      }
     }
    },
    {
     "filename":"I3CN10770473.jpg",
     "pagination":{
      "pgfolios":{
       "value":"235b"
      }
     }
    },
    {
     "filename":"I3CN10770474.jpg",
     "pagination":{
      "pgfolios":{
       "value":"236a"
      }
     }
    },
    {
     "filename":"I3CN10770475.jpg",
     "pagination":{
      "pgfolios":{
       "value":"236b"
      }
     }
    },
    {
     "filename":"I3CN10770476.jpg",
     "pagination":{
      "pgfolios":{
       "value":"237a"
      }
     }
    },
    {
     "filename":"I3CN10770477.jpg",
     "pagination":{
      "pgfolios":{
       "value":"237b"
      }
     }
    },
    {
     "filename":"I3CN10770478.jpg",
     "pagination":{
      "pgfolios":{
       "value":"238a"
      }
     }
    },
    {
     "filename":"I3CN10770479.jpg",
     "pagination":{
      "pgfolios":{
       "value":"238b"
      }
     }
    },
    {
     "filename":"I3CN10770480.jpg",
     "pagination":{
      "pgfolios":{
       "value":"239a"
      }
     }
    },
    {
     "filename":"I3CN10770481.jpg",
     "pagination":{
      "pgfolios":{
       "value":"239b"
      }
     }
    },
    {
     "filename":"I3CN10770482.jpg",
     "pagination":{
      "pgfolios":{
       "value":"240a"
      }
     }
    },
    {
     "filename":"I3CN10770483.jpg",
     "pagination":{
      "pgfolios":{
       "value":"240b"
      }
     }
    },
    {
     "filename":"I3CN10770484.jpg",
     "pagination":{
      "pgfolios":{
       "value":"241a"
      }
     }
    },
    {
     "filename":"I3CN10770485.jpg",
     "pagination":{
      "pgfolios":{
       "value":"241b"
      }
     }
    },
    {
     "filename":"I3CN10770486.jpg",
     "pagination":{
      "pgfolios":{
       "value":"242a"
      }
     }
    },
    {
     "filename":"I3CN10770487.jpg",
     "pagination":{
      "pgfolios":{
       "value":"242b"
      }
     }
    },
    {
     "filename":"I3CN10770488.jpg",
     "pagination":{
      "pgfolios":{
       "value":"243a"
      }
     }
    },
    {
     "filename":"I3CN10770489.jpg",
     "pagination":{
      "pgfolios":{
       "value":"243b"
      }
     }
    },
    {
     "filename":"I3CN10770490.jpg",
     "pagination":{
      "pgfolios":{
       "value":"244a"
      }
     }
    },
    {
     "filename":"I3CN10770491.jpg",
     "pagination":{
      "pgfolios":{
       "value":"244b"
      }
     }
    },
    {
     "filename":"I3CN10770492.jpg",
     "pagination":{
      "pgfolios":{
       "value":"245a"
      }
     }
    },
    {
     "filename":"I3CN10770493.jpg",
     "pagination":{
      "pgfolios":{
       "value":"245b"
      }
     }
    },
    {
     "filename":"I3CN10770494.jpg",
     "pagination":{
      "pgfolios":{
       "value":"246a"
      }
     }
    },
    {
     "filename":"I3CN10770495.jpg",
     "pagination":{
      "pgfolios":{
       "value":"246b"
      }
     }
    },
    {
     "filename":"I3CN10770496.jpg",
     "pagination":{
      "pgfolios":{
       "value":"247a"
      }
     }
    },
    {
     "filename":"I3CN10770497.jpg",
     "pagination":{
      "pgfolios":{
       "value":"247b"
      }
     }
    },
    {
     "filename":"I3CN10770498.jpg",
     "pagination":{
      "pgfolios":{
       "value":"248a"
      }
     }
    },
    {
     "filename":"I3CN10770499.jpg",
     "pagination":{
      "pgfolios":{
       "value":"248b"
      }
     }
    },
    {
     "filename":"I3CN10770500.jpg",
     "pagination":{
      "pgfolios":{
       "value":"249a"
      }
     }
    },
    {
     "filename":"I3CN10770501.jpg",
     "pagination":{
      "pgfolios":{
       "value":"249b"
      }
     }
    },
    {
     "filename":"I3CN10770502.jpg",
     "pagination":{
      "pgfolios":{
       "value":"250a"
      }
     }
    },
    {
     "filename":"I3CN10770503.jpg",
     "pagination":{
      "pgfolios":{
       "value":"250b"
      }
     }
    },
    {
     "filename":"I3CN10770504.jpg",
     "pagination":{
      "pgfolios":{
       "value":"251a"
      }
     }
    },
    {
     "filename":"I3CN10770505.jpg",
     "pagination":{
      "pgfolios":{
       "value":"251b"
      }
     }
    },
    {
     "filename":"I3CN10770506.jpg",
     "pagination":{
      "pgfolios":{
       "value":"252a"
      }
     }
    },
    {
     "filename":"I3CN10770507.jpg",
     "pagination":{
      "pgfolios":{
       "value":"252b"
      }
     }
    },
    {
     "filename":"I3CN10770508.jpg",
     "pagination":{
      "pgfolios":{
       "value":"253a"
      }
     }
    },
    {
     "filename":"I3CN10770509.jpg",
     "pagination":{
      "pgfolios":{
       "value":"253b"
      }
     }
    },
    {
     "filename":"I3CN10770510.jpg",
     "pagination":{
      "pgfolios":{
       "value":"254a"
      }
     }
    },
    {
     "filename":"I3CN10770511.jpg",
     "pagination":{
      "pgfolios":{
       "value":"254b"
      }
     }
    },
    {
     "filename":"I3CN10770512.jpg",
     "pagination":{
      "pgfolios":{
       "value":"255a"
      }
     }
    },
    {
     "filename":"I3CN10770513.jpg",
     "pagination":{
      "pgfolios":{
       "value":"255b"
      }
     }
    },
    {
     "filename":"I3CN10770514.jpg",
     "pagination":{
      "pgfolios":{
       "value":"256a"
      }
     }
    },
    {
     "filename":"I3CN10770515.jpg",
     "pagination":{
      "pgfolios":{
       "value":"256b"
      }
     }
    },
    {
     "filename":"I3CN10770516.jpg",
     "pagination":{
      "pgfolios":{
       "value":"257a"
      }
     }
    },
    {
     "filename":"I3CN10770517.jpg",
     "pagination":{
      "pgfolios":{
       "value":"257b"
      }
     }
    },
    {
     "filename":"I3CN10770518.jpg",
     "pagination":{
      "pgfolios":{
       "value":"258a"
      }
     }
    },
    {
     "filename":"I3CN10770519.jpg",
     "pagination":{
      "pgfolios":{
       "value":"258b"
      }
     }
    },
    {
     "filename":"I3CN10770520.jpg",
     "pagination":{
      "pgfolios":{
       "value":"259a"
      }
     }
    },
    {
     "filename":"I3CN10770521.jpg",
     "pagination":{
      "pgfolios":{
       "value":"259b"
      }
     }
    },
    {
     "filename":"I3CN10770522.jpg",
     "pagination":{
      "pgfolios":{
       "value":"260a"
      }
     }
    },
    {
     "filename":"I3CN10770523.jpg",
     "pagination":{
      "pgfolios":{
       "value":"260b"
      }
     }
    },
    {
     "filename":"I3CN10770524.jpg",
     "pagination":{
      "pgfolios":{
       "value":"261a"
      }
     }
    },
    {
     "filename":"I3CN10770525.jpg",
     "pagination":{
      "pgfolios":{
       "value":"261b"
      }
     }
    },
    {
     "filename":"I3CN10770526.jpg",
     "pagination":{
      "pgfolios":{
       "value":"262a"
      }
     }
    },
    {
     "filename":"I3CN10770527.jpg",
     "pagination":{
      "pgfolios":{
       "value":"262b"
      }
     }
    },
    {
     "filename":"I3CN10770528.jpg",
     "pagination":{
      "pgfolios":{
       "value":"263a"
      }
     }
    },
    {
     "filename":"I3CN10770529.jpg",
     "pagination":{
      "pgfolios":{
       "value":"263b"
      }
     }
    },
    {
     "filename":"I3CN10770530.jpg",
     "pagination":{
      "pgfolios":{
       "value":"264a"
      }
     }
    },
    {
     "filename":"I3CN10770531.jpg",
     "pagination":{
      "pgfolios":{
       "value":"264b"
      }
     }
    },
    {
     "filename":"I3CN10770532.jpg",
     "pagination":{
      "pgfolios":{
       "value":"265a"
      }
     }
    },
    {
     "filename":"I3CN10770533.jpg",
     "pagination":{
      "pgfolios":{
       "value":"265b"
      }
     }
    },
    {
     "filename":"I3CN10770534.jpg",
     "pagination":{
      "pgfolios":{
       "value":"266a"
      }
     }
    },
    {
     "filename":"I3CN10770535.jpg",
     "pagination":{
      "pgfolios":{
       "value":"266b"
      }
     }
    },
    {
     "filename":"I3CN10770536.jpg",
     "pagination":{
      "pgfolios":{
       "value":"267a"
      }
     }
    },
    {
     "filename":"I3CN10770537.jpg",
     "pagination":{
      "pgfolios":{
       "value":"267b"
      }
     }
    },
    {
     "filename":"I3CN10770538.jpg",
     "pagination":{
      "pgfolios":{
       "value":"268a"
      }
     }
    },
    {
     "filename":"I3CN10770539.jpg",
     "pagination":{
      "pgfolios":{
       "value":"268b"
      }
     }
    },
    {
     "filename":"I3CN10770540.jpg",
     "pagination":{
      "pgfolios":{
       "value":"269a"
      }
     }
    },
    {
     "filename":"I3CN10770541.jpg",
     "pagination":{
      "pgfolios":{
       "value":"269b"
      }
     }
    },
    {
     "filename":"I3CN10770542.jpg",
     "pagination":{
      "pgfolios":{
       "value":"270a"
      }
     }
    },
    {
     "filename":"I3CN10770543.jpg",
     "pagination":{
      "pgfolios":{
       "value":"270b"
      }
     }
    },
    {
     "filename":"I3CN10770544.jpg",
     "pagination":{
      "pgfolios":{
       "value":"271a"
      }
     }
    },
    {
     "filename":"I3CN10770545.jpg",
     "pagination":{
      "pgfolios":{
       "value":"271b"
      }
     }
    },
    {
     "filename":"I3CN10770546.jpg",
     "pagination":{
      "pgfolios":{
       "value":"272a"
      }
     }
    },
    {
     "filename":"I3CN10770547.jpg",
     "pagination":{
      "pgfolios":{
       "value":"272b"
      }
     }
    },
    {
     "filename":"I3CN10770548.jpg",
     "pagination":{
      "pgfolios":{
       "value":"273a"
      }
     }
    },
    {
     "filename":"I3CN10770549.jpg",
     "pagination":{
      "pgfolios":{
       "value":"273b"
      }
     }
    },
    {
     "filename":"I3CN10770550.jpg",
     "pagination":{
      "pgfolios":{
       "value":"274a"
      }
     }
    },
    {
     "filename":"I3CN10770551.jpg",
     "pagination":{
      "pgfolios":{
       "value":"274b"
      }
     }
    },
    {
     "filename":"I3CN10770552.jpg",
     "pagination":{
      "pgfolios":{
       "value":"275a"
      }
     }
    },
    {
     "filename":"I3CN10770553.jpg",
     "pagination":{
      "pgfolios":{
       "value":"275b"
      }
     }
    },
    {
     "filename":"I3CN10770554.jpg",
     "pagination":{
      "pgfolios":{
       "value":"276a"
      }
     }
    },
    {
     "filename":"I3CN10770555.jpg",
     "pagination":{
      "pgfolios":{
       "value":"276b"
      }
     }
    },
    {
     "filename":"I3CN10770556.jpg",
     "pagination":{
      "pgfolios":{
       "value":"277a"
      }
     }
    },
    {
     "filename":"I3CN10770557.jpg",
     "pagination":{
      "pgfolios":{
       "value":"277b"
      }
     }
    },
    {
     "filename":"I3CN10770558.jpg",
     "pagination":{
      "pgfolios":{
       "value":"278a"
      }
     }
    },
    {
     "filename":"I3CN10770559.jpg",
     "pagination":{
      "pgfolios":{
       "value":"278b"
      }
     }
    },
    {
     "filename":"I3CN10770560.jpg",
     "pagination":{
      "pgfolios":{
       "value":"279a"
      }
     }
    },
    {
     "filename":"I3CN10770561.jpg",
     "pagination":{
      "pgfolios":{
       "value":"279b"
      }
     }
    },
    {
     "filename":"I3CN10770562.jpg",
     "pagination":{
      "pgfolios":{
       "value":"280a"
      }
     }
    },
    {
     "filename":"I3CN10770563.jpg",
     "pagination":{
      "pgfolios":{
       "value":"280b"
      }
     }
    },
    {
     "filename":"I3CN10770564.jpg",
     "pagination":{
      "pgfolios":{
       "value":"281a"
      }
     }
    },
    {
     "filename":"I3CN10770565.jpg",
     "pagination":{
      "pgfolios":{
       "value":"281b"
      }
     }
    },
    {
     "filename":"I3CN10770566.jpg",
     "pagination":{
      "pgfolios":{
       "value":"282a"
      }
     }
    },
    {
     "filename":"I3CN10770567.jpg",
     "pagination":{
      "pgfolios":{
       "value":"282b"
      }
     }
    },
    {
     "filename":"I3CN10770568.jpg",
     "pagination":{
      "pgfolios":{
       "value":"283a"
      }
     }
    },
    {
     "filename":"I3CN10770569.jpg",
     "pagination":{
      "pgfolios":{
       "value":"283b"
      }
     }
    },
    {
     "filename":"I3CN10770570.jpg",
     "pagination":{
      "pgfolios":{
       "value":"284a"
      }
     }
    },
    {
     "filename":"I3CN10770571.jpg",
     "pagination":{
      "pgfolios":{
       "value":"284b"
      }
     }
    },
    {
     "filename":"I3CN10770572.jpg",
     "pagination":{
      "pgfolios":{
       "value":"285a"
      }
     }
    },
    {
     "filename":"I3CN10770573.jpg",
     "pagination":{
      "pgfolios":{
       "value":"285b"
      }
     }
    },
    {
     "filename":"I3CN10770574.jpg",
     "pagination":{
      "pgfolios":{
       "value":"286a"
      }
     }
    },
    {
     "filename":"I3CN10770575.jpg",
     "pagination":{
      "pgfolios":{
       "value":"286b"
      }
     }
    },
    {
     "filename":"I3CN10770576.jpg",
     "pagination":{
      "pgfolios":{
       "value":"287a"
      }
     }
    },
    {
     "filename":"I3CN10770577.jpg",
     "pagination":{
      "pgfolios":{
       "value":"287b"
      }
     }
    },
    {
     "filename":"I3CN10770578.jpg",
     "pagination":{
      "pgfolios":{
       "value":"288a"
      }
     }
    },
    {
     "filename":"I3CN10770579.jpg",
     "pagination":{
      "pgfolios":{
       "value":"288b"
      }
     }
    },
    {
     "filename":"I3CN10770580.jpg",
     "pagination":{
      "pgfolios":{
       "value":"289a"
      }
     }
    },
    {
     "filename":"I3CN10770581.jpg",
     "pagination":{
      "pgfolios":{
       "value":"289b"
      }
     }
    },
    {
     "filename":"I3CN10770582.jpg",
     "pagination":{
      "pgfolios":{
       "value":"290a"
      }
     }
    },
    {
     "filename":"I3CN10770583.jpg",
     "pagination":{
      "pgfolios":{
       "value":"290b"
      }
     }
    },
    {
     "filename":"I3CN10770584.jpg",
     "pagination":{
      "pgfolios":{
       "value":"291a"
      }
     }
    },
    {
     "filename":"I3CN10770585.jpg",
     "pagination":{
      "pgfolios":{
       "value":"291b"
      }
     }
    },
    {
     "filename":"I3CN10770586.jpg",
     "pagination":{
      "pgfolios":{
       "value":"292a"
      }
     }
    },
    {
     "filename":"I3CN10770587.jpg",
     "pagination":{
      "pgfolios":{
       "value":"292b"
      }
     }
    },
    {
     "filename":"I3CN10770588.jpg",
     "pagination":{
      "pgfolios":{
       "value":"293a"
      }
     }
    },
    {
     "filename":"I3CN10770589.jpg",
     "pagination":{
      "pgfolios":{
       "value":"293b"
      }
     }
    },
    {
     "filename":"I3CN10770590.jpg",
     "pagination":{
      "pgfolios":{
       "value":"294a"
      }
     }
    },
    {
     "filename":"I3CN10770591.jpg",
     "pagination":{
      "pgfolios":{
       "value":"294b"
      }
     }
    },
    {
     "filename":"I3CN10770592.jpg",
     "pagination":{
      "pgfolios":{
       "value":"295a"
      }
     }
    },
    {
     "filename":"I3CN10770593.jpg",
     "pagination":{
      "pgfolios":{
       "value":"295b"
      }
     }
    },
    {
     "filename":"I3CN10770594.jpg",
     "pagination":{
      "pgfolios":{
       "value":"296a"
      }
     }
    },
    {
     "filename":"I3CN10770595.jpg",
     "pagination":{
      "pgfolios":{
       "value":"296b"
      }
     }
    },
    {
     "filename":"I3CN10770596.jpg",
     "pagination":{
      "pgfolios":{
       "value":"297a"
      }
     }
    },
    {
     "filename":"I3CN10770597.jpg",
     "pagination":{
      "pgfolios":{
       "value":"297b"
      }
     }
    },
    {
     "filename":"I3CN10770598.jpg",
     "pagination":{
      "pgfolios":{
       "value":"298a"
      }
     }
    },
    {
     "filename":"I3CN10770599.jpg",
     "pagination":{
      "pgfolios":{
       "value":"298b"
      }
     }
    },
    {
     "filename":"I3CN10770600.jpg",
     "pagination":{
      "pgfolios":{
       "value":"299a"
      }
     }
    },
    {
     "filename":"I3CN10770601.jpg",
     "pagination":{
      "pgfolios":{
       "value":"299b"
      }
     }
    },
    {
     "filename":"I3CN10770602.jpg",
     "pagination":{
      "pgfolios":{
       "value":"300a"
      }
     }
    },
    {
     "filename":"I3CN10770603.jpg",
     "pagination":{
      "pgfolios":{
       "value":"300b"
      }
     }
    },
    {
     "filename":"I3CN10770604.jpg",
     "pagination":{
      "pgfolios":{
       "value":"301a"
      }
     }
    },
    {
     "filename":"I3CN10770605.jpg",
     "pagination":{
      "pgfolios":{
       "value":"301b"
      }
     }
    },
    {
     "filename":"I3CN10770606.jpg",
     "pagination":{
      "pgfolios":{
       "value":"302a"
      }
     }
    },
    {
     "filename":"I3CN10770607.jpg",
     "pagination":{
      "pgfolios":{
       "value":"302b"
      }
     }
    },
    {
     "filename":"I3CN10770608.jpg",
     "pagination":{
      "pgfolios":{
       "value":"303a"
      }
     }
    },
    {
     "filename":"I3CN10770609.jpg",
     "pagination":{
      "pgfolios":{
       "value":"303b"
      }
     }
    },
    {
     "filename":"I3CN10770610.jpg",
     "pagination":{
      "pgfolios":{
       "value":"304a"
      }
     }
    },
    {
     "filename":"I3CN10770611.jpg",
     "pagination":{
      "pgfolios":{
       "value":"304b"
      }
     }
    },
    {
     "filename":"I3CN10770612.jpg",
     "pagination":{
      "pgfolios":{
       "value":"305a"
      }
     }
    },
    {
     "filename":"I3CN10770613.jpg",
     "pagination":{
      "pgfolios":{
       "value":"305b"
      }
     }
    },
    {
     "filename":"I3CN10770614.jpg",
     "pagination":{
      "pgfolios":{
       "value":"306a"
      }
     }
    },
    {
     "filename":"I3CN10770615.jpg",
     "pagination":{
      "pgfolios":{
       "value":"306b"
      }
     }
    },
    {
     "filename":"I3CN10770616.jpg",
     "pagination":{
      "pgfolios":{
       "value":"307a"
      }
     }
    },
    {
     "filename":"I3CN10770617.jpg",
     "pagination":{
      "pgfolios":{
       "value":"307b"
      }
     }
    },
    {
     "filename":"I3CN10770618.jpg",
     "pagination":{
      "pgfolios":{
       "value":"308a"
      }
     }
    },
    {
     "filename":"I3CN10770619.jpg",
     "pagination":{
      "pgfolios":{
       "value":"308b"
      }
     }
    },
    {
     "filename":"I3CN10770620.jpg",
     "pagination":{
      "pgfolios":{
       "value":"309a"
      }
     }
    },
    {
     "filename":"I3CN10770621.jpg",
     "pagination":{
      "pgfolios":{
       "value":"309b"
      }
     }
    },
    {
     "filename":"I3CN10770622.jpg",
     "pagination":{
      "pgfolios":{
       "value":"310a"
      }
     }
    },
    {
     "filename":"I3CN10770623.jpg",
     "pagination":{
      "pgfolios":{
       "value":"310b"
      }
     }
    },
    {
     "filename":"I3CN10770624.jpg",
     "pagination":{
      "pgfolios":{
       "value":"311a"
      }
     }
    },
    {
     "filename":"I3CN10770625.jpg",
     "pagination":{
      "pgfolios":{
       "value":"311b"
      }
     }
    },
    {
     "filename":"I3CN10770626.jpg",
     "pagination":{
      "pgfolios":{
       "value":"312a"
      }
     }
    },
    {
     "filename":"I3CN10770627.jpg",
     "pagination":{
      "pgfolios":{
       "value":"312b"
      }
     }
    },
    {
     "filename":"I3CN10770628.jpg",
     "pagination":{
      "pgfolios":{
       "value":"313a"
      }
     }
    },
    {
     "filename":"I3CN10770629.jpg",
     "pagination":{
      "pgfolios":{
       "value":"313b"
      }
     }
    },
    {
     "filename":"I3CN10770630.jpg",
     "pagination":{
      "pgfolios":{
       "value":"314a"
      }
     }
    },
    {
     "filename":"I3CN10770631.jpg",
     "pagination":{
      "pgfolios":{
       "value":"314b"
      }
     }
    },
    {
     "filename":"I3CN10770632.jpg",
     "pagination":{
      "pgfolios":{
       "value":"315a"
      }
     }
    },
    {
     "filename":"I3CN10770633.jpg",
     "pagination":{
      "pgfolios":{
       "value":"315b"
      }
     }
    },
    {
     "filename":"I3CN10770634.jpg",
     "pagination":{
      "pgfolios":{
       "value":"316a"
      }
     }
    },
    {
     "filename":"I3CN10770635.jpg",
     "pagination":{
      "pgfolios":{
       "value":"316b"
      }
     }
    },
    {
     "filename":"I3CN10770636.jpg",
     "pagination":{
      "pgfolios":{
       "value":"317a"
      }
     }
    },
    {
     "filename":"I3CN10770637.jpg",
     "pagination":{
      "pgfolios":{
       "value":"317b"
      }
     }
    },
    {
     "filename":"I3CN10770638.jpg",
     "pagination":{
      "pgfolios":{
       "value":"318a"
      }
     }
    },
    {
     "filename":"I3CN10770639.jpg",
     "pagination":{
      "pgfolios":{
       "value":"318b"
      }
     }
    },
    {
     "filename":"I3CN10770640.jpg",
     "pagination":{
      "pgfolios":{
       "value":"x1a"
      }
     }
    },
    {
     "filename":"I3CN10770641.jpg",
     "pagination":{
      "pgfolios":{
       "value":"x1b"
      }
     }
    },
    {
     "filename":"I3CN10770642.jpg",
     "pagination":{
      "pgfolios":{
       "value":"x2a"
      }
     }
    },
    {
     "filename":"I3CN10770643.jpg",
     "pagination":{
      "pgfolios":{
       "value":"x2b"
      }
     }
    },
    {
     "filename":"I3CN10770644.jpg",
     "pagination":{
      "pgfolios":{
       "value":"x3a"
      }
     }
    },
    {
     "filename":"I3CN10770645.jpg",
     "pagination":{
      "pgfolios":{
       "value":"x3b"
      }
     }
    },
    {
     "filename":"I3CN10770646.jpg",
     "pagination":{
      "pgfolios":{
       "value":"x4a"
      }
     }
    },
    {
     "filename":"I3CN10770647.jpg",
     "pagination":{
      "pgfolios":{
       "value":"x4b"
      }
     }
    },
    {
     "filename":"I3CN10770648.jpg",
     "pagination":{
      "pgfolios":{
       "value":"x5a"
      }
     }
    },
    {
     "filename":"I3CN10770649.jpg",
     "pagination":{
      "pgfolios":{
       "value":"x5b"
      }
     }
    }
   ]
  }
 },
 "viewing-direction":"top-to-bottom"
}