{
 "appData":{
  "bvmt":{
   "default-vol-string-lang":"bo",
   "metadata-for-bvmt-ver":"0.1.0"
  }
 },
 "attribution":[
  {
   "@language":"en",
   "@value":"Data provided by rKTs under the CC0 license"
  }
 ],
 "changes":[
  {
   "message":{
    "@language":"en",
    "@value":"migration from rKTs data"
   },
   "time":"2020-10-03T11:35:30Z",
   "user":"bdu:U1653882847"
  }
 ],
 "default-view":"view1",
 "imggroup":"bdr:I4CZ75034",
 "pagination":[
  {
   "id":"pgfolios",
   "type":"folios"
  }
 ],
 "sections":[
  {
   "id":"1",
   "name":{
    "@language":"bo-x-ewts",
    "@value":"1"
   }
  },
  {
   "id":"2",
   "name":{
    "@language":"bo-x-ewts",
    "@value":"2"
   }
  },
  {
   "id":"3",
   "name":{
    "@language":"bo-x-ewts",
    "@value":"3"
   }
  },
  {
   "id":"4",
   "name":{
    "@language":"bo-x-ewts",
    "@value":"4"
   }
  },
  {
   "id":"5",
   "name":{
    "@language":"bo-x-ewts",
    "@value":"5"
   }
  },
  {
   "id":"6",
   "name":{
    "@language":"bo-x-ewts",
    "@value":"6"
   }
  },
  {
   "id":"7",
   "name":{
    "@language":"bo-x-ewts",
    "@value":"7"
   }
  }
 ],
 "spec-version":"0.1.0",
 "status":"released",
 "view":{
  "view1":{
   "imagelist":[
    {
     "filename":"I4CZ750340001.tif",
     "hidden":true,
     "tags":[
      "T0005"
     ]
    },
    {
     "filename":"I4CZ750340002.tif",
     "hidden":true,
     "tags":[
      "T0005"
     ]
    },
    {
     "filename":"I4CZ750340003.jpg",
     "pagination":{
      "pgfolios":{
       "section":"1",
       "value":"1a"
      }
     }
    },
    {
     "filename":"I4CZ750340004.jpg",
     "pagination":{
      "pgfolios":{
       "section":"1",
       "value":"1b"
      }
     }
    },
    {
     "filename":"I4CZ750340005.jpg",
     "pagination":{
      "pgfolios":{
       "section":"1",
       "value":"2a"
      }
     }
    },
    {
     "filename":"I4CZ750340006.jpg",
     "pagination":{
      "pgfolios":{
       "section":"1",
       "value":"2b"
      }
     }
    },
    {
     "filename":"I4CZ750340007.jpg",
     "pagination":{
      "pgfolios":{
       "section":"1",
       "value":"3a"
      }
     }
    },
    {
     "filename":"I4CZ750340008.jpg",
     "pagination":{
      "pgfolios":{
       "section":"1",
       "value":"3b"
      }
     }
    },
    {
     "filename":"I4CZ750340009.jpg",
     "pagination":{
      "pgfolios":{
       "section":"1",
       "value":"4a"
      }
     }
    },
    {
     "filename":"I4CZ750340010.jpg",
     "pagination":{
      "pgfolios":{
       "section":"1",
       "value":"4b"
      }
     }
    },
    {
     "filename":"I4CZ750340011.jpg",
     "pagination":{
      "pgfolios":{
       "section":"1",
       "value":"5a"
      }
     }
    },
    {
     "filename":"I4CZ750340012.jpg",
     "pagination":{
      "pgfolios":{
       "section":"1",
       "value":"5b"
      }
     }
    },
    {
     "filename":"I4CZ750340013.jpg",
     "pagination":{
      "pgfolios":{
       "section":"1",
       "value":"6a"
      }
     }
    },
    {
     "filename":"I4CZ750340014.jpg",
     "pagination":{
      "pgfolios":{
       "section":"1",
       "value":"6b"
      }
     }
    },
    {
     "filename":"I4CZ750340015.jpg",
     "pagination":{
      "pgfolios":{
       "section":"1",
       "value":"7a"
      }
     }
    },
    {
     "filename":"I4CZ750340016.jpg",
     "pagination":{
      "pgfolios":{
       "section":"1",
       "value":"7b"
      }
     }
    },
    {
     "filename":"I4CZ750340017.jpg",
     "pagination":{
      "pgfolios":{
       "section":"1",
       "value":"7'a"
      }
     }
    },
    {
     "filename":"I4CZ750340018.jpg",
     "pagination":{
      "pgfolios":{
       "section":"1",
       "value":"7'b"
      }
     }
    },
    {
     "filename":"I4CZ750340019.jpg",
     "pagination":{
      "pgfolios":{
       "section":"1",
       "value":"8a"
      }
     }
    },
    {
     "filename":"I4CZ750340020.jpg",
     "pagination":{
      "pgfolios":{
       "section":"1",
       "value":"8b"
      }
     }
    },
    {
     "filename":"I4CZ750340021.jpg",
     "pagination":{
      "pgfolios":{
       "section":"1",
       "value":"8'a"
      }
     }
    },
    {
     "filename":"I4CZ750340022.jpg",
     "pagination":{
      "pgfolios":{
       "section":"1",
       "value":"8'b"
      }
     }
    },
    {
     "filename":"I4CZ750340023.jpg",
     "pagination":{
      "pgfolios":{
       "section":"1",
       "value":"9a"
      }
     }
    },
    {
     "filename":"I4CZ750340024.jpg",
     "pagination":{
      "pgfolios":{
       "section":"1",
       "value":"9b"
      }
     }
    },
    {
     "filename":"I4CZ750340025.jpg",
     "pagination":{
      "pgfolios":{
       "section":"1",
       "value":"9'a"
      }
     }
    },
    {
     "filename":"I4CZ750340026.jpg",
     "pagination":{
      "pgfolios":{
       "section":"1",
       "value":"9'b"
      }
     }
    },
    {
     "filename":"I4CZ750340027.jpg",
     "pagination":{
      "pgfolios":{
       "section":"1",
       "value":"10a"
      }
     }
    },
    {
     "filename":"I4CZ750340028.jpg",
     "pagination":{
      "pgfolios":{
       "section":"1",
       "value":"10b"
      }
     }
    },
    {
     "filename":"I4CZ750340029.jpg",
     "pagination":{
      "pgfolios":{
       "section":"1",
       "value":"10'a"
      }
     }
    },
    {
     "filename":"I4CZ750340030.jpg",
     "pagination":{
      "pgfolios":{
       "section":"1",
       "value":"10'b"
      }
     }
    },
    {
     "filename":"I4CZ750340031.jpg",
     "pagination":{
      "pgfolios":{
       "section":"1",
       "value":"11a"
      }
     }
    },
    {
     "filename":"I4CZ750340032.jpg",
     "pagination":{
      "pgfolios":{
       "section":"1",
       "value":"11b"
      }
     }
    },
    {
     "filename":"I4CZ750340033.jpg",
     "pagination":{
      "pgfolios":{
       "section":"1",
       "value":"11'a"
      }
     }
    },
    {
     "filename":"I4CZ750340034.jpg",
     "pagination":{
      "pgfolios":{
       "section":"1",
       "value":"11'b"
      }
     }
    },
    {
     "filename":"I4CZ750340035.jpg",
     "pagination":{
      "pgfolios":{
       "section":"1",
       "value":"12a"
      }
     }
    },
    {
     "filename":"I4CZ750340036.jpg",
     "pagination":{
      "pgfolios":{
       "section":"1",
       "value":"12b"
      }
     }
    },
    {
     "filename":"I4CZ750340037.jpg",
     "pagination":{
      "pgfolios":{
       "section":"1",
       "value":"13a"
      }
     }
    },
    {
     "filename":"I4CZ750340038.jpg",
     "pagination":{
      "pgfolios":{
       "section":"1",
       "value":"13b"
      }
     }
    },
    {
     "filename":"I4CZ750340039.jpg",
     "pagination":{
      "pgfolios":{
       "section":"1",
       "value":"14a"
      }
     }
    },
    {
     "filename":"I4CZ750340040.jpg",
     "pagination":{
      "pgfolios":{
       "section":"1",
       "value":"14b"
      }
     }
    },
    {
     "filename":"I4CZ750340041.jpg",
     "pagination":{
      "pgfolios":{
       "section":"1",
       "value":"15a"
      }
     }
    },
    {
     "filename":"I4CZ750340042.jpg",
     "pagination":{
      "pgfolios":{
       "section":"1",
       "value":"15b"
      }
     }
    },
    {
     "filename":"I4CZ750340043.jpg",
     "pagination":{
      "pgfolios":{
       "section":"1",
       "value":"16a"
      }
     }
    },
    {
     "filename":"I4CZ750340044.jpg",
     "pagination":{
      "pgfolios":{
       "section":"1",
       "value":"16b"
      }
     }
    },
    {
     "filename":"I4CZ750340045.jpg",
     "pagination":{
      "pgfolios":{
       "section":"1",
       "value":"17a"
      }
     }
    },
    {
     "filename":"I4CZ750340046.jpg",
     "pagination":{
      "pgfolios":{
       "section":"1",
       "value":"17b"
      }
     }
    },
    {
     "filename":"I4CZ750340047.jpg",
     "pagination":{
      "pgfolios":{
       "section":"1",
       "value":"18a"
      }
     }
    },
    {
     "filename":"I4CZ750340048.jpg",
     "pagination":{
      "pgfolios":{
       "section":"1",
       "value":"18b"
      }
     }
    },
    {
     "filename":"I4CZ750340049.jpg",
     "pagination":{
      "pgfolios":{
       "section":"1",
       "value":"19a"
      }
     }
    },
    {
     "filename":"I4CZ750340050.jpg",
     "pagination":{
      "pgfolios":{
       "section":"1",
       "value":"19b"
      }
     }
    },
    {
     "filename":"I4CZ750340051.jpg",
     "pagination":{
      "pgfolios":{
       "section":"1",
       "value":"20a"
      }
     }
    },
    {
     "filename":"I4CZ750340052.jpg",
     "pagination":{
      "pgfolios":{
       "section":"1",
       "value":"20b"
      }
     }
    },
    {
     "filename":"I4CZ750340053.jpg",
     "pagination":{
      "pgfolios":{
       "section":"1",
       "value":"21a"
      }
     }
    },
    {
     "filename":"I4CZ750340054.jpg",
     "pagination":{
      "pgfolios":{
       "section":"1",
       "value":"21b"
      }
     }
    },
    {
     "filename":"I4CZ750340055.jpg",
     "pagination":{
      "pgfolios":{
       "section":"1",
       "value":"22a"
      }
     }
    },
    {
     "filename":"I4CZ750340056.jpg",
     "pagination":{
      "pgfolios":{
       "section":"1",
       "value":"22b"
      }
     }
    },
    {
     "filename":"I4CZ750340057.jpg",
     "pagination":{
      "pgfolios":{
       "section":"1",
       "value":"23a"
      }
     }
    },
    {
     "filename":"I4CZ750340058.jpg",
     "pagination":{
      "pgfolios":{
       "section":"1",
       "value":"23b"
      }
     }
    },
    {
     "filename":"I4CZ750340059.jpg",
     "pagination":{
      "pgfolios":{
       "section":"1",
       "value":"24a"
      }
     }
    },
    {
     "filename":"I4CZ750340060.jpg",
     "pagination":{
      "pgfolios":{
       "section":"1",
       "value":"24b"
      }
     }
    },
    {
     "filename":"I4CZ750340061.jpg",
     "pagination":{
      "pgfolios":{
       "section":"1",
       "value":"25a"
      }
     }
    },
    {
     "filename":"I4CZ750340062.jpg",
     "pagination":{
      "pgfolios":{
       "section":"1",
       "value":"25b"
      }
     }
    },
    {
     "filename":"I4CZ750340063.jpg",
     "pagination":{
      "pgfolios":{
       "section":"1",
       "value":"26a"
      }
     }
    },
    {
     "filename":"I4CZ750340064.jpg",
     "pagination":{
      "pgfolios":{
       "section":"1",
       "value":"26b"
      }
     }
    },
    {
     "filename":"I4CZ750340065.jpg",
     "pagination":{
      "pgfolios":{
       "section":"1",
       "value":"27a"
      }
     }
    },
    {
     "filename":"I4CZ750340066.jpg",
     "pagination":{
      "pgfolios":{
       "section":"1",
       "value":"27b"
      }
     }
    },
    {
     "filename":"I4CZ750340067.jpg",
     "pagination":{
      "pgfolios":{
       "section":"1",
       "value":"28a"
      }
     }
    },
    {
     "filename":"I4CZ750340068.jpg",
     "pagination":{
      "pgfolios":{
       "section":"1",
       "value":"28b"
      }
     }
    },
    {
     "filename":"I4CZ750340069.jpg",
     "pagination":{
      "pgfolios":{
       "section":"1",
       "value":"29a"
      }
     }
    },
    {
     "filename":"I4CZ750340070.jpg",
     "pagination":{
      "pgfolios":{
       "section":"1",
       "value":"29b"
      }
     }
    },
    {
     "filename":"I4CZ750340071.jpg",
     "pagination":{
      "pgfolios":{
       "section":"1",
       "value":"30a"
      }
     }
    },
    {
     "filename":"I4CZ750340072.jpg",
     "pagination":{
      "pgfolios":{
       "section":"1",
       "value":"30b"
      }
     }
    },
    {
     "filename":"I4CZ750340073.jpg",
     "pagination":{
      "pgfolios":{
       "section":"1",
       "value":"31a"
      }
     }
    },
    {
     "filename":"I4CZ750340074.jpg",
     "pagination":{
      "pgfolios":{
       "section":"1",
       "value":"31b"
      }
     }
    },
    {
     "filename":"I4CZ750340075.jpg",
     "pagination":{
      "pgfolios":{
       "section":"1",
       "value":"32a"
      }
     }
    },
    {
     "filename":"I4CZ750340076.jpg",
     "pagination":{
      "pgfolios":{
       "section":"1",
       "value":"32b"
      }
     }
    },
    {
     "filename":"I4CZ750340077.jpg",
     "pagination":{
      "pgfolios":{
       "section":"1",
       "value":"33a"
      }
     }
    },
    {
     "filename":"I4CZ750340078.jpg",
     "pagination":{
      "pgfolios":{
       "section":"1",
       "value":"33b"
      }
     }
    },
    {
     "filename":"I4CZ750340079.jpg",
     "pagination":{
      "pgfolios":{
       "section":"1",
       "value":"34a"
      }
     }
    },
    {
     "filename":"I4CZ750340080.jpg",
     "pagination":{
      "pgfolios":{
       "section":"1",
       "value":"34b"
      }
     }
    },
    {
     "filename":"I4CZ750340081.jpg",
     "pagination":{
      "pgfolios":{
       "section":"1",
       "value":"35a"
      }
     }
    },
    {
     "filename":"I4CZ750340082.jpg",
     "pagination":{
      "pgfolios":{
       "section":"1",
       "value":"35b"
      }
     }
    },
    {
     "filename":"I4CZ750340083.jpg",
     "pagination":{
      "pgfolios":{
       "section":"1",
       "value":"36a"
      }
     }
    },
    {
     "filename":"I4CZ750340084.jpg",
     "pagination":{
      "pgfolios":{
       "section":"1",
       "value":"36b"
      }
     }
    },
    {
     "filename":"I4CZ750340085.jpg",
     "pagination":{
      "pgfolios":{
       "section":"1",
       "value":"37a"
      }
     }
    },
    {
     "filename":"I4CZ750340086.jpg",
     "pagination":{
      "pgfolios":{
       "section":"1",
       "value":"37b"
      }
     }
    },
    {
     "filename":"I4CZ750340087.jpg",
     "pagination":{
      "pgfolios":{
       "section":"1",
       "value":"38a"
      }
     }
    },
    {
     "filename":"I4CZ750340088.jpg",
     "pagination":{
      "pgfolios":{
       "section":"1",
       "value":"38b"
      }
     }
    },
    {
     "filename":"I4CZ750340089.jpg",
     "pagination":{
      "pgfolios":{
       "section":"1",
       "value":"39a"
      }
     }
    },
    {
     "filename":"I4CZ750340090.jpg",
     "pagination":{
      "pgfolios":{
       "section":"1",
       "value":"39b"
      }
     }
    },
    {
     "filename":"I4CZ750340091.jpg",
     "pagination":{
      "pgfolios":{
       "section":"1",
       "value":"39'a"
      }
     }
    },
    {
     "filename":"I4CZ750340092.jpg",
     "pagination":{
      "pgfolios":{
       "section":"1",
       "value":"39'b"
      }
     }
    },
    {
     "filename":"I4CZ750340093.jpg",
     "pagination":{
      "pgfolios":{
       "section":"1",
       "value":"40a"
      }
     }
    },
    {
     "filename":"I4CZ750340094.jpg",
     "pagination":{
      "pgfolios":{
       "section":"1",
       "value":"40b"
      }
     }
    },
    {
     "filename":"I4CZ750340095.jpg",
     "pagination":{
      "pgfolios":{
       "section":"1",
       "value":"41a"
      }
     }
    },
    {
     "filename":"I4CZ750340096.jpg",
     "pagination":{
      "pgfolios":{
       "section":"1",
       "value":"41b"
      }
     }
    },
    {
     "filename":"I4CZ750340097.jpg",
     "pagination":{
      "pgfolios":{
       "section":"1",
       "value":"42a"
      }
     }
    },
    {
     "filename":"I4CZ750340098.jpg",
     "pagination":{
      "pgfolios":{
       "section":"1",
       "value":"42b"
      }
     }
    },
    {
     "filename":"I4CZ750340099.jpg",
     "pagination":{
      "pgfolios":{
       "section":"1",
       "value":"43a"
      }
     }
    },
    {
     "filename":"I4CZ750340100.jpg",
     "pagination":{
      "pgfolios":{
       "section":"1",
       "value":"43b"
      }
     }
    },
    {
     "filename":"I4CZ750340101.jpg",
     "pagination":{
      "pgfolios":{
       "section":"1",
       "value":"44a"
      }
     }
    },
    {
     "filename":"I4CZ750340102.jpg",
     "pagination":{
      "pgfolios":{
       "section":"1",
       "value":"44b"
      }
     }
    },
    {
     "filename":"I4CZ750340103.jpg",
     "pagination":{
      "pgfolios":{
       "section":"1",
       "value":"45a"
      }
     }
    },
    {
     "filename":"I4CZ750340104.jpg",
     "pagination":{
      "pgfolios":{
       "section":"1",
       "value":"45b"
      }
     }
    },
    {
     "filename":"I4CZ750340105.jpg",
     "pagination":{
      "pgfolios":{
       "section":"1",
       "value":"46a"
      }
     }
    },
    {
     "filename":"I4CZ750340106.jpg",
     "pagination":{
      "pgfolios":{
       "section":"1",
       "value":"46b"
      }
     }
    },
    {
     "filename":"I4CZ750340107.jpg",
     "pagination":{
      "pgfolios":{
       "section":"1",
       "value":"47a"
      }
     }
    },
    {
     "filename":"I4CZ750340108.jpg",
     "pagination":{
      "pgfolios":{
       "section":"1",
       "value":"47b"
      }
     }
    },
    {
     "filename":"I4CZ750340109.jpg",
     "pagination":{
      "pgfolios":{
       "section":"1",
       "value":"48a"
      }
     }
    },
    {
     "filename":"I4CZ750340110.jpg",
     "pagination":{
      "pgfolios":{
       "section":"1",
       "value":"48b"
      }
     }
    },
    {
     "filename":"I4CZ750340111.jpg",
     "hidden":true
    },
    {
     "filename":"I4CZ750340112.jpg",
     "hidden":true
    },
    {
     "filename":"I4CZ750340113.jpg",
     "pagination":{
      "pgfolios":{
       "section":"1",
       "value":"49a"
      }
     }
    },
    {
     "filename":"I4CZ750340114.jpg",
     "pagination":{
      "pgfolios":{
       "section":"1",
       "value":"49b"
      }
     }
    },
    {
     "filename":"I4CZ750340115.jpg",
     "pagination":{
      "pgfolios":{
       "section":"1",
       "value":"50a"
      }
     }
    },
    {
     "filename":"I4CZ750340116.jpg",
     "pagination":{
      "pgfolios":{
       "section":"1",
       "value":"50b"
      }
     }
    },
    {
     "filename":"I4CZ750340117.jpg",
     "pagination":{
      "pgfolios":{
       "section":"1",
       "value":"51a"
      }
     }
    },
    {
     "filename":"I4CZ750340118.jpg",
     "pagination":{
      "pgfolios":{
       "section":"1",
       "value":"51b"
      }
     }
    },
    {
     "filename":"I4CZ750340119.jpg",
     "pagination":{
      "pgfolios":{
       "section":"1",
       "value":"52a"
      }
     }
    },
    {
     "filename":"I4CZ750340120.jpg",
     "pagination":{
      "pgfolios":{
       "section":"1",
       "value":"52b"
      }
     }
    },
    {
     "filename":"I4CZ750340121.jpg",
     "pagination":{
      "pgfolios":{
       "section":"1",
       "value":"53a"
      }
     }
    },
    {
     "filename":"I4CZ750340122.jpg",
     "pagination":{
      "pgfolios":{
       "section":"1",
       "value":"53b"
      }
     }
    },
    {
     "filename":"I4CZ750340123.jpg",
     "pagination":{
      "pgfolios":{
       "section":"1",
       "value":"54a"
      }
     }
    },
    {
     "filename":"I4CZ750340124.jpg",
     "pagination":{
      "pgfolios":{
       "section":"1",
       "value":"54b"
      }
     }
    },
    {
     "filename":"I4CZ750340125.jpg",
     "pagination":{
      "pgfolios":{
       "section":"1",
       "value":"55a"
      }
     }
    },
    {
     "filename":"I4CZ750340126.jpg",
     "pagination":{
      "pgfolios":{
       "section":"1",
       "value":"55b"
      }
     }
    },
    {
     "filename":"I4CZ750340127.jpg",
     "pagination":{
      "pgfolios":{
       "section":"1",
       "value":"56a"
      }
     }
    },
    {
     "filename":"I4CZ750340128.jpg",
     "pagination":{
      "pgfolios":{
       "section":"1",
       "value":"56b"
      }
     }
    },
    {
     "filename":"I4CZ750340129.jpg",
     "pagination":{
      "pgfolios":{
       "section":"1",
       "value":"57a"
      }
     }
    },
    {
     "filename":"I4CZ750340130.jpg",
     "pagination":{
      "pgfolios":{
       "section":"1",
       "value":"57b"
      }
     }
    },
    {
     "filename":"I4CZ750340131.jpg",
     "pagination":{
      "pgfolios":{
       "section":"1",
       "value":"58a"
      }
     }
    },
    {
     "filename":"I4CZ750340132.jpg",
     "pagination":{
      "pgfolios":{
       "section":"1",
       "value":"58b"
      }
     }
    },
    {
     "filename":"I4CZ750340133.jpg",
     "pagination":{
      "pgfolios":{
       "section":"1",
       "value":"59a"
      }
     }
    },
    {
     "filename":"I4CZ750340134.jpg",
     "pagination":{
      "pgfolios":{
       "section":"1",
       "value":"59b"
      }
     }
    },
    {
     "filename":"I4CZ750340135.jpg",
     "pagination":{
      "pgfolios":{
       "section":"1",
       "value":"60a"
      }
     }
    },
    {
     "filename":"I4CZ750340136.jpg",
     "pagination":{
      "pgfolios":{
       "section":"1",
       "value":"60b"
      }
     }
    },
    {
     "filename":"I4CZ750340137.jpg",
     "pagination":{
      "pgfolios":{
       "section":"1",
       "value":"61a"
      }
     }
    },
    {
     "filename":"I4CZ750340138.jpg",
     "pagination":{
      "pgfolios":{
       "section":"1",
       "value":"61b"
      }
     }
    },
    {
     "filename":"I4CZ750340139.jpg",
     "pagination":{
      "pgfolios":{
       "section":"1",
       "value":"62a"
      }
     }
    },
    {
     "filename":"I4CZ750340140.jpg",
     "pagination":{
      "pgfolios":{
       "section":"1",
       "value":"62b"
      }
     }
    },
    {
     "filename":"I4CZ750340141.jpg",
     "pagination":{
      "pgfolios":{
       "section":"1",
       "value":"63a"
      }
     }
    },
    {
     "filename":"I4CZ750340142.jpg",
     "pagination":{
      "pgfolios":{
       "section":"1",
       "value":"63b"
      }
     }
    },
    {
     "filename":"I4CZ750340143.jpg",
     "pagination":{
      "pgfolios":{
       "section":"1",
       "value":"64a"
      }
     }
    },
    {
     "filename":"I4CZ750340144.jpg",
     "pagination":{
      "pgfolios":{
       "section":"1",
       "value":"64b"
      }
     }
    },
    {
     "filename":"I4CZ750340145.jpg",
     "pagination":{
      "pgfolios":{
       "section":"1",
       "value":"65a"
      }
     }
    },
    {
     "filename":"I4CZ750340146.jpg",
     "pagination":{
      "pgfolios":{
       "section":"1",
       "value":"65b"
      }
     }
    },
    {
     "filename":"I4CZ750340147.jpg",
     "pagination":{
      "pgfolios":{
       "section":"1",
       "value":"66a"
      }
     }
    },
    {
     "filename":"I4CZ750340148.jpg",
     "pagination":{
      "pgfolios":{
       "section":"1",
       "value":"66b"
      }
     }
    },
    {
     "filename":"I4CZ750340149.jpg",
     "pagination":{
      "pgfolios":{
       "section":"1",
       "value":"67a"
      }
     }
    },
    {
     "filename":"I4CZ750340150.jpg",
     "pagination":{
      "pgfolios":{
       "section":"1",
       "value":"67b"
      }
     }
    },
    {
     "filename":"I4CZ750340151.jpg",
     "pagination":{
      "pgfolios":{
       "section":"1",
       "value":"68a"
      }
     }
    },
    {
     "filename":"I4CZ750340152.jpg",
     "pagination":{
      "pgfolios":{
       "section":"1",
       "value":"68b"
      }
     }
    },
    {
     "filename":"I4CZ750340153.jpg",
     "pagination":{
      "pgfolios":{
       "section":"2",
       "value":"1a"
      }
     }
    },
    {
     "filename":"I4CZ750340154.jpg",
     "pagination":{
      "pgfolios":{
       "section":"2",
       "value":"1b"
      }
     }
    },
    {
     "filename":"I4CZ750340155.jpg",
     "pagination":{
      "pgfolios":{
       "section":"2",
       "value":"2a"
      }
     }
    },
    {
     "filename":"I4CZ750340156.jpg",
     "pagination":{
      "pgfolios":{
       "section":"2",
       "value":"2b"
      }
     }
    },
    {
     "filename":"I4CZ750340157.jpg",
     "pagination":{
      "pgfolios":{
       "section":"2",
       "value":"3a"
      }
     }
    },
    {
     "filename":"I4CZ750340158.jpg",
     "pagination":{
      "pgfolios":{
       "section":"2",
       "value":"3b"
      }
     }
    },
    {
     "filename":"I4CZ750340159.jpg",
     "pagination":{
      "pgfolios":{
       "section":"2",
       "value":"4a"
      }
     }
    },
    {
     "filename":"I4CZ750340160.jpg",
     "pagination":{
      "pgfolios":{
       "section":"2",
       "value":"4b"
      }
     }
    },
    {
     "filename":"I4CZ750340161.jpg",
     "pagination":{
      "pgfolios":{
       "section":"2",
       "value":"5a"
      }
     }
    },
    {
     "filename":"I4CZ750340162.jpg",
     "pagination":{
      "pgfolios":{
       "section":"2",
       "value":"5b"
      }
     }
    },
    {
     "filename":"I4CZ750340163.jpg",
     "pagination":{
      "pgfolios":{
       "section":"2",
       "value":"6a"
      }
     }
    },
    {
     "filename":"I4CZ750340164.jpg",
     "pagination":{
      "pgfolios":{
       "section":"2",
       "value":"6b"
      }
     }
    },
    {
     "filename":"I4CZ750340165.jpg",
     "pagination":{
      "pgfolios":{
       "section":"2",
       "value":"7a"
      }
     }
    },
    {
     "filename":"I4CZ750340166.jpg",
     "pagination":{
      "pgfolios":{
       "section":"2",
       "value":"7b"
      }
     }
    },
    {
     "filename":"I4CZ750340167.jpg",
     "pagination":{
      "pgfolios":{
       "section":"2",
       "value":"8a"
      }
     }
    },
    {
     "filename":"I4CZ750340168.jpg",
     "pagination":{
      "pgfolios":{
       "section":"2",
       "value":"8b"
      }
     }
    },
    {
     "filename":"I4CZ750340169.jpg",
     "pagination":{
      "pgfolios":{
       "section":"2",
       "value":"9a"
      }
     }
    },
    {
     "filename":"I4CZ750340170.jpg",
     "pagination":{
      "pgfolios":{
       "section":"2",
       "value":"9b"
      }
     }
    },
    {
     "filename":"I4CZ750340171.jpg",
     "pagination":{
      "pgfolios":{
       "section":"2",
       "value":"10a"
      }
     }
    },
    {
     "filename":"I4CZ750340172.jpg",
     "pagination":{
      "pgfolios":{
       "section":"2",
       "value":"10b"
      }
     }
    },
    {
     "filename":"I4CZ750340173.jpg",
     "pagination":{
      "pgfolios":{
       "section":"2",
       "value":"11a"
      }
     }
    },
    {
     "filename":"I4CZ750340174.jpg",
     "pagination":{
      "pgfolios":{
       "section":"2",
       "value":"11b"
      }
     }
    },
    {
     "filename":"I4CZ750340175.jpg",
     "pagination":{
      "pgfolios":{
       "section":"2",
       "value":"12a"
      }
     }
    },
    {
     "filename":"I4CZ750340176.jpg",
     "pagination":{
      "pgfolios":{
       "section":"2",
       "value":"12b"
      }
     }
    },
    {
     "filename":"I4CZ750340177.jpg",
     "pagination":{
      "pgfolios":{
       "section":"2",
       "value":"13a"
      }
     }
    },
    {
     "filename":"I4CZ750340178.jpg",
     "pagination":{
      "pgfolios":{
       "section":"2",
       "value":"13b"
      }
     }
    },
    {
     "filename":"I4CZ750340179.jpg",
     "pagination":{
      "pgfolios":{
       "section":"2",
       "value":"14a"
      }
     }
    },
    {
     "filename":"I4CZ750340180.jpg",
     "pagination":{
      "pgfolios":{
       "section":"2",
       "value":"14b"
      }
     }
    },
    {
     "filename":"I4CZ750340181.jpg",
     "pagination":{
      "pgfolios":{
       "section":"2",
       "value":"15a"
      }
     }
    },
    {
     "filename":"I4CZ750340182.jpg",
     "pagination":{
      "pgfolios":{
       "section":"2",
       "value":"15b"
      }
     }
    },
    {
     "filename":"I4CZ750340183.jpg",
     "pagination":{
      "pgfolios":{
       "section":"3",
       "value":"1a"
      }
     }
    },
    {
     "filename":"I4CZ750340184.jpg",
     "pagination":{
      "pgfolios":{
       "section":"3",
       "value":"1b"
      }
     }
    },
    {
     "filename":"I4CZ750340185.jpg",
     "pagination":{
      "pgfolios":{
       "section":"3",
       "value":"2a"
      }
     }
    },
    {
     "filename":"I4CZ750340186.jpg",
     "pagination":{
      "pgfolios":{
       "section":"3",
       "value":"2b"
      }
     }
    },
    {
     "filename":"I4CZ750340187.jpg",
     "pagination":{
      "pgfolios":{
       "section":"3",
       "value":"3a"
      }
     }
    },
    {
     "filename":"I4CZ750340188.jpg",
     "pagination":{
      "pgfolios":{
       "section":"3",
       "value":"3b"
      }
     }
    },
    {
     "filename":"I4CZ750340189.jpg",
     "pagination":{
      "pgfolios":{
       "section":"3",
       "value":"4a"
      }
     }
    },
    {
     "filename":"I4CZ750340190.jpg",
     "pagination":{
      "pgfolios":{
       "section":"3",
       "value":"4b"
      }
     }
    },
    {
     "filename":"I4CZ750340191.jpg",
     "pagination":{
      "pgfolios":{
       "section":"3",
       "value":"5a"
      }
     }
    },
    {
     "filename":"I4CZ750340192.jpg",
     "pagination":{
      "pgfolios":{
       "section":"3",
       "value":"5b"
      }
     }
    },
    {
     "filename":"I4CZ750340193.jpg",
     "pagination":{
      "pgfolios":{
       "section":"3",
       "value":"6a"
      }
     }
    },
    {
     "filename":"I4CZ750340194.jpg",
     "pagination":{
      "pgfolios":{
       "section":"3",
       "value":"6b"
      }
     }
    },
    {
     "filename":"I4CZ750340195.jpg",
     "pagination":{
      "pgfolios":{
       "section":"3",
       "value":"7a"
      }
     }
    },
    {
     "filename":"I4CZ750340196.jpg",
     "pagination":{
      "pgfolios":{
       "section":"3",
       "value":"7b"
      }
     }
    },
    {
     "filename":"I4CZ750340197.jpg",
     "pagination":{
      "pgfolios":{
       "section":"3",
       "value":"8a"
      }
     }
    },
    {
     "filename":"I4CZ750340198.jpg",
     "pagination":{
      "pgfolios":{
       "section":"3",
       "value":"8b"
      }
     }
    },
    {
     "filename":"I4CZ750340199.jpg",
     "pagination":{
      "pgfolios":{
       "section":"3",
       "value":"9a"
      }
     }
    },
    {
     "filename":"I4CZ750340200.jpg",
     "pagination":{
      "pgfolios":{
       "section":"3",
       "value":"9b"
      }
     }
    },
    {
     "filename":"I4CZ750340201.jpg",
     "pagination":{
      "pgfolios":{
       "section":"3",
       "value":"10a"
      }
     }
    },
    {
     "filename":"I4CZ750340202.jpg",
     "pagination":{
      "pgfolios":{
       "section":"3",
       "value":"10b"
      }
     }
    },
    {
     "filename":"I4CZ750340203.jpg",
     "pagination":{
      "pgfolios":{
       "section":"3",
       "value":"11a"
      }
     }
    },
    {
     "filename":"I4CZ750340204.jpg",
     "pagination":{
      "pgfolios":{
       "section":"3",
       "value":"11b"
      }
     }
    },
    {
     "filename":"I4CZ750340205.jpg",
     "pagination":{
      "pgfolios":{
       "section":"3",
       "value":"12a"
      }
     }
    },
    {
     "filename":"I4CZ750340206.jpg",
     "pagination":{
      "pgfolios":{
       "section":"3",
       "value":"12b"
      }
     }
    },
    {
     "filename":"I4CZ750340207.jpg",
     "pagination":{
      "pgfolios":{
       "section":"4",
       "value":"1a"
      }
     }
    },
    {
     "filename":"I4CZ750340208.jpg",
     "pagination":{
      "pgfolios":{
       "section":"4",
       "value":"1b"
      }
     }
    },
    {
     "filename":"I4CZ750340209.jpg",
     "pagination":{
      "pgfolios":{
       "section":"4",
       "value":"2a"
      }
     }
    },
    {
     "filename":"I4CZ750340210.jpg",
     "pagination":{
      "pgfolios":{
       "section":"4",
       "value":"2b"
      }
     }
    },
    {
     "filename":"I4CZ750340211.jpg",
     "pagination":{
      "pgfolios":{
       "section":"4",
       "value":"3a"
      }
     }
    },
    {
     "filename":"I4CZ750340212.jpg",
     "pagination":{
      "pgfolios":{
       "section":"4",
       "value":"3b"
      }
     }
    },
    {
     "filename":"I4CZ750340213.jpg",
     "pagination":{
      "pgfolios":{
       "section":"4",
       "value":"4a"
      }
     }
    },
    {
     "filename":"I4CZ750340214.jpg",
     "pagination":{
      "pgfolios":{
       "section":"4",
       "value":"4b"
      }
     }
    },
    {
     "filename":"I4CZ750340215.jpg",
     "pagination":{
      "pgfolios":{
       "section":"4",
       "value":"5a"
      }
     }
    },
    {
     "filename":"I4CZ750340216.jpg",
     "pagination":{
      "pgfolios":{
       "section":"4",
       "value":"5b"
      }
     }
    },
    {
     "filename":"I4CZ750340217.jpg",
     "pagination":{
      "pgfolios":{
       "section":"4",
       "value":"6a"
      }
     }
    },
    {
     "filename":"I4CZ750340218.jpg",
     "pagination":{
      "pgfolios":{
       "section":"4",
       "value":"6b"
      }
     }
    },
    {
     "filename":"I4CZ750340219.jpg",
     "pagination":{
      "pgfolios":{
       "section":"4",
       "value":"7a"
      }
     }
    },
    {
     "filename":"I4CZ750340220.jpg",
     "pagination":{
      "pgfolios":{
       "section":"4",
       "value":"7b"
      }
     }
    },
    {
     "filename":"I4CZ750340221.jpg",
     "pagination":{
      "pgfolios":{
       "section":"4",
       "value":"8a"
      }
     }
    },
    {
     "filename":"I4CZ750340222.jpg",
     "pagination":{
      "pgfolios":{
       "section":"4",
       "value":"8b"
      }
     }
    },
    {
     "filename":"I4CZ750340223.jpg",
     "pagination":{
      "pgfolios":{
       "section":"4",
       "value":"9a"
      }
     }
    },
    {
     "filename":"I4CZ750340224.jpg",
     "pagination":{
      "pgfolios":{
       "section":"4",
       "value":"9b"
      }
     }
    },
    {
     "filename":"I4CZ750340225.jpg",
     "pagination":{
      "pgfolios":{
       "section":"4",
       "value":"10a"
      }
     }
    },
    {
     "filename":"I4CZ750340226.jpg",
     "pagination":{
      "pgfolios":{
       "section":"4",
       "value":"10b"
      }
     }
    },
    {
     "filename":"I4CZ750340227.jpg",
     "pagination":{
      "pgfolios":{
       "section":"4",
       "value":"11a"
      }
     }
    },
    {
     "filename":"I4CZ750340228.jpg",
     "pagination":{
      "pgfolios":{
       "section":"4",
       "value":"11b"
      }
     }
    },
    {
     "filename":"I4CZ750340229.jpg",
     "pagination":{
      "pgfolios":{
       "section":"4",
       "value":"12a"
      }
     }
    },
    {
     "filename":"I4CZ750340230.jpg",
     "pagination":{
      "pgfolios":{
       "section":"4",
       "value":"12b"
      }
     }
    },
    {
     "filename":"I4CZ750340231.jpg",
     "pagination":{
      "pgfolios":{
       "section":"4",
       "value":"13a"
      }
     }
    },
    {
     "filename":"I4CZ750340232.jpg",
     "pagination":{
      "pgfolios":{
       "section":"4",
       "value":"13b"
      }
     }
    },
    {
     "filename":"I4CZ750340233.jpg",
     "pagination":{
      "pgfolios":{
       "section":"4",
       "value":"14a"
      }
     }
    },
    {
     "filename":"I4CZ750340234.jpg",
     "pagination":{
      "pgfolios":{
       "section":"4",
       "value":"14b"
      }
     }
    },
    {
     "filename":"I4CZ750340235.jpg",
     "pagination":{
      "pgfolios":{
       "section":"4",
       "value":"15a"
      }
     }
    },
    {
     "filename":"I4CZ750340236.jpg",
     "pagination":{
      "pgfolios":{
       "section":"4",
       "value":"15b"
      }
     }
    },
    {
     "filename":"I4CZ750340237.jpg",
     "pagination":{
      "pgfolios":{
       "section":"4",
       "value":"16a"
      }
     }
    },
    {
     "filename":"I4CZ750340238.jpg",
     "pagination":{
      "pgfolios":{
       "section":"4",
       "value":"16b"
      }
     }
    },
    {
     "filename":"I4CZ750340239.jpg",
     "pagination":{
      "pgfolios":{
       "section":"4",
       "value":"17a"
      }
     }
    },
    {
     "filename":"I4CZ750340240.jpg",
     "pagination":{
      "pgfolios":{
       "section":"4",
       "value":"17b"
      }
     }
    },
    {
     "filename":"I4CZ750340241.jpg",
     "pagination":{
      "pgfolios":{
       "section":"5",
       "value":"1a"
      }
     }
    },
    {
     "filename":"I4CZ750340242.jpg",
     "pagination":{
      "pgfolios":{
       "section":"5",
       "value":"1b"
      }
     }
    },
    {
     "filename":"I4CZ750340243.jpg",
     "pagination":{
      "pgfolios":{
       "section":"5",
       "value":"2a"
      }
     }
    },
    {
     "filename":"I4CZ750340244.jpg",
     "pagination":{
      "pgfolios":{
       "section":"5",
       "value":"2b"
      }
     }
    },
    {
     "filename":"I4CZ750340245.jpg",
     "pagination":{
      "pgfolios":{
       "section":"5",
       "value":"3a"
      }
     }
    },
    {
     "filename":"I4CZ750340246.jpg",
     "pagination":{
      "pgfolios":{
       "section":"5",
       "value":"3b"
      }
     }
    },
    {
     "filename":"I4CZ750340247.jpg",
     "pagination":{
      "pgfolios":{
       "section":"5",
       "value":"4a"
      }
     }
    },
    {
     "filename":"I4CZ750340248.jpg",
     "pagination":{
      "pgfolios":{
       "section":"5",
       "value":"4b"
      }
     }
    },
    {
     "filename":"I4CZ750340249.jpg",
     "pagination":{
      "pgfolios":{
       "section":"5",
       "value":"5a"
      }
     }
    },
    {
     "filename":"I4CZ750340250.jpg",
     "pagination":{
      "pgfolios":{
       "section":"5",
       "value":"5b"
      }
     }
    },
    {
     "filename":"I4CZ750340251.jpg",
     "pagination":{
      "pgfolios":{
       "section":"5",
       "value":"6a"
      }
     }
    },
    {
     "filename":"I4CZ750340252.jpg",
     "pagination":{
      "pgfolios":{
       "section":"5",
       "value":"6b"
      }
     }
    },
    {
     "filename":"I4CZ750340253.jpg",
     "pagination":{
      "pgfolios":{
       "section":"5",
       "value":"7a"
      }
     }
    },
    {
     "filename":"I4CZ750340254.jpg",
     "pagination":{
      "pgfolios":{
       "section":"5",
       "value":"7b"
      }
     }
    },
    {
     "filename":"I4CZ750340255.jpg",
     "pagination":{
      "pgfolios":{
       "section":"5",
       "value":"8a"
      }
     }
    },
    {
     "filename":"I4CZ750340256.jpg",
     "pagination":{
      "pgfolios":{
       "section":"5",
       "value":"8b"
      }
     }
    },
    {
     "filename":"I4CZ750340257.jpg",
     "pagination":{
      "pgfolios":{
       "section":"5",
       "value":"9a"
      }
     }
    },
    {
     "filename":"I4CZ750340258.jpg",
     "pagination":{
      "pgfolios":{
       "section":"5",
       "value":"9b"
      }
     }
    },
    {
     "filename":"I4CZ750340259.jpg",
     "pagination":{
      "pgfolios":{
       "section":"5",
       "value":"10a"
      }
     }
    },
    {
     "filename":"I4CZ750340260.jpg",
     "pagination":{
      "pgfolios":{
       "section":"5",
       "value":"10b"
      }
     }
    },
    {
     "filename":"I4CZ750340261.jpg",
     "pagination":{
      "pgfolios":{
       "section":"5",
       "value":"11a"
      }
     }
    },
    {
     "filename":"I4CZ750340262.jpg",
     "pagination":{
      "pgfolios":{
       "section":"5",
       "value":"11b"
      }
     }
    },
    {
     "filename":"I4CZ750340263.jpg",
     "pagination":{
      "pgfolios":{
       "section":"5",
       "value":"12a"
      }
     }
    },
    {
     "filename":"I4CZ750340264.jpg",
     "pagination":{
      "pgfolios":{
       "section":"5",
       "value":"12b"
      }
     }
    },
    {
     "filename":"I4CZ750340265.jpg",
     "pagination":{
      "pgfolios":{
       "section":"5",
       "value":"13a"
      }
     }
    },
    {
     "filename":"I4CZ750340266.jpg",
     "pagination":{
      "pgfolios":{
       "section":"5",
       "value":"13b"
      }
     }
    },
    {
     "filename":"I4CZ750340267.jpg",
     "pagination":{
      "pgfolios":{
       "section":"5",
       "value":"14a"
      }
     }
    },
    {
     "filename":"I4CZ750340268.jpg",
     "pagination":{
      "pgfolios":{
       "section":"5",
       "value":"14b"
      }
     }
    },
    {
     "filename":"I4CZ750340269.jpg",
     "pagination":{
      "pgfolios":{
       "section":"5",
       "value":"15a"
      }
     }
    },
    {
     "filename":"I4CZ750340270.jpg",
     "pagination":{
      "pgfolios":{
       "section":"5",
       "value":"15b"
      }
     }
    },
    {
     "filename":"I4CZ750340271.jpg",
     "pagination":{
      "pgfolios":{
       "section":"5",
       "value":"16a"
      }
     }
    },
    {
     "filename":"I4CZ750340272.jpg",
     "pagination":{
      "pgfolios":{
       "section":"5",
       "value":"16b"
      }
     }
    },
    {
     "filename":"I4CZ750340273.jpg",
     "pagination":{
      "pgfolios":{
       "section":"5",
       "value":"17a"
      }
     }
    },
    {
     "filename":"I4CZ750340274.jpg",
     "pagination":{
      "pgfolios":{
       "section":"5",
       "value":"17b"
      }
     }
    },
    {
     "filename":"I4CZ750340275.jpg",
     "pagination":{
      "pgfolios":{
       "section":"5",
       "value":"18a"
      }
     }
    },
    {
     "filename":"I4CZ750340276.jpg",
     "pagination":{
      "pgfolios":{
       "section":"5",
       "value":"18b"
      }
     }
    },
    {
     "filename":"I4CZ750340277.jpg",
     "pagination":{
      "pgfolios":{
       "section":"5",
       "value":"19a"
      }
     }
    },
    {
     "filename":"I4CZ750340278.jpg",
     "pagination":{
      "pgfolios":{
       "section":"5",
       "value":"19b"
      }
     }
    },
    {
     "filename":"I4CZ750340279.jpg",
     "pagination":{
      "pgfolios":{
       "section":"5",
       "value":"20a"
      }
     }
    },
    {
     "filename":"I4CZ750340280.jpg",
     "pagination":{
      "pgfolios":{
       "section":"5",
       "value":"20b"
      }
     }
    },
    {
     "filename":"I4CZ750340281.jpg",
     "pagination":{
      "pgfolios":{
       "section":"5",
       "value":"21a"
      }
     }
    },
    {
     "filename":"I4CZ750340282.jpg",
     "pagination":{
      "pgfolios":{
       "section":"5",
       "value":"21b"
      }
     }
    },
    {
     "filename":"I4CZ750340283.jpg",
     "pagination":{
      "pgfolios":{
       "section":"5",
       "value":"22a"
      }
     }
    },
    {
     "filename":"I4CZ750340284.jpg",
     "pagination":{
      "pgfolios":{
       "section":"5",
       "value":"22b"
      }
     }
    },
    {
     "filename":"I4CZ750340285.jpg",
     "pagination":{
      "pgfolios":{
       "section":"5",
       "value":"23a"
      }
     }
    },
    {
     "filename":"I4CZ750340286.jpg",
     "pagination":{
      "pgfolios":{
       "section":"5",
       "value":"23b"
      }
     }
    },
    {
     "filename":"I4CZ750340287.jpg",
     "pagination":{
      "pgfolios":{
       "section":"5",
       "value":"24a"
      }
     }
    },
    {
     "filename":"I4CZ750340288.jpg",
     "pagination":{
      "pgfolios":{
       "section":"5",
       "value":"24b"
      }
     }
    },
    {
     "filename":"I4CZ750340289.jpg",
     "pagination":{
      "pgfolios":{
       "section":"5",
       "value":"25a"
      }
     }
    },
    {
     "filename":"I4CZ750340290.jpg",
     "pagination":{
      "pgfolios":{
       "section":"5",
       "value":"25b"
      }
     }
    },
    {
     "filename":"I4CZ750340291.jpg",
     "pagination":{
      "pgfolios":{
       "section":"5",
       "value":"26a"
      }
     }
    },
    {
     "filename":"I4CZ750340292.jpg",
     "pagination":{
      "pgfolios":{
       "section":"5",
       "value":"26b"
      }
     }
    },
    {
     "filename":"I4CZ750340293.jpg",
     "pagination":{
      "pgfolios":{
       "section":"5",
       "value":"27a"
      }
     }
    },
    {
     "filename":"I4CZ750340294.jpg",
     "pagination":{
      "pgfolios":{
       "section":"5",
       "value":"27b"
      }
     }
    },
    {
     "filename":"I4CZ750340295.jpg",
     "pagination":{
      "pgfolios":{
       "section":"5",
       "value":"28a"
      }
     }
    },
    {
     "filename":"I4CZ750340296.jpg",
     "pagination":{
      "pgfolios":{
       "section":"5",
       "value":"28b"
      }
     }
    },
    {
     "filename":"I4CZ750340297.jpg",
     "pagination":{
      "pgfolios":{
       "section":"5",
       "value":"29a"
      }
     }
    },
    {
     "filename":"I4CZ750340298.jpg",
     "pagination":{
      "pgfolios":{
       "section":"5",
       "value":"29b"
      }
     }
    },
    {
     "filename":"I4CZ750340299.jpg",
     "pagination":{
      "pgfolios":{
       "section":"5",
       "value":"30a"
      }
     }
    },
    {
     "filename":"I4CZ750340300.jpg",
     "pagination":{
      "pgfolios":{
       "section":"5",
       "value":"30b"
      }
     }
    },
    {
     "filename":"I4CZ750340301.jpg",
     "pagination":{
      "pgfolios":{
       "section":"5",
       "value":"31a"
      }
     }
    },
    {
     "filename":"I4CZ750340302.jpg",
     "pagination":{
      "pgfolios":{
       "section":"5",
       "value":"31b"
      }
     }
    },
    {
     "filename":"I4CZ750340303.jpg",
     "pagination":{
      "pgfolios":{
       "section":"5",
       "value":"32a"
      }
     }
    },
    {
     "filename":"I4CZ750340304.jpg",
     "pagination":{
      "pgfolios":{
       "section":"5",
       "value":"32b"
      }
     }
    },
    {
     "filename":"I4CZ750340305.jpg",
     "pagination":{
      "pgfolios":{
       "section":"6",
       "value":"1a"
      }
     }
    },
    {
     "filename":"I4CZ750340306.jpg",
     "pagination":{
      "pgfolios":{
       "section":"6",
       "value":"1b"
      }
     }
    },
    {
     "filename":"I4CZ750340307.jpg",
     "pagination":{
      "pgfolios":{
       "section":"6",
       "value":"2a"
      }
     }
    },
    {
     "filename":"I4CZ750340308.jpg",
     "pagination":{
      "pgfolios":{
       "section":"6",
       "value":"2b"
      }
     }
    },
    {
     "filename":"I4CZ750340309.jpg",
     "pagination":{
      "pgfolios":{
       "section":"6",
       "value":"3a"
      }
     }
    },
    {
     "filename":"I4CZ750340310.jpg",
     "pagination":{
      "pgfolios":{
       "section":"6",
       "value":"3b"
      }
     }
    },
    {
     "filename":"I4CZ750340311.jpg",
     "pagination":{
      "pgfolios":{
       "section":"6",
       "value":"4a"
      }
     }
    },
    {
     "filename":"I4CZ750340312.jpg",
     "pagination":{
      "pgfolios":{
       "section":"6",
       "value":"4b"
      }
     }
    },
    {
     "filename":"I4CZ750340313.jpg",
     "pagination":{
      "pgfolios":{
       "section":"6",
       "value":"5a"
      }
     }
    },
    {
     "filename":"I4CZ750340314.jpg",
     "pagination":{
      "pgfolios":{
       "section":"6",
       "value":"5b"
      }
     }
    },
    {
     "filename":"I4CZ750340315.jpg",
     "pagination":{
      "pgfolios":{
       "section":"6",
       "value":"6a"
      }
     }
    },
    {
     "filename":"I4CZ750340316.jpg",
     "pagination":{
      "pgfolios":{
       "section":"6",
       "value":"6b"
      }
     }
    },
    {
     "filename":"I4CZ750340317.jpg",
     "pagination":{
      "pgfolios":{
       "section":"6",
       "value":"7a"
      }
     }
    },
    {
     "filename":"I4CZ750340318.jpg",
     "pagination":{
      "pgfolios":{
       "section":"6",
       "value":"7b"
      }
     }
    },
    {
     "filename":"I4CZ750340319.jpg",
     "pagination":{
      "pgfolios":{
       "section":"6",
       "value":"8a"
      }
     }
    },
    {
     "filename":"I4CZ750340320.jpg",
     "pagination":{
      "pgfolios":{
       "section":"6",
       "value":"8b"
      }
     }
    },
    {
     "filename":"I4CZ750340321.jpg",
     "pagination":{
      "pgfolios":{
       "section":"6",
       "value":"9a"
      }
     }
    },
    {
     "filename":"I4CZ750340322.jpg",
     "pagination":{
      "pgfolios":{
       "section":"6",
       "value":"9b"
      }
     }
    },
    {
     "filename":"I4CZ750340323.jpg",
     "pagination":{
      "pgfolios":{
       "section":"6",
       "value":"10a"
      }
     }
    },
    {
     "filename":"I4CZ750340324.jpg",
     "pagination":{
      "pgfolios":{
       "section":"6",
       "value":"10b"
      }
     }
    },
    {
     "filename":"I4CZ750340325.jpg",
     "pagination":{
      "pgfolios":{
       "section":"6",
       "value":"11a"
      }
     }
    },
    {
     "filename":"I4CZ750340326.jpg",
     "pagination":{
      "pgfolios":{
       "section":"6",
       "value":"11b"
      }
     }
    },
    {
     "filename":"I4CZ750340327.jpg",
     "pagination":{
      "pgfolios":{
       "section":"6",
       "value":"12a"
      }
     }
    },
    {
     "filename":"I4CZ750340328.jpg",
     "pagination":{
      "pgfolios":{
       "section":"6",
       "value":"12b"
      }
     }
    },
    {
     "filename":"I4CZ750340329.jpg",
     "pagination":{
      "pgfolios":{
       "section":"7",
       "value":"1a"
      }
     }
    },
    {
     "filename":"I4CZ750340330.jpg",
     "pagination":{
      "pgfolios":{
       "section":"7",
       "value":"1b"
      }
     }
    },
    {
     "filename":"I4CZ750340331.jpg",
     "pagination":{
      "pgfolios":{
       "section":"7",
       "value":"2a"
      }
     }
    },
    {
     "filename":"I4CZ750340332.jpg",
     "pagination":{
      "pgfolios":{
       "section":"7",
       "value":"2b"
      }
     }
    },
    {
     "filename":"I4CZ750340333.jpg",
     "pagination":{
      "pgfolios":{
       "section":"7",
       "value":"3a"
      }
     }
    },
    {
     "filename":"I4CZ750340334.jpg",
     "pagination":{
      "pgfolios":{
       "section":"7",
       "value":"3b"
      }
     }
    },
    {
     "filename":"I4CZ750340335.jpg",
     "pagination":{
      "pgfolios":{
       "section":"7",
       "value":"4a"
      }
     }
    },
    {
     "filename":"I4CZ750340336.jpg",
     "pagination":{
      "pgfolios":{
       "section":"7",
       "value":"4b"
      }
     }
    },
    {
     "filename":"I4CZ750340337.jpg",
     "pagination":{
      "pgfolios":{
       "section":"7",
       "value":"5a"
      }
     }
    },
    {
     "filename":"I4CZ750340338.jpg",
     "pagination":{
      "pgfolios":{
       "section":"7",
       "value":"5b"
      }
     }
    },
    {
     "filename":"I4CZ750340339.jpg",
     "pagination":{
      "pgfolios":{
       "section":"7",
       "value":"6a"
      }
     }
    },
    {
     "filename":"I4CZ750340340.jpg",
     "pagination":{
      "pgfolios":{
       "section":"7",
       "value":"6b"
      }
     }
    },
    {
     "filename":"I4CZ750340341.jpg",
     "pagination":{
      "pgfolios":{
       "section":"7",
       "value":"7a"
      }
     }
    },
    {
     "filename":"I4CZ750340342.jpg",
     "pagination":{
      "pgfolios":{
       "section":"7",
       "value":"7b"
      }
     }
    },
    {
     "filename":"I4CZ750340343.jpg",
     "pagination":{
      "pgfolios":{
       "section":"7",
       "value":"8a"
      }
     }
    },
    {
     "filename":"I4CZ750340344.jpg",
     "pagination":{
      "pgfolios":{
       "section":"7",
       "value":"8b"
      }
     }
    },
    {
     "filename":"I4CZ750340345.jpg",
     "pagination":{
      "pgfolios":{
       "section":"7",
       "value":"9a"
      }
     }
    },
    {
     "filename":"I4CZ750340346.jpg",
     "pagination":{
      "pgfolios":{
       "section":"7",
       "value":"9b"
      }
     }
    },
    {
     "filename":"I4CZ750340347.jpg",
     "pagination":{
      "pgfolios":{
       "section":"7",
       "value":"10a"
      }
     }
    },
    {
     "filename":"I4CZ750340348.jpg",
     "pagination":{
      "pgfolios":{
       "section":"7",
       "value":"10b"
      }
     }
    },
    {
     "filename":"I4CZ750340349.jpg",
     "pagination":{
      "pgfolios":{
       "section":"7",
       "value":"11a"
      }
     }
    },
    {
     "filename":"I4CZ750340350.jpg",
     "pagination":{
      "pgfolios":{
       "section":"7",
       "value":"11b"
      }
     }
    },
    {
     "filename":"I4CZ750340351.jpg",
     "pagination":{
      "pgfolios":{
       "section":"7",
       "value":"12a"
      }
     }
    },
    {
     "filename":"I4CZ750340352.jpg",
     "pagination":{
      "pgfolios":{
       "section":"7",
       "value":"12b"
      }
     }
    },
    {
     "filename":"I4CZ750340353.jpg",
     "pagination":{
      "pgfolios":{
       "section":"7",
       "value":"13a"
      }
     }
    },
    {
     "filename":"I4CZ750340354.jpg",
     "pagination":{
      "pgfolios":{
       "section":"7",
       "value":"13b"
      }
     }
    },
    {
     "filename":"I4CZ750340355.jpg",
     "pagination":{
      "pgfolios":{
       "section":"7",
       "value":"14a"
      }
     }
    },
    {
     "filename":"I4CZ750340356.jpg",
     "pagination":{
      "pgfolios":{
       "section":"7",
       "value":"14b"
      }
     }
    },
    {
     "filename":"I4CZ750340357.jpg",
     "pagination":{
      "pgfolios":{
       "section":"7",
       "value":"15a"
      }
     }
    },
    {
     "filename":"I4CZ750340358.jpg",
     "pagination":{
      "pgfolios":{
       "section":"7",
       "value":"15b"
      }
     }
    },
    {
     "filename":"I4CZ750340359.jpg",
     "pagination":{
      "pgfolios":{
       "section":"7",
       "value":"16a"
      }
     }
    },
    {
     "filename":"I4CZ750340360.jpg",
     "pagination":{
      "pgfolios":{
       "section":"7",
       "value":"16b"
      }
     }
    },
    {
     "filename":"I4CZ750340361.jpg",
     "pagination":{
      "pgfolios":{
       "section":"7",
       "value":"17a"
      }
     }
    },
    {
     "filename":"I4CZ750340362.jpg",
     "pagination":{
      "pgfolios":{
       "section":"7",
       "value":"17b"
      }
     }
    },
    {
     "filename":"I4CZ750340363.jpg",
     "pagination":{
      "pgfolios":{
       "section":"7",
       "value":"18a"
      }
     }
    },
    {
     "filename":"I4CZ750340364.jpg",
     "pagination":{
      "pgfolios":{
       "section":"7",
       "value":"18b"
      }
     }
    },
    {
     "filename":"I4CZ750340365.jpg",
     "pagination":{
      "pgfolios":{
       "section":"7",
       "value":"19a"
      }
     }
    },
    {
     "filename":"I4CZ750340366.jpg",
     "pagination":{
      "pgfolios":{
       "section":"7",
       "value":"19b"
      }
     }
    },
    {
     "filename":"I4CZ750340367.jpg",
     "pagination":{
      "pgfolios":{
       "section":"7",
       "value":"20a"
      }
     }
    },
    {
     "filename":"I4CZ750340368.jpg",
     "pagination":{
      "pgfolios":{
       "section":"7",
       "value":"20b"
      }
     }
    },
    {
     "filename":"I4CZ750340369.jpg",
     "pagination":{
      "pgfolios":{
       "section":"7",
       "value":"21a"
      }
     }
    },
    {
     "filename":"I4CZ750340370.jpg",
     "pagination":{
      "pgfolios":{
       "section":"7",
       "value":"21b"
      }
     }
    },
    {
     "filename":"I4CZ750340371.jpg",
     "pagination":{
      "pgfolios":{
       "section":"7",
       "value":"22a"
      }
     }
    },
    {
     "filename":"I4CZ750340372.jpg",
     "pagination":{
      "pgfolios":{
       "section":"7",
       "value":"22b"
      }
     }
    },
    {
     "filename":"I4CZ750340373.jpg",
     "pagination":{
      "pgfolios":{
       "section":"7",
       "value":"23a"
      }
     }
    },
    {
     "filename":"I4CZ750340374.jpg",
     "pagination":{
      "pgfolios":{
       "section":"7",
       "value":"23b"
      }
     }
    },
    {
     "filename":"I4CZ750340375.jpg",
     "pagination":{
      "pgfolios":{
       "section":"7",
       "value":"24a"
      }
     }
    },
    {
     "filename":"I4CZ750340376.jpg",
     "pagination":{
      "pgfolios":{
       "section":"7",
       "value":"24b"
      }
     }
    },
    {
     "filename":"I4CZ750340377.jpg",
     "pagination":{
      "pgfolios":{
       "section":"7",
       "value":"25a"
      }
     }
    },
    {
     "filename":"I4CZ750340378.jpg",
     "pagination":{
      "pgfolios":{
       "section":"7",
       "value":"25b"
      }
     }
    },
    {
     "filename":"I4CZ750340379.jpg",
     "pagination":{
      "pgfolios":{
       "section":"7",
       "value":"26a"
      }
     }
    },
    {
     "filename":"I4CZ750340380.jpg",
     "pagination":{
      "pgfolios":{
       "section":"7",
       "value":"26b"
      }
     }
    },
    {
     "filename":"I4CZ750340381.jpg",
     "pagination":{
      "pgfolios":{
       "section":"7",
       "value":"27a"
      }
     }
    },
    {
     "filename":"I4CZ750340382.jpg",
     "pagination":{
      "pgfolios":{
       "section":"7",
       "value":"27b"
      }
     }
    },
    {
     "filename":"I4CZ750340383.jpg",
     "pagination":{
      "pgfolios":{
       "section":"7",
       "value":"28a"
      }
     }
    },
    {
     "filename":"I4CZ750340384.jpg",
     "pagination":{
      "pgfolios":{
       "section":"7",
       "value":"28b"
      }
     }
    },
    {
     "filename":"I4CZ750340385.jpg",
     "pagination":{
      "pgfolios":{
       "section":"7",
       "value":"29a"
      }
     }
    },
    {
     "filename":"I4CZ750340386.jpg",
     "pagination":{
      "pgfolios":{
       "section":"7",
       "value":"29b"
      }
     }
    },
    {
     "filename":"I4CZ750340387.jpg",
     "pagination":{
      "pgfolios":{
       "section":"7",
       "value":"30a"
      }
     }
    },
    {
     "filename":"I4CZ750340388.jpg",
     "pagination":{
      "pgfolios":{
       "section":"7",
       "value":"30b"
      }
     }
    },
    {
     "filename":"I4CZ750340389.jpg",
     "pagination":{
      "pgfolios":{
       "section":"7",
       "value":"31a"
      }
     }
    },
    {
     "filename":"I4CZ750340390.jpg",
     "pagination":{
      "pgfolios":{
       "section":"7",
       "value":"31b"
      }
     }
    },
    {
     "filename":"I4CZ750340391.jpg",
     "pagination":{
      "pgfolios":{
       "section":"7",
       "value":"32a"
      }
     }
    },
    {
     "filename":"I4CZ750340392.jpg",
     "pagination":{
      "pgfolios":{
       "section":"7",
       "value":"32b"
      }
     }
    },
    {
     "filename":"I4CZ750340393.jpg",
     "pagination":{
      "pgfolios":{
       "section":"7",
       "value":"33a"
      }
     }
    },
    {
     "filename":"I4CZ750340394.jpg",
     "pagination":{
      "pgfolios":{
       "section":"7",
       "value":"33b"
      }
     }
    },
    {
     "filename":"I4CZ750340395.jpg",
     "pagination":{
      "pgfolios":{
       "section":"7",
       "value":"34a"
      }
     }
    },
    {
     "filename":"I4CZ750340396.jpg",
     "pagination":{
      "pgfolios":{
       "section":"7",
       "value":"34b"
      }
     }
    },
    {
     "filename":"I4CZ750340397.jpg",
     "pagination":{
      "pgfolios":{
       "section":"7",
       "value":"35a"
      }
     }
    },
    {
     "filename":"I4CZ750340398.jpg",
     "pagination":{
      "pgfolios":{
       "section":"7",
       "value":"35b"
      }
     }
    },
    {
     "filename":"I4CZ750340399.jpg",
     "pagination":{
      "pgfolios":{
       "section":"7",
       "value":"36a"
      }
     }
    },
    {
     "filename":"I4CZ750340400.jpg",
     "pagination":{
      "pgfolios":{
       "section":"7",
       "value":"36b"
      }
     }
    },
    {
     "pagination":{
      "pgfolios":{
       "section":"7",
       "value":"37a"
      }
     },
     "tags":[
      "T0020"
     ]
    },
    {
     "pagination":{
      "pgfolios":{
       "section":"7",
       "value":"37b"
      }
     },
     "tags":[
      "T0020"
     ]
    },
    {
     "filename":"I4CZ750340401.jpg",
     "pagination":{
      "pgfolios":{
       "section":"7",
       "value":"38a"
      }
     }
    },
    {
     "filename":"I4CZ750340402.jpg",
     "pagination":{
      "pgfolios":{
       "section":"7",
       "value":"38b"
      }
     }
    },
    {
     "filename":"I4CZ750340403.jpg",
     "pagination":{
      "pgfolios":{
       "section":"7",
       "value":"39a"
      }
     }
    },
    {
     "filename":"I4CZ750340404.jpg",
     "pagination":{
      "pgfolios":{
       "section":"7",
       "value":"39b"
      }
     }
    },
    {
     "filename":"I4CZ750340405.jpg",
     "pagination":{
      "pgfolios":{
       "section":"7",
       "value":"40a"
      }
     }
    },
    {
     "filename":"I4CZ750340406.jpg",
     "pagination":{
      "pgfolios":{
       "section":"7",
       "value":"40b"
      }
     }
    },
    {
     "filename":"I4CZ750340407.jpg",
     "pagination":{
      "pgfolios":{
       "section":"7",
       "value":"41a"
      }
     }
    },
    {
     "filename":"I4CZ750340408.jpg",
     "pagination":{
      "pgfolios":{
       "section":"7",
       "value":"41b"
      }
     }
    },
    {
     "filename":"I4CZ750340409.jpg",
     "pagination":{
      "pgfolios":{
       "section":"7",
       "value":"42a"
      }
     }
    },
    {
     "filename":"I4CZ750340410.jpg",
     "pagination":{
      "pgfolios":{
       "section":"7",
       "value":"42b"
      }
     }
    },
    {
     "filename":"I4CZ750340411.jpg",
     "pagination":{
      "pgfolios":{
       "section":"7",
       "value":"43a"
      }
     }
    },
    {
     "filename":"I4CZ750340412.jpg",
     "pagination":{
      "pgfolios":{
       "section":"7",
       "value":"43b"
      }
     }
    },
    {
     "filename":"I4CZ750340413.jpg",
     "pagination":{
      "pgfolios":{
       "section":"7",
       "value":"44a"
      }
     }
    },
    {
     "filename":"I4CZ750340414.jpg",
     "pagination":{
      "pgfolios":{
       "section":"7",
       "value":"44b"
      }
     }
    },
    {
     "filename":"I4CZ750340415.jpg",
     "pagination":{
      "pgfolios":{
       "section":"7",
       "value":"45a"
      }
     }
    },
    {
     "filename":"I4CZ750340416.jpg",
     "pagination":{
      "pgfolios":{
       "section":"7",
       "value":"45b"
      }
     }
    },
    {
     "filename":"I4CZ750340417.jpg",
     "pagination":{
      "pgfolios":{
       "section":"7",
       "value":"46a"
      }
     }
    },
    {
     "filename":"I4CZ750340418.jpg",
     "pagination":{
      "pgfolios":{
       "section":"7",
       "value":"46b"
      }
     }
    },
    {
     "filename":"I4CZ750340419.jpg",
     "pagination":{
      "pgfolios":{
       "section":"7",
       "value":"47a"
      }
     }
    },
    {
     "filename":"I4CZ750340420.jpg",
     "pagination":{
      "pgfolios":{
       "section":"7",
       "value":"47b"
      }
     }
    },
    {
     "filename":"I4CZ750340421.jpg",
     "pagination":{
      "pgfolios":{
       "section":"7",
       "value":"48a"
      }
     }
    },
    {
     "filename":"I4CZ750340422.jpg",
     "pagination":{
      "pgfolios":{
       "section":"7",
       "value":"48b"
      }
     }
    },
    {
     "filename":"I4CZ750340423.jpg",
     "pagination":{
      "pgfolios":{
       "section":"7",
       "value":"49a"
      }
     }
    },
    {
     "filename":"I4CZ750340424.jpg",
     "pagination":{
      "pgfolios":{
       "section":"7",
       "value":"49b"
      }
     }
    },
    {
     "filename":"I4CZ750340425.jpg",
     "pagination":{
      "pgfolios":{
       "section":"7",
       "value":"50a"
      }
     }
    },
    {
     "filename":"I4CZ750340426.jpg",
     "pagination":{
      "pgfolios":{
       "section":"7",
       "value":"50b"
      }
     }
    },
    {
     "filename":"I4CZ750340427.jpg",
     "pagination":{
      "pgfolios":{
       "section":"7",
       "value":"51a"
      }
     }
    },
    {
     "filename":"I4CZ750340428.jpg",
     "pagination":{
      "pgfolios":{
       "section":"7",
       "value":"51b"
      }
     }
    },
    {
     "filename":"I4CZ750340429.jpg",
     "pagination":{
      "pgfolios":{
       "section":"7",
       "value":"52a"
      }
     }
    },
    {
     "filename":"I4CZ750340430.jpg",
     "pagination":{
      "pgfolios":{
       "section":"7",
       "value":"52b"
      }
     }
    },
    {
     "filename":"I4CZ750340431.jpg",
     "pagination":{
      "pgfolios":{
       "section":"7",
       "value":"53a"
      }
     }
    },
    {
     "filename":"I4CZ750340432.jpg",
     "pagination":{
      "pgfolios":{
       "section":"7",
       "value":"53b"
      }
     }
    },
    {
     "filename":"I4CZ750340433.jpg",
     "pagination":{
      "pgfolios":{
       "section":"7",
       "value":"54a"
      }
     }
    },
    {
     "filename":"I4CZ750340434.jpg",
     "pagination":{
      "pgfolios":{
       "section":"7",
       "value":"54b"
      }
     }
    },
    {
     "filename":"I4CZ750340435.jpg",
     "pagination":{
      "pgfolios":{
       "section":"7",
       "value":"55a"
      }
     }
    },
    {
     "filename":"I4CZ750340436.jpg",
     "pagination":{
      "pgfolios":{
       "section":"7",
       "value":"55b"
      }
     }
    },
    {
     "filename":"I4CZ750340437.jpg",
     "pagination":{
      "pgfolios":{
       "section":"7",
       "value":"56a"
      }
     }
    },
    {
     "filename":"I4CZ750340438.jpg",
     "pagination":{
      "pgfolios":{
       "section":"7",
       "value":"56b"
      }
     }
    },
    {
     "filename":"I4CZ750340439.jpg",
     "pagination":{
      "pgfolios":{
       "section":"7",
       "value":"57a"
      }
     }
    },
    {
     "filename":"I4CZ750340440.jpg",
     "pagination":{
      "pgfolios":{
       "section":"7",
       "value":"57b"
      }
     }
    },
    {
     "filename":"I4CZ750340441.jpg",
     "pagination":{
      "pgfolios":{
       "section":"7",
       "value":"58a"
      }
     }
    },
    {
     "filename":"I4CZ750340442.jpg",
     "pagination":{
      "pgfolios":{
       "section":"7",
       "value":"58b"
      }
     }
    },
    {
     "filename":"I4CZ750340443.jpg",
     "pagination":{
      "pgfolios":{
       "section":"7",
       "value":"59a"
      }
     }
    },
    {
     "filename":"I4CZ750340444.jpg",
     "pagination":{
      "pgfolios":{
       "section":"7",
       "value":"59b"
      }
     }
    },
    {
     "filename":"I4CZ750340445.jpg",
     "pagination":{
      "pgfolios":{
       "section":"7",
       "value":"60a"
      }
     }
    },
    {
     "filename":"I4CZ750340446.jpg",
     "pagination":{
      "pgfolios":{
       "section":"7",
       "value":"60b"
      }
     }
    },
    {
     "filename":"I4CZ750340447.jpg",
     "pagination":{
      "pgfolios":{
       "section":"7",
       "value":"61a"
      }
     }
    },
    {
     "filename":"I4CZ750340448.jpg",
     "pagination":{
      "pgfolios":{
       "section":"7",
       "value":"61b"
      }
     }
    },
    {
     "filename":"I4CZ750340449.jpg",
     "pagination":{
      "pgfolios":{
       "section":"7",
       "value":"62a"
      }
     }
    },
    {
     "filename":"I4CZ750340450.jpg",
     "pagination":{
      "pgfolios":{
       "section":"7",
       "value":"62b"
      }
     }
    },
    {
     "filename":"I4CZ750340451.jpg",
     "pagination":{
      "pgfolios":{
       "section":"7",
       "value":"63a"
      }
     }
    },
    {
     "filename":"I4CZ750340452.jpg",
     "pagination":{
      "pgfolios":{
       "section":"7",
       "value":"63b"
      }
     }
    },
    {
     "filename":"I4CZ750340453.jpg",
     "pagination":{
      "pgfolios":{
       "section":"7",
       "value":"64a"
      }
     }
    },
    {
     "filename":"I4CZ750340454.jpg",
     "pagination":{
      "pgfolios":{
       "section":"7",
       "value":"64b"
      }
     }
    },
    {
     "filename":"I4CZ750340455.jpg",
     "pagination":{
      "pgfolios":{
       "section":"7",
       "value":"65a"
      }
     }
    },
    {
     "filename":"I4CZ750340456.jpg",
     "pagination":{
      "pgfolios":{
       "section":"7",
       "value":"65b"
      }
     }
    },
    {
     "filename":"I4CZ750340457.jpg",
     "pagination":{
      "pgfolios":{
       "section":"7",
       "value":"66a"
      }
     }
    },
    {
     "filename":"I4CZ750340458.jpg",
     "pagination":{
      "pgfolios":{
       "section":"7",
       "value":"66b"
      }
     }
    },
    {
     "filename":"I4CZ750340459.jpg",
     "pagination":{
      "pgfolios":{
       "section":"7",
       "value":"67a"
      }
     }
    },
    {
     "filename":"I4CZ750340460.jpg",
     "pagination":{
      "pgfolios":{
       "section":"7",
       "value":"67b"
      }
     }
    },
    {
     "filename":"I4CZ750340461.jpg",
     "pagination":{
      "pgfolios":{
       "section":"7",
       "value":"68a"
      }
     }
    },
    {
     "filename":"I4CZ750340462.jpg",
     "pagination":{
      "pgfolios":{
       "section":"7",
       "value":"68b"
      }
     }
    },
    {
     "filename":"I4CZ750340463.jpg",
     "pagination":{
      "pgfolios":{
       "section":"7",
       "value":"69a"
      }
     }
    },
    {
     "filename":"I4CZ750340464.jpg",
     "pagination":{
      "pgfolios":{
       "section":"7",
       "value":"69b"
      }
     }
    },
    {
     "filename":"I4CZ750340465.jpg",
     "pagination":{
      "pgfolios":{
       "section":"7",
       "value":"70a"
      }
     }
    },
    {
     "filename":"I4CZ750340466.jpg",
     "pagination":{
      "pgfolios":{
       "section":"7",
       "value":"70b"
      }
     }
    },
    {
     "filename":"I4CZ750340467.jpg",
     "pagination":{
      "pgfolios":{
       "section":"7",
       "value":"71a"
      }
     }
    },
    {
     "filename":"I4CZ750340468.jpg",
     "pagination":{
      "pgfolios":{
       "section":"7",
       "value":"71b"
      }
     }
    },
    {
     "filename":"I4CZ750340469.jpg",
     "pagination":{
      "pgfolios":{
       "section":"7",
       "value":"72a"
      }
     }
    },
    {
     "filename":"I4CZ750340470.jpg",
     "pagination":{
      "pgfolios":{
       "section":"7",
       "value":"72b"
      }
     }
    },
    {
     "filename":"I4CZ750340471.jpg",
     "pagination":{
      "pgfolios":{
       "section":"7",
       "value":"73a"
      }
     }
    },
    {
     "filename":"I4CZ750340472.jpg",
     "pagination":{
      "pgfolios":{
       "section":"7",
       "value":"73b"
      }
     }
    },
    {
     "filename":"I4CZ750340473.jpg",
     "pagination":{
      "pgfolios":{
       "section":"7",
       "value":"74a"
      }
     }
    },
    {
     "filename":"I4CZ750340474.jpg",
     "pagination":{
      "pgfolios":{
       "section":"7",
       "value":"74b"
      }
     }
    },
    {
     "filename":"I4CZ750340475.jpg",
     "pagination":{
      "pgfolios":{
       "section":"7",
       "value":"75a"
      }
     }
    },
    {
     "filename":"I4CZ750340476.jpg",
     "pagination":{
      "pgfolios":{
       "section":"7",
       "value":"75b"
      }
     }
    },
    {
     "filename":"I4CZ750340477.jpg",
     "pagination":{
      "pgfolios":{
       "section":"7",
       "value":"76a"
      }
     }
    },
    {
     "filename":"I4CZ750340478.jpg",
     "pagination":{
      "pgfolios":{
       "section":"7",
       "value":"76b"
      }
     }
    },
    {
     "filename":"I4CZ750340479.jpg",
     "pagination":{
      "pgfolios":{
       "section":"7",
       "value":"77a"
      }
     }
    },
    {
     "filename":"I4CZ750340480.jpg",
     "pagination":{
      "pgfolios":{
       "section":"7",
       "value":"77b"
      }
     }
    },
    {
     "filename":"I4CZ750340481.jpg",
     "pagination":{
      "pgfolios":{
       "section":"7",
       "value":"78a"
      }
     }
    },
    {
     "filename":"I4CZ750340482.jpg",
     "pagination":{
      "pgfolios":{
       "section":"7",
       "value":"78b"
      }
     }
    },
    {
     "filename":"I4CZ750340483.jpg",
     "pagination":{
      "pgfolios":{
       "section":"7",
       "value":"79a"
      }
     }
    },
    {
     "filename":"I4CZ750340484.jpg",
     "pagination":{
      "pgfolios":{
       "section":"7",
       "value":"79b"
      }
     }
    },
    {
     "filename":"I4CZ750340485.jpg",
     "pagination":{
      "pgfolios":{
       "section":"7",
       "value":"80a"
      }
     }
    },
    {
     "filename":"I4CZ750340486.jpg",
     "pagination":{
      "pgfolios":{
       "section":"7",
       "value":"80b"
      }
     }
    },
    {
     "filename":"I4CZ750340487.jpg",
     "pagination":{
      "pgfolios":{
       "section":"7",
       "value":"81a"
      }
     }
    },
    {
     "filename":"I4CZ750340488.jpg",
     "pagination":{
      "pgfolios":{
       "section":"7",
       "value":"81b"
      }
     }
    },
    {
     "filename":"I4CZ750340489.jpg",
     "pagination":{
      "pgfolios":{
       "section":"7",
       "value":"82a"
      }
     }
    },
    {
     "filename":"I4CZ750340490.jpg",
     "pagination":{
      "pgfolios":{
       "section":"7",
       "value":"82b"
      }
     }
    },
    {
     "filename":"I4CZ750340491.jpg",
     "pagination":{
      "pgfolios":{
       "section":"7",
       "value":"83a"
      }
     }
    },
    {
     "filename":"I4CZ750340492.jpg",
     "pagination":{
      "pgfolios":{
       "section":"7",
       "value":"83b"
      }
     }
    },
    {
     "filename":"I4CZ750340493.jpg",
     "pagination":{
      "pgfolios":{
       "section":"7",
       "value":"84a"
      }
     }
    },
    {
     "filename":"I4CZ750340494.jpg",
     "pagination":{
      "pgfolios":{
       "section":"7",
       "value":"84b"
      }
     }
    },
    {
     "filename":"I4CZ750340495.jpg",
     "pagination":{
      "pgfolios":{
       "section":"7",
       "value":"85a"
      }
     }
    },
    {
     "filename":"I4CZ750340496.jpg",
     "pagination":{
      "pgfolios":{
       "section":"7",
       "value":"85b"
      }
     }
    },
    {
     "filename":"I4CZ750340497.jpg",
     "pagination":{
      "pgfolios":{
       "section":"7",
       "value":"86a"
      }
     }
    },
    {
     "filename":"I4CZ750340498.jpg",
     "pagination":{
      "pgfolios":{
       "section":"7",
       "value":"86b"
      }
     }
    },
    {
     "filename":"I4CZ750340499.jpg",
     "pagination":{
      "pgfolios":{
       "section":"7",
       "value":"87a"
      }
     }
    },
    {
     "filename":"I4CZ750340500.jpg",
     "pagination":{
      "pgfolios":{
       "section":"7",
       "value":"87b"
      }
     }
    },
    {
     "filename":"I4CZ750340501.jpg",
     "pagination":{
      "pgfolios":{
       "section":"7",
       "value":"88a"
      }
     }
    },
    {
     "filename":"I4CZ750340502.jpg",
     "pagination":{
      "pgfolios":{
       "section":"7",
       "value":"88b"
      }
     }
    },
    {
     "filename":"I4CZ750340503.jpg",
     "pagination":{
      "pgfolios":{
       "section":"7",
       "value":"89a"
      }
     }
    },
    {
     "filename":"I4CZ750340504.jpg",
     "pagination":{
      "pgfolios":{
       "section":"7",
       "value":"89b"
      }
     }
    },
    {
     "filename":"I4CZ750340505.jpg",
     "pagination":{
      "pgfolios":{
       "section":"7",
       "value":"90a"
      }
     }
    },
    {
     "filename":"I4CZ750340506.jpg",
     "pagination":{
      "pgfolios":{
       "section":"7",
       "value":"90b"
      }
     }
    },
    {
     "filename":"I4CZ750340507.jpg",
     "pagination":{
      "pgfolios":{
       "section":"7",
       "value":"91a"
      }
     }
    },
    {
     "filename":"I4CZ750340508.jpg",
     "pagination":{
      "pgfolios":{
       "section":"7",
       "value":"91b"
      }
     }
    },
    {
     "filename":"I4CZ750340509.jpg",
     "pagination":{
      "pgfolios":{
       "section":"7",
       "value":"92a"
      }
     }
    },
    {
     "filename":"I4CZ750340510.jpg",
     "pagination":{
      "pgfolios":{
       "section":"7",
       "value":"92b"
      }
     }
    },
    {
     "pagination":{
      "pgfolios":{
       "section":"7",
       "value":"93a"
      }
     },
     "tags":[
      "T0020"
     ]
    },
    {
     "pagination":{
      "pgfolios":{
       "section":"7",
       "value":"93b"
      }
     },
     "tags":[
      "T0020"
     ]
    },
    {
     "pagination":{
      "pgfolios":{
       "section":"7",
       "value":"94a"
      }
     },
     "tags":[
      "T0020"
     ]
    },
    {
     "pagination":{
      "pgfolios":{
       "section":"7",
       "value":"94b"
      }
     },
     "tags":[
      "T0020"
     ]
    },
    {
     "filename":"I4CZ750340511.jpg",
     "pagination":{
      "pgfolios":{
       "section":"7",
       "value":"95a"
      }
     }
    },
    {
     "filename":"I4CZ750340512.jpg",
     "pagination":{
      "pgfolios":{
       "section":"7",
       "value":"95b"
      }
     }
    },
    {
     "filename":"I4CZ750340513.jpg",
     "pagination":{
      "pgfolios":{
       "section":"7",
       "value":"96a"
      }
     }
    },
    {
     "filename":"I4CZ750340514.jpg",
     "pagination":{
      "pgfolios":{
       "section":"7",
       "value":"96b"
      }
     }
    },
    {
     "filename":"I4CZ750340515.jpg",
     "pagination":{
      "pgfolios":{
       "section":"7",
       "value":"97a"
      }
     }
    },
    {
     "filename":"I4CZ750340516.jpg",
     "pagination":{
      "pgfolios":{
       "section":"7",
       "value":"97b"
      }
     }
    },
    {
     "filename":"I4CZ750340517.jpg",
     "pagination":{
      "pgfolios":{
       "section":"7",
       "value":"98a"
      }
     }
    },
    {
     "filename":"I4CZ750340518.jpg",
     "pagination":{
      "pgfolios":{
       "section":"7",
       "value":"98b"
      }
     }
    },
    {
     "filename":"I4CZ750340519.jpg",
     "pagination":{
      "pgfolios":{
       "section":"7",
       "value":"99a"
      }
     }
    },
    {
     "filename":"I4CZ750340520.jpg",
     "pagination":{
      "pgfolios":{
       "section":"7",
       "value":"99b"
      }
     }
    },
    {
     "filename":"I4CZ750340521.jpg",
     "pagination":{
      "pgfolios":{
       "section":"7",
       "value":"100a"
      }
     }
    },
    {
     "filename":"I4CZ750340522.jpg",
     "pagination":{
      "pgfolios":{
       "section":"7",
       "value":"100b"
      }
     }
    },
    {
     "filename":"I4CZ750340523.jpg",
     "pagination":{
      "pgfolios":{
       "section":"7",
       "value":"101a"
      }
     }
    },
    {
     "filename":"I4CZ750340524.jpg",
     "pagination":{
      "pgfolios":{
       "section":"7",
       "value":"101b"
      }
     }
    },
    {
     "pagination":{
      "pgfolios":{
       "section":"7",
       "value":"102a"
      }
     },
     "tags":[
      "T0020"
     ]
    },
    {
     "pagination":{
      "pgfolios":{
       "section":"7",
       "value":"102b"
      }
     },
     "tags":[
      "T0020"
     ]
    },
    {
     "filename":"I4CZ750340525.jpg",
     "pagination":{
      "pgfolios":{
       "section":"7",
       "value":"103a"
      }
     }
    },
    {
     "filename":"I4CZ750340526.jpg",
     "pagination":{
      "pgfolios":{
       "section":"7",
       "value":"103b"
      }
     }
    },
    {
     "filename":"I4CZ750340527.jpg",
     "pagination":{
      "pgfolios":{
       "section":"7",
       "value":"104a"
      }
     }
    },
    {
     "filename":"I4CZ750340528.jpg",
     "pagination":{
      "pgfolios":{
       "section":"7",
       "value":"104b"
      }
     }
    },
    {
     "filename":"I4CZ750340529.jpg",
     "pagination":{
      "pgfolios":{
       "section":"7",
       "value":"105a"
      }
     }
    },
    {
     "filename":"I4CZ750340530.jpg",
     "pagination":{
      "pgfolios":{
       "section":"7",
       "value":"105b"
      }
     }
    },
    {
     "filename":"I4CZ750340531.jpg",
     "pagination":{
      "pgfolios":{
       "section":"7",
       "value":"106a"
      }
     }
    },
    {
     "filename":"I4CZ750340532.jpg",
     "pagination":{
      "pgfolios":{
       "section":"7",
       "value":"106b"
      }
     }
    },
    {
     "filename":"I4CZ750340533.jpg",
     "pagination":{
      "pgfolios":{
       "section":"7",
       "value":"107a"
      }
     }
    },
    {
     "filename":"I4CZ750340534.jpg",
     "pagination":{
      "pgfolios":{
       "section":"7",
       "value":"107b"
      }
     }
    },
    {
     "filename":"I4CZ750340535.jpg",
     "pagination":{
      "pgfolios":{
       "section":"7",
       "value":"108a"
      }
     }
    },
    {
     "filename":"I4CZ750340536.jpg",
     "pagination":{
      "pgfolios":{
       "section":"7",
       "value":"108b"
      }
     }
    },
    {
     "filename":"I4CZ750340537.jpg",
     "pagination":{
      "pgfolios":{
       "section":"7",
       "value":"109a"
      }
     }
    },
    {
     "filename":"I4CZ750340538.jpg",
     "pagination":{
      "pgfolios":{
       "section":"7",
       "value":"109b"
      }
     }
    },
    {
     "filename":"I4CZ750340539.jpg",
     "pagination":{
      "pgfolios":{
       "section":"7",
       "value":"110a"
      }
     }
    },
    {
     "filename":"I4CZ750340540.jpg",
     "pagination":{
      "pgfolios":{
       "section":"7",
       "value":"110b"
      }
     }
    },
    {
     "filename":"I4CZ750340541.jpg",
     "pagination":{
      "pgfolios":{
       "section":"7",
       "value":"111a"
      }
     }
    },
    {
     "filename":"I4CZ750340542.jpg",
     "pagination":{
      "pgfolios":{
       "section":"7",
       "value":"111b"
      }
     }
    },
    {
     "filename":"I4CZ750340543.jpg",
     "pagination":{
      "pgfolios":{
       "section":"7",
       "value":"112a"
      }
     }
    },
    {
     "filename":"I4CZ750340544.jpg",
     "pagination":{
      "pgfolios":{
       "section":"7",
       "value":"112b"
      }
     }
    },
    {
     "filename":"I4CZ750340545.jpg",
     "pagination":{
      "pgfolios":{
       "section":"7",
       "value":"113a"
      }
     }
    },
    {
     "filename":"I4CZ750340546.jpg",
     "pagination":{
      "pgfolios":{
       "section":"7",
       "value":"113b"
      }
     }
    },
    {
     "filename":"I4CZ750340547.jpg",
     "pagination":{
      "pgfolios":{
       "section":"7",
       "value":"114a"
      }
     }
    },
    {
     "filename":"I4CZ750340548.jpg",
     "pagination":{
      "pgfolios":{
       "section":"7",
       "value":"114b"
      }
     }
    },
    {
     "filename":"I4CZ750340549.jpg",
     "pagination":{
      "pgfolios":{
       "section":"7",
       "value":"115a"
      }
     }
    },
    {
     "filename":"I4CZ750340550.jpg",
     "pagination":{
      "pgfolios":{
       "section":"7",
       "value":"115b"
      }
     }
    },
    {
     "pagination":{
      "pgfolios":{
       "section":"7",
       "value":"116a"
      }
     },
     "tags":[
      "T0020"
     ]
    },
    {
     "pagination":{
      "pgfolios":{
       "section":"7",
       "value":"116b"
      }
     },
     "tags":[
      "T0020"
     ]
    },
    {
     "filename":"I4CZ750340551.jpg",
     "pagination":{
      "pgfolios":{
       "section":"7",
       "value":"117a"
      }
     }
    },
    {
     "filename":"I4CZ750340552.jpg",
     "pagination":{
      "pgfolios":{
       "section":"7",
       "value":"117b"
      }
     }
    },
    {
     "filename":"I4CZ750340553.jpg",
     "pagination":{
      "pgfolios":{
       "section":"7",
       "value":"118a"
      }
     }
    },
    {
     "filename":"I4CZ750340554.jpg",
     "pagination":{
      "pgfolios":{
       "section":"7",
       "value":"118b"
      }
     }
    },
    {
     "filename":"I4CZ750340555.jpg",
     "pagination":{
      "pgfolios":{
       "section":"7",
       "value":"119a"
      }
     }
    },
    {
     "filename":"I4CZ750340556.jpg",
     "pagination":{
      "pgfolios":{
       "section":"7",
       "value":"119b"
      }
     }
    },
    {
     "filename":"I4CZ750340557.jpg",
     "pagination":{
      "pgfolios":{
       "section":"7",
       "value":"120a"
      }
     }
    },
    {
     "filename":"I4CZ750340558.jpg",
     "pagination":{
      "pgfolios":{
       "section":"7",
       "value":"120b"
      }
     }
    },
    {
     "filename":"I4CZ750340559.jpg",
     "pagination":{
      "pgfolios":{
       "section":"7",
       "value":"121a"
      }
     }
    },
    {
     "filename":"I4CZ750340560.jpg",
     "pagination":{
      "pgfolios":{
       "section":"7",
       "value":"121b"
      }
     }
    },
    {
     "filename":"I4CZ750340561.jpg",
     "pagination":{
      "pgfolios":{
       "section":"7",
       "value":"122a"
      }
     }
    },
    {
     "filename":"I4CZ750340562.jpg",
     "pagination":{
      "pgfolios":{
       "section":"7",
       "value":"122b"
      }
     }
    },
    {
     "pagination":{
      "pgfolios":{
       "section":"7",
       "value":"123a"
      }
     },
     "tags":[
      "T0020"
     ]
    },
    {
     "pagination":{
      "pgfolios":{
       "section":"7",
       "value":"123b"
      }
     },
     "tags":[
      "T0020"
     ]
    },
    {
     "filename":"I4CZ750340563.jpg",
     "pagination":{
      "pgfolios":{
       "section":"7",
       "value":"124a"
      }
     }
    },
    {
     "filename":"I4CZ750340564.jpg",
     "pagination":{
      "pgfolios":{
       "section":"7",
       "value":"124b"
      }
     }
    },
    {
     "filename":"I4CZ750340565.jpg",
     "pagination":{
      "pgfolios":{
       "section":"7",
       "value":"125a"
      }
     }
    },
    {
     "filename":"I4CZ750340566.jpg",
     "pagination":{
      "pgfolios":{
       "section":"7",
       "value":"125b"
      }
     }
    },
    {
     "filename":"I4CZ750340567.jpg",
     "pagination":{
      "pgfolios":{
       "section":"7",
       "value":"126a"
      }
     }
    },
    {
     "filename":"I4CZ750340568.jpg",
     "pagination":{
      "pgfolios":{
       "section":"7",
       "value":"126b"
      }
     }
    },
    {
     "filename":"I4CZ750340569.jpg",
     "pagination":{
      "pgfolios":{
       "section":"7",
       "value":"127a"
      }
     }
    },
    {
     "filename":"I4CZ750340570.jpg",
     "pagination":{
      "pgfolios":{
       "section":"7",
       "value":"127b"
      }
     }
    },
    {
     "filename":"I4CZ750340571.jpg",
     "pagination":{
      "pgfolios":{
       "section":"7",
       "value":"128a"
      }
     }
    },
    {
     "filename":"I4CZ750340572.jpg",
     "pagination":{
      "pgfolios":{
       "section":"7",
       "value":"128b"
      }
     }
    },
    {
     "filename":"I4CZ750340573.jpg",
     "pagination":{
      "pgfolios":{
       "section":"7",
       "value":"129a"
      }
     }
    },
    {
     "filename":"I4CZ750340574.jpg",
     "pagination":{
      "pgfolios":{
       "section":"7",
       "value":"129b"
      }
     }
    },
    {
     "filename":"I4CZ750340575.jpg",
     "pagination":{
      "pgfolios":{
       "section":"7",
       "value":"130a"
      }
     }
    },
    {
     "filename":"I4CZ750340576.jpg",
     "pagination":{
      "pgfolios":{
       "section":"7",
       "value":"130b"
      }
     }
    },
    {
     "filename":"I4CZ750340577.jpg",
     "pagination":{
      "pgfolios":{
       "section":"7",
       "value":"131a"
      }
     }
    },
    {
     "filename":"I4CZ750340578.jpg",
     "pagination":{
      "pgfolios":{
       "section":"7",
       "value":"131b"
      }
     }
    },
    {
     "filename":"I4CZ750340579.jpg",
     "pagination":{
      "pgfolios":{
       "section":"7",
       "value":"132a"
      }
     }
    },
    {
     "filename":"I4CZ750340580.jpg",
     "pagination":{
      "pgfolios":{
       "section":"7",
       "value":"132b"
      }
     }
    },
    {
     "pagination":{
      "pgfolios":{
       "section":"7",
       "value":"133a"
      }
     },
     "tags":[
      "T0020"
     ]
    },
    {
     "pagination":{
      "pgfolios":{
       "section":"7",
       "value":"133b"
      }
     },
     "tags":[
      "T0020"
     ]
    },
    {
     "pagination":{
      "pgfolios":{
       "section":"7",
       "value":"134a"
      }
     },
     "tags":[
      "T0020"
     ]
    },
    {
     "pagination":{
      "pgfolios":{
       "section":"7",
       "value":"134b"
      }
     },
     "tags":[
      "T0020"
     ]
    },
    {
     "filename":"I4CZ750340581.jpg",
     "pagination":{
      "pgfolios":{
       "section":"7",
       "value":"135a"
      }
     }
    },
    {
     "filename":"I4CZ750340582.jpg",
     "pagination":{
      "pgfolios":{
       "section":"7",
       "value":"135b"
      }
     }
    },
    {
     "filename":"I4CZ750340583.jpg",
     "pagination":{
      "pgfolios":{
       "section":"7",
       "value":"136a"
      }
     }
    },
    {
     "filename":"I4CZ750340584.jpg",
     "pagination":{
      "pgfolios":{
       "section":"7",
       "value":"136b"
      }
     }
    },
    {
     "filename":"I4CZ750340585.jpg",
     "pagination":{
      "pgfolios":{
       "section":"7",
       "value":"137a"
      }
     }
    },
    {
     "filename":"I4CZ750340586.jpg",
     "pagination":{
      "pgfolios":{
       "section":"7",
       "value":"137b"
      }
     }
    },
    {
     "filename":"I4CZ750340587.jpg",
     "pagination":{
      "pgfolios":{
       "section":"7",
       "value":"138a"
      }
     }
    },
    {
     "filename":"I4CZ750340588.jpg",
     "pagination":{
      "pgfolios":{
       "section":"7",
       "value":"138b"
      }
     }
    },
    {
     "filename":"I4CZ750340589.jpg",
     "pagination":{
      "pgfolios":{
       "section":"7",
       "value":"139a"
      }
     }
    },
    {
     "filename":"I4CZ750340590.jpg",
     "pagination":{
      "pgfolios":{
       "section":"7",
       "value":"139b"
      }
     }
    },
    {
     "filename":"I4CZ750340591.jpg",
     "pagination":{
      "pgfolios":{
       "section":"7",
       "value":"140a"
      }
     }
    },
    {
     "filename":"I4CZ750340592.jpg",
     "pagination":{
      "pgfolios":{
       "section":"7",
       "value":"140b"
      }
     }
    },
    {
     "filename":"I4CZ750340593.jpg",
     "pagination":{
      "pgfolios":{
       "section":"7",
       "value":"141a"
      }
     }
    },
    {
     "filename":"I4CZ750340594.jpg",
     "pagination":{
      "pgfolios":{
       "section":"7",
       "value":"141b"
      }
     }
    },
    {
     "filename":"I4CZ750340595.jpg",
     "pagination":{
      "pgfolios":{
       "section":"7",
       "value":"142a"
      }
     }
    },
    {
     "filename":"I4CZ750340596.jpg",
     "pagination":{
      "pgfolios":{
       "section":"7",
       "value":"142b"
      }
     }
    },
    {
     "filename":"I4CZ750340597.jpg",
     "pagination":{
      "pgfolios":{
       "section":"7",
       "value":"143a"
      }
     }
    },
    {
     "filename":"I4CZ750340598.jpg",
     "pagination":{
      "pgfolios":{
       "section":"7",
       "value":"143b"
      }
     }
    },
    {
     "filename":"I4CZ750340599.jpg",
     "pagination":{
      "pgfolios":{
       "section":"7",
       "value":"144a"
      }
     }
    },
    {
     "filename":"I4CZ750340600.jpg",
     "pagination":{
      "pgfolios":{
       "section":"7",
       "value":"144b"
      }
     }
    },
    {
     "filename":"I4CZ750340601.jpg",
     "pagination":{
      "pgfolios":{
       "section":"7",
       "value":"145a"
      }
     }
    },
    {
     "filename":"I4CZ750340602.jpg",
     "pagination":{
      "pgfolios":{
       "section":"7",
       "value":"145b"
      }
     }
    },
    {
     "filename":"I4CZ750340603.jpg",
     "pagination":{
      "pgfolios":{
       "section":"7",
       "value":"146a"
      }
     }
    },
    {
     "filename":"I4CZ750340604.jpg",
     "pagination":{
      "pgfolios":{
       "section":"7",
       "value":"146b"
      }
     }
    },
    {
     "filename":"I4CZ750340605.jpg",
     "pagination":{
      "pgfolios":{
       "section":"7",
       "value":"147a"
      }
     }
    },
    {
     "filename":"I4CZ750340606.jpg",
     "pagination":{
      "pgfolios":{
       "section":"7",
       "value":"147b"
      }
     }
    },
    {
     "filename":"I4CZ750340607.jpg",
     "pagination":{
      "pgfolios":{
       "section":"7",
       "value":"148a"
      }
     }
    },
    {
     "filename":"I4CZ750340608.jpg",
     "pagination":{
      "pgfolios":{
       "section":"7",
       "value":"148b"
      }
     }
    },
    {
     "filename":"I4CZ750340609.jpg",
     "pagination":{
      "pgfolios":{
       "section":"7",
       "value":"149a"
      }
     }
    },
    {
     "filename":"I4CZ750340610.jpg",
     "pagination":{
      "pgfolios":{
       "section":"7",
       "value":"149b"
      }
     }
    },
    {
     "filename":"I4CZ750340611.jpg",
     "pagination":{
      "pgfolios":{
       "section":"7",
       "value":"150a"
      }
     }
    },
    {
     "filename":"I4CZ750340612.jpg",
     "pagination":{
      "pgfolios":{
       "section":"7",
       "value":"150b"
      }
     }
    },
    {
     "filename":"I4CZ750340613.jpg",
     "pagination":{
      "pgfolios":{
       "section":"7",
       "value":"151a"
      }
     }
    },
    {
     "filename":"I4CZ750340614.jpg",
     "pagination":{
      "pgfolios":{
       "section":"7",
       "value":"151b"
      }
     }
    },
    {
     "filename":"I4CZ750340615.jpg",
     "pagination":{
      "pgfolios":{
       "section":"7",
       "value":"152a"
      }
     }
    },
    {
     "filename":"I4CZ750340616.jpg",
     "pagination":{
      "pgfolios":{
       "section":"7",
       "value":"152b"
      }
     }
    },
    {
     "filename":"I4CZ750340617.jpg",
     "pagination":{
      "pgfolios":{
       "section":"7",
       "value":"153a"
      }
     }
    },
    {
     "filename":"I4CZ750340618.jpg",
     "pagination":{
      "pgfolios":{
       "section":"7",
       "value":"153b"
      }
     }
    },
    {
     "filename":"I4CZ750340619.jpg",
     "pagination":{
      "pgfolios":{
       "section":"7",
       "value":"154a"
      }
     }
    },
    {
     "filename":"I4CZ750340620.jpg",
     "pagination":{
      "pgfolios":{
       "section":"7",
       "value":"154b"
      }
     }
    },
    {
     "filename":"I4CZ750340621.jpg",
     "pagination":{
      "pgfolios":{
       "section":"7",
       "value":"155a"
      }
     }
    },
    {
     "filename":"I4CZ750340622.jpg",
     "pagination":{
      "pgfolios":{
       "section":"7",
       "value":"155b"
      }
     }
    },
    {
     "filename":"I4CZ750340623.jpg",
     "pagination":{
      "pgfolios":{
       "section":"7",
       "value":"156a"
      }
     }
    },
    {
     "filename":"I4CZ750340624.jpg",
     "pagination":{
      "pgfolios":{
       "section":"7",
       "value":"156b"
      }
     }
    },
    {
     "filename":"I4CZ750340625.jpg",
     "pagination":{
      "pgfolios":{
       "section":"7",
       "value":"157a"
      }
     }
    },
    {
     "filename":"I4CZ750340626.jpg",
     "pagination":{
      "pgfolios":{
       "section":"7",
       "value":"157b"
      }
     }
    }
   ]
  }
 },
 "viewing-direction":"top-to-bottom"
}