{
 "appData":{
  "bvmt":{
   "default-vol-string-lang":"bo",
   "metadata-for-bvmt-ver":"0.1.0"
  }
 },
 "attribution":[
  {
   "@language":"en",
   "@value":"Data provided by rKTs under the CC0 license"
  }
 ],
 "changes":[
  {
   "message":{
    "@language":"en",
    "@value":"migration from rKTs data"
   },
   "time":"2020-10-03T11:35:30Z",
   "user":"bdu:U1653882847"
  }
 ],
 "default-view":"view1",
 "imggroup":"bdr:I4CZ75113",
 "pagination":[
  {
   "id":"pgfolios",
   "type":"folios"
  }
 ],
 "sections":[
  {
   "id":"1",
   "name":{
    "@language":"bo-x-ewts",
    "@value":"1"
   }
  },
  {
   "id":"2",
   "name":{
    "@language":"bo-x-ewts",
    "@value":"2"
   }
  }
 ],
 "spec-version":"0.1.0",
 "status":"released",
 "view":{
  "view1":{
   "imagelist":[
    {
     "filename":"I4CZ751130001.tif",
     "hidden":true,
     "tags":[
      "T0005"
     ]
    },
    {
     "filename":"I4CZ751130002.tif",
     "hidden":true,
     "tags":[
      "T0005"
     ]
    },
    {
     "filename":"I4CZ751130003.jpg",
     "hidden":true,
     "tags":[
      "T0005"
     ]
    },
    {
     "filename":"I4CZ751130004.jpg"
    },
    {
     "filename":"I4CZ751130005.jpg",
     "pagination":{
      "pgfolios":{
       "section":"1",
       "value":"1a"
      }
     }
    },
    {
     "filename":"I4CZ751130006.jpg",
     "pagination":{
      "pgfolios":{
       "section":"1",
       "value":"1b"
      }
     }
    },
    {
     "filename":"I4CZ751130007.jpg",
     "pagination":{
      "pgfolios":{
       "section":"1",
       "value":"2a"
      }
     }
    },
    {
     "filename":"I4CZ751130008.jpg",
     "pagination":{
      "pgfolios":{
       "section":"1",
       "value":"2b"
      }
     }
    },
    {
     "filename":"I4CZ751130009.jpg",
     "pagination":{
      "pgfolios":{
       "section":"1",
       "value":"3a"
      }
     }
    },
    {
     "filename":"I4CZ751130010.jpg",
     "pagination":{
      "pgfolios":{
       "section":"1",
       "value":"3b"
      }
     }
    },
    {
     "filename":"I4CZ751130011.jpg",
     "pagination":{
      "pgfolios":{
       "section":"1",
       "value":"4a"
      }
     }
    },
    {
     "filename":"I4CZ751130012.jpg",
     "pagination":{
      "pgfolios":{
       "section":"1",
       "value":"4b"
      }
     }
    },
    {
     "filename":"I4CZ751130013.jpg",
     "pagination":{
      "pgfolios":{
       "section":"1",
       "value":"5a"
      }
     }
    },
    {
     "filename":"I4CZ751130014.jpg",
     "pagination":{
      "pgfolios":{
       "section":"1",
       "value":"5b"
      }
     }
    },
    {
     "filename":"I4CZ751130015.jpg",
     "pagination":{
      "pgfolios":{
       "section":"1",
       "value":"6a"
      }
     }
    },
    {
     "filename":"I4CZ751130016.jpg",
     "pagination":{
      "pgfolios":{
       "section":"1",
       "value":"6b"
      }
     }
    },
    {
     "filename":"I4CZ751130017.jpg",
     "pagination":{
      "pgfolios":{
       "section":"1",
       "value":"7a"
      }
     }
    },
    {
     "filename":"I4CZ751130018.jpg",
     "pagination":{
      "pgfolios":{
       "section":"1",
       "value":"7b"
      }
     }
    },
    {
     "filename":"I4CZ751130019.jpg",
     "pagination":{
      "pgfolios":{
       "section":"1",
       "value":"8a"
      }
     }
    },
    {
     "filename":"I4CZ751130020.jpg",
     "pagination":{
      "pgfolios":{
       "section":"1",
       "value":"8b"
      }
     }
    },
    {
     "filename":"I4CZ751130021.jpg",
     "pagination":{
      "pgfolios":{
       "section":"1",
       "value":"9a"
      }
     }
    },
    {
     "filename":"I4CZ751130022.jpg",
     "pagination":{
      "pgfolios":{
       "section":"1",
       "value":"9b"
      }
     }
    },
    {
     "filename":"I4CZ751130023.jpg",
     "pagination":{
      "pgfolios":{
       "section":"1",
       "value":"10a"
      }
     }
    },
    {
     "filename":"I4CZ751130024.jpg",
     "pagination":{
      "pgfolios":{
       "section":"1",
       "value":"10b"
      }
     }
    },
    {
     "filename":"I4CZ751130025.jpg",
     "pagination":{
      "pgfolios":{
       "section":"1",
       "value":"11a"
      }
     }
    },
    {
     "filename":"I4CZ751130026.jpg",
     "pagination":{
      "pgfolios":{
       "section":"1",
       "value":"11b"
      }
     }
    },
    {
     "filename":"I4CZ751130027.jpg",
     "pagination":{
      "pgfolios":{
       "section":"1",
       "value":"12a"
      }
     }
    },
    {
     "filename":"I4CZ751130028.jpg",
     "pagination":{
      "pgfolios":{
       "section":"1",
       "value":"12b"
      }
     }
    },
    {
     "filename":"I4CZ751130029.jpg",
     "pagination":{
      "pgfolios":{
       "section":"1",
       "value":"13a"
      }
     }
    },
    {
     "filename":"I4CZ751130030.jpg",
     "pagination":{
      "pgfolios":{
       "section":"1",
       "value":"13b"
      }
     }
    },
    {
     "filename":"I4CZ751130031.jpg",
     "pagination":{
      "pgfolios":{
       "section":"1",
       "value":"14a"
      }
     }
    },
    {
     "filename":"I4CZ751130032.jpg",
     "pagination":{
      "pgfolios":{
       "section":"1",
       "value":"14b"
      }
     }
    },
    {
     "filename":"I4CZ751130033.jpg",
     "pagination":{
      "pgfolios":{
       "section":"1",
       "value":"15a"
      }
     }
    },
    {
     "filename":"I4CZ751130034.jpg",
     "pagination":{
      "pgfolios":{
       "section":"1",
       "value":"15b"
      }
     }
    },
    {
     "filename":"I4CZ751130035.jpg",
     "pagination":{
      "pgfolios":{
       "section":"1",
       "value":"16a"
      }
     }
    },
    {
     "filename":"I4CZ751130036.jpg",
     "pagination":{
      "pgfolios":{
       "section":"1",
       "value":"16b"
      }
     }
    },
    {
     "filename":"I4CZ751130037.jpg",
     "pagination":{
      "pgfolios":{
       "section":"1",
       "value":"17a"
      }
     }
    },
    {
     "filename":"I4CZ751130038.jpg",
     "pagination":{
      "pgfolios":{
       "section":"1",
       "value":"17b"
      }
     }
    },
    {
     "filename":"I4CZ751130039.jpg",
     "pagination":{
      "pgfolios":{
       "section":"1",
       "value":"18a"
      }
     }
    },
    {
     "filename":"I4CZ751130040.jpg",
     "pagination":{
      "pgfolios":{
       "section":"1",
       "value":"18b"
      }
     }
    },
    {
     "filename":"I4CZ751130041.jpg",
     "pagination":{
      "pgfolios":{
       "section":"1",
       "value":"19a"
      }
     }
    },
    {
     "filename":"I4CZ751130042.jpg",
     "pagination":{
      "pgfolios":{
       "section":"1",
       "value":"19b"
      }
     }
    },
    {
     "filename":"I4CZ751130043.jpg",
     "pagination":{
      "pgfolios":{
       "section":"1",
       "value":"20a"
      }
     }
    },
    {
     "filename":"I4CZ751130044.jpg",
     "pagination":{
      "pgfolios":{
       "section":"1",
       "value":"20b"
      }
     }
    },
    {
     "filename":"I4CZ751130045.jpg",
     "pagination":{
      "pgfolios":{
       "section":"1",
       "value":"21a"
      }
     }
    },
    {
     "filename":"I4CZ751130046.jpg",
     "pagination":{
      "pgfolios":{
       "section":"1",
       "value":"21b"
      }
     }
    },
    {
     "filename":"I4CZ751130047.jpg",
     "pagination":{
      "pgfolios":{
       "section":"1",
       "value":"22a"
      }
     }
    },
    {
     "filename":"I4CZ751130048.jpg",
     "pagination":{
      "pgfolios":{
       "section":"1",
       "value":"22b"
      }
     }
    },
    {
     "filename":"I4CZ751130049.jpg",
     "pagination":{
      "pgfolios":{
       "section":"1",
       "value":"23a"
      }
     }
    },
    {
     "filename":"I4CZ751130050.jpg",
     "pagination":{
      "pgfolios":{
       "section":"1",
       "value":"23b"
      }
     }
    },
    {
     "filename":"I4CZ751130051.jpg",
     "pagination":{
      "pgfolios":{
       "section":"1",
       "value":"24a"
      }
     }
    },
    {
     "filename":"I4CZ751130052.jpg",
     "pagination":{
      "pgfolios":{
       "section":"1",
       "value":"24b"
      }
     }
    },
    {
     "filename":"I4CZ751130053.jpg",
     "pagination":{
      "pgfolios":{
       "section":"1",
       "value":"25a"
      }
     }
    },
    {
     "filename":"I4CZ751130054.jpg",
     "pagination":{
      "pgfolios":{
       "section":"1",
       "value":"25b"
      }
     }
    },
    {
     "filename":"I4CZ751130055.jpg",
     "pagination":{
      "pgfolios":{
       "section":"1",
       "value":"26a"
      }
     }
    },
    {
     "filename":"I4CZ751130056.jpg",
     "pagination":{
      "pgfolios":{
       "section":"1",
       "value":"26b"
      }
     }
    },
    {
     "filename":"I4CZ751130057.jpg",
     "pagination":{
      "pgfolios":{
       "section":"1",
       "value":"27a"
      }
     }
    },
    {
     "filename":"I4CZ751130058.jpg",
     "pagination":{
      "pgfolios":{
       "section":"1",
       "value":"27b"
      }
     }
    },
    {
     "filename":"I4CZ751130059.jpg",
     "pagination":{
      "pgfolios":{
       "section":"1",
       "value":"28a"
      }
     }
    },
    {
     "filename":"I4CZ751130060.jpg",
     "pagination":{
      "pgfolios":{
       "section":"1",
       "value":"28b"
      }
     }
    },
    {
     "filename":"I4CZ751130061.jpg",
     "pagination":{
      "pgfolios":{
       "section":"1",
       "value":"29a"
      }
     }
    },
    {
     "filename":"I4CZ751130062.jpg",
     "pagination":{
      "pgfolios":{
       "section":"1",
       "value":"29b"
      }
     }
    },
    {
     "filename":"I4CZ751130063.jpg",
     "pagination":{
      "pgfolios":{
       "section":"1",
       "value":"30a"
      }
     }
    },
    {
     "filename":"I4CZ751130064.jpg",
     "pagination":{
      "pgfolios":{
       "section":"1",
       "value":"30b"
      }
     }
    },
    {
     "filename":"I4CZ751130065.jpg",
     "pagination":{
      "pgfolios":{
       "section":"1",
       "value":"31a"
      }
     }
    },
    {
     "filename":"I4CZ751130066.jpg",
     "pagination":{
      "pgfolios":{
       "section":"1",
       "value":"31b"
      }
     }
    },
    {
     "filename":"I4CZ751130067.jpg",
     "pagination":{
      "pgfolios":{
       "section":"1",
       "value":"32a"
      }
     }
    },
    {
     "filename":"I4CZ751130068.jpg",
     "pagination":{
      "pgfolios":{
       "section":"1",
       "value":"32b"
      }
     }
    },
    {
     "filename":"I4CZ751130069.jpg",
     "pagination":{
      "pgfolios":{
       "section":"1",
       "value":"33a"
      }
     }
    },
    {
     "filename":"I4CZ751130070.jpg",
     "pagination":{
      "pgfolios":{
       "section":"1",
       "value":"33b"
      }
     }
    },
    {
     "filename":"I4CZ751130071.jpg",
     "pagination":{
      "pgfolios":{
       "section":"1",
       "value":"34a"
      }
     }
    },
    {
     "filename":"I4CZ751130072.jpg",
     "pagination":{
      "pgfolios":{
       "section":"1",
       "value":"34b"
      }
     }
    },
    {
     "filename":"I4CZ751130073.jpg",
     "pagination":{
      "pgfolios":{
       "section":"1",
       "value":"35a"
      }
     }
    },
    {
     "filename":"I4CZ751130074.jpg",
     "pagination":{
      "pgfolios":{
       "section":"1",
       "value":"35b"
      }
     }
    },
    {
     "filename":"I4CZ751130075.jpg",
     "pagination":{
      "pgfolios":{
       "section":"1",
       "value":"36a"
      }
     }
    },
    {
     "filename":"I4CZ751130076.jpg",
     "pagination":{
      "pgfolios":{
       "section":"1",
       "value":"36b"
      }
     }
    },
    {
     "filename":"I4CZ751130077.jpg",
     "pagination":{
      "pgfolios":{
       "section":"1",
       "value":"37a"
      }
     }
    },
    {
     "filename":"I4CZ751130078.jpg",
     "pagination":{
      "pgfolios":{
       "section":"1",
       "value":"37b"
      }
     }
    },
    {
     "filename":"I4CZ751130079.jpg",
     "pagination":{
      "pgfolios":{
       "section":"1",
       "value":"38a"
      }
     }
    },
    {
     "filename":"I4CZ751130080.jpg",
     "pagination":{
      "pgfolios":{
       "section":"1",
       "value":"38b"
      }
     }
    },
    {
     "filename":"I4CZ751130081.jpg",
     "pagination":{
      "pgfolios":{
       "section":"1",
       "value":"39a"
      }
     }
    },
    {
     "filename":"I4CZ751130082.jpg",
     "pagination":{
      "pgfolios":{
       "section":"1",
       "value":"39b"
      }
     }
    },
    {
     "filename":"I4CZ751130083.jpg",
     "pagination":{
      "pgfolios":{
       "section":"1",
       "value":"40a"
      }
     }
    },
    {
     "filename":"I4CZ751130084.jpg",
     "pagination":{
      "pgfolios":{
       "section":"1",
       "value":"40b"
      }
     }
    },
    {
     "filename":"I4CZ751130085.jpg",
     "pagination":{
      "pgfolios":{
       "section":"1",
       "value":"41a"
      }
     }
    },
    {
     "filename":"I4CZ751130086.jpg",
     "pagination":{
      "pgfolios":{
       "section":"1",
       "value":"41b"
      }
     }
    },
    {
     "filename":"I4CZ751130087.jpg",
     "pagination":{
      "pgfolios":{
       "section":"1",
       "value":"42a"
      }
     }
    },
    {
     "filename":"I4CZ751130088.jpg",
     "pagination":{
      "pgfolios":{
       "section":"1",
       "value":"42b"
      }
     }
    },
    {
     "filename":"I4CZ751130089.jpg",
     "pagination":{
      "pgfolios":{
       "section":"1",
       "value":"43a"
      }
     }
    },
    {
     "filename":"I4CZ751130090.jpg",
     "pagination":{
      "pgfolios":{
       "section":"1",
       "value":"43b"
      }
     }
    },
    {
     "filename":"I4CZ751130091.jpg",
     "pagination":{
      "pgfolios":{
       "section":"1",
       "value":"44a"
      }
     }
    },
    {
     "filename":"I4CZ751130092.jpg",
     "pagination":{
      "pgfolios":{
       "section":"1",
       "value":"44b"
      }
     }
    },
    {
     "filename":"I4CZ751130093.jpg",
     "pagination":{
      "pgfolios":{
       "section":"1",
       "value":"45a"
      }
     }
    },
    {
     "filename":"I4CZ751130094.jpg",
     "pagination":{
      "pgfolios":{
       "section":"1",
       "value":"45b"
      }
     }
    },
    {
     "filename":"I4CZ751130095.jpg",
     "pagination":{
      "pgfolios":{
       "section":"1",
       "value":"46a"
      }
     }
    },
    {
     "filename":"I4CZ751130096.jpg",
     "pagination":{
      "pgfolios":{
       "section":"1",
       "value":"46b"
      }
     }
    },
    {
     "filename":"I4CZ751130097.jpg",
     "pagination":{
      "pgfolios":{
       "section":"1",
       "value":"47a"
      }
     }
    },
    {
     "filename":"I4CZ751130098.jpg",
     "pagination":{
      "pgfolios":{
       "section":"1",
       "value":"47b"
      }
     }
    },
    {
     "filename":"I4CZ751130099.jpg",
     "pagination":{
      "pgfolios":{
       "section":"1",
       "value":"48a"
      }
     }
    },
    {
     "filename":"I4CZ751130100.jpg",
     "pagination":{
      "pgfolios":{
       "section":"1",
       "value":"48b"
      }
     }
    },
    {
     "filename":"I4CZ751130101.jpg",
     "pagination":{
      "pgfolios":{
       "section":"1",
       "value":"49a"
      }
     }
    },
    {
     "filename":"I4CZ751130102.jpg",
     "pagination":{
      "pgfolios":{
       "section":"1",
       "value":"49b"
      }
     }
    },
    {
     "filename":"I4CZ751130103.jpg",
     "pagination":{
      "pgfolios":{
       "section":"1",
       "value":"50a"
      }
     }
    },
    {
     "filename":"I4CZ751130104.jpg",
     "pagination":{
      "pgfolios":{
       "section":"1",
       "value":"50b"
      }
     }
    },
    {
     "filename":"I4CZ751130105.jpg",
     "pagination":{
      "pgfolios":{
       "section":"1",
       "value":"51a"
      }
     }
    },
    {
     "filename":"I4CZ751130106.jpg",
     "pagination":{
      "pgfolios":{
       "section":"1",
       "value":"51b"
      }
     }
    },
    {
     "filename":"I4CZ751130107.jpg",
     "pagination":{
      "pgfolios":{
       "section":"2",
       "value":"1a"
      }
     }
    },
    {
     "filename":"I4CZ751130108.jpg",
     "pagination":{
      "pgfolios":{
       "section":"2",
       "value":"1b"
      }
     }
    },
    {
     "filename":"I4CZ751130109.jpg",
     "pagination":{
      "pgfolios":{
       "section":"2",
       "value":"2a"
      }
     }
    },
    {
     "filename":"I4CZ751130110.jpg",
     "pagination":{
      "pgfolios":{
       "section":"2",
       "value":"2b"
      }
     }
    },
    {
     "filename":"I4CZ751130111.jpg",
     "pagination":{
      "pgfolios":{
       "section":"2",
       "value":"3a"
      }
     }
    },
    {
     "filename":"I4CZ751130112.jpg",
     "pagination":{
      "pgfolios":{
       "section":"2",
       "value":"3b"
      }
     }
    },
    {
     "filename":"I4CZ751130113.jpg",
     "pagination":{
      "pgfolios":{
       "section":"2",
       "value":"4a"
      }
     }
    },
    {
     "filename":"I4CZ751130114.jpg",
     "pagination":{
      "pgfolios":{
       "section":"2",
       "value":"4b"
      }
     }
    },
    {
     "filename":"I4CZ751130115.jpg",
     "pagination":{
      "pgfolios":{
       "section":"2",
       "value":"5a"
      }
     }
    },
    {
     "filename":"I4CZ751130116.jpg",
     "pagination":{
      "pgfolios":{
       "section":"2",
       "value":"5b"
      }
     }
    },
    {
     "filename":"I4CZ751130117.jpg",
     "pagination":{
      "pgfolios":{
       "section":"2",
       "value":"6a"
      }
     }
    },
    {
     "filename":"I4CZ751130118.jpg",
     "pagination":{
      "pgfolios":{
       "section":"2",
       "value":"6b"
      }
     }
    },
    {
     "filename":"I4CZ751130119.jpg",
     "pagination":{
      "pgfolios":{
       "section":"2",
       "value":"7a"
      }
     }
    },
    {
     "filename":"I4CZ751130120.jpg",
     "pagination":{
      "pgfolios":{
       "section":"2",
       "value":"7b"
      }
     }
    },
    {
     "filename":"I4CZ751130121.jpg",
     "pagination":{
      "pgfolios":{
       "section":"2",
       "value":"8a"
      }
     }
    },
    {
     "filename":"I4CZ751130122.jpg",
     "pagination":{
      "pgfolios":{
       "section":"2",
       "value":"8b"
      }
     }
    },
    {
     "filename":"I4CZ751130123.jpg",
     "pagination":{
      "pgfolios":{
       "section":"2",
       "value":"9a"
      }
     }
    },
    {
     "filename":"I4CZ751130124.jpg",
     "pagination":{
      "pgfolios":{
       "section":"2",
       "value":"9b"
      }
     }
    },
    {
     "filename":"I4CZ751130125.jpg",
     "pagination":{
      "pgfolios":{
       "section":"2",
       "value":"10a"
      }
     }
    },
    {
     "filename":"I4CZ751130126.jpg",
     "pagination":{
      "pgfolios":{
       "section":"2",
       "value":"10b"
      }
     }
    },
    {
     "filename":"I4CZ751130127.jpg",
     "pagination":{
      "pgfolios":{
       "section":"2",
       "value":"11a"
      }
     }
    },
    {
     "filename":"I4CZ751130128.jpg",
     "pagination":{
      "pgfolios":{
       "section":"2",
       "value":"11b"
      }
     }
    },
    {
     "filename":"I4CZ751130129.jpg",
     "pagination":{
      "pgfolios":{
       "section":"2",
       "value":"12a"
      }
     }
    },
    {
     "filename":"I4CZ751130130.jpg",
     "pagination":{
      "pgfolios":{
       "section":"2",
       "value":"12b"
      }
     }
    },
    {
     "filename":"I4CZ751130131.jpg",
     "pagination":{
      "pgfolios":{
       "section":"2",
       "value":"13a"
      }
     }
    },
    {
     "filename":"I4CZ751130132.jpg",
     "pagination":{
      "pgfolios":{
       "section":"2",
       "value":"13b"
      }
     }
    },
    {
     "filename":"I4CZ751130133.jpg",
     "pagination":{
      "pgfolios":{
       "section":"2",
       "value":"14a"
      }
     }
    },
    {
     "filename":"I4CZ751130134.jpg",
     "pagination":{
      "pgfolios":{
       "section":"2",
       "value":"14b"
      }
     }
    },
    {
     "filename":"I4CZ751130135.jpg",
     "pagination":{
      "pgfolios":{
       "section":"2",
       "value":"15a"
      }
     }
    },
    {
     "filename":"I4CZ751130136.jpg",
     "pagination":{
      "pgfolios":{
       "section":"2",
       "value":"15b"
      }
     }
    },
    {
     "filename":"I4CZ751130137.jpg",
     "pagination":{
      "pgfolios":{
       "section":"2",
       "value":"16a"
      }
     }
    },
    {
     "filename":"I4CZ751130138.jpg",
     "pagination":{
      "pgfolios":{
       "section":"2",
       "value":"16b"
      }
     }
    },
    {
     "filename":"I4CZ751130139.jpg",
     "pagination":{
      "pgfolios":{
       "section":"2",
       "value":"17a"
      }
     }
    },
    {
     "filename":"I4CZ751130140.jpg",
     "pagination":{
      "pgfolios":{
       "section":"2",
       "value":"17b"
      }
     }
    },
    {
     "filename":"I4CZ751130141.jpg",
     "pagination":{
      "pgfolios":{
       "section":"2",
       "value":"18a"
      }
     }
    },
    {
     "filename":"I4CZ751130142.jpg",
     "pagination":{
      "pgfolios":{
       "section":"2",
       "value":"18b"
      }
     }
    },
    {
     "filename":"I4CZ751130143.jpg",
     "pagination":{
      "pgfolios":{
       "section":"2",
       "value":"19a"
      }
     }
    },
    {
     "filename":"I4CZ751130144.jpg",
     "pagination":{
      "pgfolios":{
       "section":"2",
       "value":"19b"
      }
     }
    },
    {
     "filename":"I4CZ751130145.jpg",
     "pagination":{
      "pgfolios":{
       "section":"2",
       "value":"20a"
      }
     }
    },
    {
     "filename":"I4CZ751130146.jpg",
     "pagination":{
      "pgfolios":{
       "section":"2",
       "value":"20b"
      }
     }
    },
    {
     "filename":"I4CZ751130147.jpg",
     "pagination":{
      "pgfolios":{
       "section":"2",
       "value":"21a"
      }
     }
    },
    {
     "filename":"I4CZ751130148.jpg",
     "pagination":{
      "pgfolios":{
       "section":"2",
       "value":"21b"
      }
     }
    },
    {
     "filename":"I4CZ751130149.jpg",
     "pagination":{
      "pgfolios":{
       "section":"2",
       "value":"22a"
      }
     }
    },
    {
     "filename":"I4CZ751130150.jpg",
     "pagination":{
      "pgfolios":{
       "section":"2",
       "value":"22b"
      }
     }
    },
    {
     "filename":"I4CZ751130151.jpg",
     "pagination":{
      "pgfolios":{
       "section":"2",
       "value":"23a"
      }
     }
    },
    {
     "filename":"I4CZ751130152.jpg",
     "pagination":{
      "pgfolios":{
       "section":"2",
       "value":"23b"
      }
     }
    },
    {
     "filename":"I4CZ751130153.jpg",
     "pagination":{
      "pgfolios":{
       "section":"2",
       "value":"24a"
      }
     }
    },
    {
     "filename":"I4CZ751130154.jpg",
     "pagination":{
      "pgfolios":{
       "section":"2",
       "value":"24b"
      }
     }
    },
    {
     "filename":"I4CZ751130155.jpg",
     "pagination":{
      "pgfolios":{
       "section":"2",
       "value":"25a"
      }
     }
    },
    {
     "filename":"I4CZ751130156.jpg",
     "pagination":{
      "pgfolios":{
       "section":"2",
       "value":"25b"
      }
     }
    },
    {
     "filename":"I4CZ751130157.jpg",
     "pagination":{
      "pgfolios":{
       "section":"2",
       "value":"26a"
      }
     }
    },
    {
     "filename":"I4CZ751130158.jpg",
     "pagination":{
      "pgfolios":{
       "section":"2",
       "value":"26b"
      }
     }
    },
    {
     "filename":"I4CZ751130159.jpg",
     "pagination":{
      "pgfolios":{
       "section":"2",
       "value":"27a"
      }
     }
    },
    {
     "filename":"I4CZ751130160.jpg",
     "pagination":{
      "pgfolios":{
       "section":"2",
       "value":"27b"
      }
     }
    },
    {
     "filename":"I4CZ751130161.jpg",
     "pagination":{
      "pgfolios":{
       "section":"2",
       "value":"28a"
      }
     }
    },
    {
     "filename":"I4CZ751130162.jpg",
     "pagination":{
      "pgfolios":{
       "section":"2",
       "value":"28b"
      }
     }
    },
    {
     "filename":"I4CZ751130163.jpg",
     "pagination":{
      "pgfolios":{
       "section":"2",
       "value":"29a"
      }
     }
    },
    {
     "filename":"I4CZ751130164.jpg",
     "pagination":{
      "pgfolios":{
       "section":"2",
       "value":"29b"
      }
     }
    },
    {
     "filename":"I4CZ751130165.jpg",
     "pagination":{
      "pgfolios":{
       "section":"2",
       "value":"30a"
      }
     }
    },
    {
     "filename":"I4CZ751130166.jpg",
     "pagination":{
      "pgfolios":{
       "section":"2",
       "value":"30b"
      }
     }
    },
    {
     "filename":"I4CZ751130167.jpg",
     "pagination":{
      "pgfolios":{
       "section":"2",
       "value":"31a"
      }
     }
    },
    {
     "filename":"I4CZ751130168.jpg",
     "pagination":{
      "pgfolios":{
       "section":"2",
       "value":"31b"
      }
     }
    },
    {
     "filename":"I4CZ751130169.jpg",
     "pagination":{
      "pgfolios":{
       "section":"2",
       "value":"32a"
      }
     }
    },
    {
     "filename":"I4CZ751130170.jpg",
     "pagination":{
      "pgfolios":{
       "section":"2",
       "value":"32b"
      }
     }
    },
    {
     "filename":"I4CZ751130171.jpg",
     "pagination":{
      "pgfolios":{
       "section":"2",
       "value":"33a"
      }
     }
    },
    {
     "filename":"I4CZ751130172.jpg",
     "pagination":{
      "pgfolios":{
       "section":"2",
       "value":"33b"
      }
     }
    },
    {
     "filename":"I4CZ751130173.jpg",
     "pagination":{
      "pgfolios":{
       "section":"2",
       "value":"34a"
      }
     }
    },
    {
     "filename":"I4CZ751130174.jpg",
     "pagination":{
      "pgfolios":{
       "section":"2",
       "value":"34b"
      }
     }
    },
    {
     "filename":"I4CZ751130175.jpg",
     "pagination":{
      "pgfolios":{
       "section":"2",
       "value":"35a"
      }
     }
    },
    {
     "filename":"I4CZ751130176.jpg",
     "pagination":{
      "pgfolios":{
       "section":"2",
       "value":"35b"
      }
     }
    },
    {
     "filename":"I4CZ751130177.jpg",
     "pagination":{
      "pgfolios":{
       "section":"2",
       "value":"36a"
      }
     }
    },
    {
     "filename":"I4CZ751130178.jpg",
     "pagination":{
      "pgfolios":{
       "section":"2",
       "value":"36b"
      }
     }
    },
    {
     "filename":"I4CZ751130179.jpg",
     "pagination":{
      "pgfolios":{
       "section":"2",
       "value":"37a"
      }
     }
    },
    {
     "filename":"I4CZ751130180.jpg",
     "pagination":{
      "pgfolios":{
       "section":"2",
       "value":"37b"
      }
     }
    },
    {
     "filename":"I4CZ751130181.jpg",
     "pagination":{
      "pgfolios":{
       "section":"2",
       "value":"38a"
      }
     }
    },
    {
     "filename":"I4CZ751130182.jpg",
     "pagination":{
      "pgfolios":{
       "section":"2",
       "value":"38b"
      }
     }
    },
    {
     "filename":"I4CZ751130183.jpg",
     "pagination":{
      "pgfolios":{
       "section":"2",
       "value":"39a"
      }
     }
    },
    {
     "filename":"I4CZ751130184.jpg",
     "pagination":{
      "pgfolios":{
       "section":"2",
       "value":"39b"
      }
     }
    },
    {
     "filename":"I4CZ751130185.jpg",
     "pagination":{
      "pgfolios":{
       "section":"2",
       "value":"40a"
      }
     }
    },
    {
     "filename":"I4CZ751130186.jpg",
     "pagination":{
      "pgfolios":{
       "section":"2",
       "value":"40b"
      }
     }
    },
    {
     "filename":"I4CZ751130187.jpg",
     "pagination":{
      "pgfolios":{
       "section":"2",
       "value":"41a"
      }
     }
    },
    {
     "filename":"I4CZ751130188.jpg",
     "pagination":{
      "pgfolios":{
       "section":"2",
       "value":"41b"
      }
     }
    },
    {
     "filename":"I4CZ751130189.jpg",
     "pagination":{
      "pgfolios":{
       "section":"2",
       "value":"42a"
      }
     }
    },
    {
     "filename":"I4CZ751130190.jpg",
     "pagination":{
      "pgfolios":{
       "section":"2",
       "value":"42b"
      }
     }
    },
    {
     "filename":"I4CZ751130191.jpg",
     "pagination":{
      "pgfolios":{
       "section":"2",
       "value":"43a"
      }
     }
    },
    {
     "filename":"I4CZ751130192.jpg",
     "pagination":{
      "pgfolios":{
       "section":"2",
       "value":"43b"
      }
     }
    },
    {
     "filename":"I4CZ751130193.jpg",
     "pagination":{
      "pgfolios":{
       "section":"2",
       "value":"44a"
      }
     }
    },
    {
     "filename":"I4CZ751130194.jpg",
     "pagination":{
      "pgfolios":{
       "section":"2",
       "value":"44b"
      }
     }
    },
    {
     "filename":"I4CZ751130195.jpg",
     "pagination":{
      "pgfolios":{
       "section":"2",
       "value":"45a"
      }
     }
    },
    {
     "filename":"I4CZ751130196.jpg",
     "pagination":{
      "pgfolios":{
       "section":"2",
       "value":"45b"
      }
     }
    },
    {
     "filename":"I4CZ751130197.jpg",
     "pagination":{
      "pgfolios":{
       "section":"2",
       "value":"46a"
      }
     }
    },
    {
     "filename":"I4CZ751130198.jpg",
     "pagination":{
      "pgfolios":{
       "section":"2",
       "value":"46b"
      }
     }
    },
    {
     "filename":"I4CZ751130199.jpg",
     "pagination":{
      "pgfolios":{
       "section":"2",
       "value":"47a"
      }
     }
    },
    {
     "filename":"I4CZ751130200.jpg",
     "pagination":{
      "pgfolios":{
       "section":"2",
       "value":"47b"
      }
     }
    },
    {
     "filename":"I4CZ751130201.jpg",
     "pagination":{
      "pgfolios":{
       "section":"2",
       "value":"48a"
      }
     }
    },
    {
     "filename":"I4CZ751130202.jpg",
     "pagination":{
      "pgfolios":{
       "section":"2",
       "value":"48b"
      }
     }
    },
    {
     "filename":"I4CZ751130203.jpg",
     "pagination":{
      "pgfolios":{
       "section":"2",
       "value":"49a"
      }
     }
    },
    {
     "filename":"I4CZ751130204.jpg",
     "pagination":{
      "pgfolios":{
       "section":"2",
       "value":"49b"
      }
     }
    },
    {
     "filename":"I4CZ751130205.jpg",
     "pagination":{
      "pgfolios":{
       "section":"2",
       "value":"50a"
      }
     }
    },
    {
     "filename":"I4CZ751130206.jpg",
     "pagination":{
      "pgfolios":{
       "section":"2",
       "value":"50b"
      }
     }
    },
    {
     "filename":"I4CZ751130207.jpg",
     "pagination":{
      "pgfolios":{
       "section":"2",
       "value":"51a"
      }
     }
    },
    {
     "filename":"I4CZ751130208.jpg",
     "pagination":{
      "pgfolios":{
       "section":"2",
       "value":"51b"
      }
     }
    },
    {
     "filename":"I4CZ751130209.jpg",
     "pagination":{
      "pgfolios":{
       "section":"2",
       "value":"52a"
      }
     }
    },
    {
     "filename":"I4CZ751130210.jpg",
     "pagination":{
      "pgfolios":{
       "section":"2",
       "value":"52b"
      }
     }
    },
    {
     "filename":"I4CZ751130211.jpg",
     "pagination":{
      "pgfolios":{
       "section":"2",
       "value":"53a"
      }
     }
    },
    {
     "filename":"I4CZ751130212.jpg",
     "pagination":{
      "pgfolios":{
       "section":"2",
       "value":"53b"
      }
     }
    },
    {
     "filename":"I4CZ751130213.jpg",
     "pagination":{
      "pgfolios":{
       "section":"2",
       "value":"54a"
      }
     }
    },
    {
     "filename":"I4CZ751130214.jpg",
     "pagination":{
      "pgfolios":{
       "section":"2",
       "value":"54b"
      }
     }
    },
    {
     "filename":"I4CZ751130215.jpg",
     "pagination":{
      "pgfolios":{
       "section":"2",
       "value":"55a"
      }
     }
    },
    {
     "filename":"I4CZ751130216.jpg",
     "pagination":{
      "pgfolios":{
       "section":"2",
       "value":"55b"
      }
     }
    },
    {
     "filename":"I4CZ751130217.jpg",
     "pagination":{
      "pgfolios":{
       "section":"2",
       "value":"56a"
      }
     }
    },
    {
     "filename":"I4CZ751130218.jpg",
     "pagination":{
      "pgfolios":{
       "section":"2",
       "value":"56b"
      }
     }
    },
    {
     "filename":"I4CZ751130219.jpg",
     "hidden":true
    },
    {
     "filename":"I4CZ751130220.jpg",
     "hidden":true
    },
    {
     "filename":"I4CZ751130221.jpg",
     "hidden":true
    },
    {
     "filename":"I4CZ751130222.jpg",
     "hidden":true
    },
    {
     "filename":"I4CZ751130223.jpg",
     "hidden":true
    },
    {
     "filename":"I4CZ751130224.jpg",
     "hidden":true
    },
    {
     "filename":"I4CZ751130225.jpg",
     "hidden":true
    },
    {
     "filename":"I4CZ751130226.jpg",
     "hidden":true
    },
    {
     "filename":"I4CZ751130227.jpg",
     "hidden":true
    },
    {
     "filename":"I4CZ751130228.jpg",
     "hidden":true
    },
    {
     "filename":"I4CZ751130229.jpg",
     "hidden":true
    },
    {
     "filename":"I4CZ751130230.jpg",
     "hidden":true
    },
    {
     "filename":"I4CZ751130231.jpg",
     "hidden":true
    },
    {
     "filename":"I4CZ751130232.jpg",
     "hidden":true
    },
    {
     "filename":"I4CZ751130233.jpg",
     "hidden":true
    },
    {
     "filename":"I4CZ751130234.jpg",
     "hidden":true
    },
    {
     "filename":"I4CZ751130235.jpg",
     "hidden":true
    },
    {
     "filename":"I4CZ751130236.jpg",
     "hidden":true
    },
    {
     "filename":"I4CZ751130237.jpg",
     "hidden":true
    },
    {
     "filename":"I4CZ751130238.jpg",
     "hidden":true
    },
    {
     "filename":"I4CZ751130239.jpg",
     "hidden":true
    },
    {
     "filename":"I4CZ751130240.jpg",
     "hidden":true
    },
    {
     "filename":"I4CZ751130241.jpg",
     "hidden":true
    },
    {
     "filename":"I4CZ751130242.jpg",
     "hidden":true
    },
    {
     "filename":"I4CZ751130243.jpg",
     "hidden":true
    },
    {
     "filename":"I4CZ751130244.jpg",
     "hidden":true
    },
    {
     "filename":"I4CZ751130245.jpg",
     "hidden":true
    },
    {
     "filename":"I4CZ751130246.jpg",
     "hidden":true
    },
    {
     "filename":"I4CZ751130247.jpg",
     "hidden":true
    },
    {
     "filename":"I4CZ751130248.jpg",
     "hidden":true
    },
    {
     "filename":"I4CZ751130249.jpg",
     "hidden":true
    },
    {
     "filename":"I4CZ751130250.jpg",
     "hidden":true
    },
    {
     "filename":"I4CZ751130251.jpg",
     "hidden":true
    },
    {
     "filename":"I4CZ751130252.jpg",
     "hidden":true
    },
    {
     "filename":"I4CZ751130253.jpg",
     "hidden":true
    },
    {
     "filename":"I4CZ751130254.jpg",
     "hidden":true
    },
    {
     "filename":"I4CZ751130255.jpg",
     "hidden":true
    },
    {
     "filename":"I4CZ751130256.jpg",
     "hidden":true
    },
    {
     "filename":"I4CZ751130257.jpg",
     "hidden":true
    },
    {
     "filename":"I4CZ751130258.jpg",
     "hidden":true
    },
    {
     "filename":"I4CZ751130259.jpg",
     "hidden":true
    },
    {
     "filename":"I4CZ751130260.jpg",
     "hidden":true
    },
    {
     "filename":"I4CZ751130261.jpg",
     "hidden":true
    },
    {
     "filename":"I4CZ751130262.jpg",
     "hidden":true
    },
    {
     "filename":"I4CZ751130263.jpg",
     "hidden":true
    },
    {
     "filename":"I4CZ751130264.jpg",
     "hidden":true
    },
    {
     "filename":"I4CZ751130265.jpg",
     "hidden":true
    },
    {
     "filename":"I4CZ751130266.jpg",
     "hidden":true
    },
    {
     "filename":"I4CZ751130267.jpg",
     "hidden":true
    },
    {
     "filename":"I4CZ751130268.jpg",
     "hidden":true
    },
    {
     "filename":"I4CZ751130269.jpg",
     "hidden":true
    },
    {
     "filename":"I4CZ751130270.jpg",
     "hidden":true
    },
    {
     "filename":"I4CZ751130271.jpg",
     "hidden":true
    },
    {
     "filename":"I4CZ751130272.jpg",
     "hidden":true
    },
    {
     "filename":"I4CZ751130273.jpg",
     "hidden":true
    },
    {
     "filename":"I4CZ751130274.jpg",
     "hidden":true
    },
    {
     "filename":"I4CZ751130275.jpg",
     "hidden":true
    },
    {
     "filename":"I4CZ751130276.jpg",
     "hidden":true
    },
    {
     "filename":"I4CZ751130277.jpg",
     "hidden":true
    },
    {
     "filename":"I4CZ751130278.jpg",
     "hidden":true
    },
    {
     "filename":"I4CZ751130279.jpg",
     "hidden":true
    },
    {
     "filename":"I4CZ751130280.jpg",
     "hidden":true
    },
    {
     "filename":"I4CZ751130281.jpg",
     "hidden":true
    },
    {
     "filename":"I4CZ751130282.jpg",
     "hidden":true
    },
    {
     "filename":"I4CZ751130283.jpg",
     "hidden":true
    },
    {
     "filename":"I4CZ751130284.jpg",
     "hidden":true
    },
    {
     "filename":"I4CZ751130285.jpg",
     "hidden":true
    },
    {
     "filename":"I4CZ751130286.jpg",
     "hidden":true
    },
    {
     "filename":"I4CZ751130287.jpg",
     "hidden":true
    },
    {
     "filename":"I4CZ751130288.jpg",
     "hidden":true
    },
    {
     "filename":"I4CZ751130289.jpg",
     "hidden":true
    },
    {
     "filename":"I4CZ751130290.jpg",
     "hidden":true
    },
    {
     "filename":"I4CZ751130291.jpg",
     "hidden":true
    },
    {
     "filename":"I4CZ751130292.jpg",
     "hidden":true
    },
    {
     "filename":"I4CZ751130293.jpg",
     "hidden":true
    },
    {
     "filename":"I4CZ751130294.jpg",
     "hidden":true
    },
    {
     "filename":"I4CZ751130295.jpg",
     "hidden":true
    },
    {
     "filename":"I4CZ751130296.jpg",
     "hidden":true
    },
    {
     "filename":"I4CZ751130297.jpg",
     "hidden":true
    },
    {
     "filename":"I4CZ751130298.jpg",
     "hidden":true
    },
    {
     "filename":"I4CZ751130299.jpg",
     "hidden":true
    },
    {
     "filename":"I4CZ751130300.jpg",
     "hidden":true
    },
    {
     "filename":"I4CZ751130301.jpg",
     "hidden":true
    },
    {
     "filename":"I4CZ751130302.jpg",
     "hidden":true
    },
    {
     "filename":"I4CZ751130303.jpg",
     "hidden":true
    },
    {
     "filename":"I4CZ751130304.jpg",
     "hidden":true
    },
    {
     "filename":"I4CZ751130305.jpg",
     "hidden":true
    },
    {
     "filename":"I4CZ751130306.jpg",
     "hidden":true
    },
    {
     "filename":"I4CZ751130307.jpg",
     "hidden":true
    },
    {
     "filename":"I4CZ751130308.jpg",
     "hidden":true
    },
    {
     "filename":"I4CZ751130309.jpg",
     "hidden":true
    },
    {
     "filename":"I4CZ751130310.jpg",
     "hidden":true
    },
    {
     "filename":"I4CZ751130311.jpg",
     "hidden":true
    },
    {
     "filename":"I4CZ751130312.jpg",
     "hidden":true
    },
    {
     "filename":"I4CZ751130313.jpg",
     "hidden":true
    },
    {
     "filename":"I4CZ751130314.jpg",
     "hidden":true
    },
    {
     "filename":"I4CZ751130315.jpg",
     "hidden":true
    },
    {
     "filename":"I4CZ751130316.jpg",
     "hidden":true
    },
    {
     "filename":"I4CZ751130317.jpg",
     "hidden":true
    },
    {
     "filename":"I4CZ751130318.jpg",
     "hidden":true
    },
    {
     "filename":"I4CZ751130319.jpg",
     "hidden":true
    },
    {
     "filename":"I4CZ751130320.jpg",
     "hidden":true
    },
    {
     "filename":"I4CZ751130321.jpg",
     "hidden":true
    },
    {
     "filename":"I4CZ751130322.jpg",
     "hidden":true
    },
    {
     "filename":"I4CZ751130323.jpg",
     "hidden":true
    },
    {
     "filename":"I4CZ751130324.jpg",
     "hidden":true
    },
    {
     "filename":"I4CZ751130325.jpg",
     "hidden":true
    },
    {
     "filename":"I4CZ751130326.jpg",
     "hidden":true
    },
    {
     "filename":"I4CZ751130327.jpg",
     "hidden":true
    },
    {
     "filename":"I4CZ751130328.jpg",
     "hidden":true
    },
    {
     "filename":"I4CZ751130329.jpg",
     "hidden":true
    },
    {
     "filename":"I4CZ751130330.jpg",
     "hidden":true
    },
    {
     "filename":"I4CZ751130331.jpg",
     "hidden":true
    },
    {
     "filename":"I4CZ751130332.jpg",
     "hidden":true
    },
    {
     "filename":"I4CZ751130333.jpg",
     "hidden":true
    },
    {
     "filename":"I4CZ751130334.jpg",
     "hidden":true
    },
    {
     "filename":"I4CZ751130335.jpg",
     "hidden":true
    },
    {
     "filename":"I4CZ751130336.jpg",
     "hidden":true
    },
    {
     "filename":"I4CZ751130337.jpg",
     "hidden":true
    },
    {
     "filename":"I4CZ751130338.jpg",
     "hidden":true
    },
    {
     "filename":"I4CZ751130339.jpg",
     "hidden":true
    },
    {
     "filename":"I4CZ751130340.jpg",
     "hidden":true
    },
    {
     "filename":"I4CZ751130341.jpg",
     "hidden":true
    },
    {
     "filename":"I4CZ751130342.jpg",
     "hidden":true
    },
    {
     "filename":"I4CZ751130343.jpg",
     "hidden":true
    },
    {
     "filename":"I4CZ751130344.jpg",
     "hidden":true
    },
    {
     "filename":"I4CZ751130345.jpg",
     "hidden":true
    },
    {
     "filename":"I4CZ751130346.jpg",
     "hidden":true
    },
    {
     "filename":"I4CZ751130347.jpg",
     "hidden":true
    },
    {
     "filename":"I4CZ751130348.jpg",
     "hidden":true
    },
    {
     "filename":"I4CZ751130349.jpg",
     "hidden":true
    },
    {
     "filename":"I4CZ751130350.jpg",
     "hidden":true
    },
    {
     "filename":"I4CZ751130351.jpg",
     "hidden":true
    },
    {
     "filename":"I4CZ751130352.jpg",
     "hidden":true
    },
    {
     "filename":"I4CZ751130353.jpg",
     "hidden":true
    },
    {
     "filename":"I4CZ751130354.jpg",
     "hidden":true
    },
    {
     "filename":"I4CZ751130355.jpg",
     "hidden":true
    },
    {
     "filename":"I4CZ751130356.jpg",
     "hidden":true
    },
    {
     "filename":"I4CZ751130357.jpg",
     "hidden":true
    },
    {
     "filename":"I4CZ751130358.jpg",
     "hidden":true
    },
    {
     "filename":"I4CZ751130359.jpg",
     "hidden":true
    },
    {
     "filename":"I4CZ751130360.jpg",
     "hidden":true
    },
    {
     "filename":"I4CZ751130361.jpg",
     "hidden":true
    },
    {
     "filename":"I4CZ751130362.jpg",
     "hidden":true
    },
    {
     "filename":"I4CZ751130363.jpg",
     "hidden":true
    },
    {
     "filename":"I4CZ751130364.jpg",
     "hidden":true
    },
    {
     "filename":"I4CZ751130365.jpg",
     "hidden":true
    },
    {
     "filename":"I4CZ751130366.jpg",
     "hidden":true
    },
    {
     "filename":"I4CZ751130367.jpg",
     "hidden":true
    },
    {
     "filename":"I4CZ751130368.jpg",
     "hidden":true
    },
    {
     "filename":"I4CZ751130369.jpg",
     "hidden":true
    },
    {
     "filename":"I4CZ751130370.jpg",
     "hidden":true
    },
    {
     "filename":"I4CZ751130371.jpg",
     "hidden":true
    },
    {
     "filename":"I4CZ751130372.jpg",
     "hidden":true
    },
    {
     "filename":"I4CZ751130373.jpg",
     "hidden":true
    },
    {
     "filename":"I4CZ751130374.jpg",
     "hidden":true
    },
    {
     "filename":"I4CZ751130375.jpg",
     "hidden":true
    },
    {
     "filename":"I4CZ751130376.jpg",
     "hidden":true
    },
    {
     "filename":"I4CZ751130377.jpg",
     "hidden":true
    },
    {
     "filename":"I4CZ751130378.jpg",
     "hidden":true
    },
    {
     "filename":"I4CZ751130379.jpg",
     "hidden":true
    },
    {
     "filename":"I4CZ751130380.jpg",
     "hidden":true
    },
    {
     "filename":"I4CZ751130381.jpg",
     "hidden":true
    },
    {
     "filename":"I4CZ751130382.jpg",
     "hidden":true
    },
    {
     "filename":"I4CZ751130383.jpg",
     "hidden":true
    },
    {
     "filename":"I4CZ751130384.jpg",
     "hidden":true
    },
    {
     "filename":"I4CZ751130385.jpg",
     "hidden":true
    },
    {
     "filename":"I4CZ751130386.jpg",
     "hidden":true
    },
    {
     "filename":"I4CZ751130387.jpg",
     "hidden":true
    },
    {
     "filename":"I4CZ751130388.jpg",
     "hidden":true
    },
    {
     "filename":"I4CZ751130389.jpg",
     "hidden":true
    },
    {
     "filename":"I4CZ751130390.jpg",
     "hidden":true
    },
    {
     "filename":"I4CZ751130391.jpg",
     "hidden":true
    },
    {
     "filename":"I4CZ751130392.jpg",
     "hidden":true
    },
    {
     "filename":"I4CZ751130393.jpg",
     "hidden":true
    },
    {
     "filename":"I4CZ751130394.jpg",
     "hidden":true
    },
    {
     "filename":"I4CZ751130395.jpg",
     "hidden":true
    },
    {
     "filename":"I4CZ751130396.jpg",
     "hidden":true
    },
    {
     "filename":"I4CZ751130397.jpg",
     "hidden":true
    },
    {
     "filename":"I4CZ751130398.jpg",
     "hidden":true
    },
    {
     "filename":"I4CZ751130399.jpg",
     "hidden":true
    },
    {
     "filename":"I4CZ751130400.jpg",
     "hidden":true
    },
    {
     "filename":"I4CZ751130401.jpg",
     "hidden":true
    },
    {
     "filename":"I4CZ751130402.jpg",
     "hidden":true
    },
    {
     "filename":"I4CZ751130403.jpg",
     "hidden":true
    },
    {
     "filename":"I4CZ751130404.jpg",
     "hidden":true
    },
    {
     "filename":"I4CZ751130405.jpg",
     "hidden":true
    },
    {
     "filename":"I4CZ751130406.jpg",
     "hidden":true
    },
    {
     "filename":"I4CZ751130407.jpg",
     "hidden":true
    },
    {
     "filename":"I4CZ751130408.jpg",
     "hidden":true
    },
    {
     "filename":"I4CZ751130409.jpg",
     "hidden":true
    },
    {
     "filename":"I4CZ751130410.jpg",
     "hidden":true
    },
    {
     "filename":"I4CZ751130411.jpg",
     "hidden":true
    },
    {
     "filename":"I4CZ751130412.jpg",
     "hidden":true
    },
    {
     "filename":"I4CZ751130413.jpg",
     "hidden":true
    },
    {
     "filename":"I4CZ751130414.jpg",
     "hidden":true
    },
    {
     "filename":"I4CZ751130415.jpg",
     "hidden":true
    },
    {
     "filename":"I4CZ751130416.jpg",
     "hidden":true
    },
    {
     "filename":"I4CZ751130417.jpg",
     "hidden":true
    },
    {
     "filename":"I4CZ751130418.jpg",
     "hidden":true
    },
    {
     "filename":"I4CZ751130419.jpg",
     "hidden":true
    },
    {
     "filename":"I4CZ751130420.jpg",
     "hidden":true
    },
    {
     "filename":"I4CZ751130421.jpg",
     "hidden":true
    },
    {
     "filename":"I4CZ751130422.jpg",
     "hidden":true
    },
    {
     "filename":"I4CZ751130423.jpg",
     "hidden":true
    },
    {
     "filename":"I4CZ751130424.jpg",
     "hidden":true
    },
    {
     "filename":"I4CZ751130425.jpg",
     "hidden":true
    },
    {
     "filename":"I4CZ751130426.jpg",
     "hidden":true
    },
    {
     "filename":"I4CZ751130427.jpg",
     "hidden":true
    },
    {
     "filename":"I4CZ751130428.jpg",
     "hidden":true
    },
    {
     "filename":"I4CZ751130429.jpg",
     "hidden":true
    },
    {
     "filename":"I4CZ751130430.jpg",
     "hidden":true
    },
    {
     "filename":"I4CZ751130431.jpg",
     "hidden":true
    },
    {
     "filename":"I4CZ751130432.jpg",
     "hidden":true
    },
    {
     "filename":"I4CZ751130433.jpg",
     "hidden":true
    },
    {
     "filename":"I4CZ751130434.jpg",
     "hidden":true
    },
    {
     "filename":"I4CZ751130435.jpg",
     "hidden":true
    },
    {
     "filename":"I4CZ751130436.jpg",
     "hidden":true
    },
    {
     "filename":"I4CZ751130437.jpg",
     "hidden":true
    },
    {
     "filename":"I4CZ751130438.jpg",
     "hidden":true
    }
   ]
  }
 },
 "viewing-direction":"top-to-bottom"
}