{
 "appData":{
  "bvmt":{
   "default-vol-string-lang":"bo",
   "metadata-for-bvmt-ver":"0.1.0"
  }
 },
 "attribution":[
  {
   "@language":"en",
   "@value":"Data provided by Esukhia under the CC0 license"
  }
 ],
 "changes":[
  {
   "message":{
    "@language":"en",
    "@value":"migration from rKTs data"
   },
   "time":"2020-10-03T11:35:30Z",
   "user":"bdu:U1653882847"
  }
 ],
 "default-view":"view1",
 "imggroup":"bdr:I2KG210108",
 "pagination":[
  {
   "id":"pgfolios",
   "type":"folios"
  }
 ],
 "spec-version":"0.1.0",
 "status":"released",
 "view":{
  "view1":{
   "imagelist":[
    {
     "filename":"I2KG2101080001.tif",
     "hidden":true,
     "tags":[
      "T0005"
     ]
    },
    {
     "filename":"I2KG2101080002.tif",
     "hidden":true,
     "tags":[
      "T0005"
     ]
    },
    {
     "filename":"I2KG2101080003.jpg",
     "hidden":true,
     "tags":[
      "T0005"
     ]
    },
    {
     "filename":"I2KG2101080004.jpg",
     "pagination":{
      "pgfolios":{
       "value":"1b"
      }
     }
    },
    {
     "filename":"I2KG2101080005.jpg",
     "pagination":{
      "pgfolios":{
       "value":"2a"
      }
     }
    },
    {
     "filename":"I2KG2101080006.jpg",
     "pagination":{
      "pgfolios":{
       "value":"2b"
      }
     }
    },
    {
     "filename":"I2KG2101080007.jpg",
     "pagination":{
      "pgfolios":{
       "value":"3a"
      }
     }
    },
    {
     "filename":"I2KG2101080008.jpg",
     "pagination":{
      "pgfolios":{
       "value":"3b"
      }
     }
    },
    {
     "filename":"I2KG2101080009.jpg",
     "pagination":{
      "pgfolios":{
       "value":"4a"
      }
     }
    },
    {
     "filename":"I2KG2101080010.jpg",
     "pagination":{
      "pgfolios":{
       "value":"4b"
      }
     }
    },
    {
     "filename":"I2KG2101080011.jpg",
     "pagination":{
      "pgfolios":{
       "value":"5a"
      }
     }
    },
    {
     "filename":"I2KG2101080012.jpg",
     "pagination":{
      "pgfolios":{
       "value":"5b"
      }
     }
    },
    {
     "filename":"I2KG2101080013.jpg",
     "pagination":{
      "pgfolios":{
       "value":"6a"
      }
     }
    },
    {
     "filename":"I2KG2101080014.jpg",
     "pagination":{
      "pgfolios":{
       "value":"6b"
      }
     }
    },
    {
     "filename":"I2KG2101080015.jpg",
     "pagination":{
      "pgfolios":{
       "value":"7a"
      }
     }
    },
    {
     "filename":"I2KG2101080016.jpg",
     "pagination":{
      "pgfolios":{
       "value":"7b"
      }
     }
    },
    {
     "filename":"I2KG2101080017.jpg",
     "pagination":{
      "pgfolios":{
       "value":"8a"
      }
     }
    },
    {
     "filename":"I2KG2101080018.jpg",
     "pagination":{
      "pgfolios":{
       "value":"8b"
      }
     }
    },
    {
     "filename":"I2KG2101080019.jpg",
     "pagination":{
      "pgfolios":{
       "value":"9a"
      }
     }
    },
    {
     "filename":"I2KG2101080020.jpg",
     "pagination":{
      "pgfolios":{
       "value":"9b"
      }
     }
    },
    {
     "filename":"I2KG2101080021.jpg",
     "pagination":{
      "pgfolios":{
       "value":"10a"
      }
     }
    },
    {
     "filename":"I2KG2101080022.jpg",
     "pagination":{
      "pgfolios":{
       "value":"10b"
      }
     }
    },
    {
     "filename":"I2KG2101080023.jpg",
     "pagination":{
      "pgfolios":{
       "value":"11a"
      }
     }
    },
    {
     "filename":"I2KG2101080024.jpg",
     "pagination":{
      "pgfolios":{
       "value":"11b"
      }
     }
    },
    {
     "filename":"I2KG2101080025.jpg",
     "pagination":{
      "pgfolios":{
       "value":"12a"
      }
     }
    },
    {
     "filename":"I2KG2101080026.jpg",
     "pagination":{
      "pgfolios":{
       "value":"12b"
      }
     }
    },
    {
     "filename":"I2KG2101080027.jpg",
     "pagination":{
      "pgfolios":{
       "value":"13a"
      }
     }
    },
    {
     "filename":"I2KG2101080028.jpg",
     "pagination":{
      "pgfolios":{
       "value":"13b"
      }
     }
    },
    {
     "filename":"I2KG2101080029.jpg",
     "pagination":{
      "pgfolios":{
       "value":"14a"
      }
     }
    },
    {
     "filename":"I2KG2101080030.jpg",
     "pagination":{
      "pgfolios":{
       "value":"14b"
      }
     }
    },
    {
     "filename":"I2KG2101080031.jpg",
     "pagination":{
      "pgfolios":{
       "value":"15a"
      }
     }
    },
    {
     "filename":"I2KG2101080032.jpg",
     "pagination":{
      "pgfolios":{
       "value":"15b"
      }
     }
    },
    {
     "filename":"I2KG2101080033.jpg",
     "pagination":{
      "pgfolios":{
       "value":"16a"
      }
     }
    },
    {
     "filename":"I2KG2101080034.jpg",
     "pagination":{
      "pgfolios":{
       "value":"16b"
      }
     }
    },
    {
     "filename":"I2KG2101080035.jpg",
     "pagination":{
      "pgfolios":{
       "value":"17a"
      }
     }
    },
    {
     "filename":"I2KG2101080036.jpg",
     "pagination":{
      "pgfolios":{
       "value":"17b"
      }
     }
    },
    {
     "filename":"I2KG2101080037.jpg",
     "pagination":{
      "pgfolios":{
       "value":"18a"
      }
     }
    },
    {
     "filename":"I2KG2101080038.jpg",
     "pagination":{
      "pgfolios":{
       "value":"18b"
      }
     }
    },
    {
     "filename":"I2KG2101080039.jpg",
     "pagination":{
      "pgfolios":{
       "value":"19a"
      }
     }
    },
    {
     "filename":"I2KG2101080040.jpg",
     "pagination":{
      "pgfolios":{
       "value":"19b"
      }
     }
    },
    {
     "filename":"I2KG2101080041.jpg",
     "pagination":{
      "pgfolios":{
       "value":"20a"
      }
     }
    },
    {
     "filename":"I2KG2101080042.jpg",
     "pagination":{
      "pgfolios":{
       "value":"20b"
      }
     }
    },
    {
     "filename":"I2KG2101080043.jpg",
     "pagination":{
      "pgfolios":{
       "value":"21a"
      }
     }
    },
    {
     "filename":"I2KG2101080044.jpg",
     "pagination":{
      "pgfolios":{
       "value":"21b"
      }
     }
    },
    {
     "filename":"I2KG2101080045.jpg",
     "pagination":{
      "pgfolios":{
       "value":"22a"
      }
     }
    },
    {
     "filename":"I2KG2101080046.jpg",
     "pagination":{
      "pgfolios":{
       "value":"22b"
      }
     }
    },
    {
     "filename":"I2KG2101080047.jpg",
     "pagination":{
      "pgfolios":{
       "value":"23a"
      }
     }
    },
    {
     "filename":"I2KG2101080048.jpg",
     "pagination":{
      "pgfolios":{
       "value":"23b"
      }
     }
    },
    {
     "filename":"I2KG2101080049.jpg",
     "pagination":{
      "pgfolios":{
       "value":"24a"
      }
     }
    },
    {
     "filename":"I2KG2101080050.jpg",
     "pagination":{
      "pgfolios":{
       "value":"24b"
      }
     }
    },
    {
     "filename":"I2KG2101080051.jpg",
     "pagination":{
      "pgfolios":{
       "value":"25a"
      }
     }
    },
    {
     "filename":"I2KG2101080052.jpg",
     "pagination":{
      "pgfolios":{
       "value":"25b"
      }
     }
    },
    {
     "filename":"I2KG2101080053.jpg",
     "pagination":{
      "pgfolios":{
       "value":"26a"
      }
     }
    },
    {
     "filename":"I2KG2101080054.jpg",
     "pagination":{
      "pgfolios":{
       "value":"26b"
      }
     }
    },
    {
     "filename":"I2KG2101080055.jpg",
     "pagination":{
      "pgfolios":{
       "value":"27a"
      }
     }
    },
    {
     "filename":"I2KG2101080056.jpg",
     "pagination":{
      "pgfolios":{
       "value":"27b"
      }
     }
    },
    {
     "filename":"I2KG2101080057.jpg",
     "pagination":{
      "pgfolios":{
       "value":"28a"
      }
     }
    },
    {
     "filename":"I2KG2101080058.jpg",
     "pagination":{
      "pgfolios":{
       "value":"28b"
      }
     }
    },
    {
     "filename":"I2KG2101080059.jpg",
     "pagination":{
      "pgfolios":{
       "value":"29a"
      }
     }
    },
    {
     "filename":"I2KG2101080060.jpg",
     "pagination":{
      "pgfolios":{
       "value":"29b"
      }
     }
    },
    {
     "filename":"I2KG2101080061.jpg",
     "pagination":{
      "pgfolios":{
       "value":"30a"
      }
     }
    },
    {
     "filename":"I2KG2101080062.jpg",
     "pagination":{
      "pgfolios":{
       "value":"30b"
      }
     }
    },
    {
     "filename":"I2KG2101080063.jpg",
     "pagination":{
      "pgfolios":{
       "value":"31a"
      }
     }
    },
    {
     "filename":"I2KG2101080064.jpg",
     "pagination":{
      "pgfolios":{
       "value":"31b"
      }
     }
    },
    {
     "filename":"I2KG2101080065.jpg",
     "pagination":{
      "pgfolios":{
       "value":"32a"
      }
     }
    },
    {
     "filename":"I2KG2101080066.jpg",
     "pagination":{
      "pgfolios":{
       "value":"32b"
      }
     }
    },
    {
     "filename":"I2KG2101080067.jpg",
     "pagination":{
      "pgfolios":{
       "value":"33a"
      }
     }
    },
    {
     "filename":"I2KG2101080068.jpg",
     "pagination":{
      "pgfolios":{
       "value":"33b"
      }
     }
    },
    {
     "filename":"I2KG2101080069.jpg",
     "pagination":{
      "pgfolios":{
       "value":"34a"
      }
     }
    },
    {
     "filename":"I2KG2101080070.jpg",
     "pagination":{
      "pgfolios":{
       "value":"34b"
      }
     }
    },
    {
     "filename":"I2KG2101080071.jpg",
     "pagination":{
      "pgfolios":{
       "value":"35a"
      }
     }
    },
    {
     "filename":"I2KG2101080072.jpg",
     "pagination":{
      "pgfolios":{
       "value":"35b"
      }
     }
    },
    {
     "filename":"I2KG2101080073.jpg",
     "pagination":{
      "pgfolios":{
       "value":"36a"
      }
     }
    },
    {
     "filename":"I2KG2101080074.jpg",
     "pagination":{
      "pgfolios":{
       "value":"36b"
      }
     }
    },
    {
     "filename":"I2KG2101080075.jpg",
     "pagination":{
      "pgfolios":{
       "value":"37a"
      }
     }
    },
    {
     "filename":"I2KG2101080076.jpg",
     "pagination":{
      "pgfolios":{
       "value":"37b"
      }
     }
    },
    {
     "filename":"I2KG2101080077.jpg",
     "pagination":{
      "pgfolios":{
       "value":"38a"
      }
     }
    },
    {
     "filename":"I2KG2101080078.jpg",
     "pagination":{
      "pgfolios":{
       "value":"38b"
      }
     }
    },
    {
     "filename":"I2KG2101080079.jpg",
     "pagination":{
      "pgfolios":{
       "value":"39a"
      }
     }
    },
    {
     "filename":"I2KG2101080080.jpg",
     "pagination":{
      "pgfolios":{
       "value":"39b"
      }
     }
    },
    {
     "filename":"I2KG2101080081.jpg",
     "pagination":{
      "pgfolios":{
       "value":"40a"
      }
     }
    },
    {
     "filename":"I2KG2101080082.jpg",
     "pagination":{
      "pgfolios":{
       "value":"40b"
      }
     }
    },
    {
     "filename":"I2KG2101080083.jpg",
     "pagination":{
      "pgfolios":{
       "value":"41a"
      }
     }
    },
    {
     "filename":"I2KG2101080084.jpg",
     "pagination":{
      "pgfolios":{
       "value":"41b"
      }
     }
    },
    {
     "filename":"I2KG2101080085.jpg",
     "pagination":{
      "pgfolios":{
       "value":"42a"
      }
     }
    },
    {
     "filename":"I2KG2101080086.jpg",
     "pagination":{
      "pgfolios":{
       "value":"42b"
      }
     }
    },
    {
     "filename":"I2KG2101080087.jpg",
     "pagination":{
      "pgfolios":{
       "value":"43a"
      }
     }
    },
    {
     "filename":"I2KG2101080088.jpg",
     "pagination":{
      "pgfolios":{
       "value":"43b"
      }
     }
    },
    {
     "filename":"I2KG2101080089.jpg",
     "pagination":{
      "pgfolios":{
       "value":"44a"
      }
     }
    },
    {
     "filename":"I2KG2101080090.jpg",
     "pagination":{
      "pgfolios":{
       "value":"44b"
      }
     }
    },
    {
     "filename":"I2KG2101080091.jpg",
     "pagination":{
      "pgfolios":{
       "value":"45a"
      }
     }
    },
    {
     "filename":"I2KG2101080092.jpg",
     "pagination":{
      "pgfolios":{
       "value":"45b"
      }
     }
    },
    {
     "filename":"I2KG2101080093.jpg",
     "pagination":{
      "pgfolios":{
       "value":"46a"
      }
     }
    },
    {
     "filename":"I2KG2101080094.jpg",
     "pagination":{
      "pgfolios":{
       "value":"46b"
      }
     }
    },
    {
     "filename":"I2KG2101080095.jpg",
     "pagination":{
      "pgfolios":{
       "value":"47a"
      }
     }
    },
    {
     "filename":"I2KG2101080096.jpg",
     "pagination":{
      "pgfolios":{
       "value":"47b"
      }
     }
    },
    {
     "filename":"I2KG2101080097.jpg",
     "pagination":{
      "pgfolios":{
       "value":"48a"
      }
     }
    },
    {
     "filename":"I2KG2101080098.jpg",
     "pagination":{
      "pgfolios":{
       "value":"48b"
      }
     }
    },
    {
     "filename":"I2KG2101080099.jpg",
     "pagination":{
      "pgfolios":{
       "value":"49a"
      }
     }
    },
    {
     "filename":"I2KG2101080100.jpg",
     "pagination":{
      "pgfolios":{
       "value":"49b"
      }
     }
    },
    {
     "filename":"I2KG2101080101.jpg",
     "pagination":{
      "pgfolios":{
       "value":"50a"
      }
     }
    },
    {
     "filename":"I2KG2101080102.jpg",
     "pagination":{
      "pgfolios":{
       "value":"50b"
      }
     }
    },
    {
     "filename":"I2KG2101080103.jpg",
     "pagination":{
      "pgfolios":{
       "value":"51a"
      }
     }
    },
    {
     "filename":"I2KG2101080104.jpg",
     "pagination":{
      "pgfolios":{
       "value":"51b"
      }
     }
    },
    {
     "filename":"I2KG2101080105.jpg",
     "pagination":{
      "pgfolios":{
       "value":"52a"
      }
     }
    },
    {
     "filename":"I2KG2101080106.jpg",
     "pagination":{
      "pgfolios":{
       "value":"52b"
      }
     }
    },
    {
     "filename":"I2KG2101080107.jpg",
     "pagination":{
      "pgfolios":{
       "value":"53a"
      }
     }
    },
    {
     "filename":"I2KG2101080108.jpg",
     "pagination":{
      "pgfolios":{
       "value":"53b"
      }
     }
    },
    {
     "filename":"I2KG2101080109.jpg",
     "pagination":{
      "pgfolios":{
       "value":"54a"
      }
     }
    },
    {
     "filename":"I2KG2101080110.jpg",
     "pagination":{
      "pgfolios":{
       "value":"54b"
      }
     }
    },
    {
     "filename":"I2KG2101080111.jpg",
     "pagination":{
      "pgfolios":{
       "value":"55a"
      }
     }
    },
    {
     "filename":"I2KG2101080112.jpg",
     "pagination":{
      "pgfolios":{
       "value":"55b"
      }
     }
    },
    {
     "filename":"I2KG2101080113.jpg",
     "pagination":{
      "pgfolios":{
       "value":"56a"
      }
     }
    },
    {
     "filename":"I2KG2101080114.jpg",
     "pagination":{
      "pgfolios":{
       "value":"56b"
      }
     }
    },
    {
     "filename":"I2KG2101080115.jpg",
     "pagination":{
      "pgfolios":{
       "value":"57a"
      }
     }
    },
    {
     "filename":"I2KG2101080116.jpg",
     "pagination":{
      "pgfolios":{
       "value":"57b"
      }
     }
    },
    {
     "filename":"I2KG2101080117.jpg",
     "pagination":{
      "pgfolios":{
       "value":"58a"
      }
     }
    },
    {
     "filename":"I2KG2101080118.jpg",
     "pagination":{
      "pgfolios":{
       "value":"58b"
      }
     }
    },
    {
     "filename":"I2KG2101080119.jpg",
     "pagination":{
      "pgfolios":{
       "value":"59a"
      }
     }
    },
    {
     "filename":"I2KG2101080120.jpg",
     "pagination":{
      "pgfolios":{
       "value":"59b"
      }
     }
    },
    {
     "filename":"I2KG2101080121.jpg",
     "pagination":{
      "pgfolios":{
       "value":"60a"
      }
     }
    },
    {
     "filename":"I2KG2101080122.jpg",
     "pagination":{
      "pgfolios":{
       "value":"60b"
      }
     }
    },
    {
     "filename":"I2KG2101080123.jpg",
     "pagination":{
      "pgfolios":{
       "value":"61a"
      }
     }
    },
    {
     "filename":"I2KG2101080124.jpg",
     "pagination":{
      "pgfolios":{
       "value":"61b"
      }
     }
    },
    {
     "filename":"I2KG2101080125.jpg",
     "pagination":{
      "pgfolios":{
       "value":"62a"
      }
     }
    },
    {
     "filename":"I2KG2101080126.jpg",
     "pagination":{
      "pgfolios":{
       "value":"62b"
      }
     }
    },
    {
     "filename":"I2KG2101080127.jpg",
     "pagination":{
      "pgfolios":{
       "value":"63a"
      }
     }
    },
    {
     "filename":"I2KG2101080128.jpg",
     "pagination":{
      "pgfolios":{
       "value":"63b"
      }
     }
    },
    {
     "filename":"I2KG2101080129.jpg",
     "pagination":{
      "pgfolios":{
       "value":"64a"
      }
     }
    },
    {
     "filename":"I2KG2101080130.jpg",
     "pagination":{
      "pgfolios":{
       "value":"64b"
      }
     }
    },
    {
     "filename":"I2KG2101080131.jpg",
     "pagination":{
      "pgfolios":{
       "value":"65a"
      }
     }
    },
    {
     "filename":"I2KG2101080132.jpg",
     "pagination":{
      "pgfolios":{
       "value":"65b"
      }
     }
    },
    {
     "filename":"I2KG2101080133.jpg",
     "pagination":{
      "pgfolios":{
       "value":"66a"
      }
     }
    },
    {
     "filename":"I2KG2101080134.jpg",
     "pagination":{
      "pgfolios":{
       "value":"66b"
      }
     }
    },
    {
     "filename":"I2KG2101080135.jpg",
     "pagination":{
      "pgfolios":{
       "value":"67a"
      }
     }
    },
    {
     "filename":"I2KG2101080136.jpg",
     "pagination":{
      "pgfolios":{
       "value":"67b"
      }
     }
    },
    {
     "filename":"I2KG2101080137.jpg",
     "pagination":{
      "pgfolios":{
       "value":"68a"
      }
     }
    },
    {
     "filename":"I2KG2101080138.jpg",
     "pagination":{
      "pgfolios":{
       "value":"68b"
      }
     }
    },
    {
     "filename":"I2KG2101080139.jpg",
     "pagination":{
      "pgfolios":{
       "value":"69a"
      }
     }
    },
    {
     "filename":"I2KG2101080140.jpg",
     "pagination":{
      "pgfolios":{
       "value":"69b"
      }
     }
    },
    {
     "filename":"I2KG2101080141.jpg",
     "pagination":{
      "pgfolios":{
       "value":"70a"
      }
     }
    },
    {
     "filename":"I2KG2101080142.jpg",
     "pagination":{
      "pgfolios":{
       "value":"70b"
      }
     }
    },
    {
     "filename":"I2KG2101080143.jpg",
     "pagination":{
      "pgfolios":{
       "value":"71a"
      }
     }
    },
    {
     "filename":"I2KG2101080144.jpg",
     "pagination":{
      "pgfolios":{
       "value":"71b"
      }
     }
    },
    {
     "filename":"I2KG2101080145.jpg",
     "pagination":{
      "pgfolios":{
       "value":"72a"
      }
     }
    },
    {
     "filename":"I2KG2101080146.jpg",
     "pagination":{
      "pgfolios":{
       "value":"72b"
      }
     }
    },
    {
     "filename":"I2KG2101080147.jpg",
     "pagination":{
      "pgfolios":{
       "value":"73a"
      }
     }
    },
    {
     "filename":"I2KG2101080148.jpg",
     "pagination":{
      "pgfolios":{
       "value":"73b"
      }
     }
    },
    {
     "filename":"I2KG2101080149.jpg",
     "pagination":{
      "pgfolios":{
       "value":"74a"
      }
     }
    },
    {
     "filename":"I2KG2101080150.jpg",
     "pagination":{
      "pgfolios":{
       "value":"74b"
      }
     }
    },
    {
     "filename":"I2KG2101080151.jpg",
     "pagination":{
      "pgfolios":{
       "value":"75a"
      }
     }
    },
    {
     "filename":"I2KG2101080152.jpg",
     "pagination":{
      "pgfolios":{
       "value":"75b"
      }
     }
    },
    {
     "filename":"I2KG2101080153.jpg",
     "pagination":{
      "pgfolios":{
       "value":"76a"
      }
     }
    },
    {
     "filename":"I2KG2101080154.jpg",
     "pagination":{
      "pgfolios":{
       "value":"76b"
      }
     }
    },
    {
     "filename":"I2KG2101080155.jpg",
     "pagination":{
      "pgfolios":{
       "value":"77a"
      }
     }
    },
    {
     "filename":"I2KG2101080156.jpg",
     "pagination":{
      "pgfolios":{
       "value":"77b"
      }
     }
    },
    {
     "filename":"I2KG2101080157.jpg",
     "pagination":{
      "pgfolios":{
       "value":"78a"
      }
     }
    },
    {
     "filename":"I2KG2101080158.jpg",
     "pagination":{
      "pgfolios":{
       "value":"78b"
      }
     }
    },
    {
     "filename":"I2KG2101080159.jpg",
     "pagination":{
      "pgfolios":{
       "value":"79a"
      }
     }
    },
    {
     "filename":"I2KG2101080160.jpg",
     "pagination":{
      "pgfolios":{
       "value":"79b"
      }
     }
    },
    {
     "filename":"I2KG2101080161.jpg",
     "pagination":{
      "pgfolios":{
       "value":"80a"
      }
     }
    },
    {
     "filename":"I2KG2101080162.jpg",
     "pagination":{
      "pgfolios":{
       "value":"80b"
      }
     }
    },
    {
     "filename":"I2KG2101080163.jpg",
     "pagination":{
      "pgfolios":{
       "value":"81a"
      }
     }
    },
    {
     "filename":"I2KG2101080164.jpg",
     "pagination":{
      "pgfolios":{
       "value":"81b"
      }
     }
    },
    {
     "filename":"I2KG2101080165.jpg",
     "pagination":{
      "pgfolios":{
       "value":"82a"
      }
     }
    },
    {
     "filename":"I2KG2101080166.jpg",
     "pagination":{
      "pgfolios":{
       "value":"82b"
      }
     }
    },
    {
     "filename":"I2KG2101080167.jpg",
     "pagination":{
      "pgfolios":{
       "value":"83a"
      }
     }
    },
    {
     "filename":"I2KG2101080168.jpg",
     "pagination":{
      "pgfolios":{
       "value":"83b"
      }
     }
    },
    {
     "filename":"I2KG2101080169.jpg",
     "pagination":{
      "pgfolios":{
       "value":"84a"
      }
     }
    },
    {
     "filename":"I2KG2101080170.jpg",
     "pagination":{
      "pgfolios":{
       "value":"84b"
      }
     }
    },
    {
     "filename":"I2KG2101080171.jpg",
     "pagination":{
      "pgfolios":{
       "value":"85a"
      }
     }
    },
    {
     "filename":"I2KG2101080172.jpg",
     "pagination":{
      "pgfolios":{
       "value":"85b"
      }
     }
    },
    {
     "filename":"I2KG2101080173.jpg",
     "pagination":{
      "pgfolios":{
       "value":"86a"
      }
     }
    },
    {
     "filename":"I2KG2101080174.jpg",
     "pagination":{
      "pgfolios":{
       "value":"86b"
      }
     }
    },
    {
     "filename":"I2KG2101080175.jpg",
     "pagination":{
      "pgfolios":{
       "value":"87a"
      }
     }
    },
    {
     "filename":"I2KG2101080176.jpg",
     "pagination":{
      "pgfolios":{
       "value":"87b"
      }
     }
    },
    {
     "filename":"I2KG2101080177.jpg",
     "pagination":{
      "pgfolios":{
       "value":"88a"
      }
     }
    },
    {
     "filename":"I2KG2101080178.jpg",
     "pagination":{
      "pgfolios":{
       "value":"88b"
      }
     }
    },
    {
     "filename":"I2KG2101080179.jpg",
     "pagination":{
      "pgfolios":{
       "value":"89a"
      }
     }
    },
    {
     "filename":"I2KG2101080180.jpg",
     "pagination":{
      "pgfolios":{
       "value":"89b"
      }
     }
    },
    {
     "filename":"I2KG2101080181.jpg",
     "pagination":{
      "pgfolios":{
       "value":"90a"
      }
     }
    },
    {
     "filename":"I2KG2101080182.jpg",
     "pagination":{
      "pgfolios":{
       "value":"90b"
      }
     }
    },
    {
     "filename":"I2KG2101080183.jpg",
     "pagination":{
      "pgfolios":{
       "value":"91a"
      }
     }
    },
    {
     "filename":"I2KG2101080184.jpg",
     "pagination":{
      "pgfolios":{
       "value":"91b"
      }
     }
    },
    {
     "filename":"I2KG2101080185.jpg",
     "pagination":{
      "pgfolios":{
       "value":"92a"
      }
     }
    },
    {
     "filename":"I2KG2101080186.jpg",
     "pagination":{
      "pgfolios":{
       "value":"92b"
      }
     }
    },
    {
     "filename":"I2KG2101080187.jpg",
     "pagination":{
      "pgfolios":{
       "value":"93a"
      }
     }
    },
    {
     "filename":"I2KG2101080188.jpg",
     "pagination":{
      "pgfolios":{
       "value":"93b"
      }
     }
    },
    {
     "filename":"I2KG2101080189.jpg",
     "pagination":{
      "pgfolios":{
       "value":"94a"
      }
     }
    },
    {
     "filename":"I2KG2101080190.jpg",
     "pagination":{
      "pgfolios":{
       "value":"94b"
      }
     }
    },
    {
     "filename":"I2KG2101080191.jpg",
     "pagination":{
      "pgfolios":{
       "value":"95a"
      }
     }
    },
    {
     "filename":"I2KG2101080192.jpg",
     "pagination":{
      "pgfolios":{
       "value":"95b"
      }
     }
    },
    {
     "filename":"I2KG2101080193.jpg",
     "pagination":{
      "pgfolios":{
       "value":"96a"
      }
     }
    },
    {
     "filename":"I2KG2101080194.jpg",
     "pagination":{
      "pgfolios":{
       "value":"96b"
      }
     }
    },
    {
     "filename":"I2KG2101080195.jpg",
     "pagination":{
      "pgfolios":{
       "value":"97a"
      }
     }
    },
    {
     "filename":"I2KG2101080196.jpg",
     "pagination":{
      "pgfolios":{
       "value":"97b"
      }
     }
    },
    {
     "filename":"I2KG2101080197.jpg",
     "pagination":{
      "pgfolios":{
       "value":"98a"
      }
     }
    },
    {
     "filename":"I2KG2101080198.jpg",
     "pagination":{
      "pgfolios":{
       "value":"98b"
      }
     }
    },
    {
     "filename":"I2KG2101080199.jpg",
     "pagination":{
      "pgfolios":{
       "value":"99a"
      }
     }
    },
    {
     "filename":"I2KG2101080200.jpg",
     "pagination":{
      "pgfolios":{
       "value":"99b"
      }
     }
    },
    {
     "filename":"I2KG2101080201.jpg",
     "pagination":{
      "pgfolios":{
       "value":"100a"
      }
     }
    },
    {
     "filename":"I2KG2101080202.jpg",
     "pagination":{
      "pgfolios":{
       "value":"100b"
      }
     }
    },
    {
     "filename":"I2KG2101080203.jpg",
     "pagination":{
      "pgfolios":{
       "value":"101a"
      }
     }
    },
    {
     "filename":"I2KG2101080204.jpg",
     "pagination":{
      "pgfolios":{
       "value":"101b"
      }
     }
    },
    {
     "filename":"I2KG2101080205.jpg",
     "pagination":{
      "pgfolios":{
       "value":"102a"
      }
     }
    },
    {
     "filename":"I2KG2101080206.jpg",
     "pagination":{
      "pgfolios":{
       "value":"102b"
      }
     }
    },
    {
     "filename":"I2KG2101080207.jpg",
     "pagination":{
      "pgfolios":{
       "value":"103a"
      }
     }
    },
    {
     "filename":"I2KG2101080208.jpg",
     "pagination":{
      "pgfolios":{
       "value":"103b"
      }
     }
    },
    {
     "filename":"I2KG2101080209.jpg",
     "pagination":{
      "pgfolios":{
       "value":"104a"
      }
     }
    },
    {
     "filename":"I2KG2101080210.jpg",
     "pagination":{
      "pgfolios":{
       "value":"104b"
      }
     }
    },
    {
     "filename":"I2KG2101080211.jpg",
     "pagination":{
      "pgfolios":{
       "value":"105a"
      }
     }
    },
    {
     "filename":"I2KG2101080212.jpg",
     "pagination":{
      "pgfolios":{
       "value":"105b"
      }
     }
    },
    {
     "filename":"I2KG2101080213.jpg",
     "pagination":{
      "pgfolios":{
       "value":"106a"
      }
     }
    },
    {
     "filename":"I2KG2101080214.jpg",
     "pagination":{
      "pgfolios":{
       "value":"106b"
      }
     }
    },
    {
     "filename":"I2KG2101080215.jpg",
     "pagination":{
      "pgfolios":{
       "value":"107a"
      }
     }
    },
    {
     "filename":"I2KG2101080216.jpg",
     "pagination":{
      "pgfolios":{
       "value":"107b"
      }
     }
    },
    {
     "filename":"I2KG2101080217.jpg",
     "pagination":{
      "pgfolios":{
       "value":"108a"
      }
     }
    },
    {
     "filename":"I2KG2101080218.jpg",
     "pagination":{
      "pgfolios":{
       "value":"108b"
      }
     }
    },
    {
     "filename":"I2KG2101080219.jpg",
     "pagination":{
      "pgfolios":{
       "value":"109a"
      }
     }
    },
    {
     "filename":"I2KG2101080220.jpg",
     "pagination":{
      "pgfolios":{
       "value":"109b"
      }
     }
    },
    {
     "filename":"I2KG2101080221.jpg",
     "pagination":{
      "pgfolios":{
       "value":"110a"
      }
     }
    },
    {
     "filename":"I2KG2101080222.jpg",
     "pagination":{
      "pgfolios":{
       "value":"110b"
      }
     }
    },
    {
     "filename":"I2KG2101080223.jpg",
     "pagination":{
      "pgfolios":{
       "value":"111a"
      }
     }
    },
    {
     "filename":"I2KG2101080224.jpg",
     "pagination":{
      "pgfolios":{
       "value":"111b"
      }
     }
    },
    {
     "filename":"I2KG2101080225.jpg",
     "pagination":{
      "pgfolios":{
       "value":"112a"
      }
     }
    },
    {
     "filename":"I2KG2101080226.jpg",
     "pagination":{
      "pgfolios":{
       "value":"112b"
      }
     }
    },
    {
     "filename":"I2KG2101080227.jpg",
     "pagination":{
      "pgfolios":{
       "value":"113a"
      }
     }
    },
    {
     "filename":"I2KG2101080228.jpg",
     "pagination":{
      "pgfolios":{
       "value":"113b"
      }
     }
    },
    {
     "filename":"I2KG2101080229.jpg",
     "pagination":{
      "pgfolios":{
       "value":"114a"
      }
     }
    },
    {
     "filename":"I2KG2101080230.jpg",
     "pagination":{
      "pgfolios":{
       "value":"114b"
      }
     }
    },
    {
     "filename":"I2KG2101080231.jpg",
     "pagination":{
      "pgfolios":{
       "value":"115a"
      }
     }
    },
    {
     "filename":"I2KG2101080232.jpg",
     "pagination":{
      "pgfolios":{
       "value":"115b"
      }
     }
    },
    {
     "filename":"I2KG2101080233.jpg",
     "pagination":{
      "pgfolios":{
       "value":"116a"
      }
     }
    },
    {
     "filename":"I2KG2101080234.jpg",
     "pagination":{
      "pgfolios":{
       "value":"116b"
      }
     }
    },
    {
     "filename":"I2KG2101080235.jpg",
     "pagination":{
      "pgfolios":{
       "value":"117a"
      }
     }
    },
    {
     "filename":"I2KG2101080236.jpg",
     "pagination":{
      "pgfolios":{
       "value":"117b"
      }
     }
    },
    {
     "filename":"I2KG2101080237.jpg",
     "pagination":{
      "pgfolios":{
       "value":"118a"
      }
     }
    },
    {
     "filename":"I2KG2101080238.jpg",
     "pagination":{
      "pgfolios":{
       "value":"118b"
      }
     }
    },
    {
     "filename":"I2KG2101080239.jpg",
     "pagination":{
      "pgfolios":{
       "value":"119a"
      }
     }
    },
    {
     "filename":"I2KG2101080240.jpg",
     "pagination":{
      "pgfolios":{
       "value":"119b"
      }
     }
    },
    {
     "filename":"I2KG2101080241.jpg",
     "pagination":{
      "pgfolios":{
       "value":"120a"
      }
     }
    },
    {
     "filename":"I2KG2101080242.jpg",
     "pagination":{
      "pgfolios":{
       "value":"120b"
      }
     }
    },
    {
     "filename":"I2KG2101080243.jpg",
     "pagination":{
      "pgfolios":{
       "value":"121a"
      }
     }
    },
    {
     "filename":"I2KG2101080244.jpg",
     "pagination":{
      "pgfolios":{
       "value":"121b"
      }
     }
    },
    {
     "filename":"I2KG2101080245.jpg",
     "pagination":{
      "pgfolios":{
       "value":"122a"
      }
     }
    },
    {
     "filename":"I2KG2101080246.jpg",
     "pagination":{
      "pgfolios":{
       "value":"122b"
      }
     }
    },
    {
     "filename":"I2KG2101080247.jpg",
     "pagination":{
      "pgfolios":{
       "value":"123a"
      }
     }
    },
    {
     "filename":"I2KG2101080248.jpg",
     "pagination":{
      "pgfolios":{
       "value":"123b"
      }
     }
    },
    {
     "filename":"I2KG2101080249.jpg",
     "pagination":{
      "pgfolios":{
       "value":"124a"
      }
     }
    },
    {
     "filename":"I2KG2101080250.jpg",
     "pagination":{
      "pgfolios":{
       "value":"124b"
      }
     }
    },
    {
     "filename":"I2KG2101080251.jpg",
     "pagination":{
      "pgfolios":{
       "value":"125a"
      }
     }
    },
    {
     "filename":"I2KG2101080252.jpg",
     "pagination":{
      "pgfolios":{
       "value":"125b"
      }
     }
    },
    {
     "filename":"I2KG2101080253.jpg",
     "pagination":{
      "pgfolios":{
       "value":"126a"
      }
     }
    },
    {
     "filename":"I2KG2101080254.jpg",
     "pagination":{
      "pgfolios":{
       "value":"126b"
      }
     }
    },
    {
     "filename":"I2KG2101080255.jpg",
     "pagination":{
      "pgfolios":{
       "value":"127a"
      }
     }
    },
    {
     "filename":"I2KG2101080256.jpg",
     "pagination":{
      "pgfolios":{
       "value":"127b"
      }
     }
    },
    {
     "filename":"I2KG2101080257.jpg",
     "pagination":{
      "pgfolios":{
       "value":"128a"
      }
     }
    },
    {
     "filename":"I2KG2101080258.jpg",
     "pagination":{
      "pgfolios":{
       "value":"128b"
      }
     }
    },
    {
     "filename":"I2KG2101080259.jpg",
     "pagination":{
      "pgfolios":{
       "value":"129a"
      }
     }
    },
    {
     "filename":"I2KG2101080260.jpg",
     "pagination":{
      "pgfolios":{
       "value":"129b"
      }
     }
    },
    {
     "filename":"I2KG2101080261.jpg",
     "pagination":{
      "pgfolios":{
       "value":"130a"
      }
     }
    },
    {
     "filename":"I2KG2101080262.jpg",
     "pagination":{
      "pgfolios":{
       "value":"130b"
      }
     }
    },
    {
     "filename":"I2KG2101080263.jpg",
     "pagination":{
      "pgfolios":{
       "value":"131a"
      }
     }
    },
    {
     "filename":"I2KG2101080264.jpg",
     "pagination":{
      "pgfolios":{
       "value":"131b"
      }
     }
    },
    {
     "filename":"I2KG2101080265.jpg",
     "pagination":{
      "pgfolios":{
       "value":"132a"
      }
     }
    },
    {
     "filename":"I2KG2101080266.jpg",
     "pagination":{
      "pgfolios":{
       "value":"132b"
      }
     }
    },
    {
     "filename":"I2KG2101080267.jpg",
     "pagination":{
      "pgfolios":{
       "value":"133a"
      }
     }
    },
    {
     "filename":"I2KG2101080268.jpg",
     "pagination":{
      "pgfolios":{
       "value":"133b"
      }
     }
    },
    {
     "filename":"I2KG2101080269.jpg",
     "pagination":{
      "pgfolios":{
       "value":"134a"
      }
     }
    },
    {
     "filename":"I2KG2101080270.jpg",
     "pagination":{
      "pgfolios":{
       "value":"134b"
      }
     }
    },
    {
     "filename":"I2KG2101080271.jpg",
     "pagination":{
      "pgfolios":{
       "value":"135a"
      }
     }
    },
    {
     "filename":"I2KG2101080272.jpg",
     "pagination":{
      "pgfolios":{
       "value":"135b"
      }
     }
    },
    {
     "filename":"I2KG2101080273.jpg",
     "pagination":{
      "pgfolios":{
       "value":"136a"
      }
     }
    },
    {
     "filename":"I2KG2101080274.jpg",
     "pagination":{
      "pgfolios":{
       "value":"136b"
      }
     }
    },
    {
     "filename":"I2KG2101080275.jpg",
     "pagination":{
      "pgfolios":{
       "value":"137a"
      }
     }
    },
    {
     "filename":"I2KG2101080276.jpg",
     "pagination":{
      "pgfolios":{
       "value":"137b"
      }
     }
    },
    {
     "filename":"I2KG2101080277.jpg",
     "pagination":{
      "pgfolios":{
       "value":"138a"
      }
     }
    },
    {
     "filename":"I2KG2101080278.jpg",
     "pagination":{
      "pgfolios":{
       "value":"138b"
      }
     }
    },
    {
     "filename":"I2KG2101080279.jpg",
     "pagination":{
      "pgfolios":{
       "value":"139a"
      }
     }
    },
    {
     "filename":"I2KG2101080280.jpg",
     "pagination":{
      "pgfolios":{
       "value":"139b"
      }
     }
    },
    {
     "filename":"I2KG2101080281.jpg",
     "pagination":{
      "pgfolios":{
       "value":"140a"
      }
     }
    },
    {
     "filename":"I2KG2101080282.jpg",
     "pagination":{
      "pgfolios":{
       "value":"140b"
      }
     }
    },
    {
     "filename":"I2KG2101080283.jpg",
     "pagination":{
      "pgfolios":{
       "value":"141a"
      }
     }
    },
    {
     "filename":"I2KG2101080284.jpg",
     "pagination":{
      "pgfolios":{
       "value":"141b"
      }
     }
    },
    {
     "filename":"I2KG2101080285.jpg",
     "pagination":{
      "pgfolios":{
       "value":"142a"
      }
     }
    },
    {
     "filename":"I2KG2101080286.jpg",
     "pagination":{
      "pgfolios":{
       "value":"142b"
      }
     }
    },
    {
     "filename":"I2KG2101080287.jpg",
     "pagination":{
      "pgfolios":{
       "value":"143a"
      }
     }
    },
    {
     "filename":"I2KG2101080288.jpg",
     "pagination":{
      "pgfolios":{
       "value":"143b"
      }
     }
    },
    {
     "filename":"I2KG2101080289.jpg",
     "pagination":{
      "pgfolios":{
       "value":"144a"
      }
     }
    },
    {
     "filename":"I2KG2101080290.jpg",
     "pagination":{
      "pgfolios":{
       "value":"144b"
      }
     }
    },
    {
     "filename":"I2KG2101080291.jpg",
     "pagination":{
      "pgfolios":{
       "value":"145a"
      }
     }
    },
    {
     "filename":"I2KG2101080292.jpg",
     "pagination":{
      "pgfolios":{
       "value":"145b"
      }
     }
    },
    {
     "filename":"I2KG2101080293.jpg",
     "pagination":{
      "pgfolios":{
       "value":"146a"
      }
     }
    },
    {
     "filename":"I2KG2101080294.jpg",
     "pagination":{
      "pgfolios":{
       "value":"146b"
      }
     }
    },
    {
     "filename":"I2KG2101080295.jpg",
     "pagination":{
      "pgfolios":{
       "value":"147a"
      }
     }
    },
    {
     "filename":"I2KG2101080296.jpg",
     "pagination":{
      "pgfolios":{
       "value":"147b"
      }
     }
    },
    {
     "filename":"I2KG2101080297.jpg",
     "pagination":{
      "pgfolios":{
       "value":"148a"
      }
     }
    },
    {
     "filename":"I2KG2101080298.jpg",
     "pagination":{
      "pgfolios":{
       "value":"148b"
      }
     }
    },
    {
     "filename":"I2KG2101080299.jpg",
     "pagination":{
      "pgfolios":{
       "value":"149a"
      }
     }
    },
    {
     "filename":"I2KG2101080300.jpg",
     "pagination":{
      "pgfolios":{
       "value":"149b"
      }
     }
    },
    {
     "filename":"I2KG2101080301.jpg",
     "pagination":{
      "pgfolios":{
       "value":"150a"
      }
     }
    },
    {
     "filename":"I2KG2101080302.jpg",
     "pagination":{
      "pgfolios":{
       "value":"150b"
      }
     }
    },
    {
     "filename":"I2KG2101080303.jpg",
     "pagination":{
      "pgfolios":{
       "value":"151a"
      }
     }
    },
    {
     "filename":"I2KG2101080304.jpg",
     "pagination":{
      "pgfolios":{
       "value":"151b"
      }
     }
    },
    {
     "filename":"I2KG2101080305.jpg",
     "pagination":{
      "pgfolios":{
       "value":"152a"
      }
     }
    },
    {
     "filename":"I2KG2101080306.jpg",
     "pagination":{
      "pgfolios":{
       "value":"152b"
      }
     }
    },
    {
     "filename":"I2KG2101080307.jpg",
     "pagination":{
      "pgfolios":{
       "value":"153a"
      }
     }
    },
    {
     "filename":"I2KG2101080308.jpg",
     "pagination":{
      "pgfolios":{
       "value":"153b"
      }
     }
    },
    {
     "filename":"I2KG2101080309.jpg",
     "pagination":{
      "pgfolios":{
       "value":"154a"
      }
     }
    },
    {
     "filename":"I2KG2101080310.jpg",
     "pagination":{
      "pgfolios":{
       "value":"154b"
      }
     }
    },
    {
     "filename":"I2KG2101080311.jpg",
     "pagination":{
      "pgfolios":{
       "value":"155a"
      }
     }
    },
    {
     "filename":"I2KG2101080312.jpg",
     "pagination":{
      "pgfolios":{
       "value":"155b"
      }
     }
    },
    {
     "filename":"I2KG2101080313.jpg",
     "pagination":{
      "pgfolios":{
       "value":"156a"
      }
     }
    },
    {
     "filename":"I2KG2101080314.jpg",
     "pagination":{
      "pgfolios":{
       "value":"156b"
      }
     }
    },
    {
     "filename":"I2KG2101080315.jpg",
     "pagination":{
      "pgfolios":{
       "value":"157a"
      }
     }
    },
    {
     "filename":"I2KG2101080316.jpg",
     "pagination":{
      "pgfolios":{
       "value":"157b"
      }
     }
    },
    {
     "filename":"I2KG2101080317.jpg",
     "pagination":{
      "pgfolios":{
       "value":"158a"
      }
     }
    },
    {
     "filename":"I2KG2101080318.jpg",
     "pagination":{
      "pgfolios":{
       "value":"158b"
      }
     }
    },
    {
     "filename":"I2KG2101080319.jpg",
     "pagination":{
      "pgfolios":{
       "value":"159a"
      }
     }
    },
    {
     "filename":"I2KG2101080320.jpg",
     "pagination":{
      "pgfolios":{
       "value":"159b"
      }
     }
    },
    {
     "filename":"I2KG2101080321.jpg",
     "pagination":{
      "pgfolios":{
       "value":"160a"
      }
     }
    },
    {
     "filename":"I2KG2101080322.jpg",
     "pagination":{
      "pgfolios":{
       "value":"160b"
      }
     }
    },
    {
     "filename":"I2KG2101080323.jpg",
     "pagination":{
      "pgfolios":{
       "value":"161a"
      }
     }
    },
    {
     "filename":"I2KG2101080324.jpg",
     "pagination":{
      "pgfolios":{
       "value":"161b"
      }
     }
    },
    {
     "filename":"I2KG2101080325.jpg",
     "pagination":{
      "pgfolios":{
       "value":"162a"
      }
     }
    },
    {
     "filename":"I2KG2101080326.jpg",
     "pagination":{
      "pgfolios":{
       "value":"162b"
      }
     }
    },
    {
     "filename":"I2KG2101080327.jpg",
     "pagination":{
      "pgfolios":{
       "value":"163a"
      }
     }
    },
    {
     "filename":"I2KG2101080328.jpg",
     "pagination":{
      "pgfolios":{
       "value":"163b"
      }
     }
    },
    {
     "filename":"I2KG2101080329.jpg",
     "pagination":{
      "pgfolios":{
       "value":"164a"
      }
     }
    },
    {
     "filename":"I2KG2101080330.jpg",
     "pagination":{
      "pgfolios":{
       "value":"164b"
      }
     }
    },
    {
     "filename":"I2KG2101080331.jpg",
     "pagination":{
      "pgfolios":{
       "value":"165a"
      }
     }
    },
    {
     "filename":"I2KG2101080332.jpg",
     "pagination":{
      "pgfolios":{
       "value":"165b"
      }
     }
    },
    {
     "filename":"I2KG2101080333.jpg",
     "pagination":{
      "pgfolios":{
       "value":"166a"
      }
     }
    },
    {
     "filename":"I2KG2101080334.jpg",
     "pagination":{
      "pgfolios":{
       "value":"166b"
      }
     }
    },
    {
     "filename":"I2KG2101080335.jpg",
     "pagination":{
      "pgfolios":{
       "value":"167a"
      }
     }
    },
    {
     "filename":"I2KG2101080336.jpg",
     "pagination":{
      "pgfolios":{
       "value":"167b"
      }
     }
    },
    {
     "filename":"I2KG2101080337.jpg",
     "pagination":{
      "pgfolios":{
       "value":"168a"
      }
     }
    },
    {
     "filename":"I2KG2101080338.jpg",
     "pagination":{
      "pgfolios":{
       "value":"168b"
      }
     }
    },
    {
     "filename":"I2KG2101080339.jpg",
     "pagination":{
      "pgfolios":{
       "value":"169a"
      }
     }
    },
    {
     "filename":"I2KG2101080340.jpg",
     "pagination":{
      "pgfolios":{
       "value":"169b"
      }
     }
    },
    {
     "filename":"I2KG2101080341.jpg",
     "pagination":{
      "pgfolios":{
       "value":"170a"
      }
     }
    },
    {
     "filename":"I2KG2101080342.jpg",
     "pagination":{
      "pgfolios":{
       "value":"170b"
      }
     }
    },
    {
     "filename":"I2KG2101080343.jpg",
     "pagination":{
      "pgfolios":{
       "value":"171a"
      }
     }
    },
    {
     "filename":"I2KG2101080344.jpg",
     "pagination":{
      "pgfolios":{
       "value":"171b"
      }
     }
    },
    {
     "filename":"I2KG2101080345.jpg",
     "pagination":{
      "pgfolios":{
       "value":"172a"
      }
     }
    },
    {
     "filename":"I2KG2101080346.jpg",
     "pagination":{
      "pgfolios":{
       "value":"172b"
      }
     }
    },
    {
     "filename":"I2KG2101080347.jpg",
     "pagination":{
      "pgfolios":{
       "value":"173a"
      }
     }
    },
    {
     "filename":"I2KG2101080348.jpg",
     "pagination":{
      "pgfolios":{
       "value":"173b"
      }
     }
    },
    {
     "filename":"I2KG2101080349.jpg",
     "pagination":{
      "pgfolios":{
       "value":"174a"
      }
     }
    },
    {
     "filename":"I2KG2101080350.jpg",
     "pagination":{
      "pgfolios":{
       "value":"174b"
      }
     }
    },
    {
     "filename":"I2KG2101080351.jpg",
     "pagination":{
      "pgfolios":{
       "value":"175a"
      }
     }
    },
    {
     "filename":"I2KG2101080352.jpg",
     "pagination":{
      "pgfolios":{
       "value":"175b"
      }
     }
    },
    {
     "filename":"I2KG2101080353.jpg",
     "pagination":{
      "pgfolios":{
       "value":"176a"
      }
     }
    },
    {
     "filename":"I2KG2101080354.jpg",
     "pagination":{
      "pgfolios":{
       "value":"176b"
      }
     }
    },
    {
     "filename":"I2KG2101080355.jpg",
     "pagination":{
      "pgfolios":{
       "value":"177a"
      }
     }
    },
    {
     "filename":"I2KG2101080356.jpg",
     "pagination":{
      "pgfolios":{
       "value":"177b"
      }
     }
    },
    {
     "filename":"I2KG2101080357.jpg",
     "pagination":{
      "pgfolios":{
       "value":"178a"
      }
     }
    },
    {
     "filename":"I2KG2101080358.jpg",
     "pagination":{
      "pgfolios":{
       "value":"178b"
      }
     }
    },
    {
     "filename":"I2KG2101080359.jpg",
     "pagination":{
      "pgfolios":{
       "value":"179a"
      }
     }
    },
    {
     "filename":"I2KG2101080360.jpg",
     "pagination":{
      "pgfolios":{
       "value":"179b"
      }
     }
    },
    {
     "filename":"I2KG2101080361.jpg",
     "pagination":{
      "pgfolios":{
       "value":"180a"
      }
     }
    },
    {
     "filename":"I2KG2101080362.jpg",
     "pagination":{
      "pgfolios":{
       "value":"180b"
      }
     }
    },
    {
     "filename":"I2KG2101080363.jpg",
     "pagination":{
      "pgfolios":{
       "value":"181a"
      }
     }
    },
    {
     "filename":"I2KG2101080364.jpg",
     "pagination":{
      "pgfolios":{
       "value":"181b"
      }
     }
    },
    {
     "filename":"I2KG2101080365.jpg",
     "pagination":{
      "pgfolios":{
       "value":"182a"
      }
     }
    },
    {
     "filename":"I2KG2101080366.jpg",
     "pagination":{
      "pgfolios":{
       "value":"182b"
      }
     }
    },
    {
     "filename":"I2KG2101080367.jpg",
     "pagination":{
      "pgfolios":{
       "value":"183a"
      }
     }
    },
    {
     "filename":"I2KG2101080368.jpg",
     "pagination":{
      "pgfolios":{
       "value":"183b"
      }
     }
    },
    {
     "filename":"I2KG2101080369.jpg",
     "pagination":{
      "pgfolios":{
       "value":"184a"
      }
     }
    },
    {
     "filename":"I2KG2101080370.jpg",
     "pagination":{
      "pgfolios":{
       "value":"184b"
      }
     }
    },
    {
     "filename":"I2KG2101080371.jpg",
     "pagination":{
      "pgfolios":{
       "value":"185a"
      }
     }
    },
    {
     "filename":"I2KG2101080372.jpg",
     "pagination":{
      "pgfolios":{
       "value":"185b"
      }
     }
    },
    {
     "filename":"I2KG2101080373.jpg",
     "pagination":{
      "pgfolios":{
       "value":"186a"
      }
     }
    },
    {
     "filename":"I2KG2101080374.jpg",
     "pagination":{
      "pgfolios":{
       "value":"186b"
      }
     }
    },
    {
     "filename":"I2KG2101080375.jpg",
     "pagination":{
      "pgfolios":{
       "value":"187a"
      }
     }
    },
    {
     "filename":"I2KG2101080376.jpg",
     "pagination":{
      "pgfolios":{
       "value":"187b"
      }
     }
    },
    {
     "filename":"I2KG2101080377.jpg",
     "pagination":{
      "pgfolios":{
       "value":"188a"
      }
     }
    },
    {
     "filename":"I2KG2101080378.jpg",
     "pagination":{
      "pgfolios":{
       "value":"188b"
      }
     }
    },
    {
     "filename":"I2KG2101080379.jpg",
     "pagination":{
      "pgfolios":{
       "value":"189a"
      }
     }
    },
    {
     "filename":"I2KG2101080380.jpg",
     "pagination":{
      "pgfolios":{
       "value":"189b"
      }
     }
    },
    {
     "filename":"I2KG2101080381.jpg",
     "pagination":{
      "pgfolios":{
       "value":"190a"
      }
     }
    },
    {
     "filename":"I2KG2101080382.jpg",
     "pagination":{
      "pgfolios":{
       "value":"190b"
      }
     }
    },
    {
     "filename":"I2KG2101080383.jpg",
     "pagination":{
      "pgfolios":{
       "value":"191a"
      }
     }
    },
    {
     "filename":"I2KG2101080384.jpg",
     "pagination":{
      "pgfolios":{
       "value":"191b"
      }
     }
    },
    {
     "filename":"I2KG2101080385.jpg",
     "pagination":{
      "pgfolios":{
       "value":"192a"
      }
     }
    },
    {
     "filename":"I2KG2101080386.jpg",
     "pagination":{
      "pgfolios":{
       "value":"192b"
      }
     }
    },
    {
     "filename":"I2KG2101080387.jpg",
     "pagination":{
      "pgfolios":{
       "value":"193a"
      }
     }
    },
    {
     "filename":"I2KG2101080388.jpg",
     "pagination":{
      "pgfolios":{
       "value":"193b"
      }
     }
    },
    {
     "filename":"I2KG2101080389.jpg",
     "pagination":{
      "pgfolios":{
       "value":"194a"
      }
     }
    },
    {
     "filename":"I2KG2101080390.jpg",
     "pagination":{
      "pgfolios":{
       "value":"194b"
      }
     }
    },
    {
     "filename":"I2KG2101080391.jpg",
     "pagination":{
      "pgfolios":{
       "value":"195a"
      }
     }
    },
    {
     "filename":"I2KG2101080392.jpg",
     "pagination":{
      "pgfolios":{
       "value":"195b"
      }
     }
    },
    {
     "filename":"I2KG2101080393.jpg",
     "pagination":{
      "pgfolios":{
       "value":"196a"
      }
     }
    },
    {
     "filename":"I2KG2101080394.jpg",
     "pagination":{
      "pgfolios":{
       "value":"196b"
      }
     }
    },
    {
     "filename":"I2KG2101080395.jpg",
     "pagination":{
      "pgfolios":{
       "value":"197a"
      }
     }
    },
    {
     "filename":"I2KG2101080396.jpg",
     "pagination":{
      "pgfolios":{
       "value":"197b"
      }
     }
    },
    {
     "filename":"I2KG2101080397.jpg",
     "pagination":{
      "pgfolios":{
       "value":"198a"
      }
     }
    },
    {
     "filename":"I2KG2101080398.jpg",
     "pagination":{
      "pgfolios":{
       "value":"198b"
      }
     }
    },
    {
     "filename":"I2KG2101080399.jpg",
     "pagination":{
      "pgfolios":{
       "value":"199a"
      }
     }
    },
    {
     "filename":"I2KG2101080400.jpg",
     "pagination":{
      "pgfolios":{
       "value":"199b"
      }
     }
    },
    {
     "filename":"I2KG2101080401.jpg",
     "pagination":{
      "pgfolios":{
       "value":"200a"
      }
     }
    },
    {
     "filename":"I2KG2101080402.jpg",
     "pagination":{
      "pgfolios":{
       "value":"200b"
      }
     }
    },
    {
     "filename":"I2KG2101080403.jpg",
     "pagination":{
      "pgfolios":{
       "value":"201a"
      }
     }
    },
    {
     "filename":"I2KG2101080404.jpg",
     "pagination":{
      "pgfolios":{
       "value":"201b"
      }
     }
    },
    {
     "filename":"I2KG2101080405.jpg",
     "pagination":{
      "pgfolios":{
       "value":"202a"
      }
     }
    },
    {
     "filename":"I2KG2101080406.jpg",
     "pagination":{
      "pgfolios":{
       "value":"202b"
      }
     }
    },
    {
     "filename":"I2KG2101080407.jpg",
     "pagination":{
      "pgfolios":{
       "value":"203a"
      }
     }
    },
    {
     "filename":"I2KG2101080408.jpg",
     "pagination":{
      "pgfolios":{
       "value":"203b"
      }
     }
    },
    {
     "filename":"I2KG2101080409.jpg",
     "pagination":{
      "pgfolios":{
       "value":"204a"
      }
     }
    },
    {
     "filename":"I2KG2101080410.jpg",
     "pagination":{
      "pgfolios":{
       "value":"204b"
      }
     }
    },
    {
     "filename":"I2KG2101080411.jpg",
     "pagination":{
      "pgfolios":{
       "value":"205a"
      }
     }
    },
    {
     "filename":"I2KG2101080412.jpg",
     "pagination":{
      "pgfolios":{
       "value":"205b"
      }
     }
    },
    {
     "filename":"I2KG2101080413.jpg",
     "pagination":{
      "pgfolios":{
       "value":"206a"
      }
     }
    },
    {
     "filename":"I2KG2101080414.jpg",
     "pagination":{
      "pgfolios":{
       "value":"206b"
      }
     }
    },
    {
     "filename":"I2KG2101080415.jpg",
     "pagination":{
      "pgfolios":{
       "value":"207a"
      }
     }
    },
    {
     "filename":"I2KG2101080416.jpg",
     "pagination":{
      "pgfolios":{
       "value":"207b"
      }
     }
    },
    {
     "filename":"I2KG2101080417.jpg",
     "pagination":{
      "pgfolios":{
       "value":"208a"
      }
     }
    },
    {
     "filename":"I2KG2101080418.jpg",
     "pagination":{
      "pgfolios":{
       "value":"208b"
      }
     }
    },
    {
     "filename":"I2KG2101080419.jpg",
     "pagination":{
      "pgfolios":{
       "value":"209a"
      }
     }
    },
    {
     "filename":"I2KG2101080420.jpg",
     "pagination":{
      "pgfolios":{
       "value":"209b"
      }
     }
    },
    {
     "filename":"I2KG2101080421.jpg",
     "pagination":{
      "pgfolios":{
       "value":"210a"
      }
     }
    },
    {
     "filename":"I2KG2101080422.jpg",
     "pagination":{
      "pgfolios":{
       "value":"210b"
      }
     }
    },
    {
     "filename":"I2KG2101080423.jpg",
     "pagination":{
      "pgfolios":{
       "value":"211a"
      }
     }
    },
    {
     "filename":"I2KG2101080424.jpg",
     "pagination":{
      "pgfolios":{
       "value":"211b"
      }
     }
    },
    {
     "filename":"I2KG2101080425.jpg",
     "pagination":{
      "pgfolios":{
       "value":"212a"
      }
     }
    },
    {
     "filename":"I2KG2101080426.jpg",
     "pagination":{
      "pgfolios":{
       "value":"212b"
      }
     }
    },
    {
     "filename":"I2KG2101080427.jpg",
     "pagination":{
      "pgfolios":{
       "value":"213a"
      }
     }
    },
    {
     "filename":"I2KG2101080428.jpg",
     "pagination":{
      "pgfolios":{
       "value":"213b"
      }
     }
    },
    {
     "filename":"I2KG2101080429.jpg",
     "pagination":{
      "pgfolios":{
       "value":"214a"
      }
     }
    },
    {
     "filename":"I2KG2101080430.jpg",
     "pagination":{
      "pgfolios":{
       "value":"214b"
      }
     }
    },
    {
     "filename":"I2KG2101080431.jpg",
     "pagination":{
      "pgfolios":{
       "value":"215a"
      }
     }
    },
    {
     "filename":"I2KG2101080432.jpg",
     "pagination":{
      "pgfolios":{
       "value":"215b"
      }
     }
    },
    {
     "filename":"I2KG2101080433.jpg",
     "pagination":{
      "pgfolios":{
       "value":"216a"
      }
     }
    },
    {
     "filename":"I2KG2101080434.jpg",
     "pagination":{
      "pgfolios":{
       "value":"216b"
      }
     }
    },
    {
     "filename":"I2KG2101080435.jpg",
     "pagination":{
      "pgfolios":{
       "value":"217a"
      }
     }
    },
    {
     "filename":"I2KG2101080436.jpg",
     "pagination":{
      "pgfolios":{
       "value":"217b"
      }
     }
    },
    {
     "filename":"I2KG2101080437.jpg",
     "pagination":{
      "pgfolios":{
       "value":"218a"
      }
     }
    },
    {
     "filename":"I2KG2101080438.jpg",
     "pagination":{
      "pgfolios":{
       "value":"218b"
      }
     }
    },
    {
     "filename":"I2KG2101080439.jpg",
     "pagination":{
      "pgfolios":{
       "value":"219a"
      }
     }
    },
    {
     "filename":"I2KG2101080440.jpg",
     "pagination":{
      "pgfolios":{
       "value":"219b"
      }
     }
    },
    {
     "filename":"I2KG2101080441.jpg",
     "pagination":{
      "pgfolios":{
       "value":"220a"
      }
     }
    },
    {
     "filename":"I2KG2101080442.jpg",
     "pagination":{
      "pgfolios":{
       "value":"220b"
      }
     }
    },
    {
     "filename":"I2KG2101080443.jpg",
     "pagination":{
      "pgfolios":{
       "value":"221a"
      }
     }
    },
    {
     "filename":"I2KG2101080444.jpg",
     "pagination":{
      "pgfolios":{
       "value":"221b"
      }
     }
    },
    {
     "filename":"I2KG2101080445.jpg",
     "pagination":{
      "pgfolios":{
       "value":"222a"
      }
     }
    },
    {
     "filename":"I2KG2101080446.jpg",
     "pagination":{
      "pgfolios":{
       "value":"222b"
      }
     }
    },
    {
     "filename":"I2KG2101080447.jpg",
     "pagination":{
      "pgfolios":{
       "value":"223a"
      }
     }
    },
    {
     "filename":"I2KG2101080448.jpg",
     "pagination":{
      "pgfolios":{
       "value":"223b"
      }
     }
    },
    {
     "filename":"I2KG2101080449.jpg",
     "pagination":{
      "pgfolios":{
       "value":"224a"
      }
     }
    },
    {
     "filename":"I2KG2101080450.jpg",
     "pagination":{
      "pgfolios":{
       "value":"224b"
      }
     }
    },
    {
     "filename":"I2KG2101080451.jpg",
     "pagination":{
      "pgfolios":{
       "value":"225a"
      }
     }
    },
    {
     "filename":"I2KG2101080452.jpg",
     "pagination":{
      "pgfolios":{
       "value":"225b"
      }
     }
    },
    {
     "filename":"I2KG2101080453.jpg",
     "pagination":{
      "pgfolios":{
       "value":"226a"
      }
     }
    },
    {
     "filename":"I2KG2101080454.jpg",
     "pagination":{
      "pgfolios":{
       "value":"226b"
      }
     }
    },
    {
     "filename":"I2KG2101080455.jpg",
     "pagination":{
      "pgfolios":{
       "value":"227a"
      }
     }
    },
    {
     "filename":"I2KG2101080456.jpg",
     "pagination":{
      "pgfolios":{
       "value":"227b"
      }
     }
    },
    {
     "filename":"I2KG2101080457.jpg",
     "pagination":{
      "pgfolios":{
       "value":"228a"
      }
     }
    },
    {
     "filename":"I2KG2101080458.jpg",
     "pagination":{
      "pgfolios":{
       "value":"228b"
      }
     }
    },
    {
     "filename":"I2KG2101080459.jpg",
     "pagination":{
      "pgfolios":{
       "value":"229a"
      }
     }
    },
    {
     "filename":"I2KG2101080460.jpg",
     "pagination":{
      "pgfolios":{
       "value":"229b"
      }
     }
    },
    {
     "filename":"I2KG2101080461.jpg",
     "pagination":{
      "pgfolios":{
       "value":"230a"
      }
     }
    },
    {
     "filename":"I2KG2101080462.jpg",
     "pagination":{
      "pgfolios":{
       "value":"230b"
      }
     }
    },
    {
     "filename":"I2KG2101080463.jpg",
     "pagination":{
      "pgfolios":{
       "value":"231a"
      }
     }
    },
    {
     "filename":"I2KG2101080464.jpg",
     "pagination":{
      "pgfolios":{
       "value":"231b"
      }
     }
    },
    {
     "filename":"I2KG2101080465.jpg",
     "pagination":{
      "pgfolios":{
       "value":"232a"
      }
     }
    },
    {
     "filename":"I2KG2101080466.jpg",
     "pagination":{
      "pgfolios":{
       "value":"232b"
      }
     }
    },
    {
     "filename":"I2KG2101080467.jpg",
     "pagination":{
      "pgfolios":{
       "value":"233a"
      }
     }
    },
    {
     "filename":"I2KG2101080468.jpg",
     "pagination":{
      "pgfolios":{
       "value":"233b"
      }
     }
    },
    {
     "filename":"I2KG2101080469.jpg",
     "pagination":{
      "pgfolios":{
       "value":"234a"
      }
     }
    },
    {
     "filename":"I2KG2101080470.jpg",
     "pagination":{
      "pgfolios":{
       "value":"234b"
      }
     }
    },
    {
     "filename":"I2KG2101080471.jpg",
     "pagination":{
      "pgfolios":{
       "value":"235a"
      }
     }
    },
    {
     "filename":"I2KG2101080472.jpg",
     "pagination":{
      "pgfolios":{
       "value":"235b"
      }
     }
    },
    {
     "filename":"I2KG2101080473.jpg",
     "pagination":{
      "pgfolios":{
       "value":"236a"
      }
     }
    },
    {
     "filename":"I2KG2101080474.jpg",
     "pagination":{
      "pgfolios":{
       "value":"236b"
      }
     }
    },
    {
     "filename":"I2KG2101080475.jpg",
     "pagination":{
      "pgfolios":{
       "value":"237a"
      }
     }
    },
    {
     "filename":"I2KG2101080476.jpg",
     "pagination":{
      "pgfolios":{
       "value":"237b"
      }
     }
    },
    {
     "filename":"I2KG2101080477.jpg",
     "pagination":{
      "pgfolios":{
       "value":"238a"
      }
     }
    },
    {
     "filename":"I2KG2101080478.jpg",
     "pagination":{
      "pgfolios":{
       "value":"238b"
      }
     }
    },
    {
     "filename":"I2KG2101080479.jpg",
     "pagination":{
      "pgfolios":{
       "value":"239a"
      }
     }
    },
    {
     "filename":"I2KG2101080480.jpg",
     "pagination":{
      "pgfolios":{
       "value":"239b"
      }
     }
    },
    {
     "filename":"I2KG2101080481.jpg",
     "pagination":{
      "pgfolios":{
       "value":"240a"
      }
     }
    },
    {
     "filename":"I2KG2101080482.jpg",
     "pagination":{
      "pgfolios":{
       "value":"240b"
      }
     }
    },
    {
     "filename":"I2KG2101080483.jpg",
     "pagination":{
      "pgfolios":{
       "value":"241a"
      }
     }
    },
    {
     "filename":"I2KG2101080484.jpg",
     "pagination":{
      "pgfolios":{
       "value":"241b"
      }
     }
    },
    {
     "filename":"I2KG2101080485.jpg",
     "pagination":{
      "pgfolios":{
       "value":"242a"
      }
     }
    },
    {
     "filename":"I2KG2101080486.jpg",
     "pagination":{
      "pgfolios":{
       "value":"242b"
      }
     }
    },
    {
     "filename":"I2KG2101080487.jpg",
     "pagination":{
      "pgfolios":{
       "value":"243a"
      }
     }
    },
    {
     "filename":"I2KG2101080488.jpg",
     "pagination":{
      "pgfolios":{
       "value":"243b"
      }
     }
    },
    {
     "filename":"I2KG2101080489.jpg",
     "pagination":{
      "pgfolios":{
       "value":"244a"
      }
     }
    },
    {
     "filename":"I2KG2101080490.jpg",
     "pagination":{
      "pgfolios":{
       "value":"244b"
      }
     }
    },
    {
     "filename":"I2KG2101080491.jpg",
     "pagination":{
      "pgfolios":{
       "value":"245a"
      }
     }
    },
    {
     "filename":"I2KG2101080492.jpg",
     "pagination":{
      "pgfolios":{
       "value":"245b"
      }
     }
    },
    {
     "filename":"I2KG2101080493.jpg",
     "pagination":{
      "pgfolios":{
       "value":"246a"
      }
     }
    },
    {
     "filename":"I2KG2101080494.jpg",
     "pagination":{
      "pgfolios":{
       "value":"246b"
      }
     }
    },
    {
     "filename":"I2KG2101080495.jpg",
     "pagination":{
      "pgfolios":{
       "value":"247a"
      }
     }
    },
    {
     "filename":"I2KG2101080496.jpg",
     "pagination":{
      "pgfolios":{
       "value":"247b"
      }
     }
    },
    {
     "filename":"I2KG2101080497.jpg",
     "pagination":{
      "pgfolios":{
       "value":"248a"
      }
     }
    },
    {
     "filename":"I2KG2101080498.jpg",
     "pagination":{
      "pgfolios":{
       "value":"248b"
      }
     }
    },
    {
     "filename":"I2KG2101080499.jpg",
     "pagination":{
      "pgfolios":{
       "value":"249a"
      }
     }
    },
    {
     "filename":"I2KG2101080500.jpg",
     "pagination":{
      "pgfolios":{
       "value":"249b"
      }
     }
    },
    {
     "filename":"I2KG2101080501.jpg",
     "pagination":{
      "pgfolios":{
       "value":"250a"
      }
     }
    },
    {
     "filename":"I2KG2101080502.jpg",
     "pagination":{
      "pgfolios":{
       "value":"250b"
      }
     }
    },
    {
     "filename":"I2KG2101080503.jpg",
     "pagination":{
      "pgfolios":{
       "value":"251a"
      }
     }
    },
    {
     "filename":"I2KG2101080504.jpg",
     "pagination":{
      "pgfolios":{
       "value":"251b"
      }
     }
    },
    {
     "filename":"I2KG2101080505.jpg",
     "pagination":{
      "pgfolios":{
       "value":"252a"
      }
     }
    },
    {
     "filename":"I2KG2101080506.jpg",
     "pagination":{
      "pgfolios":{
       "value":"252b"
      }
     }
    },
    {
     "filename":"I2KG2101080507.jpg",
     "pagination":{
      "pgfolios":{
       "value":"253a"
      }
     }
    },
    {
     "filename":"I2KG2101080508.jpg",
     "pagination":{
      "pgfolios":{
       "value":"253b"
      }
     }
    },
    {
     "filename":"I2KG2101080509.jpg",
     "pagination":{
      "pgfolios":{
       "value":"254a"
      }
     }
    },
    {
     "filename":"I2KG2101080510.jpg",
     "pagination":{
      "pgfolios":{
       "value":"254b"
      }
     }
    },
    {
     "filename":"I2KG2101080511.jpg",
     "pagination":{
      "pgfolios":{
       "value":"255a"
      }
     }
    },
    {
     "filename":"I2KG2101080512.jpg",
     "pagination":{
      "pgfolios":{
       "value":"255b"
      }
     }
    },
    {
     "filename":"I2KG2101080513.jpg",
     "pagination":{
      "pgfolios":{
       "value":"256a"
      }
     }
    },
    {
     "filename":"I2KG2101080514.jpg",
     "pagination":{
      "pgfolios":{
       "value":"256b"
      }
     }
    },
    {
     "filename":"I2KG2101080515.jpg",
     "pagination":{
      "pgfolios":{
       "value":"257a"
      }
     }
    },
    {
     "filename":"I2KG2101080516.jpg",
     "pagination":{
      "pgfolios":{
       "value":"257b"
      }
     }
    },
    {
     "filename":"I2KG2101080517.jpg",
     "pagination":{
      "pgfolios":{
       "value":"258a"
      }
     }
    },
    {
     "filename":"I2KG2101080518.jpg",
     "pagination":{
      "pgfolios":{
       "value":"258b"
      }
     }
    },
    {
     "filename":"I2KG2101080519.jpg",
     "pagination":{
      "pgfolios":{
       "value":"259a"
      }
     }
    },
    {
     "filename":"I2KG2101080520.jpg",
     "pagination":{
      "pgfolios":{
       "value":"259b"
      }
     }
    },
    {
     "filename":"I2KG2101080521.jpg",
     "pagination":{
      "pgfolios":{
       "value":"260a"
      }
     }
    },
    {
     "filename":"I2KG2101080522.jpg",
     "pagination":{
      "pgfolios":{
       "value":"260b"
      }
     }
    },
    {
     "filename":"I2KG2101080523.jpg",
     "pagination":{
      "pgfolios":{
       "value":"261a"
      }
     }
    },
    {
     "filename":"I2KG2101080524.jpg",
     "pagination":{
      "pgfolios":{
       "value":"261b"
      }
     }
    },
    {
     "filename":"I2KG2101080525.jpg",
     "pagination":{
      "pgfolios":{
       "value":"262a"
      }
     }
    },
    {
     "filename":"I2KG2101080526.jpg",
     "pagination":{
      "pgfolios":{
       "value":"262b"
      }
     }
    },
    {
     "filename":"I2KG2101080527.jpg",
     "pagination":{
      "pgfolios":{
       "value":"263a"
      }
     }
    },
    {
     "filename":"I2KG2101080528.jpg",
     "pagination":{
      "pgfolios":{
       "value":"263b"
      }
     }
    },
    {
     "filename":"I2KG2101080529.jpg",
     "pagination":{
      "pgfolios":{
       "value":"264a"
      }
     }
    },
    {
     "filename":"I2KG2101080530.jpg",
     "pagination":{
      "pgfolios":{
       "value":"264b"
      }
     }
    },
    {
     "filename":"I2KG2101080531.jpg",
     "pagination":{
      "pgfolios":{
       "value":"265a"
      }
     }
    },
    {
     "filename":"I2KG2101080532.jpg",
     "pagination":{
      "pgfolios":{
       "value":"265b"
      }
     }
    },
    {
     "filename":"I2KG2101080533.jpg",
     "pagination":{
      "pgfolios":{
       "value":"266a"
      }
     }
    },
    {
     "filename":"I2KG2101080534.jpg",
     "pagination":{
      "pgfolios":{
       "value":"266b"
      }
     }
    },
    {
     "filename":"I2KG2101080535.jpg",
     "pagination":{
      "pgfolios":{
       "value":"267a"
      }
     }
    },
    {
     "filename":"I2KG2101080536.jpg",
     "pagination":{
      "pgfolios":{
       "value":"267b"
      }
     }
    },
    {
     "filename":"I2KG2101080537.jpg",
     "pagination":{
      "pgfolios":{
       "value":"268a"
      }
     }
    },
    {
     "filename":"I2KG2101080538.jpg",
     "pagination":{
      "pgfolios":{
       "value":"268b"
      }
     }
    },
    {
     "filename":"I2KG2101080539.jpg",
     "pagination":{
      "pgfolios":{
       "value":"269a"
      }
     }
    },
    {
     "filename":"I2KG2101080540.jpg",
     "pagination":{
      "pgfolios":{
       "value":"269b"
      }
     }
    },
    {
     "filename":"I2KG2101080541.jpg",
     "pagination":{
      "pgfolios":{
       "value":"270a"
      }
     }
    },
    {
     "filename":"I2KG2101080542.jpg",
     "pagination":{
      "pgfolios":{
       "value":"270b"
      }
     }
    },
    {
     "filename":"I2KG2101080543.jpg",
     "pagination":{
      "pgfolios":{
       "value":"271a"
      }
     }
    },
    {
     "filename":"I2KG2101080544.jpg",
     "pagination":{
      "pgfolios":{
       "value":"271b"
      }
     }
    },
    {
     "filename":"I2KG2101080545.jpg",
     "pagination":{
      "pgfolios":{
       "value":"272a"
      }
     }
    },
    {
     "filename":"I2KG2101080546.jpg",
     "pagination":{
      "pgfolios":{
       "value":"272b"
      }
     }
    },
    {
     "filename":"I2KG2101080547.jpg",
     "pagination":{
      "pgfolios":{
       "value":"273a"
      }
     }
    },
    {
     "filename":"I2KG2101080548.jpg",
     "pagination":{
      "pgfolios":{
       "value":"273b"
      }
     }
    },
    {
     "filename":"I2KG2101080549.jpg",
     "pagination":{
      "pgfolios":{
       "value":"274a"
      }
     }
    },
    {
     "filename":"I2KG2101080550.jpg",
     "pagination":{
      "pgfolios":{
       "value":"274b"
      }
     }
    },
    {
     "filename":"I2KG2101080551.jpg",
     "pagination":{
      "pgfolios":{
       "value":"275a"
      }
     }
    },
    {
     "filename":"I2KG2101080552.jpg",
     "pagination":{
      "pgfolios":{
       "value":"275b"
      }
     }
    },
    {
     "filename":"I2KG2101080553.jpg",
     "pagination":{
      "pgfolios":{
       "value":"276a"
      }
     }
    },
    {
     "filename":"I2KG2101080554.jpg",
     "pagination":{
      "pgfolios":{
       "value":"276b"
      }
     }
    },
    {
     "filename":"I2KG2101080555.jpg",
     "pagination":{
      "pgfolios":{
       "value":"277a"
      }
     }
    },
    {
     "filename":"I2KG2101080556.jpg",
     "pagination":{
      "pgfolios":{
       "value":"277b"
      }
     }
    },
    {
     "filename":"I2KG2101080557.jpg",
     "pagination":{
      "pgfolios":{
       "value":"278a"
      }
     }
    },
    {
     "filename":"I2KG2101080558.jpg",
     "pagination":{
      "pgfolios":{
       "value":"278b"
      }
     }
    },
    {
     "filename":"I2KG2101080559.jpg",
     "pagination":{
      "pgfolios":{
       "value":"279a"
      }
     }
    },
    {
     "filename":"I2KG2101080560.jpg",
     "pagination":{
      "pgfolios":{
       "value":"279b"
      }
     }
    },
    {
     "filename":"I2KG2101080561.jpg",
     "pagination":{
      "pgfolios":{
       "value":"280a"
      }
     }
    },
    {
     "filename":"I2KG2101080562.jpg",
     "pagination":{
      "pgfolios":{
       "value":"280b"
      }
     }
    },
    {
     "filename":"I2KG2101080563.jpg",
     "pagination":{
      "pgfolios":{
       "value":"281a"
      }
     }
    },
    {
     "filename":"I2KG2101080564.jpg",
     "pagination":{
      "pgfolios":{
       "value":"281b"
      }
     }
    },
    {
     "filename":"I2KG2101080565.jpg",
     "pagination":{
      "pgfolios":{
       "value":"282a"
      }
     }
    },
    {
     "filename":"I2KG2101080566.jpg",
     "pagination":{
      "pgfolios":{
       "value":"282b"
      }
     }
    },
    {
     "filename":"I2KG2101080567.jpg",
     "pagination":{
      "pgfolios":{
       "value":"283a"
      }
     }
    },
    {
     "filename":"I2KG2101080568.jpg",
     "pagination":{
      "pgfolios":{
       "value":"283b"
      }
     }
    },
    {
     "filename":"I2KG2101080569.jpg",
     "pagination":{
      "pgfolios":{
       "value":"284a"
      }
     }
    },
    {
     "filename":"I2KG2101080570.jpg",
     "pagination":{
      "pgfolios":{
       "value":"284b"
      }
     }
    },
    {
     "filename":"I2KG2101080571.jpg",
     "pagination":{
      "pgfolios":{
       "value":"285a"
      }
     }
    },
    {
     "filename":"I2KG2101080572.jpg",
     "pagination":{
      "pgfolios":{
       "value":"285b"
      }
     }
    },
    {
     "filename":"I2KG2101080573.jpg",
     "pagination":{
      "pgfolios":{
       "value":"286a"
      }
     }
    },
    {
     "filename":"I2KG2101080574.jpg",
     "pagination":{
      "pgfolios":{
       "value":"286b"
      }
     }
    },
    {
     "filename":"I2KG2101080575.jpg",
     "pagination":{
      "pgfolios":{
       "value":"287a"
      }
     }
    },
    {
     "filename":"I2KG2101080576.jpg",
     "pagination":{
      "pgfolios":{
       "value":"287b"
      }
     }
    },
    {
     "filename":"I2KG2101080577.jpg",
     "pagination":{
      "pgfolios":{
       "value":"288a"
      }
     }
    },
    {
     "filename":"I2KG2101080578.jpg",
     "pagination":{
      "pgfolios":{
       "value":"288b"
      }
     }
    },
    {
     "filename":"I2KG2101080579.jpg",
     "pagination":{
      "pgfolios":{
       "value":"289a"
      }
     }
    },
    {
     "filename":"I2KG2101080580.jpg",
     "pagination":{
      "pgfolios":{
       "value":"289b"
      }
     }
    },
    {
     "filename":"I2KG2101080581.jpg",
     "pagination":{
      "pgfolios":{
       "value":"290a"
      }
     }
    },
    {
     "filename":"I2KG2101080582.jpg",
     "pagination":{
      "pgfolios":{
       "value":"290b"
      }
     }
    },
    {
     "filename":"I2KG2101080583.jpg",
     "pagination":{
      "pgfolios":{
       "value":"291a"
      }
     }
    },
    {
     "filename":"I2KG2101080584.jpg",
     "pagination":{
      "pgfolios":{
       "value":"291b"
      }
     }
    },
    {
     "filename":"I2KG2101080585.jpg",
     "pagination":{
      "pgfolios":{
       "value":"292a"
      }
     }
    },
    {
     "filename":"I2KG2101080586.jpg",
     "pagination":{
      "pgfolios":{
       "value":"292b"
      }
     }
    },
    {
     "filename":"I2KG2101080587.jpg",
     "pagination":{
      "pgfolios":{
       "value":"293a"
      }
     }
    },
    {
     "filename":"I2KG2101080588.jpg",
     "pagination":{
      "pgfolios":{
       "value":"293b"
      }
     }
    },
    {
     "filename":"I2KG2101080589.jpg",
     "pagination":{
      "pgfolios":{
       "value":"294a"
      }
     }
    },
    {
     "filename":"I2KG2101080590.jpg",
     "pagination":{
      "pgfolios":{
       "value":"294b"
      }
     }
    },
    {
     "filename":"I2KG2101080591.jpg",
     "pagination":{
      "pgfolios":{
       "value":"295a"
      }
     }
    },
    {
     "filename":"I2KG2101080592.jpg",
     "pagination":{
      "pgfolios":{
       "value":"295b"
      }
     }
    },
    {
     "filename":"I2KG2101080593.jpg",
     "pagination":{
      "pgfolios":{
       "value":"296a"
      }
     }
    },
    {
     "filename":"I2KG2101080594.jpg",
     "pagination":{
      "pgfolios":{
       "value":"296b"
      }
     }
    },
    {
     "filename":"I2KG2101080595.jpg",
     "pagination":{
      "pgfolios":{
       "value":"297a"
      }
     }
    },
    {
     "filename":"I2KG2101080596.jpg",
     "pagination":{
      "pgfolios":{
       "value":"297b"
      }
     }
    },
    {
     "filename":"I2KG2101080597.jpg",
     "pagination":{
      "pgfolios":{
       "value":"298a"
      }
     }
    },
    {
     "filename":"I2KG2101080598.jpg",
     "pagination":{
      "pgfolios":{
       "value":"298b"
      }
     }
    },
    {
     "filename":"I2KG2101080599.jpg",
     "pagination":{
      "pgfolios":{
       "value":"299a"
      }
     }
    },
    {
     "filename":"I2KG2101080600.jpg",
     "pagination":{
      "pgfolios":{
       "value":"299b"
      }
     }
    },
    {
     "filename":"I2KG2101080601.jpg",
     "pagination":{
      "pgfolios":{
       "value":"300a"
      }
     }
    },
    {
     "filename":"I2KG2101080602.jpg",
     "pagination":{
      "pgfolios":{
       "value":"300b"
      }
     }
    },
    {
     "filename":"I2KG2101080603.jpg",
     "pagination":{
      "pgfolios":{
       "value":"301a"
      }
     }
    },
    {
     "filename":"I2KG2101080604.jpg",
     "pagination":{
      "pgfolios":{
       "value":"301b"
      }
     }
    },
    {
     "filename":"I2KG2101080605.jpg",
     "pagination":{
      "pgfolios":{
       "value":"302a"
      }
     }
    },
    {
     "filename":"I2KG2101080606.jpg",
     "pagination":{
      "pgfolios":{
       "value":"302b"
      }
     }
    },
    {
     "filename":"I2KG2101080607.jpg",
     "pagination":{
      "pgfolios":{
       "value":"303a"
      }
     }
    },
    {
     "filename":"I2KG2101080608.jpg",
     "pagination":{
      "pgfolios":{
       "value":"303b"
      }
     }
    },
    {
     "filename":"I2KG2101080609.jpg",
     "pagination":{
      "pgfolios":{
       "value":"304a"
      }
     }
    },
    {
     "filename":"I2KG2101080610.jpg",
     "pagination":{
      "pgfolios":{
       "value":"304b"
      }
     }
    },
    {
     "filename":"I2KG2101080611.jpg",
     "pagination":{
      "pgfolios":{
       "value":"305a"
      }
     }
    },
    {
     "filename":"I2KG2101080612.jpg",
     "pagination":{
      "pgfolios":{
       "value":"305b"
      }
     }
    },
    {
     "filename":"I2KG2101080613.jpg",
     "pagination":{
      "pgfolios":{
       "value":"306a"
      }
     }
    },
    {
     "filename":"I2KG2101080614.jpg",
     "pagination":{
      "pgfolios":{
       "value":"306b"
      }
     }
    },
    {
     "filename":"I2KG2101080615.jpg",
     "pagination":{
      "pgfolios":{
       "value":"307a"
      }
     }
    },
    {
     "filename":"I2KG2101080616.jpg",
     "pagination":{
      "pgfolios":{
       "value":"307b"
      }
     }
    },
    {
     "filename":"I2KG2101080617.jpg",
     "pagination":{
      "pgfolios":{
       "value":"308a"
      }
     }
    },
    {
     "filename":"I2KG2101080618.jpg",
     "pagination":{
      "pgfolios":{
       "value":"308b"
      }
     }
    },
    {
     "filename":"I2KG2101080619.jpg",
     "pagination":{
      "pgfolios":{
       "value":"309a"
      }
     }
    },
    {
     "filename":"I2KG2101080620.jpg",
     "pagination":{
      "pgfolios":{
       "value":"309b"
      }
     }
    },
    {
     "filename":"I2KG2101080621.jpg",
     "pagination":{
      "pgfolios":{
       "value":"310a"
      }
     }
    },
    {
     "filename":"I2KG2101080622.jpg",
     "pagination":{
      "pgfolios":{
       "value":"310b"
      }
     }
    },
    {
     "filename":"I2KG2101080623.jpg",
     "pagination":{
      "pgfolios":{
       "value":"311a"
      }
     }
    },
    {
     "filename":"I2KG2101080624.jpg",
     "pagination":{
      "pgfolios":{
       "value":"311b"
      }
     }
    },
    {
     "filename":"I2KG2101080625.jpg",
     "pagination":{
      "pgfolios":{
       "value":"312a"
      }
     }
    },
    {
     "filename":"I2KG2101080626.jpg",
     "pagination":{
      "pgfolios":{
       "value":"312b"
      }
     }
    },
    {
     "filename":"I2KG2101080627.jpg",
     "pagination":{
      "pgfolios":{
       "value":"313a"
      }
     }
    },
    {
     "filename":"I2KG2101080628.jpg",
     "pagination":{
      "pgfolios":{
       "value":"313b"
      }
     }
    },
    {
     "filename":"I2KG2101080629.jpg",
     "pagination":{
      "pgfolios":{
       "value":"314a"
      }
     }
    },
    {
     "filename":"I2KG2101080630.jpg",
     "pagination":{
      "pgfolios":{
       "value":"314b"
      }
     }
    },
    {
     "filename":"I2KG2101080631.jpg",
     "pagination":{
      "pgfolios":{
       "value":"315a"
      }
     }
    },
    {
     "filename":"I2KG2101080632.jpg",
     "pagination":{
      "pgfolios":{
       "value":"315b"
      }
     }
    },
    {
     "filename":"I2KG2101080633.jpg",
     "pagination":{
      "pgfolios":{
       "value":"316a"
      }
     }
    },
    {
     "filename":"I2KG2101080634.jpg",
     "pagination":{
      "pgfolios":{
       "value":"316b"
      }
     }
    },
    {
     "filename":"I2KG2101080635.jpg",
     "pagination":{
      "pgfolios":{
       "value":"317a"
      }
     }
    },
    {
     "filename":"I2KG2101080636.jpg",
     "pagination":{
      "pgfolios":{
       "value":"317b"
      }
     }
    },
    {
     "filename":"I2KG2101080637.jpg",
     "pagination":{
      "pgfolios":{
       "value":"318a"
      }
     }
    },
    {
     "filename":"I2KG2101080638.jpg",
     "pagination":{
      "pgfolios":{
       "value":"318b"
      }
     }
    },
    {
     "filename":"I2KG2101080639.jpg",
     "pagination":{
      "pgfolios":{
       "value":"319a"
      }
     }
    },
    {
     "filename":"I2KG2101080640.jpg",
     "pagination":{
      "pgfolios":{
       "value":"319b"
      }
     }
    },
    {
     "filename":"I2KG2101080641.jpg",
     "pagination":{
      "pgfolios":{
       "value":"320a"
      }
     }
    },
    {
     "filename":"I2KG2101080642.jpg",
     "pagination":{
      "pgfolios":{
       "value":"320b"
      }
     }
    },
    {
     "filename":"I2KG2101080643.jpg",
     "pagination":{
      "pgfolios":{
       "value":"321a"
      }
     }
    },
    {
     "filename":"I2KG2101080644.jpg",
     "pagination":{
      "pgfolios":{
       "value":"321b"
      }
     }
    },
    {
     "filename":"I2KG2101080645.jpg",
     "pagination":{
      "pgfolios":{
       "value":"322a"
      }
     }
    },
    {
     "filename":"I2KG2101080646.jpg",
     "pagination":{
      "pgfolios":{
       "value":"322b"
      }
     }
    },
    {
     "filename":"I2KG2101080647.jpg",
     "pagination":{
      "pgfolios":{
       "value":"323a"
      }
     }
    },
    {
     "filename":"I2KG2101080648.jpg",
     "pagination":{
      "pgfolios":{
       "value":"323b"
      }
     }
    },
    {
     "filename":"I2KG2101080649.jpg",
     "pagination":{
      "pgfolios":{
       "value":"324a"
      }
     }
    },
    {
     "filename":"I2KG2101080650.jpg",
     "pagination":{
      "pgfolios":{
       "value":"324b"
      }
     }
    },
    {
     "filename":"I2KG2101080651.jpg",
     "pagination":{
      "pgfolios":{
       "value":"325a"
      }
     }
    },
    {
     "filename":"I2KG2101080652.jpg",
     "pagination":{
      "pgfolios":{
       "value":"325b"
      }
     }
    },
    {
     "filename":"I2KG2101080653.jpg",
     "pagination":{
      "pgfolios":{
       "value":"326a"
      }
     }
    },
    {
     "filename":"I2KG2101080654.jpg",
     "pagination":{
      "pgfolios":{
       "value":"326b"
      }
     }
    },
    {
     "filename":"I2KG2101080655.jpg",
     "pagination":{
      "pgfolios":{
       "value":"327a"
      }
     }
    },
    {
     "filename":"I2KG2101080656.jpg",
     "pagination":{
      "pgfolios":{
       "value":"327b"
      }
     }
    },
    {
     "filename":"I2KG2101080657.jpg",
     "pagination":{
      "pgfolios":{
       "value":"328a"
      }
     }
    },
    {
     "filename":"I2KG2101080658.jpg",
     "pagination":{
      "pgfolios":{
       "value":"328b"
      }
     }
    },
    {
     "filename":"I2KG2101080659.jpg",
     "pagination":{
      "pgfolios":{
       "value":"329a"
      }
     }
    },
    {
     "filename":"I2KG2101080660.jpg",
     "pagination":{
      "pgfolios":{
       "value":"329b"
      }
     }
    },
    {
     "filename":"I2KG2101080661.jpg",
     "pagination":{
      "pgfolios":{
       "value":"330a"
      }
     }
    },
    {
     "filename":"I2KG2101080662.jpg",
     "pagination":{
      "pgfolios":{
       "value":"330b"
      }
     }
    },
    {
     "filename":"I2KG2101080663.jpg",
     "pagination":{
      "pgfolios":{
       "value":"331a"
      }
     }
    },
    {
     "filename":"I2KG2101080664.jpg",
     "pagination":{
      "pgfolios":{
       "value":"331b"
      }
     }
    },
    {
     "filename":"I2KG2101080665.jpg",
     "pagination":{
      "pgfolios":{
       "value":"332a"
      }
     }
    },
    {
     "filename":"I2KG2101080666.jpg",
     "pagination":{
      "pgfolios":{
       "value":"332b"
      }
     }
    },
    {
     "filename":"I2KG2101080667.jpg",
     "pagination":{
      "pgfolios":{
       "value":"333a"
      }
     }
    },
    {
     "filename":"I2KG2101080668.jpg",
     "pagination":{
      "pgfolios":{
       "value":"333b"
      }
     }
    },
    {
     "filename":"I2KG2101080669.jpg",
     "pagination":{
      "pgfolios":{
       "value":"334a"
      }
     }
    },
    {
     "filename":"I2KG2101080670.jpg",
     "pagination":{
      "pgfolios":{
       "value":"334b"
      }
     }
    },
    {
     "filename":"I2KG2101080671.jpg",
     "pagination":{
      "pgfolios":{
       "value":"335a"
      }
     }
    },
    {
     "filename":"I2KG2101080672.jpg",
     "pagination":{
      "pgfolios":{
       "value":"335b"
      }
     }
    },
    {
     "filename":"I2KG2101080673.jpg",
     "pagination":{
      "pgfolios":{
       "value":"336a"
      }
     }
    },
    {
     "filename":"I2KG2101080674.jpg",
     "pagination":{
      "pgfolios":{
       "value":"336b"
      }
     }
    },
    {
     "filename":"I2KG2101080675.jpg",
     "pagination":{
      "pgfolios":{
       "value":"337a"
      }
     }
    },
    {
     "filename":"I2KG2101080676.jpg",
     "pagination":{
      "pgfolios":{
       "value":"337b"
      }
     }
    },
    {
     "filename":"I2KG2101080677.jpg",
     "pagination":{
      "pgfolios":{
       "value":"338a"
      }
     }
    },
    {
     "filename":"I2KG2101080678.jpg",
     "pagination":{
      "pgfolios":{
       "value":"338b"
      }
     }
    },
    {
     "filename":"I2KG2101080679.jpg",
     "pagination":{
      "pgfolios":{
       "value":"339a"
      }
     }
    },
    {
     "filename":"I2KG2101080680.jpg",
     "pagination":{
      "pgfolios":{
       "value":"339b"
      }
     }
    },
    {
     "filename":"I2KG2101080681.jpg",
     "pagination":{
      "pgfolios":{
       "value":"340a"
      }
     }
    },
    {
     "filename":"I2KG2101080682.jpg",
     "pagination":{
      "pgfolios":{
       "value":"340b"
      }
     }
    },
    {
     "filename":"I2KG2101080683.jpg",
     "pagination":{
      "pgfolios":{
       "value":"341a"
      }
     }
    },
    {
     "filename":"I2KG2101080684.jpg",
     "pagination":{
      "pgfolios":{
       "value":"341b"
      }
     }
    },
    {
     "filename":"I2KG2101080685.jpg",
     "pagination":{
      "pgfolios":{
       "value":"342a"
      }
     }
    },
    {
     "filename":"I2KG2101080686.jpg",
     "pagination":{
      "pgfolios":{
       "value":"342b"
      }
     }
    },
    {
     "filename":"I2KG2101080687.jpg",
     "pagination":{
      "pgfolios":{
       "value":"343a"
      }
     }
    },
    {
     "filename":"I2KG2101080688.jpg",
     "pagination":{
      "pgfolios":{
       "value":"343b"
      }
     }
    },
    {
     "filename":"I2KG2101080689.jpg",
     "pagination":{
      "pgfolios":{
       "value":"344a"
      }
     }
    },
    {
     "filename":"I2KG2101080690.jpg",
     "pagination":{
      "pgfolios":{
       "value":"344b"
      }
     }
    },
    {
     "filename":"I2KG2101080691.jpg",
     "pagination":{
      "pgfolios":{
       "value":"345a"
      }
     }
    },
    {
     "filename":"I2KG2101080692.jpg",
     "pagination":{
      "pgfolios":{
       "value":"345b"
      }
     }
    },
    {
     "filename":"I2KG2101080693.jpg",
     "pagination":{
      "pgfolios":{
       "value":"346a"
      }
     }
    },
    {
     "filename":"I2KG2101080694.jpg",
     "pagination":{
      "pgfolios":{
       "value":"346b"
      }
     }
    },
    {
     "filename":"I2KG2101080695.jpg",
     "pagination":{
      "pgfolios":{
       "value":"347a"
      }
     }
    },
    {
     "filename":"I2KG2101080696.jpg",
     "pagination":{
      "pgfolios":{
       "value":"347b"
      }
     }
    },
    {
     "filename":"I2KG2101080697.jpg",
     "pagination":{
      "pgfolios":{
       "value":"348a"
      }
     }
    },
    {
     "filename":"I2KG2101080698.jpg",
     "pagination":{
      "pgfolios":{
       "value":"348b"
      }
     }
    },
    {
     "filename":"I2KG2101080699.jpg",
     "pagination":{
      "pgfolios":{
       "value":"349a"
      }
     }
    },
    {
     "filename":"I2KG2101080700.jpg",
     "pagination":{
      "pgfolios":{
       "value":"349b"
      }
     }
    },
    {
     "filename":"I2KG2101080701.jpg",
     "pagination":{
      "pgfolios":{
       "value":"350a"
      }
     }
    },
    {
     "filename":"I2KG2101080702.jpg",
     "pagination":{
      "pgfolios":{
       "value":"350b"
      }
     }
    },
    {
     "filename":"I2KG2101080703.jpg",
     "pagination":{
      "pgfolios":{
       "value":"351a"
      }
     }
    },
    {
     "filename":"I2KG2101080704.jpg",
     "pagination":{
      "pgfolios":{
       "value":"351b"
      }
     }
    },
    {
     "filename":"I2KG2101080705.jpg",
     "pagination":{
      "pgfolios":{
       "value":"352a"
      }
     }
    },
    {
     "filename":"I2KG2101080706.jpg",
     "pagination":{
      "pgfolios":{
       "value":"352b"
      }
     }
    },
    {
     "filename":"I2KG2101080707.jpg",
     "hidden":true
    }
   ]
  }
 },
 "viewing-direction":"top-to-bottom"
}