{
 "appData":{
  "bvmt":{
   "default-vol-string-lang":"bo",
   "metadata-for-bvmt-ver":"0.1.0"
  }
 },
 "attribution":[
  {
   "@language":"en",
   "@value":"Data provided by rKTs under the CC0 license"
  }
 ],
 "changes":[
  {
   "message":{
    "@language":"en",
    "@value":"migration from rKTs data"
   },
   "time":"2020-10-03T11:35:30Z",
   "user":"bdu:U1653882847"
  }
 ],
 "default-view":"view1",
 "imggroup":"bdr:I4CZ75137",
 "pagination":[
  {
   "id":"pgfolios",
   "type":"folios"
  }
 ],
 "sections":[
  {
   "id":"1",
   "name":{
    "@language":"bo-x-ewts",
    "@value":"1"
   }
  },
  {
   "id":"2",
   "name":{
    "@language":"bo-x-ewts",
    "@value":"2"
   }
  }
 ],
 "spec-version":"0.1.0",
 "status":"released",
 "view":{
  "view1":{
   "imagelist":[
    {
     "filename":"I4CZ751370001.tif",
     "hidden":true,
     "tags":[
      "T0005"
     ]
    },
    {
     "filename":"I4CZ751370002.tif",
     "hidden":true,
     "tags":[
      "T0005"
     ]
    },
    {
     "filename":"I4CZ751370003.jpg",
     "pagination":{
      "pgfolios":{
       "section":"1",
       "value":"1a"
      }
     }
    },
    {
     "filename":"I4CZ751370004.jpg",
     "pagination":{
      "pgfolios":{
       "section":"1",
       "value":"1b"
      }
     }
    },
    {
     "filename":"I4CZ751370005.jpg",
     "pagination":{
      "pgfolios":{
       "section":"1",
       "value":"2a"
      }
     }
    },
    {
     "filename":"I4CZ751370006.jpg",
     "pagination":{
      "pgfolios":{
       "section":"1",
       "value":"2b"
      }
     }
    },
    {
     "filename":"I4CZ751370007.jpg",
     "pagination":{
      "pgfolios":{
       "section":"1",
       "value":"3a"
      }
     }
    },
    {
     "filename":"I4CZ751370008.jpg",
     "pagination":{
      "pgfolios":{
       "section":"1",
       "value":"3b"
      }
     }
    },
    {
     "filename":"I4CZ751370009.jpg",
     "pagination":{
      "pgfolios":{
       "section":"1",
       "value":"4a"
      }
     }
    },
    {
     "filename":"I4CZ751370010.jpg",
     "pagination":{
      "pgfolios":{
       "section":"1",
       "value":"4b"
      }
     }
    },
    {
     "filename":"I4CZ751370011.jpg",
     "pagination":{
      "pgfolios":{
       "section":"1",
       "value":"5a"
      }
     }
    },
    {
     "filename":"I4CZ751370012.jpg",
     "pagination":{
      "pgfolios":{
       "section":"1",
       "value":"5b"
      }
     }
    },
    {
     "filename":"I4CZ751370013.jpg",
     "pagination":{
      "pgfolios":{
       "section":"1",
       "value":"6a"
      }
     }
    },
    {
     "filename":"I4CZ751370014.jpg",
     "pagination":{
      "pgfolios":{
       "section":"1",
       "value":"6b"
      }
     }
    },
    {
     "filename":"I4CZ751370015.jpg",
     "pagination":{
      "pgfolios":{
       "section":"1",
       "value":"7a"
      }
     }
    },
    {
     "filename":"I4CZ751370016.jpg",
     "pagination":{
      "pgfolios":{
       "section":"1",
       "value":"7b"
      }
     }
    },
    {
     "filename":"I4CZ751370017.jpg",
     "pagination":{
      "pgfolios":{
       "section":"1",
       "value":"8a"
      }
     }
    },
    {
     "filename":"I4CZ751370018.jpg",
     "pagination":{
      "pgfolios":{
       "section":"1",
       "value":"8b"
      }
     }
    },
    {
     "filename":"I4CZ751370019.jpg",
     "pagination":{
      "pgfolios":{
       "section":"1",
       "value":"9a"
      }
     }
    },
    {
     "filename":"I4CZ751370020.jpg",
     "pagination":{
      "pgfolios":{
       "section":"1",
       "value":"9b"
      }
     }
    },
    {
     "filename":"I4CZ751370021.jpg",
     "pagination":{
      "pgfolios":{
       "section":"1",
       "value":"10a"
      }
     }
    },
    {
     "filename":"I4CZ751370022.jpg",
     "pagination":{
      "pgfolios":{
       "section":"1",
       "value":"10b"
      }
     }
    },
    {
     "filename":"I4CZ751370023.jpg",
     "pagination":{
      "pgfolios":{
       "section":"1",
       "value":"11a"
      }
     }
    },
    {
     "filename":"I4CZ751370024.jpg",
     "pagination":{
      "pgfolios":{
       "section":"1",
       "value":"11b"
      }
     }
    },
    {
     "filename":"I4CZ751370025.jpg",
     "pagination":{
      "pgfolios":{
       "section":"1",
       "value":"12a"
      }
     }
    },
    {
     "filename":"I4CZ751370026.jpg",
     "pagination":{
      "pgfolios":{
       "section":"1",
       "value":"12b"
      }
     }
    },
    {
     "filename":"I4CZ751370027.jpg",
     "pagination":{
      "pgfolios":{
       "section":"1",
       "value":"13a"
      }
     }
    },
    {
     "filename":"I4CZ751370028.jpg",
     "pagination":{
      "pgfolios":{
       "section":"1",
       "value":"13b"
      }
     }
    },
    {
     "filename":"I4CZ751370029.jpg",
     "pagination":{
      "pgfolios":{
       "section":"1",
       "value":"14a"
      }
     }
    },
    {
     "filename":"I4CZ751370030.jpg",
     "pagination":{
      "pgfolios":{
       "section":"1",
       "value":"14b"
      }
     }
    },
    {
     "filename":"I4CZ751370031.jpg",
     "pagination":{
      "pgfolios":{
       "section":"1",
       "value":"15a"
      }
     }
    },
    {
     "filename":"I4CZ751370032.jpg",
     "pagination":{
      "pgfolios":{
       "section":"1",
       "value":"15b"
      }
     }
    },
    {
     "filename":"I4CZ751370033.jpg",
     "pagination":{
      "pgfolios":{
       "section":"1",
       "value":"16a"
      }
     }
    },
    {
     "filename":"I4CZ751370034.jpg",
     "pagination":{
      "pgfolios":{
       "section":"1",
       "value":"16b"
      }
     }
    },
    {
     "filename":"I4CZ751370035.jpg",
     "pagination":{
      "pgfolios":{
       "section":"1",
       "value":"17a"
      }
     }
    },
    {
     "filename":"I4CZ751370036.jpg",
     "pagination":{
      "pgfolios":{
       "section":"1",
       "value":"17b"
      }
     }
    },
    {
     "filename":"I4CZ751370037.jpg",
     "pagination":{
      "pgfolios":{
       "section":"1",
       "value":"18a"
      }
     }
    },
    {
     "filename":"I4CZ751370038.jpg",
     "pagination":{
      "pgfolios":{
       "section":"1",
       "value":"18b"
      }
     }
    },
    {
     "filename":"I4CZ751370039.jpg",
     "pagination":{
      "pgfolios":{
       "section":"1",
       "value":"19a"
      }
     }
    },
    {
     "filename":"I4CZ751370040.jpg",
     "pagination":{
      "pgfolios":{
       "section":"1",
       "value":"19b"
      }
     }
    },
    {
     "filename":"I4CZ751370041.jpg",
     "pagination":{
      "pgfolios":{
       "section":"1",
       "value":"20a"
      }
     }
    },
    {
     "filename":"I4CZ751370042.jpg",
     "pagination":{
      "pgfolios":{
       "section":"1",
       "value":"20b"
      }
     }
    },
    {
     "filename":"I4CZ751370043.jpg",
     "pagination":{
      "pgfolios":{
       "section":"1",
       "value":"21a"
      }
     }
    },
    {
     "filename":"I4CZ751370044.jpg",
     "pagination":{
      "pgfolios":{
       "section":"1",
       "value":"21b"
      }
     }
    },
    {
     "filename":"I4CZ751370045.jpg",
     "pagination":{
      "pgfolios":{
       "section":"1",
       "value":"22a"
      }
     }
    },
    {
     "filename":"I4CZ751370046.jpg",
     "pagination":{
      "pgfolios":{
       "section":"1",
       "value":"22b"
      }
     }
    },
    {
     "filename":"I4CZ751370047.jpg",
     "pagination":{
      "pgfolios":{
       "section":"1",
       "value":"23a"
      }
     }
    },
    {
     "filename":"I4CZ751370048.jpg",
     "pagination":{
      "pgfolios":{
       "section":"1",
       "value":"23b"
      }
     }
    },
    {
     "filename":"I4CZ751370049.jpg",
     "pagination":{
      "pgfolios":{
       "section":"1",
       "value":"24a"
      }
     }
    },
    {
     "filename":"I4CZ751370050.jpg",
     "pagination":{
      "pgfolios":{
       "section":"1",
       "value":"24b"
      }
     }
    },
    {
     "filename":"I4CZ751370051.jpg",
     "pagination":{
      "pgfolios":{
       "section":"1",
       "value":"25a"
      }
     }
    },
    {
     "filename":"I4CZ751370052.jpg",
     "pagination":{
      "pgfolios":{
       "section":"1",
       "value":"25b"
      }
     }
    },
    {
     "filename":"I4CZ751370053.jpg",
     "pagination":{
      "pgfolios":{
       "section":"1",
       "value":"26a"
      }
     }
    },
    {
     "filename":"I4CZ751370054.jpg",
     "pagination":{
      "pgfolios":{
       "section":"1",
       "value":"26b"
      }
     }
    },
    {
     "filename":"I4CZ751370055.jpg",
     "pagination":{
      "pgfolios":{
       "section":"1",
       "value":"27a"
      }
     }
    },
    {
     "filename":"I4CZ751370056.jpg",
     "pagination":{
      "pgfolios":{
       "section":"1",
       "value":"27b"
      }
     }
    },
    {
     "filename":"I4CZ751370057.jpg",
     "pagination":{
      "pgfolios":{
       "section":"1",
       "value":"28a"
      }
     }
    },
    {
     "filename":"I4CZ751370058.jpg",
     "pagination":{
      "pgfolios":{
       "section":"1",
       "value":"28b"
      }
     }
    },
    {
     "filename":"I4CZ751370059.jpg",
     "pagination":{
      "pgfolios":{
       "section":"1",
       "value":"29a"
      }
     }
    },
    {
     "filename":"I4CZ751370060.jpg",
     "pagination":{
      "pgfolios":{
       "section":"1",
       "value":"29b"
      }
     }
    },
    {
     "filename":"I4CZ751370061.jpg",
     "pagination":{
      "pgfolios":{
       "section":"1",
       "value":"30a"
      }
     }
    },
    {
     "filename":"I4CZ751370062.jpg",
     "pagination":{
      "pgfolios":{
       "section":"1",
       "value":"30b"
      }
     }
    },
    {
     "filename":"I4CZ751370063.jpg",
     "pagination":{
      "pgfolios":{
       "section":"1",
       "value":"31a"
      }
     }
    },
    {
     "filename":"I4CZ751370064.jpg",
     "pagination":{
      "pgfolios":{
       "section":"1",
       "value":"31b"
      }
     }
    },
    {
     "filename":"I4CZ751370065.jpg",
     "pagination":{
      "pgfolios":{
       "section":"1",
       "value":"32a"
      }
     }
    },
    {
     "filename":"I4CZ751370066.jpg",
     "pagination":{
      "pgfolios":{
       "section":"1",
       "value":"32b"
      }
     }
    },
    {
     "filename":"I4CZ751370067.jpg",
     "pagination":{
      "pgfolios":{
       "section":"1",
       "value":"33a"
      }
     }
    },
    {
     "filename":"I4CZ751370068.jpg",
     "pagination":{
      "pgfolios":{
       "section":"1",
       "value":"33b"
      }
     }
    },
    {
     "filename":"I4CZ751370069.jpg",
     "pagination":{
      "pgfolios":{
       "section":"1",
       "value":"34a"
      }
     }
    },
    {
     "filename":"I4CZ751370070.jpg",
     "pagination":{
      "pgfolios":{
       "section":"1",
       "value":"34b"
      }
     }
    },
    {
     "filename":"I4CZ751370071.jpg",
     "pagination":{
      "pgfolios":{
       "section":"1",
       "value":"35a"
      }
     }
    },
    {
     "filename":"I4CZ751370072.jpg",
     "pagination":{
      "pgfolios":{
       "section":"1",
       "value":"35b"
      }
     }
    },
    {
     "filename":"I4CZ751370073.jpg",
     "pagination":{
      "pgfolios":{
       "section":"1",
       "value":"36a"
      }
     }
    },
    {
     "filename":"I4CZ751370074.jpg",
     "pagination":{
      "pgfolios":{
       "section":"1",
       "value":"36b"
      }
     }
    },
    {
     "filename":"I4CZ751370075.jpg",
     "pagination":{
      "pgfolios":{
       "section":"1",
       "value":"37a"
      }
     }
    },
    {
     "filename":"I4CZ751370076.jpg",
     "pagination":{
      "pgfolios":{
       "section":"1",
       "value":"37b"
      }
     }
    },
    {
     "filename":"I4CZ751370077.jpg",
     "pagination":{
      "pgfolios":{
       "section":"1",
       "value":"38a"
      }
     }
    },
    {
     "filename":"I4CZ751370078.jpg",
     "pagination":{
      "pgfolios":{
       "section":"1",
       "value":"38b"
      }
     }
    },
    {
     "filename":"I4CZ751370079.jpg",
     "pagination":{
      "pgfolios":{
       "section":"1",
       "value":"39a"
      }
     }
    },
    {
     "filename":"I4CZ751370080.jpg",
     "pagination":{
      "pgfolios":{
       "section":"1",
       "value":"39b"
      }
     }
    },
    {
     "filename":"I4CZ751370081.jpg",
     "pagination":{
      "pgfolios":{
       "section":"1",
       "value":"40a"
      }
     }
    },
    {
     "filename":"I4CZ751370082.jpg",
     "pagination":{
      "pgfolios":{
       "section":"1",
       "value":"40b"
      }
     }
    },
    {
     "filename":"I4CZ751370083.jpg",
     "pagination":{
      "pgfolios":{
       "section":"1",
       "value":"41a"
      }
     }
    },
    {
     "filename":"I4CZ751370084.jpg",
     "pagination":{
      "pgfolios":{
       "section":"1",
       "value":"41b"
      }
     }
    },
    {
     "filename":"I4CZ751370085.jpg",
     "pagination":{
      "pgfolios":{
       "section":"1",
       "value":"42a"
      }
     }
    },
    {
     "filename":"I4CZ751370086.jpg",
     "pagination":{
      "pgfolios":{
       "section":"1",
       "value":"42b"
      }
     }
    },
    {
     "filename":"I4CZ751370087.jpg",
     "pagination":{
      "pgfolios":{
       "section":"1",
       "value":"43a"
      }
     }
    },
    {
     "filename":"I4CZ751370088.jpg",
     "pagination":{
      "pgfolios":{
       "section":"1",
       "value":"43b"
      }
     }
    },
    {
     "filename":"I4CZ751370089.jpg",
     "pagination":{
      "pgfolios":{
       "section":"1",
       "value":"44a"
      }
     }
    },
    {
     "filename":"I4CZ751370090.jpg",
     "pagination":{
      "pgfolios":{
       "section":"1",
       "value":"44b"
      }
     }
    },
    {
     "filename":"I4CZ751370091.jpg",
     "pagination":{
      "pgfolios":{
       "section":"1",
       "value":"45a"
      }
     }
    },
    {
     "filename":"I4CZ751370092.jpg",
     "pagination":{
      "pgfolios":{
       "section":"1",
       "value":"45b"
      }
     }
    },
    {
     "filename":"I4CZ751370093.jpg",
     "pagination":{
      "pgfolios":{
       "section":"1",
       "value":"46a"
      }
     }
    },
    {
     "filename":"I4CZ751370094.jpg",
     "pagination":{
      "pgfolios":{
       "section":"1",
       "value":"46b"
      }
     }
    },
    {
     "filename":"I4CZ751370095.jpg",
     "pagination":{
      "pgfolios":{
       "section":"1",
       "value":"47a"
      }
     }
    },
    {
     "filename":"I4CZ751370096.jpg",
     "pagination":{
      "pgfolios":{
       "section":"1",
       "value":"47b"
      }
     }
    },
    {
     "filename":"I4CZ751370097.jpg",
     "pagination":{
      "pgfolios":{
       "section":"1",
       "value":"48a"
      }
     }
    },
    {
     "filename":"I4CZ751370098.jpg",
     "pagination":{
      "pgfolios":{
       "section":"1",
       "value":"48b"
      }
     }
    },
    {
     "filename":"I4CZ751370099.jpg",
     "pagination":{
      "pgfolios":{
       "section":"1",
       "value":"49a"
      }
     }
    },
    {
     "filename":"I4CZ751370100.jpg",
     "pagination":{
      "pgfolios":{
       "section":"1",
       "value":"49b"
      }
     }
    },
    {
     "filename":"I4CZ751370101.jpg",
     "pagination":{
      "pgfolios":{
       "section":"1",
       "value":"50a"
      }
     }
    },
    {
     "filename":"I4CZ751370102.jpg",
     "pagination":{
      "pgfolios":{
       "section":"1",
       "value":"50b"
      }
     }
    },
    {
     "filename":"I4CZ751370103.jpg",
     "pagination":{
      "pgfolios":{
       "section":"1",
       "value":"51a"
      }
     }
    },
    {
     "filename":"I4CZ751370104.jpg",
     "pagination":{
      "pgfolios":{
       "section":"1",
       "value":"51b"
      }
     }
    },
    {
     "filename":"I4CZ751370105.jpg",
     "pagination":{
      "pgfolios":{
       "section":"1",
       "value":"52a"
      }
     }
    },
    {
     "filename":"I4CZ751370106.jpg",
     "pagination":{
      "pgfolios":{
       "section":"1",
       "value":"52b"
      }
     }
    },
    {
     "filename":"I4CZ751370107.jpg",
     "pagination":{
      "pgfolios":{
       "section":"1",
       "value":"53a"
      }
     }
    },
    {
     "filename":"I4CZ751370108.jpg",
     "pagination":{
      "pgfolios":{
       "section":"1",
       "value":"53b"
      }
     }
    },
    {
     "filename":"I4CZ751370109.jpg",
     "pagination":{
      "pgfolios":{
       "section":"1",
       "value":"54a"
      }
     }
    },
    {
     "filename":"I4CZ751370110.jpg",
     "pagination":{
      "pgfolios":{
       "section":"1",
       "value":"54b"
      }
     }
    },
    {
     "filename":"I4CZ751370111.jpg",
     "pagination":{
      "pgfolios":{
       "section":"1",
       "value":"55a"
      }
     }
    },
    {
     "filename":"I4CZ751370112.jpg",
     "pagination":{
      "pgfolios":{
       "section":"1",
       "value":"55b"
      }
     }
    },
    {
     "filename":"I4CZ751370113.jpg",
     "pagination":{
      "pgfolios":{
       "section":"1",
       "value":"56a"
      }
     }
    },
    {
     "filename":"I4CZ751370114.jpg",
     "pagination":{
      "pgfolios":{
       "section":"1",
       "value":"56b"
      }
     }
    },
    {
     "filename":"I4CZ751370115.jpg",
     "pagination":{
      "pgfolios":{
       "section":"1",
       "value":"57a"
      }
     }
    },
    {
     "filename":"I4CZ751370116.jpg",
     "pagination":{
      "pgfolios":{
       "section":"1",
       "value":"57b"
      }
     }
    },
    {
     "filename":"I4CZ751370117.jpg",
     "pagination":{
      "pgfolios":{
       "section":"1",
       "value":"58a"
      }
     }
    },
    {
     "filename":"I4CZ751370118.jpg",
     "pagination":{
      "pgfolios":{
       "section":"1",
       "value":"58b"
      }
     }
    },
    {
     "filename":"I4CZ751370119.jpg",
     "pagination":{
      "pgfolios":{
       "section":"1",
       "value":"59a"
      }
     }
    },
    {
     "filename":"I4CZ751370120.jpg",
     "pagination":{
      "pgfolios":{
       "section":"1",
       "value":"59b"
      }
     }
    },
    {
     "filename":"I4CZ751370121.jpg",
     "pagination":{
      "pgfolios":{
       "section":"1",
       "value":"60a"
      }
     }
    },
    {
     "filename":"I4CZ751370122.jpg",
     "pagination":{
      "pgfolios":{
       "section":"1",
       "value":"60b"
      }
     }
    },
    {
     "filename":"I4CZ751370123.jpg",
     "pagination":{
      "pgfolios":{
       "section":"1",
       "value":"61a"
      }
     }
    },
    {
     "filename":"I4CZ751370124.jpg",
     "pagination":{
      "pgfolios":{
       "section":"1",
       "value":"61b"
      }
     }
    },
    {
     "filename":"I4CZ751370125.jpg",
     "pagination":{
      "pgfolios":{
       "section":"1",
       "value":"62a"
      }
     }
    },
    {
     "filename":"I4CZ751370126.jpg",
     "pagination":{
      "pgfolios":{
       "section":"1",
       "value":"62b"
      }
     }
    },
    {
     "filename":"I4CZ751370127.jpg",
     "pagination":{
      "pgfolios":{
       "section":"1",
       "value":"63a"
      }
     }
    },
    {
     "filename":"I4CZ751370128.jpg",
     "pagination":{
      "pgfolios":{
       "section":"1",
       "value":"63b"
      }
     }
    },
    {
     "filename":"I4CZ751370129.jpg",
     "pagination":{
      "pgfolios":{
       "section":"1",
       "value":"64a"
      }
     }
    },
    {
     "filename":"I4CZ751370130.jpg",
     "pagination":{
      "pgfolios":{
       "section":"1",
       "value":"64b"
      }
     }
    },
    {
     "filename":"I4CZ751370131.jpg",
     "pagination":{
      "pgfolios":{
       "section":"1",
       "value":"65a"
      }
     }
    },
    {
     "filename":"I4CZ751370132.jpg",
     "pagination":{
      "pgfolios":{
       "section":"1",
       "value":"65b"
      }
     }
    },
    {
     "filename":"I4CZ751370133.jpg",
     "pagination":{
      "pgfolios":{
       "section":"1",
       "value":"66a"
      }
     }
    },
    {
     "filename":"I4CZ751370134.jpg",
     "pagination":{
      "pgfolios":{
       "section":"1",
       "value":"66b"
      }
     }
    },
    {
     "filename":"I4CZ751370135.jpg",
     "pagination":{
      "pgfolios":{
       "section":"1",
       "value":"67a"
      }
     }
    },
    {
     "filename":"I4CZ751370136.jpg",
     "pagination":{
      "pgfolios":{
       "section":"1",
       "value":"67b"
      }
     }
    },
    {
     "filename":"I4CZ751370137.jpg",
     "pagination":{
      "pgfolios":{
       "section":"1",
       "value":"68a"
      }
     }
    },
    {
     "filename":"I4CZ751370138.jpg",
     "pagination":{
      "pgfolios":{
       "section":"1",
       "value":"68b"
      }
     }
    },
    {
     "filename":"I4CZ751370139.jpg",
     "pagination":{
      "pgfolios":{
       "section":"1",
       "value":"69a"
      }
     }
    },
    {
     "filename":"I4CZ751370140.jpg",
     "pagination":{
      "pgfolios":{
       "section":"1",
       "value":"69b"
      }
     }
    },
    {
     "filename":"I4CZ751370141.jpg",
     "pagination":{
      "pgfolios":{
       "section":"1",
       "value":"70a"
      }
     }
    },
    {
     "filename":"I4CZ751370142.jpg",
     "pagination":{
      "pgfolios":{
       "section":"1",
       "value":"70b"
      }
     }
    },
    {
     "filename":"I4CZ751370143.jpg",
     "pagination":{
      "pgfolios":{
       "section":"1",
       "value":"71a"
      }
     }
    },
    {
     "filename":"I4CZ751370144.jpg",
     "pagination":{
      "pgfolios":{
       "section":"1",
       "value":"71b"
      }
     }
    },
    {
     "filename":"I4CZ751370145.jpg",
     "pagination":{
      "pgfolios":{
       "section":"1",
       "value":"72a"
      }
     }
    },
    {
     "filename":"I4CZ751370146.jpg",
     "pagination":{
      "pgfolios":{
       "section":"1",
       "value":"72b"
      }
     }
    },
    {
     "filename":"I4CZ751370147.jpg",
     "pagination":{
      "pgfolios":{
       "section":"1",
       "value":"73a"
      }
     }
    },
    {
     "filename":"I4CZ751370148.jpg",
     "pagination":{
      "pgfolios":{
       "section":"1",
       "value":"73b"
      }
     }
    },
    {
     "filename":"I4CZ751370149.jpg",
     "pagination":{
      "pgfolios":{
       "section":"1",
       "value":"74a"
      }
     }
    },
    {
     "filename":"I4CZ751370150.jpg",
     "pagination":{
      "pgfolios":{
       "section":"1",
       "value":"74b"
      }
     }
    },
    {
     "filename":"I4CZ751370151.jpg",
     "pagination":{
      "pgfolios":{
       "section":"1",
       "value":"75a"
      }
     }
    },
    {
     "filename":"I4CZ751370152.jpg",
     "pagination":{
      "pgfolios":{
       "section":"1",
       "value":"75b"
      }
     }
    },
    {
     "filename":"I4CZ751370153.jpg",
     "pagination":{
      "pgfolios":{
       "section":"1",
       "value":"76a"
      }
     }
    },
    {
     "filename":"I4CZ751370154.jpg",
     "pagination":{
      "pgfolios":{
       "section":"1",
       "value":"76b"
      }
     }
    },
    {
     "filename":"I4CZ751370155.jpg",
     "pagination":{
      "pgfolios":{
       "section":"1",
       "value":"77a"
      }
     }
    },
    {
     "filename":"I4CZ751370156.jpg",
     "pagination":{
      "pgfolios":{
       "section":"1",
       "value":"77b"
      }
     }
    },
    {
     "filename":"I4CZ751370157.jpg",
     "pagination":{
      "pgfolios":{
       "section":"1",
       "value":"77'a"
      }
     }
    },
    {
     "filename":"I4CZ751370158.jpg",
     "pagination":{
      "pgfolios":{
       "section":"1",
       "value":"77'b"
      }
     }
    },
    {
     "filename":"I4CZ751370159.jpg",
     "pagination":{
      "pgfolios":{
       "section":"1",
       "value":"78a"
      }
     }
    },
    {
     "filename":"I4CZ751370160.jpg",
     "pagination":{
      "pgfolios":{
       "section":"1",
       "value":"78b"
      }
     }
    },
    {
     "filename":"I4CZ751370161.jpg",
     "pagination":{
      "pgfolios":{
       "section":"1",
       "value":"79a"
      }
     }
    },
    {
     "filename":"I4CZ751370162.jpg",
     "pagination":{
      "pgfolios":{
       "section":"1",
       "value":"79b"
      }
     }
    },
    {
     "filename":"I4CZ751370163.jpg",
     "pagination":{
      "pgfolios":{
       "section":"1",
       "value":"80a"
      }
     }
    },
    {
     "filename":"I4CZ751370164.jpg",
     "pagination":{
      "pgfolios":{
       "section":"1",
       "value":"80b"
      }
     }
    },
    {
     "filename":"I4CZ751370165.jpg",
     "pagination":{
      "pgfolios":{
       "section":"1",
       "value":"81a"
      }
     }
    },
    {
     "filename":"I4CZ751370166.jpg",
     "pagination":{
      "pgfolios":{
       "section":"1",
       "value":"81b"
      }
     }
    },
    {
     "filename":"I4CZ751370167.jpg",
     "pagination":{
      "pgfolios":{
       "section":"1",
       "value":"82a"
      }
     }
    },
    {
     "filename":"I4CZ751370168.jpg",
     "pagination":{
      "pgfolios":{
       "section":"1",
       "value":"82b"
      }
     }
    },
    {
     "filename":"I4CZ751370169.jpg",
     "pagination":{
      "pgfolios":{
       "section":"1",
       "value":"83a"
      }
     }
    },
    {
     "filename":"I4CZ751370170.jpg",
     "pagination":{
      "pgfolios":{
       "section":"1",
       "value":"83b"
      }
     }
    },
    {
     "filename":"I4CZ751370171.jpg",
     "pagination":{
      "pgfolios":{
       "section":"1",
       "value":"84a"
      }
     }
    },
    {
     "filename":"I4CZ751370172.jpg",
     "pagination":{
      "pgfolios":{
       "section":"1",
       "value":"84b"
      }
     }
    },
    {
     "filename":"I4CZ751370173.jpg",
     "pagination":{
      "pgfolios":{
       "section":"1",
       "value":"85a"
      }
     }
    },
    {
     "filename":"I4CZ751370174.jpg",
     "pagination":{
      "pgfolios":{
       "section":"1",
       "value":"85b"
      }
     }
    },
    {
     "pagination":{
      "pgfolios":{
       "section":"1",
       "value":"86a"
      }
     },
     "tags":[
      "T0020"
     ]
    },
    {
     "pagination":{
      "pgfolios":{
       "section":"1",
       "value":"86b"
      }
     },
     "tags":[
      "T0020"
     ]
    },
    {
     "pagination":{
      "pgfolios":{
       "section":"1",
       "value":"87a"
      }
     },
     "tags":[
      "T0020"
     ]
    },
    {
     "pagination":{
      "pgfolios":{
       "section":"1",
       "value":"87b"
      }
     },
     "tags":[
      "T0020"
     ]
    },
    {
     "pagination":{
      "pgfolios":{
       "section":"1",
       "value":"88a"
      }
     },
     "tags":[
      "T0020"
     ]
    },
    {
     "pagination":{
      "pgfolios":{
       "section":"1",
       "value":"88b"
      }
     },
     "tags":[
      "T0020"
     ]
    },
    {
     "filename":"I4CZ751370175.jpg",
     "pagination":{
      "pgfolios":{
       "section":"1",
       "value":"89a"
      }
     }
    },
    {
     "filename":"I4CZ751370176.jpg",
     "pagination":{
      "pgfolios":{
       "section":"1",
       "value":"89b"
      }
     }
    },
    {
     "filename":"I4CZ751370177.jpg",
     "pagination":{
      "pgfolios":{
       "section":"1",
       "value":"90a"
      }
     }
    },
    {
     "filename":"I4CZ751370178.jpg",
     "pagination":{
      "pgfolios":{
       "section":"1",
       "value":"90b"
      }
     }
    },
    {
     "filename":"I4CZ751370179.jpg",
     "pagination":{
      "pgfolios":{
       "section":"1",
       "value":"91a"
      }
     }
    },
    {
     "filename":"I4CZ751370180.jpg",
     "pagination":{
      "pgfolios":{
       "section":"1",
       "value":"91b"
      }
     }
    },
    {
     "filename":"I4CZ751370181.jpg",
     "pagination":{
      "pgfolios":{
       "section":"1",
       "value":"92a"
      }
     }
    },
    {
     "filename":"I4CZ751370182.jpg",
     "pagination":{
      "pgfolios":{
       "section":"1",
       "value":"92b"
      }
     }
    },
    {
     "filename":"I4CZ751370183.jpg",
     "pagination":{
      "pgfolios":{
       "section":"1",
       "value":"92'a"
      }
     }
    },
    {
     "filename":"I4CZ751370184.jpg",
     "pagination":{
      "pgfolios":{
       "section":"1",
       "value":"92'b"
      }
     }
    },
    {
     "filename":"I4CZ751370185.jpg",
     "pagination":{
      "pgfolios":{
       "section":"1",
       "value":"93a"
      }
     }
    },
    {
     "filename":"I4CZ751370186.jpg",
     "pagination":{
      "pgfolios":{
       "section":"1",
       "value":"93b"
      }
     }
    },
    {
     "filename":"I4CZ751370187.jpg",
     "pagination":{
      "pgfolios":{
       "section":"1",
       "value":"94a"
      }
     }
    },
    {
     "filename":"I4CZ751370188.jpg",
     "pagination":{
      "pgfolios":{
       "section":"1",
       "value":"94b"
      }
     }
    },
    {
     "filename":"I4CZ751370189.jpg",
     "pagination":{
      "pgfolios":{
       "section":"1",
       "value":"95a"
      }
     }
    },
    {
     "filename":"I4CZ751370190.jpg",
     "pagination":{
      "pgfolios":{
       "section":"1",
       "value":"95b"
      }
     }
    },
    {
     "filename":"I4CZ751370191.jpg",
     "pagination":{
      "pgfolios":{
       "section":"1",
       "value":"96a"
      }
     }
    },
    {
     "filename":"I4CZ751370192.jpg",
     "pagination":{
      "pgfolios":{
       "section":"1",
       "value":"96b"
      }
     }
    },
    {
     "filename":"I4CZ751370193.jpg",
     "pagination":{
      "pgfolios":{
       "section":"1",
       "value":"97a"
      }
     }
    },
    {
     "filename":"I4CZ751370194.jpg",
     "pagination":{
      "pgfolios":{
       "section":"1",
       "value":"97b"
      }
     }
    },
    {
     "filename":"I4CZ751370195.jpg",
     "pagination":{
      "pgfolios":{
       "section":"1",
       "value":"98a"
      }
     }
    },
    {
     "filename":"I4CZ751370196.jpg",
     "pagination":{
      "pgfolios":{
       "section":"1",
       "value":"98b"
      }
     }
    },
    {
     "filename":"I4CZ751370197.jpg",
     "pagination":{
      "pgfolios":{
       "section":"1",
       "value":"99a"
      }
     }
    },
    {
     "filename":"I4CZ751370198.jpg",
     "pagination":{
      "pgfolios":{
       "section":"1",
       "value":"99b"
      }
     }
    },
    {
     "filename":"I4CZ751370199.jpg",
     "pagination":{
      "pgfolios":{
       "section":"1",
       "value":"100a"
      }
     }
    },
    {
     "filename":"I4CZ751370200.jpg",
     "pagination":{
      "pgfolios":{
       "section":"1",
       "value":"100b"
      }
     }
    },
    {
     "filename":"I4CZ751370201.jpg",
     "pagination":{
      "pgfolios":{
       "section":"1",
       "value":"101a"
      }
     }
    },
    {
     "filename":"I4CZ751370202.jpg",
     "pagination":{
      "pgfolios":{
       "section":"1",
       "value":"101b"
      }
     }
    },
    {
     "filename":"I4CZ751370203.jpg",
     "pagination":{
      "pgfolios":{
       "section":"1",
       "value":"102a"
      }
     }
    },
    {
     "filename":"I4CZ751370204.jpg",
     "pagination":{
      "pgfolios":{
       "section":"1",
       "value":"102b"
      }
     }
    },
    {
     "filename":"I4CZ751370205.jpg",
     "pagination":{
      "pgfolios":{
       "section":"1",
       "value":"103a"
      }
     }
    },
    {
     "filename":"I4CZ751370206.jpg",
     "pagination":{
      "pgfolios":{
       "section":"1",
       "value":"103b"
      }
     }
    },
    {
     "filename":"I4CZ751370207.jpg",
     "pagination":{
      "pgfolios":{
       "section":"1",
       "value":"104a"
      }
     }
    },
    {
     "filename":"I4CZ751370208.jpg",
     "pagination":{
      "pgfolios":{
       "section":"1",
       "value":"104b"
      }
     }
    },
    {
     "filename":"I4CZ751370209.jpg",
     "pagination":{
      "pgfolios":{
       "section":"1",
       "value":"105a"
      }
     }
    },
    {
     "filename":"I4CZ751370210.jpg",
     "pagination":{
      "pgfolios":{
       "section":"1",
       "value":"105b"
      }
     }
    },
    {
     "filename":"I4CZ751370211.jpg",
     "pagination":{
      "pgfolios":{
       "section":"1",
       "value":"106a"
      }
     }
    },
    {
     "filename":"I4CZ751370212.jpg",
     "pagination":{
      "pgfolios":{
       "section":"1",
       "value":"106b"
      }
     }
    },
    {
     "filename":"I4CZ751370213.jpg",
     "pagination":{
      "pgfolios":{
       "section":"1",
       "value":"107a"
      }
     }
    },
    {
     "filename":"I4CZ751370214.jpg",
     "pagination":{
      "pgfolios":{
       "section":"1",
       "value":"107b"
      }
     }
    },
    {
     "filename":"I4CZ751370215.jpg",
     "pagination":{
      "pgfolios":{
       "section":"1",
       "value":"108a"
      }
     }
    },
    {
     "filename":"I4CZ751370216.jpg",
     "pagination":{
      "pgfolios":{
       "section":"1",
       "value":"108b"
      }
     }
    },
    {
     "filename":"I4CZ751370217.jpg",
     "pagination":{
      "pgfolios":{
       "section":"1",
       "value":"109a"
      }
     }
    },
    {
     "filename":"I4CZ751370218.jpg",
     "pagination":{
      "pgfolios":{
       "section":"1",
       "value":"109b"
      }
     }
    },
    {
     "filename":"I4CZ751370219.jpg",
     "pagination":{
      "pgfolios":{
       "section":"1",
       "value":"110a"
      }
     }
    },
    {
     "filename":"I4CZ751370220.jpg",
     "pagination":{
      "pgfolios":{
       "section":"1",
       "value":"110b"
      }
     }
    },
    {
     "filename":"I4CZ751370221.jpg",
     "pagination":{
      "pgfolios":{
       "section":"1",
       "value":"111a"
      }
     }
    },
    {
     "filename":"I4CZ751370222.jpg",
     "pagination":{
      "pgfolios":{
       "section":"1",
       "value":"111b"
      }
     }
    },
    {
     "filename":"I4CZ751370223.jpg",
     "pagination":{
      "pgfolios":{
       "section":"1",
       "value":"112a"
      }
     }
    },
    {
     "filename":"I4CZ751370224.jpg",
     "pagination":{
      "pgfolios":{
       "section":"1",
       "value":"112b"
      }
     }
    },
    {
     "filename":"I4CZ751370225.jpg",
     "pagination":{
      "pgfolios":{
       "section":"1",
       "value":"113a"
      }
     }
    },
    {
     "filename":"I4CZ751370226.jpg",
     "pagination":{
      "pgfolios":{
       "section":"1",
       "value":"113b"
      }
     }
    },
    {
     "filename":"I4CZ751370227.jpg",
     "pagination":{
      "pgfolios":{
       "section":"1",
       "value":"114a"
      }
     }
    },
    {
     "filename":"I4CZ751370228.jpg",
     "pagination":{
      "pgfolios":{
       "section":"1",
       "value":"114b"
      }
     }
    },
    {
     "filename":"I4CZ751370229.jpg",
     "pagination":{
      "pgfolios":{
       "section":"1",
       "value":"115a"
      }
     }
    },
    {
     "filename":"I4CZ751370230.jpg",
     "pagination":{
      "pgfolios":{
       "section":"1",
       "value":"115b"
      }
     }
    },
    {
     "filename":"I4CZ751370231.jpg",
     "pagination":{
      "pgfolios":{
       "section":"1",
       "value":"116a"
      }
     }
    },
    {
     "filename":"I4CZ751370232.jpg",
     "pagination":{
      "pgfolios":{
       "section":"1",
       "value":"116b"
      }
     }
    },
    {
     "filename":"I4CZ751370233.jpg",
     "pagination":{
      "pgfolios":{
       "section":"1",
       "value":"117a"
      }
     }
    },
    {
     "filename":"I4CZ751370234.jpg",
     "pagination":{
      "pgfolios":{
       "section":"1",
       "value":"117b"
      }
     }
    },
    {
     "filename":"I4CZ751370235.jpg",
     "pagination":{
      "pgfolios":{
       "section":"1",
       "value":"118a"
      }
     }
    },
    {
     "filename":"I4CZ751370236.jpg",
     "pagination":{
      "pgfolios":{
       "section":"1",
       "value":"118b"
      }
     }
    },
    {
     "filename":"I4CZ751370237.jpg",
     "pagination":{
      "pgfolios":{
       "section":"1",
       "value":"119a"
      }
     }
    },
    {
     "filename":"I4CZ751370238.jpg",
     "pagination":{
      "pgfolios":{
       "section":"1",
       "value":"119b"
      }
     }
    },
    {
     "filename":"I4CZ751370239.jpg",
     "pagination":{
      "pgfolios":{
       "section":"1",
       "value":"120a"
      }
     }
    },
    {
     "filename":"I4CZ751370240.jpg",
     "pagination":{
      "pgfolios":{
       "section":"1",
       "value":"120b"
      }
     }
    },
    {
     "filename":"I4CZ751370241.jpg",
     "pagination":{
      "pgfolios":{
       "section":"1",
       "value":"121a"
      }
     }
    },
    {
     "filename":"I4CZ751370242.jpg",
     "pagination":{
      "pgfolios":{
       "section":"1",
       "value":"121b"
      }
     }
    },
    {
     "filename":"I4CZ751370243.jpg",
     "pagination":{
      "pgfolios":{
       "section":"1",
       "value":"122a"
      }
     }
    },
    {
     "filename":"I4CZ751370244.jpg",
     "pagination":{
      "pgfolios":{
       "section":"1",
       "value":"122b"
      }
     }
    },
    {
     "filename":"I4CZ751370245.jpg",
     "pagination":{
      "pgfolios":{
       "section":"1",
       "value":"123a"
      }
     }
    },
    {
     "filename":"I4CZ751370246.jpg",
     "pagination":{
      "pgfolios":{
       "section":"1",
       "value":"123b"
      }
     }
    },
    {
     "filename":"I4CZ751370247.jpg",
     "pagination":{
      "pgfolios":{
       "section":"1",
       "value":"124a"
      }
     }
    },
    {
     "filename":"I4CZ751370248.jpg",
     "pagination":{
      "pgfolios":{
       "section":"1",
       "value":"124b"
      }
     }
    },
    {
     "filename":"I4CZ751370249.jpg",
     "pagination":{
      "pgfolios":{
       "section":"1",
       "value":"125a"
      }
     }
    },
    {
     "filename":"I4CZ751370250.jpg",
     "pagination":{
      "pgfolios":{
       "section":"1",
       "value":"125b"
      }
     }
    },
    {
     "filename":"I4CZ751370251.jpg",
     "pagination":{
      "pgfolios":{
       "section":"1",
       "value":"126a"
      }
     }
    },
    {
     "filename":"I4CZ751370252.jpg",
     "pagination":{
      "pgfolios":{
       "section":"1",
       "value":"126b"
      }
     }
    },
    {
     "filename":"I4CZ751370253.jpg",
     "pagination":{
      "pgfolios":{
       "section":"1",
       "value":"127a"
      }
     }
    },
    {
     "filename":"I4CZ751370254.jpg",
     "pagination":{
      "pgfolios":{
       "section":"1",
       "value":"127b"
      }
     }
    },
    {
     "filename":"I4CZ751370255.jpg",
     "pagination":{
      "pgfolios":{
       "section":"1",
       "value":"128a"
      }
     }
    },
    {
     "filename":"I4CZ751370256.jpg",
     "pagination":{
      "pgfolios":{
       "section":"1",
       "value":"128b"
      }
     }
    },
    {
     "filename":"I4CZ751370257.jpg",
     "pagination":{
      "pgfolios":{
       "section":"1",
       "value":"129a"
      }
     }
    },
    {
     "filename":"I4CZ751370258.jpg",
     "pagination":{
      "pgfolios":{
       "section":"1",
       "value":"129b"
      }
     }
    },
    {
     "filename":"I4CZ751370259.jpg",
     "pagination":{
      "pgfolios":{
       "section":"2",
       "value":"1a"
      }
     }
    },
    {
     "filename":"I4CZ751370260.jpg",
     "pagination":{
      "pgfolios":{
       "section":"2",
       "value":"1b"
      }
     }
    },
    {
     "filename":"I4CZ751370261.jpg",
     "pagination":{
      "pgfolios":{
       "section":"2",
       "value":"2a"
      }
     }
    },
    {
     "filename":"I4CZ751370262.jpg",
     "pagination":{
      "pgfolios":{
       "section":"2",
       "value":"2b"
      }
     }
    },
    {
     "filename":"I4CZ751370263.jpg",
     "pagination":{
      "pgfolios":{
       "section":"2",
       "value":"3a"
      }
     }
    },
    {
     "filename":"I4CZ751370264.jpg",
     "pagination":{
      "pgfolios":{
       "section":"2",
       "value":"3b"
      }
     }
    },
    {
     "filename":"I4CZ751370265.jpg",
     "pagination":{
      "pgfolios":{
       "section":"2",
       "value":"4a"
      }
     }
    },
    {
     "filename":"I4CZ751370266.jpg",
     "pagination":{
      "pgfolios":{
       "section":"2",
       "value":"4b"
      }
     }
    },
    {
     "filename":"I4CZ751370267.jpg",
     "pagination":{
      "pgfolios":{
       "section":"2",
       "value":"5a"
      }
     }
    },
    {
     "filename":"I4CZ751370268.jpg",
     "pagination":{
      "pgfolios":{
       "section":"2",
       "value":"5b"
      }
     }
    },
    {
     "filename":"I4CZ751370269.jpg",
     "pagination":{
      "pgfolios":{
       "section":"2",
       "value":"6a"
      }
     }
    },
    {
     "filename":"I4CZ751370270.jpg",
     "pagination":{
      "pgfolios":{
       "section":"2",
       "value":"6b"
      }
     }
    },
    {
     "filename":"I4CZ751370271.jpg",
     "pagination":{
      "pgfolios":{
       "section":"2",
       "value":"7a"
      }
     }
    },
    {
     "filename":"I4CZ751370272.jpg",
     "pagination":{
      "pgfolios":{
       "section":"2",
       "value":"7b"
      }
     }
    },
    {
     "filename":"I4CZ751370273.jpg",
     "pagination":{
      "pgfolios":{
       "section":"2",
       "value":"8a"
      }
     }
    },
    {
     "filename":"I4CZ751370274.jpg",
     "pagination":{
      "pgfolios":{
       "section":"2",
       "value":"8b"
      }
     }
    },
    {
     "filename":"I4CZ751370275.jpg",
     "pagination":{
      "pgfolios":{
       "section":"2",
       "value":"9a"
      }
     }
    },
    {
     "filename":"I4CZ751370276.jpg",
     "pagination":{
      "pgfolios":{
       "section":"2",
       "value":"9b"
      }
     }
    },
    {
     "filename":"I4CZ751370277.jpg",
     "pagination":{
      "pgfolios":{
       "section":"2",
       "value":"10a"
      }
     }
    },
    {
     "filename":"I4CZ751370278.jpg",
     "pagination":{
      "pgfolios":{
       "section":"2",
       "value":"10b"
      }
     }
    },
    {
     "filename":"I4CZ751370279.jpg",
     "pagination":{
      "pgfolios":{
       "section":"2",
       "value":"11a"
      }
     }
    },
    {
     "filename":"I4CZ751370280.jpg",
     "pagination":{
      "pgfolios":{
       "section":"2",
       "value":"11b"
      }
     }
    },
    {
     "filename":"I4CZ751370281.jpg",
     "pagination":{
      "pgfolios":{
       "section":"2",
       "value":"12a"
      }
     }
    },
    {
     "filename":"I4CZ751370282.jpg",
     "pagination":{
      "pgfolios":{
       "section":"2",
       "value":"12b"
      }
     }
    },
    {
     "filename":"I4CZ751370283.jpg",
     "pagination":{
      "pgfolios":{
       "section":"2",
       "value":"13a"
      }
     }
    },
    {
     "filename":"I4CZ751370284.jpg",
     "pagination":{
      "pgfolios":{
       "section":"2",
       "value":"13b"
      }
     }
    },
    {
     "filename":"I4CZ751370285.jpg",
     "pagination":{
      "pgfolios":{
       "section":"2",
       "value":"14a"
      }
     }
    },
    {
     "filename":"I4CZ751370286.jpg",
     "pagination":{
      "pgfolios":{
       "section":"2",
       "value":"14b"
      }
     }
    },
    {
     "filename":"I4CZ751370287.jpg",
     "pagination":{
      "pgfolios":{
       "section":"2",
       "value":"15a"
      }
     }
    },
    {
     "filename":"I4CZ751370288.jpg",
     "pagination":{
      "pgfolios":{
       "section":"2",
       "value":"15b"
      }
     }
    },
    {
     "filename":"I4CZ751370289.jpg",
     "pagination":{
      "pgfolios":{
       "section":"2",
       "value":"16a"
      }
     }
    },
    {
     "filename":"I4CZ751370290.jpg",
     "pagination":{
      "pgfolios":{
       "section":"2",
       "value":"16b"
      }
     }
    },
    {
     "filename":"I4CZ751370291.jpg",
     "pagination":{
      "pgfolios":{
       "section":"2",
       "value":"17a"
      }
     }
    },
    {
     "filename":"I4CZ751370292.jpg",
     "pagination":{
      "pgfolios":{
       "section":"2",
       "value":"17b"
      }
     }
    },
    {
     "filename":"I4CZ751370293.jpg",
     "pagination":{
      "pgfolios":{
       "section":"2",
       "value":"18a"
      }
     }
    },
    {
     "filename":"I4CZ751370294.jpg",
     "pagination":{
      "pgfolios":{
       "section":"2",
       "value":"18b"
      }
     }
    },
    {
     "filename":"I4CZ751370295.jpg",
     "pagination":{
      "pgfolios":{
       "section":"2",
       "value":"19a"
      }
     }
    },
    {
     "filename":"I4CZ751370296.jpg",
     "pagination":{
      "pgfolios":{
       "section":"2",
       "value":"19b"
      }
     }
    },
    {
     "filename":"I4CZ751370297.jpg",
     "pagination":{
      "pgfolios":{
       "section":"2",
       "value":"20a"
      }
     }
    },
    {
     "filename":"I4CZ751370298.jpg",
     "pagination":{
      "pgfolios":{
       "section":"2",
       "value":"20b"
      }
     }
    },
    {
     "filename":"I4CZ751370299.jpg",
     "pagination":{
      "pgfolios":{
       "section":"2",
       "value":"21a"
      }
     }
    },
    {
     "filename":"I4CZ751370300.jpg",
     "pagination":{
      "pgfolios":{
       "section":"2",
       "value":"21b"
      }
     }
    },
    {
     "filename":"I4CZ751370301.jpg",
     "pagination":{
      "pgfolios":{
       "section":"2",
       "value":"22a"
      }
     }
    },
    {
     "filename":"I4CZ751370302.jpg",
     "pagination":{
      "pgfolios":{
       "section":"2",
       "value":"22b"
      }
     }
    },
    {
     "filename":"I4CZ751370303.jpg",
     "pagination":{
      "pgfolios":{
       "section":"2",
       "value":"23a"
      }
     }
    },
    {
     "filename":"I4CZ751370304.jpg",
     "pagination":{
      "pgfolios":{
       "section":"2",
       "value":"23b"
      }
     }
    },
    {
     "filename":"I4CZ751370305.jpg",
     "pagination":{
      "pgfolios":{
       "section":"2",
       "value":"24a"
      }
     }
    },
    {
     "filename":"I4CZ751370306.jpg",
     "pagination":{
      "pgfolios":{
       "section":"2",
       "value":"24b"
      }
     }
    },
    {
     "filename":"I4CZ751370307.jpg",
     "pagination":{
      "pgfolios":{
       "section":"2",
       "value":"25a"
      }
     }
    },
    {
     "filename":"I4CZ751370308.jpg",
     "pagination":{
      "pgfolios":{
       "section":"2",
       "value":"25b"
      }
     }
    },
    {
     "filename":"I4CZ751370309.jpg",
     "pagination":{
      "pgfolios":{
       "section":"2",
       "value":"26a"
      }
     }
    },
    {
     "filename":"I4CZ751370310.jpg",
     "pagination":{
      "pgfolios":{
       "section":"2",
       "value":"26b"
      }
     }
    },
    {
     "filename":"I4CZ751370311.jpg",
     "pagination":{
      "pgfolios":{
       "section":"2",
       "value":"27a"
      }
     }
    },
    {
     "filename":"I4CZ751370312.jpg",
     "pagination":{
      "pgfolios":{
       "section":"2",
       "value":"27b"
      }
     }
    },
    {
     "filename":"I4CZ751370313.jpg",
     "pagination":{
      "pgfolios":{
       "section":"2",
       "value":"28a"
      }
     }
    },
    {
     "filename":"I4CZ751370314.jpg",
     "pagination":{
      "pgfolios":{
       "section":"2",
       "value":"28b"
      }
     }
    },
    {
     "filename":"I4CZ751370315.jpg",
     "pagination":{
      "pgfolios":{
       "section":"2",
       "value":"29a"
      }
     }
    },
    {
     "filename":"I4CZ751370316.jpg",
     "pagination":{
      "pgfolios":{
       "section":"2",
       "value":"29b"
      }
     }
    },
    {
     "filename":"I4CZ751370317.jpg",
     "pagination":{
      "pgfolios":{
       "section":"2",
       "value":"30a"
      }
     }
    },
    {
     "filename":"I4CZ751370318.jpg",
     "pagination":{
      "pgfolios":{
       "section":"2",
       "value":"30b"
      }
     }
    },
    {
     "filename":"I4CZ751370319.jpg",
     "pagination":{
      "pgfolios":{
       "section":"2",
       "value":"31a"
      }
     }
    },
    {
     "filename":"I4CZ751370320.jpg",
     "pagination":{
      "pgfolios":{
       "section":"2",
       "value":"31b"
      }
     }
    },
    {
     "filename":"I4CZ751370321.jpg",
     "pagination":{
      "pgfolios":{
       "section":"2",
       "value":"32a"
      }
     }
    },
    {
     "filename":"I4CZ751370322.jpg",
     "pagination":{
      "pgfolios":{
       "section":"2",
       "value":"32b"
      }
     }
    },
    {
     "filename":"I4CZ751370323.jpg",
     "pagination":{
      "pgfolios":{
       "section":"2",
       "value":"33a"
      }
     }
    },
    {
     "filename":"I4CZ751370324.jpg",
     "pagination":{
      "pgfolios":{
       "section":"2",
       "value":"33b"
      }
     }
    },
    {
     "filename":"I4CZ751370325.jpg",
     "pagination":{
      "pgfolios":{
       "section":"2",
       "value":"34a"
      }
     }
    },
    {
     "filename":"I4CZ751370326.jpg",
     "pagination":{
      "pgfolios":{
       "section":"2",
       "value":"34b"
      }
     }
    },
    {
     "filename":"I4CZ751370327.jpg",
     "pagination":{
      "pgfolios":{
       "section":"2",
       "value":"35a"
      }
     }
    },
    {
     "filename":"I4CZ751370328.jpg",
     "pagination":{
      "pgfolios":{
       "section":"2",
       "value":"35b"
      }
     }
    },
    {
     "filename":"I4CZ751370329.jpg",
     "pagination":{
      "pgfolios":{
       "section":"2",
       "value":"36a"
      }
     }
    },
    {
     "filename":"I4CZ751370330.jpg",
     "pagination":{
      "pgfolios":{
       "section":"2",
       "value":"36b"
      }
     }
    },
    {
     "filename":"I4CZ751370331.jpg",
     "pagination":{
      "pgfolios":{
       "section":"2",
       "value":"37a"
      }
     }
    },
    {
     "filename":"I4CZ751370332.jpg",
     "pagination":{
      "pgfolios":{
       "section":"2",
       "value":"37b"
      }
     }
    },
    {
     "filename":"I4CZ751370333.jpg",
     "pagination":{
      "pgfolios":{
       "section":"2",
       "value":"38a"
      }
     }
    },
    {
     "filename":"I4CZ751370334.jpg",
     "pagination":{
      "pgfolios":{
       "section":"2",
       "value":"38b"
      }
     }
    },
    {
     "filename":"I4CZ751370335.jpg",
     "pagination":{
      "pgfolios":{
       "section":"2",
       "value":"39a"
      }
     }
    },
    {
     "filename":"I4CZ751370336.jpg",
     "pagination":{
      "pgfolios":{
       "section":"2",
       "value":"39b"
      }
     }
    },
    {
     "filename":"I4CZ751370337.jpg",
     "pagination":{
      "pgfolios":{
       "section":"2",
       "value":"40a"
      }
     }
    },
    {
     "filename":"I4CZ751370338.jpg",
     "pagination":{
      "pgfolios":{
       "section":"2",
       "value":"40b"
      }
     }
    },
    {
     "filename":"I4CZ751370339.jpg",
     "pagination":{
      "pgfolios":{
       "section":"2",
       "value":"41a"
      }
     }
    },
    {
     "filename":"I4CZ751370340.jpg",
     "pagination":{
      "pgfolios":{
       "section":"2",
       "value":"41b"
      }
     }
    },
    {
     "filename":"I4CZ751370341.jpg",
     "pagination":{
      "pgfolios":{
       "section":"2",
       "value":"42a"
      }
     }
    },
    {
     "filename":"I4CZ751370342.jpg",
     "pagination":{
      "pgfolios":{
       "section":"2",
       "value":"42b"
      }
     }
    },
    {
     "filename":"I4CZ751370343.jpg",
     "pagination":{
      "pgfolios":{
       "section":"2",
       "value":"43a"
      }
     }
    },
    {
     "filename":"I4CZ751370344.jpg",
     "pagination":{
      "pgfolios":{
       "section":"2",
       "value":"43b"
      }
     }
    },
    {
     "filename":"I4CZ751370345.jpg",
     "pagination":{
      "pgfolios":{
       "section":"2",
       "value":"44a"
      }
     }
    },
    {
     "filename":"I4CZ751370346.jpg",
     "pagination":{
      "pgfolios":{
       "section":"2",
       "value":"44b"
      }
     }
    },
    {
     "filename":"I4CZ751370347.jpg",
     "pagination":{
      "pgfolios":{
       "section":"2",
       "value":"45a"
      }
     }
    },
    {
     "filename":"I4CZ751370348.jpg",
     "pagination":{
      "pgfolios":{
       "section":"2",
       "value":"45b"
      }
     }
    },
    {
     "filename":"I4CZ751370349.jpg",
     "pagination":{
      "pgfolios":{
       "section":"2",
       "value":"46a"
      }
     }
    },
    {
     "filename":"I4CZ751370350.jpg",
     "pagination":{
      "pgfolios":{
       "section":"2",
       "value":"46b"
      }
     }
    },
    {
     "filename":"I4CZ751370351.jpg",
     "pagination":{
      "pgfolios":{
       "section":"2",
       "value":"47a"
      }
     }
    },
    {
     "filename":"I4CZ751370352.jpg",
     "pagination":{
      "pgfolios":{
       "section":"2",
       "value":"47b"
      }
     }
    },
    {
     "filename":"I4CZ751370353.jpg",
     "pagination":{
      "pgfolios":{
       "section":"2",
       "value":"48a"
      }
     }
    },
    {
     "filename":"I4CZ751370354.jpg",
     "pagination":{
      "pgfolios":{
       "section":"2",
       "value":"48b"
      }
     }
    },
    {
     "filename":"I4CZ751370355.jpg",
     "pagination":{
      "pgfolios":{
       "section":"2",
       "value":"49a"
      }
     }
    },
    {
     "filename":"I4CZ751370356.jpg",
     "pagination":{
      "pgfolios":{
       "section":"2",
       "value":"49b"
      }
     }
    },
    {
     "filename":"I4CZ751370357.jpg",
     "pagination":{
      "pgfolios":{
       "section":"2",
       "value":"50a"
      }
     }
    },
    {
     "filename":"I4CZ751370358.jpg",
     "pagination":{
      "pgfolios":{
       "section":"2",
       "value":"50b"
      }
     }
    },
    {
     "filename":"I4CZ751370359.jpg",
     "pagination":{
      "pgfolios":{
       "section":"2",
       "value":"51a"
      }
     }
    },
    {
     "filename":"I4CZ751370360.jpg",
     "pagination":{
      "pgfolios":{
       "section":"2",
       "value":"51b"
      }
     }
    },
    {
     "pagination":{
      "pgfolios":{
       "section":"2",
       "value":"52a"
      }
     },
     "tags":[
      "T0020"
     ]
    },
    {
     "pagination":{
      "pgfolios":{
       "section":"2",
       "value":"52b"
      }
     },
     "tags":[
      "T0020"
     ]
    },
    {
     "filename":"I4CZ751370361.jpg",
     "pagination":{
      "pgfolios":{
       "section":"2",
       "value":"53a"
      }
     }
    },
    {
     "filename":"I4CZ751370362.jpg",
     "pagination":{
      "pgfolios":{
       "section":"2",
       "value":"53b"
      }
     }
    },
    {
     "filename":"I4CZ751370363.jpg",
     "pagination":{
      "pgfolios":{
       "section":"2",
       "value":"54a"
      }
     }
    },
    {
     "filename":"I4CZ751370364.jpg",
     "pagination":{
      "pgfolios":{
       "section":"2",
       "value":"54b"
      }
     }
    },
    {
     "filename":"I4CZ751370365.jpg",
     "pagination":{
      "pgfolios":{
       "section":"2",
       "value":"55a"
      }
     }
    },
    {
     "filename":"I4CZ751370366.jpg",
     "pagination":{
      "pgfolios":{
       "section":"2",
       "value":"55b"
      }
     }
    },
    {
     "filename":"I4CZ751370367.jpg",
     "pagination":{
      "pgfolios":{
       "section":"2",
       "value":"56a"
      }
     }
    },
    {
     "filename":"I4CZ751370368.jpg",
     "pagination":{
      "pgfolios":{
       "section":"2",
       "value":"56b"
      }
     }
    },
    {
     "filename":"I4CZ751370369.jpg",
     "pagination":{
      "pgfolios":{
       "section":"2",
       "value":"57a"
      }
     }
    },
    {
     "filename":"I4CZ751370370.jpg",
     "pagination":{
      "pgfolios":{
       "section":"2",
       "value":"57b"
      }
     }
    },
    {
     "pagination":{
      "pgfolios":{
       "section":"2",
       "value":"58a"
      }
     },
     "tags":[
      "T0020"
     ]
    },
    {
     "pagination":{
      "pgfolios":{
       "section":"2",
       "value":"58b"
      }
     },
     "tags":[
      "T0020"
     ]
    },
    {
     "filename":"I4CZ751370371.jpg",
     "pagination":{
      "pgfolios":{
       "section":"2",
       "value":"59a"
      }
     }
    },
    {
     "filename":"I4CZ751370372.jpg",
     "pagination":{
      "pgfolios":{
       "section":"2",
       "value":"59b"
      }
     }
    },
    {
     "filename":"I4CZ751370373.jpg",
     "pagination":{
      "pgfolios":{
       "section":"2",
       "value":"60a"
      }
     }
    },
    {
     "filename":"I4CZ751370374.jpg",
     "pagination":{
      "pgfolios":{
       "section":"2",
       "value":"60b"
      }
     }
    },
    {
     "filename":"I4CZ751370375.jpg",
     "pagination":{
      "pgfolios":{
       "section":"2",
       "value":"61a"
      }
     }
    },
    {
     "filename":"I4CZ751370376.jpg",
     "pagination":{
      "pgfolios":{
       "section":"2",
       "value":"61b"
      }
     }
    },
    {
     "filename":"I4CZ751370377.jpg",
     "pagination":{
      "pgfolios":{
       "section":"2",
       "value":"62a"
      }
     }
    },
    {
     "filename":"I4CZ751370378.jpg",
     "pagination":{
      "pgfolios":{
       "section":"2",
       "value":"62b"
      }
     }
    },
    {
     "filename":"I4CZ751370379.jpg",
     "pagination":{
      "pgfolios":{
       "section":"2",
       "value":"63a"
      }
     }
    },
    {
     "filename":"I4CZ751370380.jpg",
     "pagination":{
      "pgfolios":{
       "section":"2",
       "value":"63b"
      }
     }
    },
    {
     "filename":"I4CZ751370381.jpg",
     "pagination":{
      "pgfolios":{
       "section":"2",
       "value":"64a"
      }
     }
    },
    {
     "filename":"I4CZ751370382.jpg",
     "pagination":{
      "pgfolios":{
       "section":"2",
       "value":"64b"
      }
     }
    },
    {
     "filename":"I4CZ751370383.jpg",
     "pagination":{
      "pgfolios":{
       "section":"2",
       "value":"65a"
      }
     }
    },
    {
     "filename":"I4CZ751370384.jpg",
     "pagination":{
      "pgfolios":{
       "section":"2",
       "value":"65b"
      }
     }
    },
    {
     "filename":"I4CZ751370385.jpg",
     "pagination":{
      "pgfolios":{
       "section":"2",
       "value":"66a"
      }
     }
    },
    {
     "filename":"I4CZ751370386.jpg",
     "pagination":{
      "pgfolios":{
       "section":"2",
       "value":"66b"
      }
     }
    },
    {
     "filename":"I4CZ751370387.jpg",
     "pagination":{
      "pgfolios":{
       "section":"2",
       "value":"67a"
      }
     }
    },
    {
     "filename":"I4CZ751370388.jpg",
     "pagination":{
      "pgfolios":{
       "section":"2",
       "value":"67b"
      }
     }
    },
    {
     "filename":"I4CZ751370389.jpg",
     "pagination":{
      "pgfolios":{
       "section":"2",
       "value":"68a"
      }
     }
    },
    {
     "filename":"I4CZ751370390.jpg",
     "pagination":{
      "pgfolios":{
       "section":"2",
       "value":"68b"
      }
     }
    },
    {
     "filename":"I4CZ751370391.jpg",
     "pagination":{
      "pgfolios":{
       "section":"2",
       "value":"69a"
      }
     }
    },
    {
     "filename":"I4CZ751370392.jpg",
     "pagination":{
      "pgfolios":{
       "section":"2",
       "value":"69b"
      }
     }
    },
    {
     "filename":"I4CZ751370393.jpg",
     "pagination":{
      "pgfolios":{
       "section":"2",
       "value":"70a"
      }
     }
    },
    {
     "filename":"I4CZ751370394.jpg",
     "pagination":{
      "pgfolios":{
       "section":"2",
       "value":"70b"
      }
     }
    },
    {
     "filename":"I4CZ751370395.jpg",
     "pagination":{
      "pgfolios":{
       "section":"2",
       "value":"71a"
      }
     }
    },
    {
     "filename":"I4CZ751370396.jpg",
     "pagination":{
      "pgfolios":{
       "section":"2",
       "value":"71b"
      }
     }
    },
    {
     "filename":"I4CZ751370397.jpg",
     "pagination":{
      "pgfolios":{
       "section":"2",
       "value":"72a"
      }
     }
    },
    {
     "filename":"I4CZ751370398.jpg",
     "pagination":{
      "pgfolios":{
       "section":"2",
       "value":"72b"
      }
     }
    },
    {
     "filename":"I4CZ751370399.jpg",
     "pagination":{
      "pgfolios":{
       "section":"2",
       "value":"73a"
      }
     }
    },
    {
     "filename":"I4CZ751370400.jpg",
     "pagination":{
      "pgfolios":{
       "section":"2",
       "value":"73b"
      }
     }
    },
    {
     "filename":"I4CZ751370401.jpg",
     "pagination":{
      "pgfolios":{
       "section":"2",
       "value":"74a"
      }
     }
    },
    {
     "filename":"I4CZ751370402.jpg",
     "pagination":{
      "pgfolios":{
       "section":"2",
       "value":"74b"
      }
     }
    },
    {
     "filename":"I4CZ751370403.jpg",
     "pagination":{
      "pgfolios":{
       "section":"2",
       "value":"75a"
      }
     }
    },
    {
     "filename":"I4CZ751370404.jpg",
     "pagination":{
      "pgfolios":{
       "section":"2",
       "value":"75b"
      }
     }
    },
    {
     "filename":"I4CZ751370405.jpg",
     "pagination":{
      "pgfolios":{
       "section":"2",
       "value":"76a"
      }
     }
    },
    {
     "filename":"I4CZ751370406.jpg",
     "pagination":{
      "pgfolios":{
       "section":"2",
       "value":"76b"
      }
     }
    },
    {
     "filename":"I4CZ751370407.jpg",
     "pagination":{
      "pgfolios":{
       "section":"2",
       "value":"77a"
      }
     }
    },
    {
     "filename":"I4CZ751370408.jpg",
     "pagination":{
      "pgfolios":{
       "section":"2",
       "value":"77b"
      }
     }
    },
    {
     "filename":"I4CZ751370409.jpg",
     "pagination":{
      "pgfolios":{
       "section":"2",
       "value":"78a"
      }
     }
    },
    {
     "filename":"I4CZ751370410.jpg",
     "pagination":{
      "pgfolios":{
       "section":"2",
       "value":"78b"
      }
     }
    },
    {
     "filename":"I4CZ751370411.jpg",
     "pagination":{
      "pgfolios":{
       "section":"2",
       "value":"79a"
      }
     }
    },
    {
     "filename":"I4CZ751370412.jpg",
     "pagination":{
      "pgfolios":{
       "section":"2",
       "value":"79b"
      }
     }
    },
    {
     "filename":"I4CZ751370413.jpg",
     "pagination":{
      "pgfolios":{
       "section":"2",
       "value":"80a"
      }
     }
    },
    {
     "filename":"I4CZ751370414.jpg",
     "pagination":{
      "pgfolios":{
       "section":"2",
       "value":"80b"
      }
     }
    },
    {
     "filename":"I4CZ751370415.jpg",
     "pagination":{
      "pgfolios":{
       "section":"2",
       "value":"81a"
      }
     }
    },
    {
     "filename":"I4CZ751370416.jpg",
     "pagination":{
      "pgfolios":{
       "section":"2",
       "value":"81b"
      }
     }
    },
    {
     "filename":"I4CZ751370417.jpg",
     "pagination":{
      "pgfolios":{
       "section":"2",
       "value":"82a"
      }
     }
    },
    {
     "filename":"I4CZ751370418.jpg",
     "pagination":{
      "pgfolios":{
       "section":"2",
       "value":"82b"
      }
     }
    },
    {
     "filename":"I4CZ751370419.jpg",
     "pagination":{
      "pgfolios":{
       "section":"2",
       "value":"83a"
      }
     }
    },
    {
     "filename":"I4CZ751370420.jpg",
     "pagination":{
      "pgfolios":{
       "section":"2",
       "value":"83b"
      }
     }
    },
    {
     "filename":"I4CZ751370421.jpg",
     "pagination":{
      "pgfolios":{
       "section":"2",
       "value":"84a"
      }
     }
    },
    {
     "filename":"I4CZ751370422.jpg",
     "pagination":{
      "pgfolios":{
       "section":"2",
       "value":"84b"
      }
     }
    },
    {
     "filename":"I4CZ751370423.jpg",
     "pagination":{
      "pgfolios":{
       "section":"2",
       "value":"85a"
      }
     }
    },
    {
     "filename":"I4CZ751370424.jpg",
     "pagination":{
      "pgfolios":{
       "section":"2",
       "value":"85b"
      }
     }
    },
    {
     "filename":"I4CZ751370425.jpg",
     "pagination":{
      "pgfolios":{
       "section":"2",
       "value":"86a"
      }
     }
    },
    {
     "filename":"I4CZ751370426.jpg",
     "pagination":{
      "pgfolios":{
       "section":"2",
       "value":"86b"
      }
     }
    },
    {
     "filename":"I4CZ751370427.jpg",
     "pagination":{
      "pgfolios":{
       "section":"2",
       "value":"87a"
      }
     }
    },
    {
     "filename":"I4CZ751370428.jpg",
     "pagination":{
      "pgfolios":{
       "section":"2",
       "value":"87b"
      }
     }
    },
    {
     "filename":"I4CZ751370429.jpg",
     "pagination":{
      "pgfolios":{
       "section":"2",
       "value":"88a"
      }
     }
    },
    {
     "filename":"I4CZ751370430.jpg",
     "pagination":{
      "pgfolios":{
       "section":"2",
       "value":"88b"
      }
     }
    },
    {
     "filename":"I4CZ751370431.jpg",
     "pagination":{
      "pgfolios":{
       "section":"2",
       "value":"89a"
      }
     }
    },
    {
     "filename":"I4CZ751370432.jpg",
     "pagination":{
      "pgfolios":{
       "section":"2",
       "value":"89b"
      }
     }
    },
    {
     "filename":"I4CZ751370433.jpg",
     "pagination":{
      "pgfolios":{
       "section":"2",
       "value":"90a"
      }
     }
    },
    {
     "filename":"I4CZ751370434.jpg",
     "pagination":{
      "pgfolios":{
       "section":"2",
       "value":"90b"
      }
     }
    },
    {
     "filename":"I4CZ751370435.jpg",
     "pagination":{
      "pgfolios":{
       "section":"2",
       "value":"91a"
      }
     }
    },
    {
     "filename":"I4CZ751370436.jpg",
     "pagination":{
      "pgfolios":{
       "section":"2",
       "value":"91b"
      }
     }
    },
    {
     "filename":"I4CZ751370437.jpg",
     "pagination":{
      "pgfolios":{
       "section":"2",
       "value":"92a"
      }
     }
    },
    {
     "filename":"I4CZ751370438.jpg",
     "pagination":{
      "pgfolios":{
       "section":"2",
       "value":"92b"
      }
     }
    },
    {
     "filename":"I4CZ751370439.jpg",
     "pagination":{
      "pgfolios":{
       "section":"2",
       "value":"93a"
      }
     }
    },
    {
     "filename":"I4CZ751370440.jpg",
     "pagination":{
      "pgfolios":{
       "section":"2",
       "value":"93b"
      }
     }
    },
    {
     "filename":"I4CZ751370441.jpg",
     "pagination":{
      "pgfolios":{
       "section":"2",
       "value":"94a"
      }
     }
    },
    {
     "filename":"I4CZ751370442.jpg",
     "pagination":{
      "pgfolios":{
       "section":"2",
       "value":"94b"
      }
     }
    },
    {
     "filename":"I4CZ751370443.jpg",
     "pagination":{
      "pgfolios":{
       "section":"2",
       "value":"95a"
      }
     }
    },
    {
     "filename":"I4CZ751370444.jpg",
     "pagination":{
      "pgfolios":{
       "section":"2",
       "value":"95b"
      }
     }
    },
    {
     "filename":"I4CZ751370445.jpg",
     "pagination":{
      "pgfolios":{
       "section":"2",
       "value":"96a"
      }
     }
    },
    {
     "filename":"I4CZ751370446.jpg",
     "pagination":{
      "pgfolios":{
       "section":"2",
       "value":"96b"
      }
     }
    },
    {
     "filename":"I4CZ751370447.jpg",
     "pagination":{
      "pgfolios":{
       "section":"2",
       "value":"97a"
      }
     }
    },
    {
     "filename":"I4CZ751370448.jpg",
     "pagination":{
      "pgfolios":{
       "section":"2",
       "value":"97b"
      }
     }
    },
    {
     "filename":"I4CZ751370449.jpg",
     "pagination":{
      "pgfolios":{
       "section":"2",
       "value":"98a"
      }
     }
    },
    {
     "filename":"I4CZ751370450.jpg",
     "pagination":{
      "pgfolios":{
       "section":"2",
       "value":"98b"
      }
     }
    },
    {
     "filename":"I4CZ751370451.jpg",
     "pagination":{
      "pgfolios":{
       "section":"2",
       "value":"99a"
      }
     }
    },
    {
     "filename":"I4CZ751370452.jpg",
     "pagination":{
      "pgfolios":{
       "section":"2",
       "value":"99b"
      }
     }
    },
    {
     "filename":"I4CZ751370453.jpg",
     "pagination":{
      "pgfolios":{
       "section":"2",
       "value":"100a"
      }
     }
    },
    {
     "filename":"I4CZ751370454.jpg",
     "pagination":{
      "pgfolios":{
       "section":"2",
       "value":"100b"
      }
     }
    },
    {
     "filename":"I4CZ751370455.jpg",
     "pagination":{
      "pgfolios":{
       "section":"2",
       "value":"101a"
      }
     }
    },
    {
     "filename":"I4CZ751370456.jpg",
     "pagination":{
      "pgfolios":{
       "section":"2",
       "value":"101b"
      }
     }
    },
    {
     "filename":"I4CZ751370457.jpg",
     "pagination":{
      "pgfolios":{
       "section":"2",
       "value":"102a"
      }
     }
    },
    {
     "filename":"I4CZ751370458.jpg",
     "pagination":{
      "pgfolios":{
       "section":"2",
       "value":"102b"
      }
     }
    },
    {
     "filename":"I4CZ751370459.jpg",
     "pagination":{
      "pgfolios":{
       "section":"2",
       "value":"103a"
      }
     }
    },
    {
     "filename":"I4CZ751370460.jpg",
     "pagination":{
      "pgfolios":{
       "section":"2",
       "value":"103b"
      }
     }
    },
    {
     "filename":"I4CZ751370461.jpg",
     "pagination":{
      "pgfolios":{
       "section":"2",
       "value":"104a"
      }
     }
    },
    {
     "filename":"I4CZ751370462.jpg",
     "pagination":{
      "pgfolios":{
       "section":"2",
       "value":"104b"
      }
     }
    },
    {
     "filename":"I4CZ751370463.jpg",
     "pagination":{
      "pgfolios":{
       "section":"2",
       "value":"105a"
      }
     }
    },
    {
     "filename":"I4CZ751370464.jpg",
     "pagination":{
      "pgfolios":{
       "section":"2",
       "value":"105b"
      }
     }
    },
    {
     "filename":"I4CZ751370465.jpg",
     "pagination":{
      "pgfolios":{
       "section":"2",
       "value":"106a"
      }
     }
    },
    {
     "filename":"I4CZ751370466.jpg",
     "pagination":{
      "pgfolios":{
       "section":"2",
       "value":"106b"
      }
     }
    },
    {
     "filename":"I4CZ751370467.jpg",
     "pagination":{
      "pgfolios":{
       "section":"2",
       "value":"107a"
      }
     }
    },
    {
     "filename":"I4CZ751370468.jpg",
     "pagination":{
      "pgfolios":{
       "section":"2",
       "value":"107b"
      }
     }
    },
    {
     "filename":"I4CZ751370469.jpg",
     "pagination":{
      "pgfolios":{
       "section":"2",
       "value":"108a"
      }
     }
    },
    {
     "filename":"I4CZ751370470.jpg",
     "pagination":{
      "pgfolios":{
       "section":"2",
       "value":"108b"
      }
     }
    },
    {
     "filename":"I4CZ751370471.jpg",
     "pagination":{
      "pgfolios":{
       "section":"2",
       "value":"109a"
      }
     }
    },
    {
     "filename":"I4CZ751370472.jpg",
     "pagination":{
      "pgfolios":{
       "section":"2",
       "value":"109b"
      }
     }
    },
    {
     "filename":"I4CZ751370473.jpg",
     "pagination":{
      "pgfolios":{
       "section":"2",
       "value":"110a"
      }
     }
    },
    {
     "filename":"I4CZ751370474.jpg",
     "pagination":{
      "pgfolios":{
       "section":"2",
       "value":"110b"
      }
     }
    },
    {
     "filename":"I4CZ751370475.jpg",
     "pagination":{
      "pgfolios":{
       "section":"2",
       "value":"111a"
      }
     }
    },
    {
     "filename":"I4CZ751370476.jpg",
     "pagination":{
      "pgfolios":{
       "section":"2",
       "value":"111b"
      }
     }
    },
    {
     "filename":"I4CZ751370477.jpg",
     "pagination":{
      "pgfolios":{
       "section":"2",
       "value":"112a"
      }
     }
    },
    {
     "filename":"I4CZ751370478.jpg",
     "pagination":{
      "pgfolios":{
       "section":"2",
       "value":"112b"
      }
     }
    },
    {
     "filename":"I4CZ751370479.jpg",
     "pagination":{
      "pgfolios":{
       "section":"2",
       "value":"113a"
      }
     }
    },
    {
     "filename":"I4CZ751370480.jpg",
     "pagination":{
      "pgfolios":{
       "section":"2",
       "value":"113b"
      }
     }
    },
    {
     "filename":"I4CZ751370481.jpg",
     "pagination":{
      "pgfolios":{
       "section":"2",
       "value":"114a"
      }
     }
    },
    {
     "filename":"I4CZ751370482.jpg",
     "pagination":{
      "pgfolios":{
       "section":"2",
       "value":"114b"
      }
     }
    },
    {
     "filename":"I4CZ751370483.jpg",
     "hidden":true
    },
    {
     "filename":"I4CZ751370484.jpg",
     "hidden":true
    }
   ]
  }
 },
 "viewing-direction":"top-to-bottom"
}