{
 "appData":{
  "bvmt":{
   "default-vol-string-lang":"bo",
   "metadata-for-bvmt-ver":"0.1.0"
  }
 },
 "attribution":[
  {
   "@language":"en",
   "@value":"Data provided by rKTs under the CC0 license"
  }
 ],
 "changes":[
  {
   "message":{
    "@language":"en",
    "@value":"migration from rKTs data"
   },
   "time":"2020-10-03T11:35:30Z",
   "user":"bdu:U1653882847"
  }
 ],
 "default-view":"view1",
 "imggroup":"bdr:I1CZ4918",
 "pagination":[
  {
   "id":"pgfolios",
   "type":"folios"
  }
 ],
 "sections":[
  {
   "id":"1",
   "name":{
    "@language":"bo-x-ewts",
    "@value":"1"
   }
  },
  {
   "id":"2",
   "name":{
    "@language":"bo-x-ewts",
    "@value":"2"
   }
  }
 ],
 "spec-version":"0.1.0",
 "status":"released",
 "view":{
  "view1":{
   "imagelist":[
    {
     "filename":"I1CZ49180001.tif",
     "hidden":true,
     "tags":[
      "T0005"
     ]
    },
    {
     "filename":"I1CZ49180002.tif",
     "hidden":true,
     "tags":[
      "T0005"
     ]
    },
    {
     "filename":"I1CZ49180003.tif",
     "pagination":{
      "pgfolios":{
       "section":"1",
       "value":"1a"
      }
     }
    },
    {
     "filename":"I1CZ49180004.tif",
     "pagination":{
      "pgfolios":{
       "section":"1",
       "value":"1b"
      }
     }
    },
    {
     "filename":"I1CZ49180005.tif",
     "pagination":{
      "pgfolios":{
       "section":"1",
       "value":"2a"
      }
     }
    },
    {
     "filename":"I1CZ49180006.tif",
     "pagination":{
      "pgfolios":{
       "section":"1",
       "value":"2b"
      }
     }
    },
    {
     "filename":"I1CZ49180007.tif",
     "pagination":{
      "pgfolios":{
       "section":"1",
       "value":"3a"
      }
     }
    },
    {
     "filename":"I1CZ49180008.tif",
     "pagination":{
      "pgfolios":{
       "section":"1",
       "value":"3b"
      }
     }
    },
    {
     "filename":"I1CZ49180009.tif",
     "pagination":{
      "pgfolios":{
       "section":"1",
       "value":"4a"
      }
     }
    },
    {
     "filename":"I1CZ49180010.tif",
     "pagination":{
      "pgfolios":{
       "section":"1",
       "value":"4b"
      }
     }
    },
    {
     "filename":"I1CZ49180011.tif",
     "pagination":{
      "pgfolios":{
       "section":"1",
       "value":"5a"
      }
     }
    },
    {
     "filename":"I1CZ49180012.tif",
     "pagination":{
      "pgfolios":{
       "section":"1",
       "value":"5b"
      }
     }
    },
    {
     "filename":"I1CZ49180013.tif",
     "pagination":{
      "pgfolios":{
       "section":"1",
       "value":"6a"
      }
     }
    },
    {
     "filename":"I1CZ49180014.tif",
     "pagination":{
      "pgfolios":{
       "section":"1",
       "value":"6b"
      }
     }
    },
    {
     "filename":"I1CZ49180015.tif",
     "pagination":{
      "pgfolios":{
       "section":"1",
       "value":"7a"
      }
     }
    },
    {
     "filename":"I1CZ49180016.tif",
     "pagination":{
      "pgfolios":{
       "section":"1",
       "value":"7b"
      }
     }
    },
    {
     "filename":"I1CZ49180017.tif",
     "pagination":{
      "pgfolios":{
       "section":"1",
       "value":"8a"
      }
     }
    },
    {
     "filename":"I1CZ49180018.tif",
     "pagination":{
      "pgfolios":{
       "section":"1",
       "value":"8b"
      }
     }
    },
    {
     "filename":"I1CZ49180019.tif",
     "pagination":{
      "pgfolios":{
       "section":"1",
       "value":"9a"
      }
     }
    },
    {
     "filename":"I1CZ49180020.tif",
     "pagination":{
      "pgfolios":{
       "section":"1",
       "value":"9b"
      }
     }
    },
    {
     "filename":"I1CZ49180021.tif",
     "pagination":{
      "pgfolios":{
       "section":"1",
       "value":"10a"
      }
     }
    },
    {
     "filename":"I1CZ49180022.tif",
     "pagination":{
      "pgfolios":{
       "section":"1",
       "value":"10b"
      }
     }
    },
    {
     "filename":"I1CZ49180023.tif",
     "pagination":{
      "pgfolios":{
       "section":"1",
       "value":"11a"
      }
     }
    },
    {
     "filename":"I1CZ49180024.tif",
     "pagination":{
      "pgfolios":{
       "section":"1",
       "value":"11b"
      }
     }
    },
    {
     "filename":"I1CZ49180025.tif",
     "pagination":{
      "pgfolios":{
       "section":"1",
       "value":"12a"
      }
     }
    },
    {
     "filename":"I1CZ49180026.tif",
     "pagination":{
      "pgfolios":{
       "section":"1",
       "value":"12b"
      }
     }
    },
    {
     "filename":"I1CZ49180027.tif",
     "pagination":{
      "pgfolios":{
       "section":"1",
       "value":"13a"
      }
     }
    },
    {
     "filename":"I1CZ49180028.tif",
     "pagination":{
      "pgfolios":{
       "section":"1",
       "value":"13b"
      }
     }
    },
    {
     "filename":"I1CZ49180029.tif",
     "pagination":{
      "pgfolios":{
       "section":"1",
       "value":"14a"
      }
     }
    },
    {
     "filename":"I1CZ49180030.tif",
     "pagination":{
      "pgfolios":{
       "section":"1",
       "value":"14b"
      }
     }
    },
    {
     "filename":"I1CZ49180031.tif",
     "pagination":{
      "pgfolios":{
       "section":"1",
       "value":"15a"
      }
     }
    },
    {
     "filename":"I1CZ49180032.tif",
     "pagination":{
      "pgfolios":{
       "section":"1",
       "value":"15b"
      }
     }
    },
    {
     "filename":"I1CZ49180033.tif",
     "pagination":{
      "pgfolios":{
       "section":"2",
       "value":"1a"
      }
     }
    },
    {
     "filename":"I1CZ49180034.tif",
     "pagination":{
      "pgfolios":{
       "section":"2",
       "value":"1b"
      }
     }
    },
    {
     "filename":"I1CZ49180035.tif",
     "pagination":{
      "pgfolios":{
       "section":"2",
       "value":"2a"
      }
     }
    },
    {
     "filename":"I1CZ49180036.tif",
     "pagination":{
      "pgfolios":{
       "section":"2",
       "value":"2b"
      }
     }
    },
    {
     "filename":"I1CZ49180037.tif",
     "pagination":{
      "pgfolios":{
       "section":"2",
       "value":"3a"
      }
     }
    },
    {
     "filename":"I1CZ49180038.tif",
     "pagination":{
      "pgfolios":{
       "section":"2",
       "value":"3b"
      }
     }
    },
    {
     "filename":"I1CZ49180039.tif",
     "pagination":{
      "pgfolios":{
       "section":"2",
       "value":"4a"
      }
     }
    },
    {
     "filename":"I1CZ49180040.tif",
     "pagination":{
      "pgfolios":{
       "section":"2",
       "value":"4b"
      }
     }
    },
    {
     "filename":"I1CZ49180041.tif",
     "pagination":{
      "pgfolios":{
       "section":"2",
       "value":"5a"
      }
     }
    },
    {
     "filename":"I1CZ49180042.tif",
     "pagination":{
      "pgfolios":{
       "section":"2",
       "value":"5b"
      }
     }
    },
    {
     "filename":"I1CZ49180043.tif",
     "pagination":{
      "pgfolios":{
       "section":"2",
       "value":"6a"
      }
     }
    },
    {
     "filename":"I1CZ49180044.tif",
     "pagination":{
      "pgfolios":{
       "section":"2",
       "value":"6b"
      }
     }
    },
    {
     "filename":"I1CZ49180045.tif",
     "pagination":{
      "pgfolios":{
       "section":"2",
       "value":"7a"
      }
     }
    },
    {
     "filename":"I1CZ49180046.tif",
     "pagination":{
      "pgfolios":{
       "section":"2",
       "value":"7b"
      }
     }
    },
    {
     "filename":"I1CZ49180047.tif",
     "pagination":{
      "pgfolios":{
       "section":"2",
       "value":"8a"
      }
     }
    },
    {
     "filename":"I1CZ49180048.tif",
     "pagination":{
      "pgfolios":{
       "section":"2",
       "value":"8b"
      }
     }
    },
    {
     "filename":"I1CZ49180049.tif",
     "pagination":{
      "pgfolios":{
       "section":"2",
       "value":"9a"
      }
     }
    },
    {
     "filename":"I1CZ49180050.tif",
     "pagination":{
      "pgfolios":{
       "section":"2",
       "value":"9b"
      }
     }
    },
    {
     "filename":"I1CZ49180051.tif",
     "pagination":{
      "pgfolios":{
       "section":"2",
       "value":"10a"
      }
     }
    },
    {
     "filename":"I1CZ49180052.tif",
     "pagination":{
      "pgfolios":{
       "section":"2",
       "value":"10b"
      }
     }
    },
    {
     "filename":"I1CZ49180053.tif",
     "pagination":{
      "pgfolios":{
       "section":"2",
       "value":"11a"
      }
     }
    },
    {
     "filename":"I1CZ49180054.tif",
     "pagination":{
      "pgfolios":{
       "section":"2",
       "value":"11b"
      }
     }
    },
    {
     "filename":"I1CZ49180055.tif",
     "pagination":{
      "pgfolios":{
       "section":"2",
       "value":"12a"
      }
     }
    },
    {
     "filename":"I1CZ49180056.tif",
     "pagination":{
      "pgfolios":{
       "section":"2",
       "value":"12b"
      }
     }
    },
    {
     "filename":"I1CZ49180057.tif",
     "pagination":{
      "pgfolios":{
       "section":"2",
       "value":"13a"
      }
     }
    },
    {
     "filename":"I1CZ49180058.tif",
     "pagination":{
      "pgfolios":{
       "section":"2",
       "value":"13b"
      }
     }
    },
    {
     "filename":"I1CZ49180059.tif",
     "pagination":{
      "pgfolios":{
       "section":"2",
       "value":"14a"
      }
     }
    },
    {
     "filename":"I1CZ49180060.tif",
     "pagination":{
      "pgfolios":{
       "section":"2",
       "value":"14b"
      }
     }
    },
    {
     "filename":"I1CZ49180061.tif",
     "pagination":{
      "pgfolios":{
       "section":"2",
       "value":"15a"
      }
     }
    },
    {
     "filename":"I1CZ49180062.tif",
     "pagination":{
      "pgfolios":{
       "section":"2",
       "value":"15b"
      }
     }
    },
    {
     "filename":"I1CZ49180063.tif",
     "pagination":{
      "pgfolios":{
       "section":"2",
       "value":"16a"
      }
     }
    },
    {
     "filename":"I1CZ49180064.tif",
     "pagination":{
      "pgfolios":{
       "section":"2",
       "value":"16b"
      }
     }
    },
    {
     "filename":"I1CZ49180065.tif",
     "pagination":{
      "pgfolios":{
       "section":"2",
       "value":"17a"
      }
     }
    },
    {
     "filename":"I1CZ49180066.tif",
     "pagination":{
      "pgfolios":{
       "section":"2",
       "value":"17b"
      }
     }
    },
    {
     "filename":"I1CZ49180067.tif",
     "pagination":{
      "pgfolios":{
       "section":"2",
       "value":"18a"
      }
     }
    },
    {
     "filename":"I1CZ49180068.tif",
     "pagination":{
      "pgfolios":{
       "section":"2",
       "value":"18b"
      }
     }
    },
    {
     "filename":"I1CZ49180069.tif",
     "pagination":{
      "pgfolios":{
       "section":"2",
       "value":"19a"
      }
     }
    },
    {
     "filename":"I1CZ49180070.tif",
     "pagination":{
      "pgfolios":{
       "section":"2",
       "value":"19b"
      }
     }
    },
    {
     "filename":"I1CZ49180071.tif",
     "pagination":{
      "pgfolios":{
       "section":"2",
       "value":"20a"
      }
     }
    },
    {
     "filename":"I1CZ49180072.tif",
     "pagination":{
      "pgfolios":{
       "section":"2",
       "value":"20b"
      }
     }
    },
    {
     "filename":"I1CZ49180073.tif",
     "pagination":{
      "pgfolios":{
       "section":"2",
       "value":"21a"
      }
     }
    },
    {
     "filename":"I1CZ49180074.tif",
     "pagination":{
      "pgfolios":{
       "section":"2",
       "value":"21b"
      }
     }
    },
    {
     "filename":"I1CZ49180075.tif",
     "pagination":{
      "pgfolios":{
       "section":"2",
       "value":"22a"
      }
     }
    },
    {
     "filename":"I1CZ49180076.tif",
     "pagination":{
      "pgfolios":{
       "section":"2",
       "value":"22b"
      }
     }
    },
    {
     "filename":"I1CZ49180077.tif",
     "pagination":{
      "pgfolios":{
       "section":"2",
       "value":"23a"
      }
     }
    },
    {
     "filename":"I1CZ49180078.tif",
     "pagination":{
      "pgfolios":{
       "section":"2",
       "value":"23b"
      }
     }
    },
    {
     "filename":"I1CZ49180079.tif",
     "pagination":{
      "pgfolios":{
       "section":"2",
       "value":"24a"
      }
     }
    },
    {
     "filename":"I1CZ49180080.tif",
     "pagination":{
      "pgfolios":{
       "section":"2",
       "value":"24b"
      }
     }
    },
    {
     "filename":"I1CZ49180081.tif",
     "pagination":{
      "pgfolios":{
       "section":"2",
       "value":"25a"
      }
     }
    },
    {
     "filename":"I1CZ49180082.tif",
     "pagination":{
      "pgfolios":{
       "section":"2",
       "value":"25b"
      }
     }
    },
    {
     "filename":"I1CZ49180083.tif",
     "pagination":{
      "pgfolios":{
       "section":"2",
       "value":"26a"
      }
     }
    },
    {
     "filename":"I1CZ49180084.tif",
     "pagination":{
      "pgfolios":{
       "section":"2",
       "value":"26b"
      }
     }
    },
    {
     "filename":"I1CZ49180085.tif",
     "pagination":{
      "pgfolios":{
       "section":"2",
       "value":"27a"
      }
     }
    },
    {
     "filename":"I1CZ49180086.tif",
     "pagination":{
      "pgfolios":{
       "section":"2",
       "value":"27b"
      }
     }
    },
    {
     "filename":"I1CZ49180087.tif",
     "pagination":{
      "pgfolios":{
       "section":"2",
       "value":"28a"
      }
     }
    },
    {
     "filename":"I1CZ49180088.tif",
     "pagination":{
      "pgfolios":{
       "section":"2",
       "value":"28b"
      }
     }
    },
    {
     "filename":"I1CZ49180089.tif",
     "pagination":{
      "pgfolios":{
       "section":"2",
       "value":"29a"
      }
     }
    },
    {
     "filename":"I1CZ49180090.tif",
     "pagination":{
      "pgfolios":{
       "section":"2",
       "value":"29b"
      }
     }
    },
    {
     "filename":"I1CZ49180091.tif",
     "pagination":{
      "pgfolios":{
       "section":"2",
       "value":"30a"
      }
     }
    },
    {
     "filename":"I1CZ49180092.tif",
     "pagination":{
      "pgfolios":{
       "section":"2",
       "value":"30b"
      }
     }
    },
    {
     "filename":"I1CZ49180093.tif",
     "pagination":{
      "pgfolios":{
       "section":"2",
       "value":"31a"
      }
     }
    },
    {
     "filename":"I1CZ49180094.tif",
     "pagination":{
      "pgfolios":{
       "section":"2",
       "value":"31b"
      }
     }
    },
    {
     "filename":"I1CZ49180095.tif",
     "pagination":{
      "pgfolios":{
       "section":"2",
       "value":"32a"
      }
     }
    },
    {
     "filename":"I1CZ49180096.tif",
     "pagination":{
      "pgfolios":{
       "section":"2",
       "value":"32b"
      }
     }
    },
    {
     "filename":"I1CZ49180097.tif",
     "pagination":{
      "pgfolios":{
       "section":"2",
       "value":"33a"
      }
     }
    },
    {
     "filename":"I1CZ49180098.tif",
     "pagination":{
      "pgfolios":{
       "section":"2",
       "value":"33b"
      }
     }
    },
    {
     "filename":"I1CZ49180099.tif",
     "pagination":{
      "pgfolios":{
       "section":"2",
       "value":"34a"
      }
     }
    },
    {
     "filename":"I1CZ49180100.tif",
     "pagination":{
      "pgfolios":{
       "section":"2",
       "value":"34b"
      }
     }
    },
    {
     "filename":"I1CZ49180101.tif",
     "pagination":{
      "pgfolios":{
       "section":"2",
       "value":"35a"
      }
     }
    },
    {
     "filename":"I1CZ49180102.tif",
     "pagination":{
      "pgfolios":{
       "section":"2",
       "value":"35b"
      }
     }
    },
    {
     "filename":"I1CZ49180103.tif",
     "pagination":{
      "pgfolios":{
       "section":"2",
       "value":"36a"
      }
     }
    },
    {
     "filename":"I1CZ49180104.tif",
     "pagination":{
      "pgfolios":{
       "section":"2",
       "value":"36b"
      }
     }
    },
    {
     "filename":"I1CZ49180105.tif",
     "pagination":{
      "pgfolios":{
       "section":"2",
       "value":"37a"
      }
     }
    },
    {
     "filename":"I1CZ49180106.tif",
     "pagination":{
      "pgfolios":{
       "section":"2",
       "value":"37b"
      }
     }
    },
    {
     "filename":"I1CZ49180107.tif",
     "pagination":{
      "pgfolios":{
       "section":"2",
       "value":"38a"
      }
     }
    },
    {
     "filename":"I1CZ49180108.tif",
     "pagination":{
      "pgfolios":{
       "section":"2",
       "value":"38b"
      }
     }
    },
    {
     "filename":"I1CZ49180109.tif",
     "pagination":{
      "pgfolios":{
       "section":"2",
       "value":"39a"
      }
     }
    },
    {
     "filename":"I1CZ49180110.tif",
     "pagination":{
      "pgfolios":{
       "section":"2",
       "value":"39b"
      }
     }
    },
    {
     "filename":"I1CZ49180111.tif",
     "pagination":{
      "pgfolios":{
       "section":"2",
       "value":"40a"
      }
     }
    },
    {
     "filename":"I1CZ49180112.tif",
     "pagination":{
      "pgfolios":{
       "section":"2",
       "value":"40b"
      }
     }
    },
    {
     "filename":"I1CZ49180113.tif",
     "pagination":{
      "pgfolios":{
       "section":"2",
       "value":"41a"
      }
     }
    },
    {
     "filename":"I1CZ49180114.tif",
     "pagination":{
      "pgfolios":{
       "section":"2",
       "value":"41b"
      }
     }
    },
    {
     "filename":"I1CZ49180115.tif",
     "pagination":{
      "pgfolios":{
       "section":"2",
       "value":"42a"
      }
     }
    },
    {
     "filename":"I1CZ49180116.tif",
     "pagination":{
      "pgfolios":{
       "section":"2",
       "value":"42b"
      }
     }
    },
    {
     "filename":"I1CZ49180117.tif",
     "pagination":{
      "pgfolios":{
       "section":"2",
       "value":"43a"
      }
     }
    },
    {
     "filename":"I1CZ49180118.tif",
     "pagination":{
      "pgfolios":{
       "section":"2",
       "value":"43b"
      }
     }
    },
    {
     "filename":"I1CZ49180119.tif",
     "pagination":{
      "pgfolios":{
       "section":"2",
       "value":"44a"
      }
     }
    },
    {
     "filename":"I1CZ49180120.tif",
     "pagination":{
      "pgfolios":{
       "section":"2",
       "value":"44b"
      }
     }
    },
    {
     "filename":"I1CZ49180121.tif",
     "pagination":{
      "pgfolios":{
       "section":"2",
       "value":"45a"
      }
     }
    },
    {
     "filename":"I1CZ49180122.tif",
     "pagination":{
      "pgfolios":{
       "section":"2",
       "value":"45b"
      }
     }
    },
    {
     "filename":"I1CZ49180123.tif",
     "pagination":{
      "pgfolios":{
       "section":"2",
       "value":"46a"
      }
     }
    },
    {
     "filename":"I1CZ49180124.tif",
     "pagination":{
      "pgfolios":{
       "section":"2",
       "value":"46b"
      }
     }
    },
    {
     "filename":"I1CZ49180125.tif",
     "pagination":{
      "pgfolios":{
       "section":"2",
       "value":"47a"
      }
     }
    },
    {
     "filename":"I1CZ49180126.tif",
     "pagination":{
      "pgfolios":{
       "section":"2",
       "value":"47b"
      }
     }
    },
    {
     "filename":"I1CZ49180127.tif",
     "pagination":{
      "pgfolios":{
       "section":"2",
       "value":"48a"
      }
     }
    },
    {
     "filename":"I1CZ49180128.tif",
     "pagination":{
      "pgfolios":{
       "section":"2",
       "value":"48b"
      }
     }
    },
    {
     "filename":"I1CZ49180129.tif",
     "pagination":{
      "pgfolios":{
       "section":"2",
       "value":"49a"
      }
     }
    },
    {
     "filename":"I1CZ49180130.tif",
     "pagination":{
      "pgfolios":{
       "section":"2",
       "value":"49b"
      }
     }
    },
    {
     "filename":"I1CZ49180131.tif",
     "pagination":{
      "pgfolios":{
       "section":"2",
       "value":"50a"
      }
     }
    },
    {
     "filename":"I1CZ49180132.tif",
     "pagination":{
      "pgfolios":{
       "section":"2",
       "value":"50b"
      }
     }
    },
    {
     "filename":"I1CZ49180133.tif",
     "pagination":{
      "pgfolios":{
       "section":"2",
       "value":"51a"
      }
     }
    },
    {
     "filename":"I1CZ49180134.tif",
     "pagination":{
      "pgfolios":{
       "section":"2",
       "value":"51b"
      }
     }
    },
    {
     "filename":"I1CZ49180135.tif",
     "pagination":{
      "pgfolios":{
       "section":"2",
       "value":"52a"
      }
     }
    },
    {
     "filename":"I1CZ49180136.tif",
     "pagination":{
      "pgfolios":{
       "section":"2",
       "value":"52b"
      }
     }
    },
    {
     "filename":"I1CZ49180137.tif",
     "pagination":{
      "pgfolios":{
       "section":"2",
       "value":"53a"
      }
     }
    },
    {
     "filename":"I1CZ49180138.tif",
     "pagination":{
      "pgfolios":{
       "section":"2",
       "value":"53b"
      }
     }
    },
    {
     "filename":"I1CZ49180139.tif",
     "pagination":{
      "pgfolios":{
       "section":"2",
       "value":"54a"
      }
     }
    },
    {
     "filename":"I1CZ49180140.tif",
     "pagination":{
      "pgfolios":{
       "section":"2",
       "value":"54b"
      }
     }
    },
    {
     "filename":"I1CZ49180141.tif",
     "pagination":{
      "pgfolios":{
       "section":"2",
       "value":"55a"
      }
     }
    },
    {
     "filename":"I1CZ49180142.tif",
     "pagination":{
      "pgfolios":{
       "section":"2",
       "value":"55b"
      }
     }
    },
    {
     "filename":"I1CZ49180143.tif",
     "pagination":{
      "pgfolios":{
       "section":"2",
       "value":"56a"
      }
     }
    },
    {
     "filename":"I1CZ49180144.tif",
     "pagination":{
      "pgfolios":{
       "section":"2",
       "value":"56b"
      }
     }
    },
    {
     "filename":"I1CZ49180145.tif",
     "pagination":{
      "pgfolios":{
       "section":"2",
       "value":"57a"
      }
     }
    },
    {
     "filename":"I1CZ49180146.tif",
     "pagination":{
      "pgfolios":{
       "section":"2",
       "value":"57b"
      }
     }
    },
    {
     "filename":"I1CZ49180147.tif",
     "pagination":{
      "pgfolios":{
       "section":"2",
       "value":"58a"
      }
     }
    },
    {
     "filename":"I1CZ49180148.tif",
     "pagination":{
      "pgfolios":{
       "section":"2",
       "value":"58b"
      }
     }
    },
    {
     "filename":"I1CZ49180149.tif",
     "pagination":{
      "pgfolios":{
       "section":"2",
       "value":"59a"
      }
     }
    },
    {
     "filename":"I1CZ49180150.tif",
     "pagination":{
      "pgfolios":{
       "section":"2",
       "value":"59b"
      }
     }
    },
    {
     "filename":"I1CZ49180151.tif",
     "pagination":{
      "pgfolios":{
       "section":"2",
       "value":"60a"
      }
     }
    },
    {
     "filename":"I1CZ49180152.tif",
     "pagination":{
      "pgfolios":{
       "section":"2",
       "value":"60b"
      }
     }
    },
    {
     "filename":"I1CZ49180153.tif",
     "pagination":{
      "pgfolios":{
       "section":"2",
       "value":"61a"
      }
     }
    },
    {
     "filename":"I1CZ49180154.tif",
     "pagination":{
      "pgfolios":{
       "section":"2",
       "value":"61b"
      }
     }
    },
    {
     "filename":"I1CZ49180155.tif",
     "pagination":{
      "pgfolios":{
       "section":"2",
       "value":"62a"
      }
     }
    },
    {
     "filename":"I1CZ49180156.tif",
     "pagination":{
      "pgfolios":{
       "section":"2",
       "value":"62b"
      }
     }
    },
    {
     "filename":"I1CZ49180157.tif",
     "pagination":{
      "pgfolios":{
       "section":"2",
       "value":"63a"
      }
     }
    },
    {
     "filename":"I1CZ49180158.tif",
     "pagination":{
      "pgfolios":{
       "section":"2",
       "value":"63b"
      }
     }
    },
    {
     "filename":"I1CZ49180159.tif",
     "pagination":{
      "pgfolios":{
       "section":"2",
       "value":"64a"
      }
     }
    },
    {
     "filename":"I1CZ49180160.tif",
     "pagination":{
      "pgfolios":{
       "section":"2",
       "value":"64b"
      }
     }
    },
    {
     "filename":"I1CZ49180161.tif",
     "pagination":{
      "pgfolios":{
       "section":"2",
       "value":"65a"
      }
     }
    },
    {
     "filename":"I1CZ49180162.tif",
     "pagination":{
      "pgfolios":{
       "section":"2",
       "value":"65b"
      }
     }
    },
    {
     "filename":"I1CZ49180163.tif",
     "pagination":{
      "pgfolios":{
       "section":"2",
       "value":"66a"
      }
     }
    },
    {
     "filename":"I1CZ49180164.tif",
     "pagination":{
      "pgfolios":{
       "section":"2",
       "value":"66b"
      }
     }
    },
    {
     "filename":"I1CZ49180165.tif",
     "pagination":{
      "pgfolios":{
       "section":"2",
       "value":"67a"
      }
     }
    },
    {
     "filename":"I1CZ49180166.tif",
     "pagination":{
      "pgfolios":{
       "section":"2",
       "value":"67b"
      }
     }
    },
    {
     "filename":"I1CZ49180167.tif",
     "pagination":{
      "pgfolios":{
       "section":"2",
       "value":"68a"
      }
     }
    },
    {
     "filename":"I1CZ49180168.tif",
     "pagination":{
      "pgfolios":{
       "section":"2",
       "value":"68b"
      }
     }
    },
    {
     "filename":"I1CZ49180169.tif",
     "pagination":{
      "pgfolios":{
       "section":"2",
       "value":"69a"
      }
     }
    },
    {
     "filename":"I1CZ49180170.tif",
     "pagination":{
      "pgfolios":{
       "section":"2",
       "value":"69b"
      }
     }
    },
    {
     "filename":"I1CZ49180171.tif",
     "pagination":{
      "pgfolios":{
       "section":"2",
       "value":"70a"
      }
     }
    },
    {
     "filename":"I1CZ49180172.tif",
     "pagination":{
      "pgfolios":{
       "section":"2",
       "value":"70b"
      }
     }
    },
    {
     "filename":"I1CZ49180173.tif",
     "pagination":{
      "pgfolios":{
       "section":"2",
       "value":"71a"
      }
     }
    },
    {
     "filename":"I1CZ49180174.tif",
     "pagination":{
      "pgfolios":{
       "section":"2",
       "value":"71b"
      }
     }
    },
    {
     "filename":"I1CZ49180175.tif",
     "pagination":{
      "pgfolios":{
       "section":"2",
       "value":"72a"
      }
     }
    },
    {
     "filename":"I1CZ49180176.tif",
     "pagination":{
      "pgfolios":{
       "section":"2",
       "value":"72b"
      }
     }
    },
    {
     "filename":"I1CZ49180177.tif",
     "pagination":{
      "pgfolios":{
       "section":"2",
       "value":"73a"
      }
     }
    },
    {
     "filename":"I1CZ49180178.tif",
     "pagination":{
      "pgfolios":{
       "section":"2",
       "value":"73b"
      }
     }
    },
    {
     "filename":"I1CZ49180179.tif",
     "pagination":{
      "pgfolios":{
       "section":"2",
       "value":"74a"
      }
     }
    },
    {
     "filename":"I1CZ49180180.tif",
     "pagination":{
      "pgfolios":{
       "section":"2",
       "value":"74b"
      }
     }
    },
    {
     "filename":"I1CZ49180181.tif",
     "pagination":{
      "pgfolios":{
       "section":"2",
       "value":"75a"
      }
     }
    },
    {
     "filename":"I1CZ49180182.tif",
     "pagination":{
      "pgfolios":{
       "section":"2",
       "value":"75b"
      }
     }
    },
    {
     "filename":"I1CZ49180183.tif",
     "pagination":{
      "pgfolios":{
       "section":"2",
       "value":"76a"
      }
     }
    },
    {
     "filename":"I1CZ49180184.tif",
     "pagination":{
      "pgfolios":{
       "section":"2",
       "value":"76b"
      }
     }
    },
    {
     "filename":"I1CZ49180185.tif",
     "pagination":{
      "pgfolios":{
       "section":"2",
       "value":"77a"
      }
     }
    },
    {
     "filename":"I1CZ49180186.tif",
     "pagination":{
      "pgfolios":{
       "section":"2",
       "value":"77b"
      }
     }
    },
    {
     "filename":"I1CZ49180187.tif",
     "pagination":{
      "pgfolios":{
       "section":"2",
       "value":"78a"
      }
     }
    },
    {
     "filename":"I1CZ49180188.tif",
     "pagination":{
      "pgfolios":{
       "section":"2",
       "value":"78b"
      }
     }
    },
    {
     "filename":"I1CZ49180189.tif",
     "pagination":{
      "pgfolios":{
       "section":"2",
       "value":"79a"
      }
     }
    },
    {
     "filename":"I1CZ49180190.tif",
     "pagination":{
      "pgfolios":{
       "section":"2",
       "value":"79b"
      }
     }
    },
    {
     "filename":"I1CZ49180191.tif",
     "pagination":{
      "pgfolios":{
       "section":"2",
       "value":"80a"
      }
     }
    },
    {
     "filename":"I1CZ49180192.tif",
     "pagination":{
      "pgfolios":{
       "section":"2",
       "value":"80b"
      }
     }
    },
    {
     "filename":"I1CZ49180193.tif",
     "pagination":{
      "pgfolios":{
       "section":"2",
       "value":"81a"
      }
     }
    },
    {
     "filename":"I1CZ49180194.tif",
     "pagination":{
      "pgfolios":{
       "section":"2",
       "value":"81b"
      }
     }
    },
    {
     "filename":"I1CZ49180195.tif",
     "pagination":{
      "pgfolios":{
       "section":"2",
       "value":"82a"
      }
     }
    },
    {
     "filename":"I1CZ49180196.tif",
     "pagination":{
      "pgfolios":{
       "section":"2",
       "value":"82b"
      }
     }
    },
    {
     "filename":"I1CZ49180197.tif",
     "pagination":{
      "pgfolios":{
       "section":"2",
       "value":"83a"
      }
     }
    },
    {
     "filename":"I1CZ49180198.tif",
     "pagination":{
      "pgfolios":{
       "section":"2",
       "value":"83b"
      }
     }
    },
    {
     "filename":"I1CZ49180199.tif",
     "pagination":{
      "pgfolios":{
       "section":"2",
       "value":"84a"
      }
     }
    },
    {
     "filename":"I1CZ49180200.tif",
     "pagination":{
      "pgfolios":{
       "section":"2",
       "value":"84b"
      }
     }
    },
    {
     "filename":"I1CZ49180201.tif",
     "pagination":{
      "pgfolios":{
       "section":"2",
       "value":"85a"
      }
     }
    },
    {
     "filename":"I1CZ49180202.tif",
     "pagination":{
      "pgfolios":{
       "section":"2",
       "value":"85b"
      }
     }
    },
    {
     "filename":"I1CZ49180203.tif",
     "pagination":{
      "pgfolios":{
       "section":"2",
       "value":"86a"
      }
     }
    },
    {
     "filename":"I1CZ49180204.tif",
     "pagination":{
      "pgfolios":{
       "section":"2",
       "value":"86b"
      }
     }
    },
    {
     "filename":"I1CZ49180205.tif",
     "pagination":{
      "pgfolios":{
       "section":"2",
       "value":"87a"
      }
     }
    },
    {
     "filename":"I1CZ49180206.tif",
     "pagination":{
      "pgfolios":{
       "section":"2",
       "value":"87b"
      }
     }
    },
    {
     "filename":"I1CZ49180207.tif",
     "pagination":{
      "pgfolios":{
       "section":"2",
       "value":"88a"
      }
     }
    },
    {
     "filename":"I1CZ49180208.tif",
     "pagination":{
      "pgfolios":{
       "section":"2",
       "value":"88b"
      }
     }
    },
    {
     "filename":"I1CZ49180209.tif",
     "pagination":{
      "pgfolios":{
       "section":"2",
       "value":"89a"
      }
     }
    },
    {
     "filename":"I1CZ49180210.tif",
     "pagination":{
      "pgfolios":{
       "section":"2",
       "value":"89b"
      }
     }
    },
    {
     "filename":"I1CZ49180211.tif",
     "pagination":{
      "pgfolios":{
       "section":"2",
       "value":"90a"
      }
     }
    },
    {
     "filename":"I1CZ49180212.tif",
     "pagination":{
      "pgfolios":{
       "section":"2",
       "value":"90b"
      }
     }
    },
    {
     "filename":"I1CZ49180213.tif",
     "pagination":{
      "pgfolios":{
       "section":"2",
       "value":"91a"
      }
     }
    },
    {
     "filename":"I1CZ49180214.tif",
     "pagination":{
      "pgfolios":{
       "section":"2",
       "value":"91b"
      }
     }
    },
    {
     "filename":"I1CZ49180215.tif",
     "pagination":{
      "pgfolios":{
       "section":"2",
       "value":"92a"
      }
     }
    },
    {
     "filename":"I1CZ49180216.tif",
     "pagination":{
      "pgfolios":{
       "section":"2",
       "value":"92b"
      }
     }
    },
    {
     "filename":"I1CZ49180217.tif",
     "pagination":{
      "pgfolios":{
       "section":"2",
       "value":"93a"
      }
     }
    },
    {
     "filename":"I1CZ49180218.tif",
     "pagination":{
      "pgfolios":{
       "section":"2",
       "value":"93b"
      }
     }
    },
    {
     "filename":"I1CZ49180219.tif",
     "pagination":{
      "pgfolios":{
       "section":"2",
       "value":"94a"
      }
     }
    },
    {
     "filename":"I1CZ49180220.tif",
     "pagination":{
      "pgfolios":{
       "section":"2",
       "value":"94b"
      }
     }
    },
    {
     "filename":"I1CZ49180221.tif",
     "pagination":{
      "pgfolios":{
       "section":"2",
       "value":"95a"
      }
     }
    },
    {
     "filename":"I1CZ49180222.tif",
     "pagination":{
      "pgfolios":{
       "section":"2",
       "value":"95b"
      }
     }
    },
    {
     "filename":"I1CZ49180223.tif",
     "pagination":{
      "pgfolios":{
       "section":"2",
       "value":"96a"
      }
     }
    },
    {
     "filename":"I1CZ49180224.tif",
     "pagination":{
      "pgfolios":{
       "section":"2",
       "value":"96b"
      }
     }
    },
    {
     "filename":"I1CZ49180225.tif",
     "pagination":{
      "pgfolios":{
       "section":"2",
       "value":"97a"
      }
     }
    },
    {
     "filename":"I1CZ49180226.tif",
     "pagination":{
      "pgfolios":{
       "section":"2",
       "value":"97b"
      }
     }
    },
    {
     "filename":"I1CZ49180227.tif",
     "pagination":{
      "pgfolios":{
       "section":"2",
       "value":"98a"
      }
     }
    },
    {
     "filename":"I1CZ49180228.tif",
     "pagination":{
      "pgfolios":{
       "section":"2",
       "value":"98b"
      }
     }
    },
    {
     "filename":"I1CZ49180229.tif",
     "pagination":{
      "pgfolios":{
       "section":"2",
       "value":"99a"
      }
     }
    },
    {
     "filename":"I1CZ49180230.tif",
     "pagination":{
      "pgfolios":{
       "section":"2",
       "value":"99b"
      }
     }
    },
    {
     "filename":"I1CZ49180231.tif",
     "pagination":{
      "pgfolios":{
       "section":"2",
       "value":"100a"
      }
     }
    },
    {
     "filename":"I1CZ49180232.tif",
     "pagination":{
      "pgfolios":{
       "section":"2",
       "value":"100b"
      }
     }
    },
    {
     "filename":"I1CZ49180233.tif",
     "pagination":{
      "pgfolios":{
       "section":"2",
       "value":"101a"
      }
     }
    },
    {
     "filename":"I1CZ49180234.tif",
     "pagination":{
      "pgfolios":{
       "section":"2",
       "value":"101b"
      }
     }
    },
    {
     "filename":"I1CZ49180235.tif",
     "pagination":{
      "pgfolios":{
       "section":"2",
       "value":"102a"
      }
     }
    },
    {
     "filename":"I1CZ49180236.tif",
     "pagination":{
      "pgfolios":{
       "section":"2",
       "value":"102b"
      }
     }
    },
    {
     "filename":"I1CZ49180237.tif",
     "pagination":{
      "pgfolios":{
       "section":"2",
       "value":"103a"
      }
     }
    },
    {
     "filename":"I1CZ49180238.tif",
     "pagination":{
      "pgfolios":{
       "section":"2",
       "value":"103b"
      }
     }
    },
    {
     "filename":"I1CZ49180239.tif",
     "pagination":{
      "pgfolios":{
       "section":"2",
       "value":"104a"
      }
     }
    },
    {
     "filename":"I1CZ49180240.tif",
     "pagination":{
      "pgfolios":{
       "section":"2",
       "value":"104b"
      }
     }
    },
    {
     "filename":"I1CZ49180241.tif",
     "pagination":{
      "pgfolios":{
       "section":"2",
       "value":"105a"
      }
     }
    },
    {
     "filename":"I1CZ49180242.tif",
     "pagination":{
      "pgfolios":{
       "section":"2",
       "value":"105b"
      }
     }
    },
    {
     "filename":"I1CZ49180243.tif",
     "pagination":{
      "pgfolios":{
       "section":"2",
       "value":"106a"
      }
     }
    },
    {
     "filename":"I1CZ49180244.tif",
     "pagination":{
      "pgfolios":{
       "section":"2",
       "value":"106b"
      }
     }
    },
    {
     "filename":"I1CZ49180245.tif",
     "pagination":{
      "pgfolios":{
       "section":"2",
       "value":"107a"
      }
     }
    },
    {
     "filename":"I1CZ49180246.tif",
     "pagination":{
      "pgfolios":{
       "section":"2",
       "value":"107b"
      }
     }
    },
    {
     "filename":"I1CZ49180247.tif",
     "pagination":{
      "pgfolios":{
       "section":"2",
       "value":"108a"
      }
     }
    },
    {
     "filename":"I1CZ49180248.tif",
     "pagination":{
      "pgfolios":{
       "section":"2",
       "value":"108b"
      }
     }
    },
    {
     "filename":"I1CZ49180249.tif",
     "pagination":{
      "pgfolios":{
       "section":"2",
       "value":"109a"
      }
     }
    },
    {
     "filename":"I1CZ49180250.tif",
     "pagination":{
      "pgfolios":{
       "section":"2",
       "value":"109b"
      }
     }
    },
    {
     "filename":"I1CZ49180251.tif",
     "pagination":{
      "pgfolios":{
       "section":"2",
       "value":"110a"
      }
     }
    },
    {
     "filename":"I1CZ49180252.tif",
     "pagination":{
      "pgfolios":{
       "section":"2",
       "value":"110b"
      }
     }
    },
    {
     "filename":"I1CZ49180253.tif",
     "pagination":{
      "pgfolios":{
       "section":"2",
       "value":"111a"
      }
     }
    },
    {
     "filename":"I1CZ49180254.tif",
     "pagination":{
      "pgfolios":{
       "section":"2",
       "value":"111b"
      }
     }
    },
    {
     "filename":"I1CZ49180255.tif",
     "pagination":{
      "pgfolios":{
       "section":"2",
       "value":"112a"
      }
     }
    },
    {
     "filename":"I1CZ49180256.tif",
     "pagination":{
      "pgfolios":{
       "section":"2",
       "value":"112b"
      }
     }
    },
    {
     "filename":"I1CZ49180257.tif",
     "pagination":{
      "pgfolios":{
       "section":"2",
       "value":"113a"
      }
     }
    },
    {
     "filename":"I1CZ49180258.tif",
     "pagination":{
      "pgfolios":{
       "section":"2",
       "value":"113b"
      }
     }
    },
    {
     "filename":"I1CZ49180259.tif",
     "pagination":{
      "pgfolios":{
       "section":"2",
       "value":"114a"
      }
     }
    },
    {
     "filename":"I1CZ49180260.tif",
     "pagination":{
      "pgfolios":{
       "section":"2",
       "value":"114b"
      }
     }
    },
    {
     "filename":"I1CZ49180261.tif",
     "pagination":{
      "pgfolios":{
       "section":"2",
       "value":"115a"
      }
     }
    },
    {
     "filename":"I1CZ49180262.tif",
     "pagination":{
      "pgfolios":{
       "section":"2",
       "value":"115b"
      }
     }
    },
    {
     "filename":"I1CZ49180263.tif",
     "pagination":{
      "pgfolios":{
       "section":"2",
       "value":"116a"
      }
     }
    },
    {
     "filename":"I1CZ49180264.tif",
     "pagination":{
      "pgfolios":{
       "section":"2",
       "value":"116b"
      }
     }
    },
    {
     "filename":"I1CZ49180265.tif",
     "pagination":{
      "pgfolios":{
       "section":"2",
       "value":"117a"
      }
     }
    },
    {
     "filename":"I1CZ49180266.tif",
     "pagination":{
      "pgfolios":{
       "section":"2",
       "value":"117b"
      }
     }
    },
    {
     "filename":"I1CZ49180267.tif",
     "pagination":{
      "pgfolios":{
       "section":"2",
       "value":"118a"
      }
     }
    },
    {
     "filename":"I1CZ49180268.tif",
     "pagination":{
      "pgfolios":{
       "section":"2",
       "value":"118b"
      }
     }
    },
    {
     "filename":"I1CZ49180269.tif",
     "pagination":{
      "pgfolios":{
       "section":"2",
       "value":"119a"
      }
     }
    },
    {
     "filename":"I1CZ49180270.tif",
     "pagination":{
      "pgfolios":{
       "section":"2",
       "value":"119b"
      }
     }
    },
    {
     "filename":"I1CZ49180271.tif",
     "pagination":{
      "pgfolios":{
       "section":"2",
       "value":"120a"
      }
     }
    },
    {
     "filename":"I1CZ49180272.tif",
     "pagination":{
      "pgfolios":{
       "section":"2",
       "value":"120b"
      }
     }
    },
    {
     "filename":"I1CZ49180273.tif",
     "pagination":{
      "pgfolios":{
       "section":"2",
       "value":"121a"
      }
     }
    },
    {
     "filename":"I1CZ49180274.tif",
     "pagination":{
      "pgfolios":{
       "section":"2",
       "value":"121b"
      }
     }
    },
    {
     "filename":"I1CZ49180275.tif",
     "pagination":{
      "pgfolios":{
       "section":"2",
       "value":"122a"
      }
     }
    },
    {
     "filename":"I1CZ49180276.tif",
     "pagination":{
      "pgfolios":{
       "section":"2",
       "value":"122b"
      }
     }
    },
    {
     "filename":"I1CZ49180277.tif",
     "pagination":{
      "pgfolios":{
       "section":"2",
       "value":"123a"
      }
     }
    },
    {
     "filename":"I1CZ49180278.tif",
     "pagination":{
      "pgfolios":{
       "section":"2",
       "value":"123b"
      }
     }
    },
    {
     "filename":"I1CZ49180279.tif",
     "pagination":{
      "pgfolios":{
       "section":"2",
       "value":"124a"
      }
     }
    },
    {
     "filename":"I1CZ49180280.tif",
     "pagination":{
      "pgfolios":{
       "section":"2",
       "value":"124b"
      }
     }
    },
    {
     "filename":"I1CZ49180281.tif",
     "pagination":{
      "pgfolios":{
       "section":"2",
       "value":"125a"
      }
     }
    },
    {
     "filename":"I1CZ49180282.tif",
     "pagination":{
      "pgfolios":{
       "section":"2",
       "value":"125b"
      }
     }
    },
    {
     "filename":"I1CZ49180283.tif",
     "pagination":{
      "pgfolios":{
       "section":"2",
       "value":"126a"
      }
     }
    },
    {
     "filename":"I1CZ49180284.tif",
     "pagination":{
      "pgfolios":{
       "section":"2",
       "value":"126b"
      }
     }
    },
    {
     "filename":"I1CZ49180285.tif",
     "pagination":{
      "pgfolios":{
       "section":"2",
       "value":"127a"
      }
     }
    },
    {
     "filename":"I1CZ49180286.tif",
     "pagination":{
      "pgfolios":{
       "section":"2",
       "value":"127b"
      }
     }
    },
    {
     "filename":"I1CZ49180287.tif",
     "pagination":{
      "pgfolios":{
       "section":"2",
       "value":"128a"
      }
     }
    },
    {
     "filename":"I1CZ49180288.tif",
     "pagination":{
      "pgfolios":{
       "section":"2",
       "value":"128b"
      }
     }
    },
    {
     "filename":"I1CZ49180289.tif",
     "pagination":{
      "pgfolios":{
       "section":"2",
       "value":"129a"
      }
     }
    },
    {
     "filename":"I1CZ49180290.tif",
     "pagination":{
      "pgfolios":{
       "section":"2",
       "value":"129b"
      }
     }
    },
    {
     "filename":"I1CZ49180291.tif",
     "pagination":{
      "pgfolios":{
       "section":"2",
       "value":"130a"
      }
     }
    },
    {
     "filename":"I1CZ49180292.tif",
     "pagination":{
      "pgfolios":{
       "section":"2",
       "value":"130b"
      }
     }
    },
    {
     "filename":"I1CZ49180293.tif",
     "pagination":{
      "pgfolios":{
       "section":"2",
       "value":"131a"
      }
     }
    },
    {
     "filename":"I1CZ49180294.tif",
     "pagination":{
      "pgfolios":{
       "section":"2",
       "value":"131b"
      }
     }
    },
    {
     "filename":"I1CZ49180295.tif",
     "pagination":{
      "pgfolios":{
       "section":"2",
       "value":"132a"
      }
     }
    },
    {
     "filename":"I1CZ49180296.tif",
     "pagination":{
      "pgfolios":{
       "section":"2",
       "value":"132b"
      }
     }
    },
    {
     "filename":"I1CZ49180297.tif",
     "pagination":{
      "pgfolios":{
       "section":"2",
       "value":"133a"
      }
     }
    },
    {
     "filename":"I1CZ49180298.tif",
     "pagination":{
      "pgfolios":{
       "section":"2",
       "value":"133b"
      }
     }
    },
    {
     "filename":"I1CZ49180299.tif",
     "pagination":{
      "pgfolios":{
       "section":"2",
       "value":"134a"
      }
     }
    },
    {
     "filename":"I1CZ49180300.tif",
     "pagination":{
      "pgfolios":{
       "section":"2",
       "value":"134b"
      }
     }
    },
    {
     "filename":"I1CZ49180301.tif",
     "pagination":{
      "pgfolios":{
       "section":"2",
       "value":"135a"
      }
     }
    },
    {
     "filename":"I1CZ49180302.tif",
     "pagination":{
      "pgfolios":{
       "section":"2",
       "value":"135b"
      }
     }
    },
    {
     "filename":"I1CZ49180303.tif",
     "pagination":{
      "pgfolios":{
       "section":"2",
       "value":"136a"
      }
     }
    },
    {
     "filename":"I1CZ49180304.tif",
     "pagination":{
      "pgfolios":{
       "section":"2",
       "value":"136b"
      }
     }
    },
    {
     "filename":"I1CZ49180305.tif",
     "pagination":{
      "pgfolios":{
       "section":"2",
       "value":"137a"
      }
     }
    },
    {
     "filename":"I1CZ49180306.tif",
     "pagination":{
      "pgfolios":{
       "section":"2",
       "value":"137b"
      }
     }
    },
    {
     "filename":"I1CZ49180307.tif",
     "pagination":{
      "pgfolios":{
       "section":"2",
       "value":"138a"
      }
     }
    },
    {
     "filename":"I1CZ49180308.tif",
     "pagination":{
      "pgfolios":{
       "section":"2",
       "value":"138b"
      }
     }
    },
    {
     "filename":"I1CZ49180309.tif",
     "pagination":{
      "pgfolios":{
       "section":"2",
       "value":"139a"
      }
     }
    },
    {
     "filename":"I1CZ49180310.tif",
     "pagination":{
      "pgfolios":{
       "section":"2",
       "value":"139b"
      }
     }
    },
    {
     "filename":"I1CZ49180311.tif",
     "pagination":{
      "pgfolios":{
       "section":"2",
       "value":"140a"
      }
     }
    },
    {
     "filename":"I1CZ49180312.tif",
     "pagination":{
      "pgfolios":{
       "section":"2",
       "value":"140b"
      }
     }
    },
    {
     "filename":"I1CZ49180313.tif",
     "pagination":{
      "pgfolios":{
       "section":"2",
       "value":"141a"
      }
     }
    },
    {
     "filename":"I1CZ49180314.tif",
     "pagination":{
      "pgfolios":{
       "section":"2",
       "value":"141b"
      }
     }
    },
    {
     "filename":"I1CZ49180315.tif",
     "pagination":{
      "pgfolios":{
       "section":"2",
       "value":"142a"
      }
     }
    },
    {
     "filename":"I1CZ49180316.tif",
     "pagination":{
      "pgfolios":{
       "section":"2",
       "value":"142b"
      }
     }
    },
    {
     "filename":"I1CZ49180317.tif",
     "pagination":{
      "pgfolios":{
       "section":"2",
       "value":"143a"
      }
     }
    },
    {
     "filename":"I1CZ49180318.tif",
     "pagination":{
      "pgfolios":{
       "section":"2",
       "value":"143b"
      }
     }
    },
    {
     "filename":"I1CZ49180319.tif",
     "pagination":{
      "pgfolios":{
       "section":"2",
       "value":"144a"
      }
     }
    },
    {
     "filename":"I1CZ49180320.tif",
     "pagination":{
      "pgfolios":{
       "section":"2",
       "value":"144b"
      }
     }
    },
    {
     "filename":"I1CZ49180321.tif",
     "pagination":{
      "pgfolios":{
       "section":"2",
       "value":"145a"
      }
     }
    },
    {
     "filename":"I1CZ49180322.tif",
     "pagination":{
      "pgfolios":{
       "section":"2",
       "value":"145b"
      }
     }
    },
    {
     "filename":"I1CZ49180323.tif",
     "pagination":{
      "pgfolios":{
       "section":"2",
       "value":"146a"
      }
     }
    },
    {
     "filename":"I1CZ49180324.tif",
     "pagination":{
      "pgfolios":{
       "section":"2",
       "value":"146b"
      }
     }
    },
    {
     "filename":"I1CZ49180325.tif",
     "pagination":{
      "pgfolios":{
       "section":"2",
       "value":"147a"
      }
     }
    },
    {
     "filename":"I1CZ49180326.tif",
     "pagination":{
      "pgfolios":{
       "section":"2",
       "value":"147b"
      }
     }
    },
    {
     "filename":"I1CZ49180327.tif",
     "pagination":{
      "pgfolios":{
       "section":"2",
       "value":"148a"
      }
     }
    },
    {
     "filename":"I1CZ49180328.tif",
     "pagination":{
      "pgfolios":{
       "section":"2",
       "value":"148b"
      }
     }
    },
    {
     "filename":"I1CZ49180329.tif",
     "pagination":{
      "pgfolios":{
       "section":"2",
       "value":"149a"
      }
     }
    },
    {
     "filename":"I1CZ49180330.tif",
     "pagination":{
      "pgfolios":{
       "section":"2",
       "value":"149b"
      }
     }
    },
    {
     "filename":"I1CZ49180331.tif",
     "pagination":{
      "pgfolios":{
       "section":"2",
       "value":"150a"
      }
     }
    },
    {
     "filename":"I1CZ49180332.tif",
     "pagination":{
      "pgfolios":{
       "section":"2",
       "value":"150b"
      }
     }
    },
    {
     "filename":"I1CZ49180333.tif",
     "pagination":{
      "pgfolios":{
       "section":"2",
       "value":"151a"
      }
     }
    },
    {
     "filename":"I1CZ49180334.tif",
     "pagination":{
      "pgfolios":{
       "section":"2",
       "value":"151b"
      }
     }
    },
    {
     "filename":"I1CZ49180335.tif",
     "pagination":{
      "pgfolios":{
       "section":"2",
       "value":"152a"
      }
     }
    },
    {
     "filename":"I1CZ49180336.tif",
     "pagination":{
      "pgfolios":{
       "section":"2",
       "value":"152b"
      }
     }
    },
    {
     "filename":"I1CZ49180337.tif",
     "pagination":{
      "pgfolios":{
       "section":"2",
       "value":"153a"
      }
     }
    },
    {
     "filename":"I1CZ49180338.tif",
     "pagination":{
      "pgfolios":{
       "section":"2",
       "value":"153b"
      }
     }
    },
    {
     "filename":"I1CZ49180339.tif",
     "pagination":{
      "pgfolios":{
       "section":"2",
       "value":"154a"
      }
     }
    },
    {
     "filename":"I1CZ49180340.tif",
     "pagination":{
      "pgfolios":{
       "section":"2",
       "value":"154b"
      }
     }
    },
    {
     "filename":"I1CZ49180341.tif",
     "pagination":{
      "pgfolios":{
       "section":"2",
       "value":"155a"
      }
     }
    },
    {
     "filename":"I1CZ49180342.tif",
     "pagination":{
      "pgfolios":{
       "section":"2",
       "value":"155b"
      }
     }
    },
    {
     "filename":"I1CZ49180343.tif",
     "pagination":{
      "pgfolios":{
       "section":"2",
       "value":"156a"
      }
     }
    },
    {
     "filename":"I1CZ49180344.tif",
     "pagination":{
      "pgfolios":{
       "section":"2",
       "value":"156b"
      }
     }
    },
    {
     "filename":"I1CZ49180345.tif",
     "pagination":{
      "pgfolios":{
       "section":"2",
       "value":"157a"
      }
     }
    },
    {
     "filename":"I1CZ49180346.tif",
     "pagination":{
      "pgfolios":{
       "section":"2",
       "value":"157b"
      }
     }
    },
    {
     "filename":"I1CZ49180347.tif",
     "pagination":{
      "pgfolios":{
       "section":"2",
       "value":"158a"
      }
     }
    },
    {
     "filename":"I1CZ49180348.tif",
     "pagination":{
      "pgfolios":{
       "section":"2",
       "value":"158b"
      }
     }
    },
    {
     "filename":"I1CZ49180349.tif",
     "pagination":{
      "pgfolios":{
       "section":"2",
       "value":"159a"
      }
     }
    },
    {
     "filename":"I1CZ49180350.tif",
     "pagination":{
      "pgfolios":{
       "section":"2",
       "value":"159b"
      }
     }
    },
    {
     "filename":"I1CZ49180351.tif",
     "pagination":{
      "pgfolios":{
       "section":"2",
       "value":"160a"
      }
     }
    },
    {
     "filename":"I1CZ49180352.tif",
     "pagination":{
      "pgfolios":{
       "section":"2",
       "value":"160b"
      }
     }
    },
    {
     "filename":"I1CZ49180353.tif",
     "pagination":{
      "pgfolios":{
       "section":"2",
       "value":"161a"
      }
     }
    },
    {
     "filename":"I1CZ49180354.tif",
     "pagination":{
      "pgfolios":{
       "section":"2",
       "value":"161b"
      }
     }
    },
    {
     "filename":"I1CZ49180355.tif",
     "pagination":{
      "pgfolios":{
       "section":"2",
       "value":"162a"
      }
     }
    },
    {
     "filename":"I1CZ49180356.tif",
     "pagination":{
      "pgfolios":{
       "section":"2",
       "value":"162b"
      }
     }
    },
    {
     "filename":"I1CZ49180357.tif",
     "pagination":{
      "pgfolios":{
       "section":"2",
       "value":"163a"
      }
     }
    },
    {
     "filename":"I1CZ49180358.tif",
     "pagination":{
      "pgfolios":{
       "section":"2",
       "value":"163b"
      }
     }
    },
    {
     "filename":"I1CZ49180359.tif",
     "pagination":{
      "pgfolios":{
       "section":"2",
       "value":"164a"
      }
     }
    },
    {
     "filename":"I1CZ49180360.tif",
     "pagination":{
      "pgfolios":{
       "section":"2",
       "value":"164b"
      }
     }
    },
    {
     "filename":"I1CZ49180361.tif",
     "pagination":{
      "pgfolios":{
       "section":"2",
       "value":"165a"
      }
     }
    },
    {
     "filename":"I1CZ49180362.tif",
     "pagination":{
      "pgfolios":{
       "section":"2",
       "value":"165b"
      }
     }
    },
    {
     "filename":"I1CZ49180363.tif",
     "pagination":{
      "pgfolios":{
       "section":"2",
       "value":"166a"
      }
     }
    },
    {
     "filename":"I1CZ49180364.tif",
     "pagination":{
      "pgfolios":{
       "section":"2",
       "value":"166b"
      }
     }
    },
    {
     "filename":"I1CZ49180365.tif",
     "pagination":{
      "pgfolios":{
       "section":"2",
       "value":"167a"
      }
     }
    },
    {
     "filename":"I1CZ49180366.tif",
     "pagination":{
      "pgfolios":{
       "section":"2",
       "value":"167b"
      }
     }
    },
    {
     "filename":"I1CZ49180367.tif",
     "pagination":{
      "pgfolios":{
       "section":"2",
       "value":"168a"
      }
     }
    },
    {
     "filename":"I1CZ49180368.tif",
     "pagination":{
      "pgfolios":{
       "section":"2",
       "value":"168b"
      }
     }
    },
    {
     "filename":"I1CZ49180369.tif",
     "pagination":{
      "pgfolios":{
       "section":"2",
       "value":"169a"
      }
     }
    },
    {
     "filename":"I1CZ49180370.tif",
     "pagination":{
      "pgfolios":{
       "section":"2",
       "value":"169b"
      }
     }
    },
    {
     "filename":"I1CZ49180371.tif",
     "pagination":{
      "pgfolios":{
       "section":"2",
       "value":"170a"
      }
     }
    },
    {
     "filename":"I1CZ49180372.tif",
     "pagination":{
      "pgfolios":{
       "section":"2",
       "value":"170b"
      }
     }
    },
    {
     "filename":"I1CZ49180373.tif",
     "pagination":{
      "pgfolios":{
       "section":"2",
       "value":"171a"
      }
     }
    },
    {
     "filename":"I1CZ49180374.tif",
     "pagination":{
      "pgfolios":{
       "section":"2",
       "value":"171b"
      }
     }
    },
    {
     "filename":"I1CZ49180375.tif",
     "pagination":{
      "pgfolios":{
       "section":"2",
       "value":"172a"
      }
     }
    },
    {
     "filename":"I1CZ49180376.tif",
     "pagination":{
      "pgfolios":{
       "section":"2",
       "value":"172b"
      }
     }
    },
    {
     "filename":"I1CZ49180377.tif",
     "pagination":{
      "pgfolios":{
       "section":"2",
       "value":"173a"
      }
     }
    },
    {
     "filename":"I1CZ49180378.tif",
     "pagination":{
      "pgfolios":{
       "section":"2",
       "value":"173b"
      }
     }
    },
    {
     "filename":"I1CZ49180379.tif",
     "pagination":{
      "pgfolios":{
       "section":"2",
       "value":"174a"
      }
     }
    },
    {
     "filename":"I1CZ49180380.tif",
     "pagination":{
      "pgfolios":{
       "section":"2",
       "value":"174b"
      }
     }
    },
    {
     "filename":"I1CZ49180381.tif",
     "pagination":{
      "pgfolios":{
       "section":"2",
       "value":"175a"
      }
     }
    },
    {
     "filename":"I1CZ49180382.tif",
     "pagination":{
      "pgfolios":{
       "section":"2",
       "value":"175b"
      }
     }
    },
    {
     "filename":"I1CZ49180383.tif",
     "pagination":{
      "pgfolios":{
       "section":"2",
       "value":"176a"
      }
     }
    },
    {
     "filename":"I1CZ49180384.tif",
     "pagination":{
      "pgfolios":{
       "section":"2",
       "value":"176b"
      }
     }
    },
    {
     "filename":"I1CZ49180385.tif",
     "pagination":{
      "pgfolios":{
       "section":"2",
       "value":"177a"
      }
     }
    },
    {
     "filename":"I1CZ49180386.tif",
     "pagination":{
      "pgfolios":{
       "section":"2",
       "value":"177b"
      }
     }
    },
    {
     "filename":"I1CZ49180387.tif",
     "pagination":{
      "pgfolios":{
       "section":"2",
       "value":"178a"
      }
     }
    },
    {
     "filename":"I1CZ49180388.tif",
     "pagination":{
      "pgfolios":{
       "section":"2",
       "value":"178b"
      }
     }
    },
    {
     "filename":"I1CZ49180389.tif",
     "pagination":{
      "pgfolios":{
       "section":"2",
       "value":"179a"
      }
     }
    },
    {
     "filename":"I1CZ49180390.tif",
     "pagination":{
      "pgfolios":{
       "section":"2",
       "value":"179b"
      }
     }
    },
    {
     "filename":"I1CZ49180391.tif",
     "pagination":{
      "pgfolios":{
       "section":"2",
       "value":"180a"
      }
     }
    },
    {
     "filename":"I1CZ49180392.tif",
     "pagination":{
      "pgfolios":{
       "section":"2",
       "value":"180b"
      }
     }
    },
    {
     "filename":"I1CZ49180393.tif",
     "pagination":{
      "pgfolios":{
       "section":"2",
       "value":"181a"
      }
     }
    },
    {
     "filename":"I1CZ49180394.tif",
     "pagination":{
      "pgfolios":{
       "section":"2",
       "value":"181b"
      }
     }
    },
    {
     "filename":"I1CZ49180395.tif",
     "pagination":{
      "pgfolios":{
       "section":"2",
       "value":"182a"
      }
     }
    },
    {
     "filename":"I1CZ49180396.tif",
     "pagination":{
      "pgfolios":{
       "section":"2",
       "value":"182b"
      }
     }
    }
   ]
  }
 },
 "viewing-direction":"top-to-bottom"
}