{
 "appData":{
  "bvmt":{
   "default-vol-string-lang":"bo",
   "metadata-for-bvmt-ver":"0.1.0"
  }
 },
 "attribution":[
  {
   "@language":"en",
   "@value":"Data provided by rKTs under the CC0 license"
  }
 ],
 "changes":[
  {
   "message":{
    "@language":"en",
    "@value":"migration from rKTs data"
   },
   "time":"2020-10-03T11:35:30Z",
   "user":"bdu:U1653882847"
  }
 ],
 "default-view":"view1",
 "imggroup":"bdr:I1CZ4940",
 "pagination":[
  {
   "id":"pgfolios",
   "type":"folios"
  }
 ],
 "sections":[
  {
   "id":"1",
   "name":{
    "@language":"bo-x-ewts",
    "@value":"1"
   }
  },
  {
   "id":"2",
   "name":{
    "@language":"bo-x-ewts",
    "@value":"2"
   }
  },
  {
   "id":"3",
   "name":{
    "@language":"bo-x-ewts",
    "@value":"3"
   }
  },
  {
   "id":"4",
   "name":{
    "@language":"bo-x-ewts",
    "@value":"4"
   }
  },
  {
   "id":"5",
   "name":{
    "@language":"bo-x-ewts",
    "@value":"5"
   }
  },
  {
   "id":"6",
   "name":{
    "@language":"bo-x-ewts",
    "@value":"6"
   }
  },
  {
   "id":"7",
   "name":{
    "@language":"bo-x-ewts",
    "@value":"7"
   }
  },
  {
   "id":"8",
   "name":{
    "@language":"bo-x-ewts",
    "@value":"8"
   }
  },
  {
   "id":"9",
   "name":{
    "@language":"bo-x-ewts",
    "@value":"9"
   }
  },
  {
   "id":"10",
   "name":{
    "@language":"bo-x-ewts",
    "@value":"10"
   }
  },
  {
   "id":"11",
   "name":{
    "@language":"bo-x-ewts",
    "@value":"11"
   }
  },
  {
   "id":"12",
   "name":{
    "@language":"bo-x-ewts",
    "@value":"12"
   }
  },
  {
   "id":"13",
   "name":{
    "@language":"bo-x-ewts",
    "@value":"13"
   }
  },
  {
   "id":"14",
   "name":{
    "@language":"bo-x-ewts",
    "@value":"14"
   }
  },
  {
   "id":"15",
   "name":{
    "@language":"bo-x-ewts",
    "@value":"15"
   }
  },
  {
   "id":"16",
   "name":{
    "@language":"bo-x-ewts",
    "@value":"16"
   }
  }
 ],
 "spec-version":"0.1.0",
 "status":"released",
 "view":{
  "view1":{
   "imagelist":[
    {
     "filename":"I1CZ49400001.tif",
     "hidden":true,
     "tags":[
      "T0005"
     ]
    },
    {
     "filename":"I1CZ49400002.tif",
     "hidden":true,
     "tags":[
      "T0005"
     ]
    },
    {
     "filename":"I1CZ49400003.tif",
     "pagination":{
      "pgfolios":{
       "section":"1",
       "value":"1a"
      }
     }
    },
    {
     "filename":"I1CZ49400004.tif",
     "pagination":{
      "pgfolios":{
       "section":"1",
       "value":"1b"
      }
     }
    },
    {
     "filename":"I1CZ49400005.tif",
     "pagination":{
      "pgfolios":{
       "section":"1",
       "value":"2a"
      }
     }
    },
    {
     "filename":"I1CZ49400006.tif",
     "pagination":{
      "pgfolios":{
       "section":"1",
       "value":"2b"
      }
     }
    },
    {
     "filename":"I1CZ49400007.tif",
     "pagination":{
      "pgfolios":{
       "section":"1",
       "value":"3a"
      }
     }
    },
    {
     "filename":"I1CZ49400008.tif",
     "pagination":{
      "pgfolios":{
       "section":"1",
       "value":"3b"
      }
     }
    },
    {
     "filename":"I1CZ49400009.tif",
     "pagination":{
      "pgfolios":{
       "section":"1",
       "value":"4a"
      }
     }
    },
    {
     "filename":"I1CZ49400010.tif",
     "pagination":{
      "pgfolios":{
       "section":"1",
       "value":"4b"
      }
     }
    },
    {
     "filename":"I1CZ49400011.tif",
     "pagination":{
      "pgfolios":{
       "section":"1",
       "value":"5a"
      }
     }
    },
    {
     "filename":"I1CZ49400012.tif",
     "pagination":{
      "pgfolios":{
       "section":"1",
       "value":"5b"
      }
     }
    },
    {
     "filename":"I1CZ49400013.tif",
     "pagination":{
      "pgfolios":{
       "section":"1",
       "value":"6a"
      }
     }
    },
    {
     "filename":"I1CZ49400014.tif",
     "pagination":{
      "pgfolios":{
       "section":"1",
       "value":"6b"
      }
     }
    },
    {
     "filename":"I1CZ49400015.tif",
     "pagination":{
      "pgfolios":{
       "section":"1",
       "value":"7a"
      }
     }
    },
    {
     "filename":"I1CZ49400016.tif",
     "pagination":{
      "pgfolios":{
       "section":"1",
       "value":"7b"
      }
     }
    },
    {
     "filename":"I1CZ49400017.tif",
     "pagination":{
      "pgfolios":{
       "section":"1",
       "value":"8a"
      }
     }
    },
    {
     "filename":"I1CZ49400018.tif",
     "pagination":{
      "pgfolios":{
       "section":"1",
       "value":"8b"
      }
     }
    },
    {
     "filename":"I1CZ49400019.tif",
     "pagination":{
      "pgfolios":{
       "section":"1",
       "value":"9a"
      }
     }
    },
    {
     "filename":"I1CZ49400020.tif",
     "pagination":{
      "pgfolios":{
       "section":"1",
       "value":"9b"
      }
     }
    },
    {
     "filename":"I1CZ49400021.tif",
     "pagination":{
      "pgfolios":{
       "section":"1",
       "value":"10a"
      }
     }
    },
    {
     "filename":"I1CZ49400022.tif",
     "pagination":{
      "pgfolios":{
       "section":"1",
       "value":"10b"
      }
     }
    },
    {
     "filename":"I1CZ49400023.tif",
     "pagination":{
      "pgfolios":{
       "section":"1",
       "value":"11a"
      }
     }
    },
    {
     "filename":"I1CZ49400024.tif",
     "pagination":{
      "pgfolios":{
       "section":"1",
       "value":"11b"
      }
     }
    },
    {
     "filename":"I1CZ49400025.tif",
     "pagination":{
      "pgfolios":{
       "section":"1",
       "value":"12a"
      }
     }
    },
    {
     "filename":"I1CZ49400026.tif",
     "pagination":{
      "pgfolios":{
       "section":"1",
       "value":"12b"
      }
     }
    },
    {
     "filename":"I1CZ49400027.tif",
     "pagination":{
      "pgfolios":{
       "section":"1",
       "value":"13a"
      }
     }
    },
    {
     "filename":"I1CZ49400028.tif",
     "pagination":{
      "pgfolios":{
       "section":"1",
       "value":"13b"
      }
     }
    },
    {
     "filename":"I1CZ49400029.tif",
     "pagination":{
      "pgfolios":{
       "section":"1",
       "value":"14a"
      }
     }
    },
    {
     "filename":"I1CZ49400030.tif",
     "pagination":{
      "pgfolios":{
       "section":"1",
       "value":"14b"
      }
     }
    },
    {
     "filename":"I1CZ49400031.tif",
     "pagination":{
      "pgfolios":{
       "section":"1",
       "value":"15a"
      }
     }
    },
    {
     "filename":"I1CZ49400032.tif",
     "pagination":{
      "pgfolios":{
       "section":"1",
       "value":"15b"
      }
     }
    },
    {
     "filename":"I1CZ49400033.tif",
     "pagination":{
      "pgfolios":{
       "section":"2",
       "value":"1a"
      }
     }
    },
    {
     "filename":"I1CZ49400034.tif",
     "pagination":{
      "pgfolios":{
       "section":"2",
       "value":"1b"
      }
     }
    },
    {
     "filename":"I1CZ49400035.tif",
     "pagination":{
      "pgfolios":{
       "section":"2",
       "value":"2a"
      }
     }
    },
    {
     "filename":"I1CZ49400036.tif",
     "pagination":{
      "pgfolios":{
       "section":"2",
       "value":"2b"
      }
     }
    },
    {
     "filename":"I1CZ49400037.tif",
     "pagination":{
      "pgfolios":{
       "section":"2",
       "value":"3a"
      }
     }
    },
    {
     "filename":"I1CZ49400038.tif",
     "pagination":{
      "pgfolios":{
       "section":"2",
       "value":"3b"
      }
     }
    },
    {
     "filename":"I1CZ49400039.tif",
     "pagination":{
      "pgfolios":{
       "section":"2",
       "value":"4a"
      }
     }
    },
    {
     "filename":"I1CZ49400040.tif",
     "pagination":{
      "pgfolios":{
       "section":"2",
       "value":"4b"
      }
     }
    },
    {
     "filename":"I1CZ49400041.tif",
     "pagination":{
      "pgfolios":{
       "section":"2",
       "value":"5a"
      }
     }
    },
    {
     "filename":"I1CZ49400042.tif",
     "pagination":{
      "pgfolios":{
       "section":"2",
       "value":"5b"
      }
     }
    },
    {
     "filename":"I1CZ49400043.tif",
     "pagination":{
      "pgfolios":{
       "section":"2",
       "value":"6a"
      }
     }
    },
    {
     "filename":"I1CZ49400044.tif",
     "pagination":{
      "pgfolios":{
       "section":"2",
       "value":"6b"
      }
     }
    },
    {
     "filename":"I1CZ49400045.tif",
     "pagination":{
      "pgfolios":{
       "section":"3",
       "value":"1a"
      }
     }
    },
    {
     "filename":"I1CZ49400046.tif",
     "pagination":{
      "pgfolios":{
       "section":"3",
       "value":"1b"
      }
     }
    },
    {
     "filename":"I1CZ49400047.tif",
     "pagination":{
      "pgfolios":{
       "section":"3",
       "value":"2a"
      }
     }
    },
    {
     "filename":"I1CZ49400048.tif",
     "pagination":{
      "pgfolios":{
       "section":"3",
       "value":"2b"
      }
     }
    },
    {
     "filename":"I1CZ49400049.tif",
     "pagination":{
      "pgfolios":{
       "section":"3",
       "value":"3a"
      }
     }
    },
    {
     "filename":"I1CZ49400050.tif",
     "pagination":{
      "pgfolios":{
       "section":"3",
       "value":"3b"
      }
     }
    },
    {
     "filename":"I1CZ49400051.tif",
     "pagination":{
      "pgfolios":{
       "section":"3",
       "value":"4a"
      }
     }
    },
    {
     "filename":"I1CZ49400052.tif",
     "pagination":{
      "pgfolios":{
       "section":"3",
       "value":"4b"
      }
     }
    },
    {
     "filename":"I1CZ49400053.tif",
     "pagination":{
      "pgfolios":{
       "section":"3",
       "value":"5a"
      }
     }
    },
    {
     "filename":"I1CZ49400054.tif",
     "pagination":{
      "pgfolios":{
       "section":"3",
       "value":"5b"
      }
     }
    },
    {
     "filename":"I1CZ49400055.tif",
     "pagination":{
      "pgfolios":{
       "section":"3",
       "value":"6a"
      }
     }
    },
    {
     "filename":"I1CZ49400056.tif",
     "pagination":{
      "pgfolios":{
       "section":"3",
       "value":"6b"
      }
     }
    },
    {
     "filename":"I1CZ49400057.tif",
     "pagination":{
      "pgfolios":{
       "section":"3",
       "value":"7a"
      }
     }
    },
    {
     "filename":"I1CZ49400058.tif",
     "pagination":{
      "pgfolios":{
       "section":"3",
       "value":"7b"
      }
     }
    },
    {
     "filename":"I1CZ49400059.tif",
     "pagination":{
      "pgfolios":{
       "section":"3",
       "value":"8a"
      }
     }
    },
    {
     "filename":"I1CZ49400060.tif",
     "pagination":{
      "pgfolios":{
       "section":"3",
       "value":"8b"
      }
     }
    },
    {
     "filename":"I1CZ49400061.tif",
     "pagination":{
      "pgfolios":{
       "section":"3",
       "value":"9a"
      }
     }
    },
    {
     "filename":"I1CZ49400062.tif",
     "pagination":{
      "pgfolios":{
       "section":"3",
       "value":"9b"
      }
     }
    },
    {
     "filename":"I1CZ49400063.tif",
     "pagination":{
      "pgfolios":{
       "section":"3",
       "value":"10a"
      }
     }
    },
    {
     "filename":"I1CZ49400064.tif",
     "pagination":{
      "pgfolios":{
       "section":"3",
       "value":"10b"
      }
     }
    },
    {
     "filename":"I1CZ49400065.tif",
     "pagination":{
      "pgfolios":{
       "section":"3",
       "value":"11a"
      }
     }
    },
    {
     "filename":"I1CZ49400066.tif",
     "pagination":{
      "pgfolios":{
       "section":"3",
       "value":"11b"
      }
     }
    },
    {
     "filename":"I1CZ49400067.tif",
     "pagination":{
      "pgfolios":{
       "section":"3",
       "value":"12a"
      }
     }
    },
    {
     "filename":"I1CZ49400068.tif",
     "pagination":{
      "pgfolios":{
       "section":"3",
       "value":"12b"
      }
     }
    },
    {
     "filename":"I1CZ49400069.tif",
     "pagination":{
      "pgfolios":{
       "section":"3",
       "value":"13a"
      }
     }
    },
    {
     "filename":"I1CZ49400070.tif",
     "pagination":{
      "pgfolios":{
       "section":"3",
       "value":"13b"
      }
     }
    },
    {
     "filename":"I1CZ49400071.tif",
     "pagination":{
      "pgfolios":{
       "section":"3",
       "value":"14a"
      }
     }
    },
    {
     "filename":"I1CZ49400072.tif",
     "pagination":{
      "pgfolios":{
       "section":"3",
       "value":"14b"
      }
     }
    },
    {
     "filename":"I1CZ49400073.tif",
     "pagination":{
      "pgfolios":{
       "section":"3",
       "value":"15a"
      }
     }
    },
    {
     "filename":"I1CZ49400074.tif",
     "pagination":{
      "pgfolios":{
       "section":"3",
       "value":"15b"
      }
     }
    },
    {
     "filename":"I1CZ49400075.tif",
     "pagination":{
      "pgfolios":{
       "section":"3",
       "value":"16a"
      }
     }
    },
    {
     "filename":"I1CZ49400076.tif",
     "pagination":{
      "pgfolios":{
       "section":"3",
       "value":"16b"
      }
     }
    },
    {
     "filename":"I1CZ49400077.tif",
     "pagination":{
      "pgfolios":{
       "section":"3",
       "value":"17a"
      }
     }
    },
    {
     "filename":"I1CZ49400078.tif",
     "pagination":{
      "pgfolios":{
       "section":"3",
       "value":"17b"
      }
     }
    },
    {
     "filename":"I1CZ49400079.tif",
     "pagination":{
      "pgfolios":{
       "section":"4",
       "value":"1a"
      }
     }
    },
    {
     "filename":"I1CZ49400080.tif",
     "pagination":{
      "pgfolios":{
       "section":"4",
       "value":"1b"
      }
     }
    },
    {
     "filename":"I1CZ49400081.tif",
     "pagination":{
      "pgfolios":{
       "section":"4",
       "value":"2a"
      }
     }
    },
    {
     "filename":"I1CZ49400082.tif",
     "pagination":{
      "pgfolios":{
       "section":"4",
       "value":"2b"
      }
     }
    },
    {
     "filename":"I1CZ49400083.tif",
     "pagination":{
      "pgfolios":{
       "section":"4",
       "value":"3a"
      }
     }
    },
    {
     "filename":"I1CZ49400084.tif",
     "pagination":{
      "pgfolios":{
       "section":"4",
       "value":"3b"
      }
     }
    },
    {
     "filename":"I1CZ49400085.tif",
     "pagination":{
      "pgfolios":{
       "section":"4",
       "value":"4a"
      }
     }
    },
    {
     "filename":"I1CZ49400086.tif",
     "pagination":{
      "pgfolios":{
       "section":"4",
       "value":"4b"
      }
     }
    },
    {
     "filename":"I1CZ49400087.tif",
     "pagination":{
      "pgfolios":{
       "section":"4",
       "value":"5a"
      }
     }
    },
    {
     "filename":"I1CZ49400088.tif",
     "pagination":{
      "pgfolios":{
       "section":"4",
       "value":"5b"
      }
     }
    },
    {
     "filename":"I1CZ49400089.tif",
     "pagination":{
      "pgfolios":{
       "section":"4",
       "value":"6a"
      }
     }
    },
    {
     "filename":"I1CZ49400090.tif",
     "pagination":{
      "pgfolios":{
       "section":"4",
       "value":"6b"
      }
     }
    },
    {
     "filename":"I1CZ49400091.tif",
     "pagination":{
      "pgfolios":{
       "section":"4",
       "value":"7a"
      }
     }
    },
    {
     "filename":"I1CZ49400092.tif",
     "pagination":{
      "pgfolios":{
       "section":"4",
       "value":"7b"
      }
     }
    },
    {
     "filename":"I1CZ49400093.tif",
     "pagination":{
      "pgfolios":{
       "section":"4",
       "value":"8a"
      }
     }
    },
    {
     "filename":"I1CZ49400094.tif",
     "pagination":{
      "pgfolios":{
       "section":"4",
       "value":"8b"
      }
     }
    },
    {
     "filename":"I1CZ49400095.tif",
     "pagination":{
      "pgfolios":{
       "section":"4",
       "value":"9a"
      }
     }
    },
    {
     "filename":"I1CZ49400096.tif",
     "pagination":{
      "pgfolios":{
       "section":"4",
       "value":"9b"
      }
     }
    },
    {
     "filename":"I1CZ49400097.tif",
     "pagination":{
      "pgfolios":{
       "section":"4",
       "value":"10a"
      }
     }
    },
    {
     "filename":"I1CZ49400098.tif",
     "pagination":{
      "pgfolios":{
       "section":"4",
       "value":"10b"
      }
     }
    },
    {
     "filename":"I1CZ49400099.tif",
     "pagination":{
      "pgfolios":{
       "section":"4",
       "value":"11a"
      }
     }
    },
    {
     "filename":"I1CZ49400100.tif",
     "pagination":{
      "pgfolios":{
       "section":"4",
       "value":"11b"
      }
     }
    },
    {
     "filename":"I1CZ49400101.tif",
     "pagination":{
      "pgfolios":{
       "section":"4",
       "value":"12a"
      }
     }
    },
    {
     "filename":"I1CZ49400102.tif",
     "pagination":{
      "pgfolios":{
       "section":"4",
       "value":"12b"
      }
     }
    },
    {
     "filename":"I1CZ49400103.tif",
     "pagination":{
      "pgfolios":{
       "section":"4",
       "value":"13a"
      }
     }
    },
    {
     "filename":"I1CZ49400104.tif",
     "pagination":{
      "pgfolios":{
       "section":"4",
       "value":"13b"
      }
     }
    },
    {
     "filename":"I1CZ49400105.tif",
     "pagination":{
      "pgfolios":{
       "section":"4",
       "value":"14a"
      }
     }
    },
    {
     "filename":"I1CZ49400106.tif",
     "pagination":{
      "pgfolios":{
       "section":"4",
       "value":"14b"
      }
     }
    },
    {
     "filename":"I1CZ49400107.tif",
     "pagination":{
      "pgfolios":{
       "section":"4",
       "value":"15a"
      }
     }
    },
    {
     "filename":"I1CZ49400108.tif",
     "pagination":{
      "pgfolios":{
       "section":"4",
       "value":"15b"
      }
     }
    },
    {
     "filename":"I1CZ49400109.tif",
     "pagination":{
      "pgfolios":{
       "section":"4",
       "value":"16a"
      }
     }
    },
    {
     "filename":"I1CZ49400110.tif",
     "pagination":{
      "pgfolios":{
       "section":"4",
       "value":"16b"
      }
     }
    },
    {
     "filename":"I1CZ49400111.tif",
     "pagination":{
      "pgfolios":{
       "section":"4",
       "value":"17a"
      }
     }
    },
    {
     "filename":"I1CZ49400112.tif",
     "pagination":{
      "pgfolios":{
       "section":"4",
       "value":"17b"
      }
     }
    },
    {
     "filename":"I1CZ49400113.tif",
     "pagination":{
      "pgfolios":{
       "section":"4",
       "value":"18a"
      }
     }
    },
    {
     "filename":"I1CZ49400114.tif",
     "pagination":{
      "pgfolios":{
       "section":"4",
       "value":"18b"
      }
     }
    },
    {
     "filename":"I1CZ49400115.tif",
     "pagination":{
      "pgfolios":{
       "section":"4",
       "value":"19a"
      }
     }
    },
    {
     "filename":"I1CZ49400116.tif",
     "pagination":{
      "pgfolios":{
       "section":"4",
       "value":"19b"
      }
     }
    },
    {
     "filename":"I1CZ49400117.tif",
     "pagination":{
      "pgfolios":{
       "section":"4",
       "value":"20a"
      }
     }
    },
    {
     "filename":"I1CZ49400118.tif",
     "pagination":{
      "pgfolios":{
       "section":"4",
       "value":"20b"
      }
     }
    },
    {
     "filename":"I1CZ49400119.tif",
     "pagination":{
      "pgfolios":{
       "section":"4",
       "value":"21a"
      }
     }
    },
    {
     "filename":"I1CZ49400120.tif",
     "pagination":{
      "pgfolios":{
       "section":"4",
       "value":"21b"
      }
     }
    },
    {
     "filename":"I1CZ49400121.tif",
     "pagination":{
      "pgfolios":{
       "section":"4",
       "value":"22a"
      }
     }
    },
    {
     "filename":"I1CZ49400122.tif",
     "pagination":{
      "pgfolios":{
       "section":"4",
       "value":"22b"
      }
     }
    },
    {
     "filename":"I1CZ49400123.tif",
     "pagination":{
      "pgfolios":{
       "section":"4",
       "value":"23a"
      }
     }
    },
    {
     "filename":"I1CZ49400124.tif",
     "pagination":{
      "pgfolios":{
       "section":"4",
       "value":"23b"
      }
     }
    },
    {
     "filename":"I1CZ49400125.tif",
     "pagination":{
      "pgfolios":{
       "section":"4",
       "value":"24a"
      }
     }
    },
    {
     "filename":"I1CZ49400126.tif",
     "pagination":{
      "pgfolios":{
       "section":"4",
       "value":"24b"
      }
     }
    },
    {
     "filename":"I1CZ49400127.tif",
     "pagination":{
      "pgfolios":{
       "section":"4",
       "value":"25a"
      }
     }
    },
    {
     "filename":"I1CZ49400128.tif",
     "pagination":{
      "pgfolios":{
       "section":"4",
       "value":"25b"
      }
     }
    },
    {
     "filename":"I1CZ49400129.tif",
     "pagination":{
      "pgfolios":{
       "section":"4",
       "value":"26a"
      }
     }
    },
    {
     "filename":"I1CZ49400130.tif",
     "pagination":{
      "pgfolios":{
       "section":"4",
       "value":"26b"
      }
     }
    },
    {
     "filename":"I1CZ49400131.tif",
     "pagination":{
      "pgfolios":{
       "section":"4",
       "value":"27a"
      }
     }
    },
    {
     "filename":"I1CZ49400132.tif",
     "pagination":{
      "pgfolios":{
       "section":"4",
       "value":"27b"
      }
     }
    },
    {
     "filename":"I1CZ49400133.tif",
     "pagination":{
      "pgfolios":{
       "section":"4",
       "value":"28a"
      }
     }
    },
    {
     "filename":"I1CZ49400134.tif",
     "pagination":{
      "pgfolios":{
       "section":"4",
       "value":"28b"
      }
     }
    },
    {
     "filename":"I1CZ49400135.tif",
     "pagination":{
      "pgfolios":{
       "section":"4",
       "value":"29a"
      }
     }
    },
    {
     "filename":"I1CZ49400136.tif",
     "pagination":{
      "pgfolios":{
       "section":"4",
       "value":"29b"
      }
     }
    },
    {
     "filename":"I1CZ49400137.tif",
     "pagination":{
      "pgfolios":{
       "section":"4",
       "value":"30a"
      }
     }
    },
    {
     "filename":"I1CZ49400138.tif",
     "pagination":{
      "pgfolios":{
       "section":"4",
       "value":"30b"
      }
     }
    },
    {
     "filename":"I1CZ49400139.tif",
     "pagination":{
      "pgfolios":{
       "section":"4",
       "value":"31a"
      }
     }
    },
    {
     "filename":"I1CZ49400140.tif",
     "pagination":{
      "pgfolios":{
       "section":"4",
       "value":"31b"
      }
     }
    },
    {
     "filename":"I1CZ49400141.tif",
     "pagination":{
      "pgfolios":{
       "section":"4",
       "value":"32a"
      }
     }
    },
    {
     "filename":"I1CZ49400142.tif",
     "pagination":{
      "pgfolios":{
       "section":"4",
       "value":"32b"
      }
     }
    },
    {
     "filename":"I1CZ49400143.tif",
     "pagination":{
      "pgfolios":{
       "section":"4",
       "value":"33a"
      }
     }
    },
    {
     "filename":"I1CZ49400144.tif",
     "pagination":{
      "pgfolios":{
       "section":"4",
       "value":"33b"
      }
     }
    },
    {
     "filename":"I1CZ49400145.tif",
     "pagination":{
      "pgfolios":{
       "section":"4",
       "value":"34a"
      }
     }
    },
    {
     "filename":"I1CZ49400146.tif",
     "pagination":{
      "pgfolios":{
       "section":"4",
       "value":"34b"
      }
     }
    },
    {
     "filename":"I1CZ49400147.tif",
     "pagination":{
      "pgfolios":{
       "section":"4",
       "value":"35a"
      }
     }
    },
    {
     "filename":"I1CZ49400148.tif",
     "pagination":{
      "pgfolios":{
       "section":"4",
       "value":"35b"
      }
     }
    },
    {
     "filename":"I1CZ49400149.tif",
     "pagination":{
      "pgfolios":{
       "section":"4",
       "value":"36a"
      }
     }
    },
    {
     "filename":"I1CZ49400150.tif",
     "pagination":{
      "pgfolios":{
       "section":"4",
       "value":"36b"
      }
     }
    },
    {
     "filename":"I1CZ49400151.tif",
     "pagination":{
      "pgfolios":{
       "section":"4",
       "value":"37a"
      }
     }
    },
    {
     "filename":"I1CZ49400152.tif",
     "pagination":{
      "pgfolios":{
       "section":"4",
       "value":"37b"
      }
     }
    },
    {
     "filename":"I1CZ49400153.tif",
     "pagination":{
      "pgfolios":{
       "section":"4",
       "value":"38a"
      }
     }
    },
    {
     "filename":"I1CZ49400154.tif",
     "pagination":{
      "pgfolios":{
       "section":"4",
       "value":"38b"
      }
     }
    },
    {
     "filename":"I1CZ49400155.tif",
     "pagination":{
      "pgfolios":{
       "section":"4",
       "value":"39a"
      }
     }
    },
    {
     "filename":"I1CZ49400156.tif",
     "pagination":{
      "pgfolios":{
       "section":"4",
       "value":"39b"
      }
     }
    },
    {
     "filename":"I1CZ49400157.tif",
     "pagination":{
      "pgfolios":{
       "section":"4",
       "value":"40a"
      }
     }
    },
    {
     "filename":"I1CZ49400158.tif",
     "pagination":{
      "pgfolios":{
       "section":"4",
       "value":"40b"
      }
     }
    },
    {
     "filename":"I1CZ49400159.tif",
     "pagination":{
      "pgfolios":{
       "section":"4",
       "value":"41a"
      }
     }
    },
    {
     "filename":"I1CZ49400160.tif",
     "pagination":{
      "pgfolios":{
       "section":"4",
       "value":"41b"
      }
     }
    },
    {
     "filename":"I1CZ49400161.tif",
     "pagination":{
      "pgfolios":{
       "section":"4",
       "value":"42a"
      }
     }
    },
    {
     "filename":"I1CZ49400162.tif",
     "pagination":{
      "pgfolios":{
       "section":"4",
       "value":"42b"
      }
     }
    },
    {
     "filename":"I1CZ49400163.tif",
     "pagination":{
      "pgfolios":{
       "section":"4",
       "value":"43a"
      }
     }
    },
    {
     "filename":"I1CZ49400164.tif",
     "pagination":{
      "pgfolios":{
       "section":"4",
       "value":"43b"
      }
     }
    },
    {
     "filename":"I1CZ49400165.tif",
     "pagination":{
      "pgfolios":{
       "section":"4",
       "value":"44a"
      }
     }
    },
    {
     "filename":"I1CZ49400166.tif",
     "pagination":{
      "pgfolios":{
       "section":"4",
       "value":"44b"
      }
     }
    },
    {
     "filename":"I1CZ49400167.tif",
     "pagination":{
      "pgfolios":{
       "section":"4",
       "value":"45a"
      }
     }
    },
    {
     "filename":"I1CZ49400168.tif",
     "pagination":{
      "pgfolios":{
       "section":"4",
       "value":"45b"
      }
     }
    },
    {
     "filename":"I1CZ49400169.tif",
     "pagination":{
      "pgfolios":{
       "section":"4",
       "value":"46a"
      }
     }
    },
    {
     "filename":"I1CZ49400170.tif",
     "pagination":{
      "pgfolios":{
       "section":"4",
       "value":"46b"
      }
     }
    },
    {
     "filename":"I1CZ49400171.tif",
     "pagination":{
      "pgfolios":{
       "section":"4",
       "value":"47a"
      }
     }
    },
    {
     "filename":"I1CZ49400172.tif",
     "pagination":{
      "pgfolios":{
       "section":"4",
       "value":"47b"
      }
     }
    },
    {
     "filename":"I1CZ49400173.tif",
     "pagination":{
      "pgfolios":{
       "section":"4",
       "value":"48a"
      }
     }
    },
    {
     "filename":"I1CZ49400174.tif",
     "pagination":{
      "pgfolios":{
       "section":"4",
       "value":"48b"
      }
     }
    },
    {
     "filename":"I1CZ49400175.tif",
     "pagination":{
      "pgfolios":{
       "section":"4",
       "value":"49a"
      }
     }
    },
    {
     "filename":"I1CZ49400176.tif",
     "pagination":{
      "pgfolios":{
       "section":"4",
       "value":"49b"
      }
     }
    },
    {
     "filename":"I1CZ49400177.tif",
     "pagination":{
      "pgfolios":{
       "section":"4",
       "value":"50a"
      }
     }
    },
    {
     "filename":"I1CZ49400178.tif",
     "pagination":{
      "pgfolios":{
       "section":"4",
       "value":"50b"
      }
     }
    },
    {
     "filename":"I1CZ49400179.tif",
     "pagination":{
      "pgfolios":{
       "section":"4",
       "value":"51a"
      }
     }
    },
    {
     "filename":"I1CZ49400180.tif",
     "pagination":{
      "pgfolios":{
       "section":"4",
       "value":"51b"
      }
     }
    },
    {
     "filename":"I1CZ49400181.tif",
     "pagination":{
      "pgfolios":{
       "section":"4",
       "value":"52a"
      }
     }
    },
    {
     "filename":"I1CZ49400182.tif",
     "pagination":{
      "pgfolios":{
       "section":"4",
       "value":"52b"
      }
     }
    },
    {
     "filename":"I1CZ49400183.tif",
     "pagination":{
      "pgfolios":{
       "section":"4",
       "value":"53a"
      }
     }
    },
    {
     "filename":"I1CZ49400184.tif",
     "pagination":{
      "pgfolios":{
       "section":"4",
       "value":"53b"
      }
     }
    },
    {
     "filename":"I1CZ49400185.tif",
     "pagination":{
      "pgfolios":{
       "section":"4",
       "value":"54a"
      }
     }
    },
    {
     "filename":"I1CZ49400186.tif",
     "pagination":{
      "pgfolios":{
       "section":"4",
       "value":"54b"
      }
     }
    },
    {
     "filename":"I1CZ49400187.tif",
     "pagination":{
      "pgfolios":{
       "section":"4",
       "value":"55a"
      }
     }
    },
    {
     "filename":"I1CZ49400188.tif",
     "pagination":{
      "pgfolios":{
       "section":"4",
       "value":"55b"
      }
     }
    },
    {
     "filename":"I1CZ49400189.tif",
     "pagination":{
      "pgfolios":{
       "section":"4",
       "value":"56a"
      }
     }
    },
    {
     "filename":"I1CZ49400190.tif",
     "pagination":{
      "pgfolios":{
       "section":"4",
       "value":"56b"
      }
     }
    },
    {
     "filename":"I1CZ49400191.tif",
     "pagination":{
      "pgfolios":{
       "section":"4",
       "value":"57a"
      }
     }
    },
    {
     "filename":"I1CZ49400192.tif",
     "pagination":{
      "pgfolios":{
       "section":"4",
       "value":"57b"
      }
     }
    },
    {
     "filename":"I1CZ49400193.tif",
     "pagination":{
      "pgfolios":{
       "section":"4",
       "value":"58a"
      }
     }
    },
    {
     "filename":"I1CZ49400194.tif",
     "pagination":{
      "pgfolios":{
       "section":"4",
       "value":"58b"
      }
     }
    },
    {
     "filename":"I1CZ49400195.tif",
     "pagination":{
      "pgfolios":{
       "section":"4",
       "value":"59a"
      }
     }
    },
    {
     "filename":"I1CZ49400196.tif",
     "pagination":{
      "pgfolios":{
       "section":"4",
       "value":"59b"
      }
     }
    },
    {
     "filename":"I1CZ49400197.tif",
     "pagination":{
      "pgfolios":{
       "section":"4",
       "value":"60a"
      }
     }
    },
    {
     "filename":"I1CZ49400198.tif",
     "pagination":{
      "pgfolios":{
       "section":"4",
       "value":"60b"
      }
     }
    },
    {
     "filename":"I1CZ49400199.tif",
     "pagination":{
      "pgfolios":{
       "section":"4",
       "value":"61a"
      }
     }
    },
    {
     "filename":"I1CZ49400200.tif",
     "pagination":{
      "pgfolios":{
       "section":"4",
       "value":"61b"
      }
     }
    },
    {
     "filename":"I1CZ49400201.tif",
     "pagination":{
      "pgfolios":{
       "section":"4",
       "value":"62a"
      }
     }
    },
    {
     "filename":"I1CZ49400202.tif",
     "pagination":{
      "pgfolios":{
       "section":"4",
       "value":"62b"
      }
     }
    },
    {
     "filename":"I1CZ49400203.tif",
     "pagination":{
      "pgfolios":{
       "section":"4",
       "value":"63a"
      }
     }
    },
    {
     "filename":"I1CZ49400204.tif",
     "pagination":{
      "pgfolios":{
       "section":"4",
       "value":"63b"
      }
     }
    },
    {
     "filename":"I1CZ49400205.tif",
     "pagination":{
      "pgfolios":{
       "section":"4",
       "value":"64a"
      }
     }
    },
    {
     "filename":"I1CZ49400206.tif",
     "pagination":{
      "pgfolios":{
       "section":"4",
       "value":"64b"
      }
     }
    },
    {
     "filename":"I1CZ49400207.tif",
     "pagination":{
      "pgfolios":{
       "section":"4",
       "value":"65a"
      }
     }
    },
    {
     "filename":"I1CZ49400208.tif",
     "pagination":{
      "pgfolios":{
       "section":"4",
       "value":"65b"
      }
     }
    },
    {
     "filename":"I1CZ49400209.tif",
     "pagination":{
      "pgfolios":{
       "section":"4",
       "value":"66a"
      }
     }
    },
    {
     "filename":"I1CZ49400210.tif",
     "pagination":{
      "pgfolios":{
       "section":"4",
       "value":"66b"
      }
     }
    },
    {
     "filename":"I1CZ49400211.tif",
     "pagination":{
      "pgfolios":{
       "section":"4",
       "value":"67a"
      }
     }
    },
    {
     "filename":"I1CZ49400212.tif",
     "pagination":{
      "pgfolios":{
       "section":"4",
       "value":"67b"
      }
     }
    },
    {
     "filename":"I1CZ49400213.tif",
     "pagination":{
      "pgfolios":{
       "section":"4",
       "value":"68a"
      }
     }
    },
    {
     "filename":"I1CZ49400214.tif",
     "pagination":{
      "pgfolios":{
       "section":"4",
       "value":"68b"
      }
     }
    },
    {
     "filename":"I1CZ49400215.tif",
     "pagination":{
      "pgfolios":{
       "section":"4",
       "value":"69a"
      }
     }
    },
    {
     "filename":"I1CZ49400216.tif",
     "pagination":{
      "pgfolios":{
       "section":"4",
       "value":"69b"
      }
     }
    },
    {
     "filename":"I1CZ49400217.tif",
     "pagination":{
      "pgfolios":{
       "section":"4",
       "value":"70a"
      }
     }
    },
    {
     "filename":"I1CZ49400218.tif",
     "pagination":{
      "pgfolios":{
       "section":"4",
       "value":"70b"
      }
     }
    },
    {
     "filename":"I1CZ49400219.tif",
     "pagination":{
      "pgfolios":{
       "section":"4",
       "value":"71a"
      }
     }
    },
    {
     "filename":"I1CZ49400220.tif",
     "pagination":{
      "pgfolios":{
       "section":"4",
       "value":"71b"
      }
     }
    },
    {
     "filename":"I1CZ49400221.tif",
     "pagination":{
      "pgfolios":{
       "section":"4",
       "value":"72a"
      }
     }
    },
    {
     "filename":"I1CZ49400222.tif",
     "pagination":{
      "pgfolios":{
       "section":"4",
       "value":"72b"
      }
     }
    },
    {
     "filename":"I1CZ49400223.tif",
     "pagination":{
      "pgfolios":{
       "section":"5",
       "value":"1a"
      }
     }
    },
    {
     "filename":"I1CZ49400224.tif",
     "pagination":{
      "pgfolios":{
       "section":"5",
       "value":"1b"
      }
     }
    },
    {
     "filename":"I1CZ49400225.tif",
     "pagination":{
      "pgfolios":{
       "section":"5",
       "value":"2a"
      }
     }
    },
    {
     "filename":"I1CZ49400226.tif",
     "pagination":{
      "pgfolios":{
       "section":"5",
       "value":"2b"
      }
     }
    },
    {
     "filename":"I1CZ49400227.tif",
     "pagination":{
      "pgfolios":{
       "section":"6",
       "value":"1a"
      }
     }
    },
    {
     "filename":"I1CZ49400228.tif",
     "pagination":{
      "pgfolios":{
       "section":"6",
       "value":"1b"
      }
     }
    },
    {
     "filename":"I1CZ49400229.tif",
     "pagination":{
      "pgfolios":{
       "section":"7",
       "value":"1a"
      }
     }
    },
    {
     "filename":"I1CZ49400230.tif",
     "pagination":{
      "pgfolios":{
       "section":"7",
       "value":"1b"
      }
     }
    },
    {
     "filename":"I1CZ49400231.tif",
     "pagination":{
      "pgfolios":{
       "section":"8",
       "value":"1a"
      }
     }
    },
    {
     "filename":"I1CZ49400232.tif",
     "pagination":{
      "pgfolios":{
       "section":"8",
       "value":"1b"
      }
     }
    },
    {
     "filename":"I1CZ49400233.tif",
     "pagination":{
      "pgfolios":{
       "section":"8",
       "value":"2a"
      }
     }
    },
    {
     "filename":"I1CZ49400234.tif",
     "pagination":{
      "pgfolios":{
       "section":"8",
       "value":"2b"
      }
     }
    },
    {
     "filename":"I1CZ49400235.tif",
     "pagination":{
      "pgfolios":{
       "section":"8",
       "value":"3a"
      }
     }
    },
    {
     "filename":"I1CZ49400236.tif",
     "pagination":{
      "pgfolios":{
       "section":"8",
       "value":"3b"
      }
     }
    },
    {
     "filename":"I1CZ49400237.tif",
     "pagination":{
      "pgfolios":{
       "section":"8",
       "value":"4a"
      }
     }
    },
    {
     "filename":"I1CZ49400238.tif",
     "pagination":{
      "pgfolios":{
       "section":"8",
       "value":"4b"
      }
     }
    },
    {
     "filename":"I1CZ49400239.tif",
     "pagination":{
      "pgfolios":{
       "section":"8",
       "value":"5a"
      }
     }
    },
    {
     "filename":"I1CZ49400240.tif",
     "pagination":{
      "pgfolios":{
       "section":"8",
       "value":"5b"
      }
     }
    },
    {
     "filename":"I1CZ49400241.tif",
     "pagination":{
      "pgfolios":{
       "section":"8",
       "value":"6a"
      }
     }
    },
    {
     "filename":"I1CZ49400242.tif",
     "pagination":{
      "pgfolios":{
       "section":"8",
       "value":"6b"
      }
     }
    },
    {
     "filename":"I1CZ49400243.tif",
     "pagination":{
      "pgfolios":{
       "section":"8",
       "value":"7a"
      }
     }
    },
    {
     "filename":"I1CZ49400244.tif",
     "pagination":{
      "pgfolios":{
       "section":"8",
       "value":"7b"
      }
     }
    },
    {
     "filename":"I1CZ49400245.tif",
     "pagination":{
      "pgfolios":{
       "section":"8",
       "value":"8a"
      }
     }
    },
    {
     "filename":"I1CZ49400246.tif",
     "pagination":{
      "pgfolios":{
       "section":"8",
       "value":"8b"
      }
     }
    },
    {
     "filename":"I1CZ49400247.tif",
     "pagination":{
      "pgfolios":{
       "section":"9",
       "value":"1a"
      }
     }
    },
    {
     "filename":"I1CZ49400248.tif",
     "pagination":{
      "pgfolios":{
       "section":"9",
       "value":"1b"
      }
     }
    },
    {
     "filename":"I1CZ49400249.tif",
     "pagination":{
      "pgfolios":{
       "section":"9",
       "value":"2a"
      }
     }
    },
    {
     "filename":"I1CZ49400250.tif",
     "pagination":{
      "pgfolios":{
       "section":"9",
       "value":"2b"
      }
     }
    },
    {
     "filename":"I1CZ49400251.tif",
     "pagination":{
      "pgfolios":{
       "section":"9",
       "value":"3a"
      }
     }
    },
    {
     "filename":"I1CZ49400252.tif",
     "pagination":{
      "pgfolios":{
       "section":"9",
       "value":"3b"
      }
     }
    },
    {
     "filename":"I1CZ49400253.tif",
     "pagination":{
      "pgfolios":{
       "section":"10",
       "value":"1a"
      }
     }
    },
    {
     "filename":"I1CZ49400254.tif",
     "pagination":{
      "pgfolios":{
       "section":"10",
       "value":"1b"
      }
     }
    },
    {
     "filename":"I1CZ49400255.tif",
     "pagination":{
      "pgfolios":{
       "section":"10",
       "value":"2a"
      }
     }
    },
    {
     "filename":"I1CZ49400256.tif",
     "pagination":{
      "pgfolios":{
       "section":"10",
       "value":"2b"
      }
     }
    },
    {
     "filename":"I1CZ49400257.tif",
     "pagination":{
      "pgfolios":{
       "section":"10",
       "value":"3a"
      }
     }
    },
    {
     "filename":"I1CZ49400258.tif",
     "pagination":{
      "pgfolios":{
       "section":"10",
       "value":"3b"
      }
     }
    },
    {
     "filename":"I1CZ49400259.tif",
     "pagination":{
      "pgfolios":{
       "section":"10",
       "value":"4a"
      }
     }
    },
    {
     "filename":"I1CZ49400260.tif",
     "pagination":{
      "pgfolios":{
       "section":"10",
       "value":"4b"
      }
     }
    },
    {
     "filename":"I1CZ49400261.tif",
     "pagination":{
      "pgfolios":{
       "section":"10",
       "value":"5a"
      }
     }
    },
    {
     "filename":"I1CZ49400262.tif",
     "pagination":{
      "pgfolios":{
       "section":"10",
       "value":"5b"
      }
     }
    },
    {
     "filename":"I1CZ49400263.tif",
     "pagination":{
      "pgfolios":{
       "section":"10",
       "value":"6a"
      }
     }
    },
    {
     "filename":"I1CZ49400264.tif",
     "pagination":{
      "pgfolios":{
       "section":"10",
       "value":"6b"
      }
     }
    },
    {
     "filename":"I1CZ49400265.tif",
     "pagination":{
      "pgfolios":{
       "section":"10",
       "value":"7a"
      }
     }
    },
    {
     "filename":"I1CZ49400266.tif",
     "pagination":{
      "pgfolios":{
       "section":"10",
       "value":"7b"
      }
     }
    },
    {
     "filename":"I1CZ49400267.tif",
     "pagination":{
      "pgfolios":{
       "section":"10",
       "value":"8a"
      }
     }
    },
    {
     "filename":"I1CZ49400268.tif",
     "pagination":{
      "pgfolios":{
       "section":"10",
       "value":"8b"
      }
     }
    },
    {
     "filename":"I1CZ49400269.tif",
     "pagination":{
      "pgfolios":{
       "section":"10",
       "value":"9a"
      }
     }
    },
    {
     "filename":"I1CZ49400270.tif",
     "pagination":{
      "pgfolios":{
       "section":"10",
       "value":"9b"
      }
     }
    },
    {
     "filename":"I1CZ49400271.tif",
     "pagination":{
      "pgfolios":{
       "section":"10",
       "value":"10a"
      }
     }
    },
    {
     "filename":"I1CZ49400272.tif",
     "pagination":{
      "pgfolios":{
       "section":"10",
       "value":"10b"
      }
     }
    },
    {
     "filename":"I1CZ49400273.tif",
     "pagination":{
      "pgfolios":{
       "section":"10",
       "value":"11a"
      }
     }
    },
    {
     "filename":"I1CZ49400274.tif",
     "pagination":{
      "pgfolios":{
       "section":"10",
       "value":"11b"
      }
     }
    },
    {
     "filename":"I1CZ49400275.tif",
     "pagination":{
      "pgfolios":{
       "section":"10",
       "value":"12a"
      }
     }
    },
    {
     "filename":"I1CZ49400276.tif",
     "pagination":{
      "pgfolios":{
       "section":"10",
       "value":"12b"
      }
     }
    },
    {
     "filename":"I1CZ49400277.tif",
     "pagination":{
      "pgfolios":{
       "section":"10",
       "value":"13a"
      }
     }
    },
    {
     "filename":"I1CZ49400278.tif",
     "pagination":{
      "pgfolios":{
       "section":"10",
       "value":"13b"
      }
     }
    },
    {
     "filename":"I1CZ49400279.tif",
     "pagination":{
      "pgfolios":{
       "section":"10",
       "value":"14a"
      }
     }
    },
    {
     "filename":"I1CZ49400280.tif",
     "pagination":{
      "pgfolios":{
       "section":"10",
       "value":"14b"
      }
     }
    },
    {
     "filename":"I1CZ49400281.tif",
     "pagination":{
      "pgfolios":{
       "section":"11",
       "value":"1a"
      }
     }
    },
    {
     "filename":"I1CZ49400282.tif",
     "pagination":{
      "pgfolios":{
       "section":"11",
       "value":"1b"
      }
     }
    },
    {
     "filename":"I1CZ49400283.tif",
     "pagination":{
      "pgfolios":{
       "section":"11",
       "value":"2a"
      }
     }
    },
    {
     "filename":"I1CZ49400284.tif",
     "pagination":{
      "pgfolios":{
       "section":"11",
       "value":"2b"
      }
     }
    },
    {
     "filename":"I1CZ49400285.tif",
     "pagination":{
      "pgfolios":{
       "section":"11",
       "value":"3a"
      }
     }
    },
    {
     "filename":"I1CZ49400286.tif",
     "pagination":{
      "pgfolios":{
       "section":"11",
       "value":"3b"
      }
     }
    },
    {
     "filename":"I1CZ49400287.tif",
     "pagination":{
      "pgfolios":{
       "section":"11",
       "value":"4a"
      }
     }
    },
    {
     "filename":"I1CZ49400288.tif",
     "pagination":{
      "pgfolios":{
       "section":"11",
       "value":"4b"
      }
     }
    },
    {
     "filename":"I1CZ49400289.tif",
     "pagination":{
      "pgfolios":{
       "section":"11",
       "value":"5a"
      }
     }
    },
    {
     "filename":"I1CZ49400290.tif",
     "pagination":{
      "pgfolios":{
       "section":"11",
       "value":"5b"
      }
     }
    },
    {
     "filename":"I1CZ49400291.tif",
     "pagination":{
      "pgfolios":{
       "section":"11",
       "value":"6a"
      }
     }
    },
    {
     "filename":"I1CZ49400292.tif",
     "pagination":{
      "pgfolios":{
       "section":"11",
       "value":"6b"
      }
     }
    },
    {
     "filename":"I1CZ49400293.tif",
     "pagination":{
      "pgfolios":{
       "section":"11",
       "value":"7a"
      }
     }
    },
    {
     "filename":"I1CZ49400294.tif",
     "pagination":{
      "pgfolios":{
       "section":"11",
       "value":"7b"
      }
     }
    },
    {
     "filename":"I1CZ49400295.tif",
     "pagination":{
      "pgfolios":{
       "section":"12",
       "value":"1a"
      }
     }
    },
    {
     "filename":"I1CZ49400296.tif",
     "pagination":{
      "pgfolios":{
       "section":"12",
       "value":"1b"
      }
     }
    },
    {
     "filename":"I1CZ49400297.tif",
     "pagination":{
      "pgfolios":{
       "section":"12",
       "value":"2a"
      }
     }
    },
    {
     "filename":"I1CZ49400298.tif",
     "pagination":{
      "pgfolios":{
       "section":"12",
       "value":"2b"
      }
     }
    },
    {
     "filename":"I1CZ49400299.tif",
     "pagination":{
      "pgfolios":{
       "section":"12",
       "value":"3a"
      }
     }
    },
    {
     "filename":"I1CZ49400300.tif",
     "pagination":{
      "pgfolios":{
       "section":"12",
       "value":"3b"
      }
     }
    },
    {
     "filename":"I1CZ49400301.tif",
     "pagination":{
      "pgfolios":{
       "section":"12",
       "value":"4a"
      }
     }
    },
    {
     "filename":"I1CZ49400302.tif",
     "pagination":{
      "pgfolios":{
       "section":"12",
       "value":"4b"
      }
     }
    },
    {
     "filename":"I1CZ49400303.tif",
     "pagination":{
      "pgfolios":{
       "section":"12",
       "value":"5a"
      }
     }
    },
    {
     "filename":"I1CZ49400304.tif",
     "pagination":{
      "pgfolios":{
       "section":"12",
       "value":"5b"
      }
     }
    },
    {
     "filename":"I1CZ49400305.tif",
     "pagination":{
      "pgfolios":{
       "section":"13",
       "value":"1a"
      }
     }
    },
    {
     "filename":"I1CZ49400306.tif",
     "pagination":{
      "pgfolios":{
       "section":"13",
       "value":"1b"
      }
     }
    },
    {
     "filename":"I1CZ49400307.tif",
     "pagination":{
      "pgfolios":{
       "section":"13",
       "value":"2a"
      }
     }
    },
    {
     "filename":"I1CZ49400308.tif",
     "pagination":{
      "pgfolios":{
       "section":"13",
       "value":"2b"
      }
     }
    },
    {
     "filename":"I1CZ49400309.tif",
     "pagination":{
      "pgfolios":{
       "section":"13",
       "value":"3a"
      }
     }
    },
    {
     "filename":"I1CZ49400310.tif",
     "pagination":{
      "pgfolios":{
       "section":"13",
       "value":"3b"
      }
     }
    },
    {
     "filename":"I1CZ49400311.tif",
     "pagination":{
      "pgfolios":{
       "section":"13",
       "value":"4a"
      }
     }
    },
    {
     "filename":"I1CZ49400312.tif",
     "pagination":{
      "pgfolios":{
       "section":"13",
       "value":"4b"
      }
     }
    },
    {
     "filename":"I1CZ49400313.tif",
     "pagination":{
      "pgfolios":{
       "section":"13",
       "value":"5a"
      }
     }
    },
    {
     "filename":"I1CZ49400314.tif",
     "pagination":{
      "pgfolios":{
       "section":"13",
       "value":"5b"
      }
     }
    },
    {
     "filename":"I1CZ49400315.tif",
     "pagination":{
      "pgfolios":{
       "section":"14",
       "value":"1a"
      }
     }
    },
    {
     "filename":"I1CZ49400316.tif",
     "pagination":{
      "pgfolios":{
       "section":"14",
       "value":"1b"
      }
     }
    },
    {
     "filename":"I1CZ49400317.tif",
     "pagination":{
      "pgfolios":{
       "section":"14",
       "value":"2a"
      }
     }
    },
    {
     "filename":"I1CZ49400318.tif",
     "pagination":{
      "pgfolios":{
       "section":"14",
       "value":"2b"
      }
     }
    },
    {
     "filename":"I1CZ49400319.tif",
     "pagination":{
      "pgfolios":{
       "section":"14",
       "value":"3a"
      }
     }
    },
    {
     "filename":"I1CZ49400320.tif",
     "pagination":{
      "pgfolios":{
       "section":"14",
       "value":"3b"
      }
     }
    },
    {
     "filename":"I1CZ49400321.tif",
     "pagination":{
      "pgfolios":{
       "section":"14",
       "value":"4a"
      }
     }
    },
    {
     "filename":"I1CZ49400322.tif",
     "pagination":{
      "pgfolios":{
       "section":"14",
       "value":"4b"
      }
     }
    },
    {
     "filename":"I1CZ49400323.tif",
     "pagination":{
      "pgfolios":{
       "section":"14",
       "value":"5a"
      }
     }
    },
    {
     "filename":"I1CZ49400324.tif",
     "pagination":{
      "pgfolios":{
       "section":"14",
       "value":"5b"
      }
     }
    },
    {
     "filename":"I1CZ49400325.tif",
     "pagination":{
      "pgfolios":{
       "section":"14",
       "value":"6a"
      }
     }
    },
    {
     "filename":"I1CZ49400326.tif",
     "pagination":{
      "pgfolios":{
       "section":"14",
       "value":"6b"
      }
     }
    },
    {
     "filename":"I1CZ49400327.tif",
     "pagination":{
      "pgfolios":{
       "section":"14",
       "value":"7a"
      }
     }
    },
    {
     "filename":"I1CZ49400328.tif",
     "pagination":{
      "pgfolios":{
       "section":"14",
       "value":"7b"
      }
     }
    },
    {
     "filename":"I1CZ49400329.tif",
     "pagination":{
      "pgfolios":{
       "section":"14",
       "value":"8a"
      }
     }
    },
    {
     "filename":"I1CZ49400330.tif",
     "pagination":{
      "pgfolios":{
       "section":"14",
       "value":"8b"
      }
     }
    },
    {
     "filename":"I1CZ49400331.tif",
     "pagination":{
      "pgfolios":{
       "section":"14",
       "value":"9a"
      }
     }
    },
    {
     "filename":"I1CZ49400332.tif",
     "pagination":{
      "pgfolios":{
       "section":"14",
       "value":"9b"
      }
     }
    },
    {
     "filename":"I1CZ49400333.tif",
     "pagination":{
      "pgfolios":{
       "section":"14",
       "value":"10a"
      }
     }
    },
    {
     "filename":"I1CZ49400334.tif",
     "pagination":{
      "pgfolios":{
       "section":"14",
       "value":"10b"
      }
     }
    },
    {
     "filename":"I1CZ49400335.tif",
     "pagination":{
      "pgfolios":{
       "section":"14",
       "value":"11a"
      }
     }
    },
    {
     "filename":"I1CZ49400336.tif",
     "pagination":{
      "pgfolios":{
       "section":"14",
       "value":"11b"
      }
     }
    },
    {
     "filename":"I1CZ49400337.tif",
     "pagination":{
      "pgfolios":{
       "section":"14",
       "value":"12a"
      }
     }
    },
    {
     "filename":"I1CZ49400338.tif",
     "pagination":{
      "pgfolios":{
       "section":"14",
       "value":"12b"
      }
     }
    },
    {
     "filename":"I1CZ49400339.tif",
     "pagination":{
      "pgfolios":{
       "section":"14",
       "value":"13a"
      }
     }
    },
    {
     "filename":"I1CZ49400340.tif",
     "pagination":{
      "pgfolios":{
       "section":"14",
       "value":"13b"
      }
     }
    },
    {
     "filename":"I1CZ49400341.tif",
     "pagination":{
      "pgfolios":{
       "section":"14",
       "value":"14a"
      }
     }
    },
    {
     "filename":"I1CZ49400342.tif",
     "pagination":{
      "pgfolios":{
       "section":"14",
       "value":"14b"
      }
     }
    },
    {
     "filename":"I1CZ49400343.tif",
     "pagination":{
      "pgfolios":{
       "section":"14",
       "value":"15a"
      }
     }
    },
    {
     "filename":"I1CZ49400344.tif",
     "pagination":{
      "pgfolios":{
       "section":"14",
       "value":"15b"
      }
     }
    },
    {
     "filename":"I1CZ49400345.tif",
     "pagination":{
      "pgfolios":{
       "section":"14",
       "value":"16a"
      }
     }
    },
    {
     "filename":"I1CZ49400346.tif",
     "pagination":{
      "pgfolios":{
       "section":"14",
       "value":"16b"
      }
     }
    },
    {
     "filename":"I1CZ49400347.tif",
     "pagination":{
      "pgfolios":{
       "section":"14",
       "value":"17a"
      }
     }
    },
    {
     "filename":"I1CZ49400348.tif",
     "pagination":{
      "pgfolios":{
       "section":"14",
       "value":"17b"
      }
     }
    },
    {
     "filename":"I1CZ49400349.tif",
     "pagination":{
      "pgfolios":{
       "section":"14",
       "value":"18a"
      }
     }
    },
    {
     "filename":"I1CZ49400350.tif",
     "pagination":{
      "pgfolios":{
       "section":"14",
       "value":"18b"
      }
     }
    },
    {
     "filename":"I1CZ49400351.tif",
     "pagination":{
      "pgfolios":{
       "section":"14",
       "value":"19a"
      }
     }
    },
    {
     "filename":"I1CZ49400352.tif",
     "pagination":{
      "pgfolios":{
       "section":"14",
       "value":"19b"
      }
     }
    },
    {
     "filename":"I1CZ49400353.tif",
     "pagination":{
      "pgfolios":{
       "section":"14",
       "value":"20a"
      }
     }
    },
    {
     "filename":"I1CZ49400354.tif",
     "pagination":{
      "pgfolios":{
       "section":"14",
       "value":"20b"
      }
     }
    },
    {
     "filename":"I1CZ49400355.tif",
     "pagination":{
      "pgfolios":{
       "section":"15",
       "value":"1a"
      }
     }
    },
    {
     "filename":"I1CZ49400356.tif",
     "pagination":{
      "pgfolios":{
       "section":"15",
       "value":"1b"
      }
     }
    },
    {
     "filename":"I1CZ49400357.tif",
     "pagination":{
      "pgfolios":{
       "section":"15",
       "value":"2a"
      }
     }
    },
    {
     "filename":"I1CZ49400358.tif",
     "pagination":{
      "pgfolios":{
       "section":"15",
       "value":"2b"
      }
     }
    },
    {
     "filename":"I1CZ49400359.tif",
     "pagination":{
      "pgfolios":{
       "section":"15",
       "value":"3a"
      }
     }
    },
    {
     "filename":"I1CZ49400360.tif",
     "pagination":{
      "pgfolios":{
       "section":"15",
       "value":"3b"
      }
     }
    },
    {
     "filename":"I1CZ49400361.tif",
     "pagination":{
      "pgfolios":{
       "section":"15",
       "value":"4a"
      }
     }
    },
    {
     "filename":"I1CZ49400362.tif",
     "pagination":{
      "pgfolios":{
       "section":"15",
       "value":"4b"
      }
     }
    },
    {
     "filename":"I1CZ49400363.tif",
     "pagination":{
      "pgfolios":{
       "section":"15",
       "value":"5a"
      }
     }
    },
    {
     "filename":"I1CZ49400364.tif",
     "pagination":{
      "pgfolios":{
       "section":"15",
       "value":"5b"
      }
     }
    },
    {
     "filename":"I1CZ49400365.tif",
     "pagination":{
      "pgfolios":{
       "section":"15",
       "value":"6a"
      }
     }
    },
    {
     "filename":"I1CZ49400366.tif",
     "pagination":{
      "pgfolios":{
       "section":"15",
       "value":"6b"
      }
     }
    },
    {
     "filename":"I1CZ49400367.tif",
     "pagination":{
      "pgfolios":{
       "section":"15",
       "value":"7a"
      }
     }
    },
    {
     "filename":"I1CZ49400368.tif",
     "pagination":{
      "pgfolios":{
       "section":"15",
       "value":"7b"
      }
     }
    },
    {
     "filename":"I1CZ49400369.tif",
     "pagination":{
      "pgfolios":{
       "section":"15",
       "value":"8a"
      }
     }
    },
    {
     "filename":"I1CZ49400370.tif",
     "pagination":{
      "pgfolios":{
       "section":"15",
       "value":"8b"
      }
     }
    },
    {
     "filename":"I1CZ49400371.tif",
     "pagination":{
      "pgfolios":{
       "section":"15",
       "value":"9a"
      }
     }
    },
    {
     "filename":"I1CZ49400372.tif",
     "pagination":{
      "pgfolios":{
       "section":"15",
       "value":"9b"
      }
     }
    },
    {
     "filename":"I1CZ49400373.tif",
     "pagination":{
      "pgfolios":{
       "section":"16",
       "value":"1a"
      }
     }
    },
    {
     "filename":"I1CZ49400374.tif",
     "pagination":{
      "pgfolios":{
       "section":"16",
       "value":"1b"
      }
     }
    },
    {
     "filename":"I1CZ49400375.tif",
     "pagination":{
      "pgfolios":{
       "section":"16",
       "value":"2a"
      }
     }
    },
    {
     "filename":"I1CZ49400376.tif",
     "pagination":{
      "pgfolios":{
       "section":"16",
       "value":"2b"
      }
     }
    },
    {
     "filename":"I1CZ49400377.tif",
     "pagination":{
      "pgfolios":{
       "section":"16",
       "value":"3a"
      }
     }
    },
    {
     "filename":"I1CZ49400378.tif",
     "pagination":{
      "pgfolios":{
       "section":"16",
       "value":"3b"
      }
     }
    },
    {
     "filename":"I1CZ49400379.tif",
     "pagination":{
      "pgfolios":{
       "section":"16",
       "value":"4a"
      }
     }
    },
    {
     "filename":"I1CZ49400380.tif",
     "pagination":{
      "pgfolios":{
       "section":"16",
       "value":"4b"
      }
     }
    },
    {
     "filename":"I1CZ49400381.tif",
     "pagination":{
      "pgfolios":{
       "section":"16",
       "value":"5a"
      }
     }
    },
    {
     "filename":"I1CZ49400382.tif",
     "pagination":{
      "pgfolios":{
       "section":"16",
       "value":"5b"
      }
     }
    },
    {
     "filename":"I1CZ49400383.tif",
     "pagination":{
      "pgfolios":{
       "section":"16",
       "value":"6a"
      }
     }
    },
    {
     "filename":"I1CZ49400384.tif",
     "pagination":{
      "pgfolios":{
       "section":"16",
       "value":"6b"
      }
     }
    },
    {
     "filename":"I1CZ49400385.tif",
     "pagination":{
      "pgfolios":{
       "section":"16",
       "value":"7a"
      }
     }
    },
    {
     "filename":"I1CZ49400386.tif",
     "pagination":{
      "pgfolios":{
       "section":"16",
       "value":"7b"
      }
     }
    },
    {
     "filename":"I1CZ49400387.tif",
     "pagination":{
      "pgfolios":{
       "section":"16",
       "value":"8a"
      }
     }
    },
    {
     "filename":"I1CZ49400388.tif",
     "pagination":{
      "pgfolios":{
       "section":"16",
       "value":"8b"
      }
     }
    },
    {
     "filename":"I1CZ49400389.tif",
     "pagination":{
      "pgfolios":{
       "section":"16",
       "value":"9a"
      }
     }
    },
    {
     "filename":"I1CZ49400390.tif",
     "pagination":{
      "pgfolios":{
       "section":"16",
       "value":"9b"
      }
     }
    },
    {
     "filename":"I1CZ49400391.tif",
     "pagination":{
      "pgfolios":{
       "section":"16",
       "value":"10a"
      }
     }
    },
    {
     "filename":"I1CZ49400392.tif",
     "pagination":{
      "pgfolios":{
       "section":"16",
       "value":"10b"
      }
     }
    },
    {
     "filename":"I1CZ49400393.tif",
     "pagination":{
      "pgfolios":{
       "section":"16",
       "value":"11a"
      }
     }
    },
    {
     "filename":"I1CZ49400394.tif",
     "pagination":{
      "pgfolios":{
       "section":"16",
       "value":"11b"
      }
     }
    },
    {
     "filename":"I1CZ49400395.tif",
     "pagination":{
      "pgfolios":{
       "section":"16",
       "value":"12a"
      }
     }
    },
    {
     "filename":"I1CZ49400396.tif",
     "pagination":{
      "pgfolios":{
       "section":"16",
       "value":"12b"
      }
     }
    },
    {
     "filename":"I1CZ49400397.tif",
     "pagination":{
      "pgfolios":{
       "section":"16",
       "value":"13a"
      }
     }
    },
    {
     "filename":"I1CZ49400398.tif",
     "pagination":{
      "pgfolios":{
       "section":"16",
       "value":"13b"
      }
     }
    },
    {
     "filename":"I1CZ49400399.tif",
     "pagination":{
      "pgfolios":{
       "section":"16",
       "value":"14a"
      }
     }
    },
    {
     "filename":"I1CZ49400400.tif",
     "pagination":{
      "pgfolios":{
       "section":"16",
       "value":"14b"
      }
     }
    },
    {
     "filename":"I1CZ49400401.tif",
     "pagination":{
      "pgfolios":{
       "section":"16",
       "value":"15a"
      }
     }
    },
    {
     "filename":"I1CZ49400402.tif",
     "pagination":{
      "pgfolios":{
       "section":"16",
       "value":"15b"
      }
     }
    },
    {
     "filename":"I1CZ49400403.tif",
     "pagination":{
      "pgfolios":{
       "section":"16",
       "value":"16a"
      }
     }
    },
    {
     "filename":"I1CZ49400404.tif",
     "pagination":{
      "pgfolios":{
       "section":"16",
       "value":"16b"
      }
     }
    },
    {
     "filename":"I1CZ49400405.tif",
     "pagination":{
      "pgfolios":{
       "section":"16",
       "value":"17a"
      }
     }
    },
    {
     "filename":"I1CZ49400406.tif",
     "pagination":{
      "pgfolios":{
       "section":"16",
       "value":"17b"
      }
     }
    },
    {
     "filename":"I1CZ49400407.tif",
     "pagination":{
      "pgfolios":{
       "section":"16",
       "value":"18a"
      }
     }
    },
    {
     "filename":"I1CZ49400408.tif",
     "pagination":{
      "pgfolios":{
       "section":"16",
       "value":"18b"
      }
     }
    },
    {
     "filename":"I1CZ49400409.tif",
     "pagination":{
      "pgfolios":{
       "section":"16",
       "value":"19a"
      }
     }
    },
    {
     "filename":"I1CZ49400410.tif",
     "pagination":{
      "pgfolios":{
       "section":"16",
       "value":"19b"
      }
     }
    },
    {
     "filename":"I1CZ49400411.tif",
     "pagination":{
      "pgfolios":{
       "section":"16",
       "value":"20a"
      }
     }
    },
    {
     "filename":"I1CZ49400412.tif",
     "pagination":{
      "pgfolios":{
       "section":"16",
       "value":"20b"
      }
     }
    },
    {
     "filename":"I1CZ49400413.tif",
     "pagination":{
      "pgfolios":{
       "section":"16",
       "value":"21a"
      }
     }
    },
    {
     "filename":"I1CZ49400414.tif",
     "pagination":{
      "pgfolios":{
       "section":"16",
       "value":"21b"
      }
     }
    },
    {
     "filename":"I1CZ49400415.tif",
     "pagination":{
      "pgfolios":{
       "section":"16",
       "value":"22a"
      }
     }
    },
    {
     "filename":"I1CZ49400416.tif",
     "pagination":{
      "pgfolios":{
       "section":"16",
       "value":"22b"
      }
     }
    }
   ]
  }
 },
 "viewing-direction":"top-to-bottom"
}