{
 "appData":{
  "bvmt":{
   "default-vol-string-lang":"bo",
   "metadata-for-bvmt-ver":"0.1.0"
  }
 },
 "attribution":[
  {
   "@language":"en",
   "@value":"Data provided by rKTs under the CC0 license"
  }
 ],
 "changes":[
  {
   "message":{
    "@language":"en",
    "@value":"migration from rKTs data"
   },
   "time":"2020-10-03T11:35:30Z",
   "user":"bdu:U1653882847"
  }
 ],
 "default-view":"view1",
 "imggroup":"bdr:I1CZ4967",
 "pagination":[
  {
   "id":"pgfolios",
   "type":"folios"
  }
 ],
 "sections":[
  {
   "id":"1",
   "name":{
    "@language":"bo-x-ewts",
    "@value":"1"
   }
  },
  {
   "id":"2",
   "name":{
    "@language":"bo-x-ewts",
    "@value":"2"
   }
  }
 ],
 "spec-version":"0.1.0",
 "status":"released",
 "view":{
  "view1":{
   "imagelist":[
    {
     "filename":"I1CZ49670001.tif",
     "hidden":true,
     "tags":[
      "T0005"
     ]
    },
    {
     "filename":"I1CZ49670002.tif",
     "hidden":true,
     "tags":[
      "T0005"
     ]
    },
    {
     "filename":"I1CZ49670615.tif",
     "pagination":{
      "pgfolios":{
       "section":"1",
       "value":"1a"
      }
     }
    },
    {
     "filename":"I1CZ49670616.tif",
     "pagination":{
      "pgfolios":{
       "section":"1",
       "value":"1b"
      }
     }
    },
    {
     "filename":"I1CZ49670617.tif",
     "pagination":{
      "pgfolios":{
       "section":"1",
       "value":"2a"
      }
     }
    },
    {
     "filename":"I1CZ49670618.tif",
     "pagination":{
      "pgfolios":{
       "section":"1",
       "value":"2b"
      }
     }
    },
    {
     "filename":"I1CZ49670619.tif",
     "pagination":{
      "pgfolios":{
       "section":"1",
       "value":"3a"
      }
     }
    },
    {
     "filename":"I1CZ49670620.tif",
     "pagination":{
      "pgfolios":{
       "section":"1",
       "value":"3b"
      }
     }
    },
    {
     "filename":"I1CZ49670621.tif",
     "pagination":{
      "pgfolios":{
       "section":"1",
       "value":"4a"
      }
     }
    },
    {
     "filename":"I1CZ49670622.tif",
     "pagination":{
      "pgfolios":{
       "section":"1",
       "value":"4b"
      }
     }
    },
    {
     "filename":"I1CZ49670623.tif",
     "pagination":{
      "pgfolios":{
       "section":"1",
       "value":"5a"
      }
     }
    },
    {
     "filename":"I1CZ49670624.tif",
     "pagination":{
      "pgfolios":{
       "section":"1",
       "value":"5b"
      }
     }
    },
    {
     "filename":"I1CZ49670625.tif",
     "pagination":{
      "pgfolios":{
       "section":"1",
       "value":"6a"
      }
     }
    },
    {
     "filename":"I1CZ49670626.tif",
     "pagination":{
      "pgfolios":{
       "section":"1",
       "value":"6b"
      }
     }
    },
    {
     "filename":"I1CZ49670627.tif",
     "pagination":{
      "pgfolios":{
       "section":"1",
       "value":"7a"
      }
     }
    },
    {
     "filename":"I1CZ49670628.tif",
     "pagination":{
      "pgfolios":{
       "section":"1",
       "value":"7b"
      }
     }
    },
    {
     "filename":"I1CZ49670629.tif",
     "pagination":{
      "pgfolios":{
       "section":"1",
       "value":"8a"
      }
     }
    },
    {
     "filename":"I1CZ49670630.tif",
     "pagination":{
      "pgfolios":{
       "section":"1",
       "value":"8b"
      }
     }
    },
    {
     "filename":"I1CZ49670631.tif",
     "pagination":{
      "pgfolios":{
       "section":"1",
       "value":"9a"
      }
     }
    },
    {
     "filename":"I1CZ49670632.tif",
     "pagination":{
      "pgfolios":{
       "section":"1",
       "value":"9b"
      }
     }
    },
    {
     "filename":"I1CZ49670633.tif",
     "pagination":{
      "pgfolios":{
       "section":"1",
       "value":"10a"
      }
     }
    },
    {
     "filename":"I1CZ49670634.tif",
     "pagination":{
      "pgfolios":{
       "section":"1",
       "value":"10b"
      }
     }
    },
    {
     "filename":"I1CZ49670635.tif",
     "pagination":{
      "pgfolios":{
       "section":"1",
       "value":"11a"
      }
     }
    },
    {
     "filename":"I1CZ49670636.tif",
     "pagination":{
      "pgfolios":{
       "section":"1",
       "value":"11b"
      }
     }
    },
    {
     "filename":"I1CZ49670637.tif",
     "pagination":{
      "pgfolios":{
       "section":"1",
       "value":"12a"
      }
     }
    },
    {
     "filename":"I1CZ49670638.tif",
     "pagination":{
      "pgfolios":{
       "section":"1",
       "value":"12b"
      }
     }
    },
    {
     "filename":"I1CZ49670639.tif",
     "pagination":{
      "pgfolios":{
       "section":"1",
       "value":"13a"
      }
     }
    },
    {
     "filename":"I1CZ49670640.tif",
     "pagination":{
      "pgfolios":{
       "section":"1",
       "value":"13b"
      }
     }
    },
    {
     "filename":"I1CZ49670641.tif",
     "pagination":{
      "pgfolios":{
       "section":"1",
       "value":"14a"
      }
     }
    },
    {
     "filename":"I1CZ49670642.tif",
     "pagination":{
      "pgfolios":{
       "section":"1",
       "value":"14b"
      }
     }
    },
    {
     "filename":"I1CZ49670643.tif",
     "pagination":{
      "pgfolios":{
       "section":"1",
       "value":"15a"
      }
     }
    },
    {
     "filename":"I1CZ49670644.tif",
     "pagination":{
      "pgfolios":{
       "section":"1",
       "value":"15b"
      }
     }
    },
    {
     "filename":"I1CZ49670645.tif",
     "pagination":{
      "pgfolios":{
       "section":"1",
       "value":"16a"
      }
     }
    },
    {
     "filename":"I1CZ49670646.tif",
     "pagination":{
      "pgfolios":{
       "section":"1",
       "value":"16b"
      }
     }
    },
    {
     "filename":"I1CZ49670647.tif",
     "pagination":{
      "pgfolios":{
       "section":"1",
       "value":"17a"
      }
     }
    },
    {
     "filename":"I1CZ49670648.tif",
     "pagination":{
      "pgfolios":{
       "section":"1",
       "value":"17b"
      }
     }
    },
    {
     "filename":"I1CZ49670649.tif",
     "pagination":{
      "pgfolios":{
       "section":"1",
       "value":"18a"
      }
     }
    },
    {
     "filename":"I1CZ49670650.tif",
     "pagination":{
      "pgfolios":{
       "section":"1",
       "value":"18b"
      }
     }
    },
    {
     "filename":"I1CZ49670651.tif",
     "pagination":{
      "pgfolios":{
       "section":"1",
       "value":"19a"
      }
     }
    },
    {
     "filename":"I1CZ49670652.tif",
     "pagination":{
      "pgfolios":{
       "section":"1",
       "value":"19b"
      }
     }
    },
    {
     "filename":"I1CZ49670653.tif",
     "pagination":{
      "pgfolios":{
       "section":"1",
       "value":"20a"
      }
     }
    },
    {
     "filename":"I1CZ49670654.tif",
     "pagination":{
      "pgfolios":{
       "section":"1",
       "value":"20b"
      }
     }
    },
    {
     "filename":"I1CZ49670655.tif",
     "pagination":{
      "pgfolios":{
       "section":"1",
       "value":"21a"
      }
     }
    },
    {
     "filename":"I1CZ49670656.tif",
     "pagination":{
      "pgfolios":{
       "section":"1",
       "value":"21b"
      }
     }
    },
    {
     "filename":"I1CZ49670657.tif",
     "pagination":{
      "pgfolios":{
       "section":"1",
       "value":"22a"
      }
     }
    },
    {
     "filename":"I1CZ49670658.tif",
     "pagination":{
      "pgfolios":{
       "section":"1",
       "value":"22b"
      }
     }
    },
    {
     "filename":"I1CZ49670659.tif",
     "pagination":{
      "pgfolios":{
       "section":"1",
       "value":"23a"
      }
     }
    },
    {
     "filename":"I1CZ49670660.tif",
     "pagination":{
      "pgfolios":{
       "section":"1",
       "value":"23b"
      }
     }
    },
    {
     "filename":"I1CZ49670661.tif",
     "pagination":{
      "pgfolios":{
       "section":"1",
       "value":"24a"
      }
     }
    },
    {
     "filename":"I1CZ49670662.tif",
     "pagination":{
      "pgfolios":{
       "section":"1",
       "value":"24b"
      }
     }
    },
    {
     "filename":"I1CZ49670663.tif",
     "pagination":{
      "pgfolios":{
       "section":"1",
       "value":"25a"
      }
     }
    },
    {
     "filename":"I1CZ49670664.tif",
     "pagination":{
      "pgfolios":{
       "section":"1",
       "value":"25b"
      }
     }
    },
    {
     "filename":"I1CZ49670665.tif",
     "pagination":{
      "pgfolios":{
       "section":"1",
       "value":"26a"
      }
     }
    },
    {
     "filename":"I1CZ49670666.tif",
     "pagination":{
      "pgfolios":{
       "section":"1",
       "value":"26b"
      }
     }
    },
    {
     "filename":"I1CZ49670667.tif",
     "pagination":{
      "pgfolios":{
       "section":"1",
       "value":"27a"
      }
     }
    },
    {
     "filename":"I1CZ49670668.tif",
     "pagination":{
      "pgfolios":{
       "section":"1",
       "value":"27b"
      }
     }
    },
    {
     "filename":"I1CZ49670669.tif",
     "pagination":{
      "pgfolios":{
       "section":"1",
       "value":"28a"
      }
     }
    },
    {
     "filename":"I1CZ49670670.tif",
     "pagination":{
      "pgfolios":{
       "section":"1",
       "value":"28b"
      }
     }
    },
    {
     "filename":"I1CZ49670671.tif",
     "pagination":{
      "pgfolios":{
       "section":"1",
       "value":"29a"
      }
     }
    },
    {
     "filename":"I1CZ49670672.tif",
     "pagination":{
      "pgfolios":{
       "section":"1",
       "value":"29b"
      }
     }
    },
    {
     "filename":"I1CZ49670673.tif",
     "pagination":{
      "pgfolios":{
       "section":"1",
       "value":"30a"
      }
     }
    },
    {
     "filename":"I1CZ49670674.tif",
     "pagination":{
      "pgfolios":{
       "section":"1",
       "value":"30b"
      }
     }
    },
    {
     "filename":"I1CZ49670675.tif",
     "pagination":{
      "pgfolios":{
       "section":"1",
       "value":"31a"
      }
     }
    },
    {
     "filename":"I1CZ49670676.tif",
     "pagination":{
      "pgfolios":{
       "section":"1",
       "value":"31b"
      }
     }
    },
    {
     "filename":"I1CZ49670677.tif",
     "pagination":{
      "pgfolios":{
       "section":"1",
       "value":"32a"
      }
     }
    },
    {
     "filename":"I1CZ49670678.tif",
     "pagination":{
      "pgfolios":{
       "section":"1",
       "value":"32b"
      }
     }
    },
    {
     "filename":"I1CZ49670679.tif",
     "pagination":{
      "pgfolios":{
       "section":"1",
       "value":"33a"
      }
     }
    },
    {
     "filename":"I1CZ49670680.tif",
     "pagination":{
      "pgfolios":{
       "section":"1",
       "value":"33b"
      }
     }
    },
    {
     "filename":"I1CZ49670681.tif",
     "pagination":{
      "pgfolios":{
       "section":"1",
       "value":"34a"
      }
     }
    },
    {
     "filename":"I1CZ49670682.tif",
     "pagination":{
      "pgfolios":{
       "section":"1",
       "value":"34b"
      }
     }
    },
    {
     "filename":"I1CZ49670683.tif",
     "pagination":{
      "pgfolios":{
       "section":"1",
       "value":"35a"
      }
     }
    },
    {
     "filename":"I1CZ49670684.tif",
     "pagination":{
      "pgfolios":{
       "section":"1",
       "value":"35b"
      }
     }
    },
    {
     "filename":"I1CZ49670685.tif",
     "pagination":{
      "pgfolios":{
       "section":"1",
       "value":"36a"
      }
     }
    },
    {
     "filename":"I1CZ49670686.tif",
     "pagination":{
      "pgfolios":{
       "section":"1",
       "value":"36b"
      }
     }
    },
    {
     "filename":"I1CZ49670687.tif",
     "pagination":{
      "pgfolios":{
       "section":"1",
       "value":"37a"
      }
     }
    },
    {
     "filename":"I1CZ49670688.tif",
     "pagination":{
      "pgfolios":{
       "section":"1",
       "value":"37b"
      }
     }
    },
    {
     "filename":"I1CZ49670689.tif",
     "pagination":{
      "pgfolios":{
       "section":"1",
       "value":"38a"
      }
     }
    },
    {
     "filename":"I1CZ49670690.tif",
     "pagination":{
      "pgfolios":{
       "section":"1",
       "value":"38b"
      }
     }
    },
    {
     "filename":"I1CZ49670691.tif",
     "pagination":{
      "pgfolios":{
       "section":"1",
       "value":"39a"
      }
     }
    },
    {
     "filename":"I1CZ49670692.tif",
     "pagination":{
      "pgfolios":{
       "section":"1",
       "value":"39b"
      }
     }
    },
    {
     "filename":"I1CZ49670693.tif",
     "pagination":{
      "pgfolios":{
       "section":"1",
       "value":"40a"
      }
     }
    },
    {
     "filename":"I1CZ49670694.tif",
     "pagination":{
      "pgfolios":{
       "section":"1",
       "value":"40b"
      }
     }
    },
    {
     "filename":"I1CZ49670695.tif",
     "pagination":{
      "pgfolios":{
       "section":"1",
       "value":"41a"
      }
     }
    },
    {
     "filename":"I1CZ49670696.tif",
     "pagination":{
      "pgfolios":{
       "section":"1",
       "value":"41b"
      }
     }
    },
    {
     "filename":"I1CZ49670697.tif",
     "pagination":{
      "pgfolios":{
       "section":"1",
       "value":"42a"
      }
     }
    },
    {
     "filename":"I1CZ49670698.tif",
     "pagination":{
      "pgfolios":{
       "section":"1",
       "value":"42b"
      }
     }
    },
    {
     "filename":"I1CZ49670699.tif",
     "pagination":{
      "pgfolios":{
       "section":"1",
       "value":"43a"
      }
     }
    },
    {
     "filename":"I1CZ49670700.tif",
     "pagination":{
      "pgfolios":{
       "section":"1",
       "value":"43b"
      }
     }
    },
    {
     "filename":"I1CZ49670701.tif",
     "pagination":{
      "pgfolios":{
       "section":"1",
       "value":"44a"
      }
     }
    },
    {
     "filename":"I1CZ49670702.tif",
     "pagination":{
      "pgfolios":{
       "section":"1",
       "value":"44b"
      }
     }
    },
    {
     "filename":"I1CZ49670703.tif",
     "pagination":{
      "pgfolios":{
       "section":"1",
       "value":"45a"
      }
     }
    },
    {
     "filename":"I1CZ49670704.tif",
     "pagination":{
      "pgfolios":{
       "section":"1",
       "value":"45b"
      }
     }
    },
    {
     "filename":"I1CZ49670705.tif",
     "pagination":{
      "pgfolios":{
       "section":"1",
       "value":"46a"
      }
     }
    },
    {
     "filename":"I1CZ49670706.tif",
     "pagination":{
      "pgfolios":{
       "section":"1",
       "value":"46b"
      }
     }
    },
    {
     "filename":"I1CZ49670707.tif",
     "pagination":{
      "pgfolios":{
       "section":"1",
       "value":"47a"
      }
     }
    },
    {
     "filename":"I1CZ49670708.tif",
     "pagination":{
      "pgfolios":{
       "section":"1",
       "value":"47b"
      }
     }
    },
    {
     "filename":"I1CZ49670709.tif",
     "pagination":{
      "pgfolios":{
       "section":"1",
       "value":"48a"
      }
     }
    },
    {
     "filename":"I1CZ49670710.tif",
     "pagination":{
      "pgfolios":{
       "section":"1",
       "value":"48b"
      }
     }
    },
    {
     "filename":"I1CZ49670711.tif",
     "pagination":{
      "pgfolios":{
       "section":"1",
       "value":"49a"
      }
     }
    },
    {
     "filename":"I1CZ49670712.tif",
     "pagination":{
      "pgfolios":{
       "section":"1",
       "value":"49b"
      }
     }
    },
    {
     "filename":"I1CZ49670713.tif",
     "pagination":{
      "pgfolios":{
       "section":"1",
       "value":"50a"
      }
     }
    },
    {
     "filename":"I1CZ49670714.tif",
     "pagination":{
      "pgfolios":{
       "section":"1",
       "value":"50b"
      }
     }
    },
    {
     "filename":"I1CZ49670715.tif",
     "pagination":{
      "pgfolios":{
       "section":"1",
       "value":"51a"
      }
     }
    },
    {
     "filename":"I1CZ49670716.tif",
     "pagination":{
      "pgfolios":{
       "section":"1",
       "value":"51b"
      }
     }
    },
    {
     "filename":"I1CZ49670717.tif",
     "pagination":{
      "pgfolios":{
       "section":"1",
       "value":"52a"
      }
     }
    },
    {
     "filename":"I1CZ49670718.tif",
     "pagination":{
      "pgfolios":{
       "section":"1",
       "value":"52b"
      }
     }
    },
    {
     "filename":"I1CZ49670719.tif",
     "pagination":{
      "pgfolios":{
       "section":"1",
       "value":"53a"
      }
     }
    },
    {
     "filename":"I1CZ49670720.tif",
     "pagination":{
      "pgfolios":{
       "section":"1",
       "value":"53b"
      }
     }
    },
    {
     "filename":"I1CZ49670721.tif",
     "pagination":{
      "pgfolios":{
       "section":"1",
       "value":"54a"
      }
     }
    },
    {
     "filename":"I1CZ49670722.tif",
     "pagination":{
      "pgfolios":{
       "section":"1",
       "value":"54b"
      }
     }
    },
    {
     "filename":"I1CZ49670723.tif",
     "pagination":{
      "pgfolios":{
       "section":"1",
       "value":"55a"
      }
     }
    },
    {
     "filename":"I1CZ49670724.tif",
     "pagination":{
      "pgfolios":{
       "section":"1",
       "value":"55b"
      }
     }
    },
    {
     "filename":"I1CZ49670725.tif",
     "pagination":{
      "pgfolios":{
       "section":"1",
       "value":"56a"
      }
     }
    },
    {
     "filename":"I1CZ49670726.tif",
     "pagination":{
      "pgfolios":{
       "section":"1",
       "value":"56b"
      }
     }
    },
    {
     "filename":"I1CZ49670727.tif",
     "pagination":{
      "pgfolios":{
       "section":"1",
       "value":"57a"
      }
     }
    },
    {
     "filename":"I1CZ49670728.tif",
     "pagination":{
      "pgfolios":{
       "section":"1",
       "value":"57b"
      }
     }
    },
    {
     "filename":"I1CZ49670729.tif",
     "pagination":{
      "pgfolios":{
       "section":"1",
       "value":"58a"
      }
     }
    },
    {
     "filename":"I1CZ49670730.tif",
     "pagination":{
      "pgfolios":{
       "section":"1",
       "value":"58b"
      }
     }
    },
    {
     "filename":"I1CZ49670731.tif",
     "pagination":{
      "pgfolios":{
       "section":"1",
       "value":"59a"
      }
     }
    },
    {
     "filename":"I1CZ49670732.tif",
     "pagination":{
      "pgfolios":{
       "section":"1",
       "value":"59b"
      }
     }
    },
    {
     "filename":"I1CZ49670733.tif",
     "pagination":{
      "pgfolios":{
       "section":"1",
       "value":"60a"
      }
     }
    },
    {
     "filename":"I1CZ49670734.tif",
     "pagination":{
      "pgfolios":{
       "section":"1",
       "value":"60b"
      }
     }
    },
    {
     "filename":"I1CZ49670735.tif",
     "pagination":{
      "pgfolios":{
       "section":"1",
       "value":"61a"
      }
     }
    },
    {
     "filename":"I1CZ49670736.tif",
     "pagination":{
      "pgfolios":{
       "section":"1",
       "value":"61b"
      }
     }
    },
    {
     "filename":"I1CZ49670737.tif",
     "pagination":{
      "pgfolios":{
       "section":"1",
       "value":"62a"
      }
     }
    },
    {
     "filename":"I1CZ49670738.tif",
     "pagination":{
      "pgfolios":{
       "section":"1",
       "value":"62b"
      }
     }
    },
    {
     "filename":"I1CZ49670739.tif",
     "pagination":{
      "pgfolios":{
       "section":"1",
       "value":"63a"
      }
     }
    },
    {
     "filename":"I1CZ49670740.tif",
     "pagination":{
      "pgfolios":{
       "section":"1",
       "value":"63b"
      }
     }
    },
    {
     "filename":"I1CZ49670741.tif",
     "pagination":{
      "pgfolios":{
       "section":"1",
       "value":"64a"
      }
     }
    },
    {
     "filename":"I1CZ49670742.tif",
     "pagination":{
      "pgfolios":{
       "section":"1",
       "value":"64b"
      }
     }
    },
    {
     "filename":"I1CZ49670743.tif",
     "pagination":{
      "pgfolios":{
       "section":"1",
       "value":"65a"
      }
     }
    },
    {
     "filename":"I1CZ49670744.tif",
     "pagination":{
      "pgfolios":{
       "section":"1",
       "value":"65b"
      }
     }
    },
    {
     "filename":"I1CZ49670745.tif",
     "pagination":{
      "pgfolios":{
       "section":"1",
       "value":"66a"
      }
     }
    },
    {
     "filename":"I1CZ49670746.tif",
     "pagination":{
      "pgfolios":{
       "section":"1",
       "value":"66b"
      }
     }
    },
    {
     "filename":"I1CZ49670747.tif",
     "pagination":{
      "pgfolios":{
       "section":"1",
       "value":"67a"
      }
     }
    },
    {
     "filename":"I1CZ49670748.tif",
     "pagination":{
      "pgfolios":{
       "section":"1",
       "value":"67b"
      }
     }
    },
    {
     "filename":"I1CZ49670749.tif",
     "pagination":{
      "pgfolios":{
       "section":"1",
       "value":"68a"
      }
     }
    },
    {
     "filename":"I1CZ49670750.tif",
     "pagination":{
      "pgfolios":{
       "section":"1",
       "value":"68b"
      }
     }
    },
    {
     "filename":"I1CZ49670751.tif",
     "pagination":{
      "pgfolios":{
       "section":"1",
       "value":"69a"
      }
     }
    },
    {
     "filename":"I1CZ49670752.tif",
     "pagination":{
      "pgfolios":{
       "section":"1",
       "value":"69b"
      }
     }
    },
    {
     "filename":"I1CZ49670753.tif",
     "pagination":{
      "pgfolios":{
       "section":"1",
       "value":"70a"
      }
     }
    },
    {
     "filename":"I1CZ49670754.tif",
     "pagination":{
      "pgfolios":{
       "section":"1",
       "value":"70b"
      }
     }
    },
    {
     "filename":"I1CZ49670755.tif",
     "pagination":{
      "pgfolios":{
       "section":"1",
       "value":"71a"
      }
     }
    },
    {
     "filename":"I1CZ49670756.tif",
     "pagination":{
      "pgfolios":{
       "section":"1",
       "value":"71b"
      }
     }
    },
    {
     "filename":"I1CZ49670757.tif",
     "pagination":{
      "pgfolios":{
       "section":"1",
       "value":"72a"
      }
     }
    },
    {
     "filename":"I1CZ49670758.tif",
     "pagination":{
      "pgfolios":{
       "section":"1",
       "value":"72b"
      }
     }
    },
    {
     "filename":"I1CZ49670759.tif",
     "pagination":{
      "pgfolios":{
       "section":"1",
       "value":"73a"
      }
     }
    },
    {
     "filename":"I1CZ49670760.tif",
     "pagination":{
      "pgfolios":{
       "section":"1",
       "value":"73b"
      }
     }
    },
    {
     "filename":"I1CZ49670761.tif",
     "pagination":{
      "pgfolios":{
       "section":"1",
       "value":"74a"
      }
     }
    },
    {
     "filename":"I1CZ49670762.tif",
     "pagination":{
      "pgfolios":{
       "section":"1",
       "value":"74b"
      }
     }
    },
    {
     "filename":"I1CZ49670763.tif",
     "pagination":{
      "pgfolios":{
       "section":"1",
       "value":"75a"
      }
     }
    },
    {
     "filename":"I1CZ49670764.tif",
     "pagination":{
      "pgfolios":{
       "section":"1",
       "value":"75b"
      }
     }
    },
    {
     "filename":"I1CZ49670765.tif",
     "pagination":{
      "pgfolios":{
       "section":"1",
       "value":"76a"
      }
     }
    },
    {
     "filename":"I1CZ49670766.tif",
     "pagination":{
      "pgfolios":{
       "section":"1",
       "value":"76b"
      }
     }
    },
    {
     "filename":"I1CZ49670767.tif",
     "pagination":{
      "pgfolios":{
       "section":"1",
       "value":"77a"
      }
     }
    },
    {
     "filename":"I1CZ49670768.tif",
     "pagination":{
      "pgfolios":{
       "section":"1",
       "value":"77b"
      }
     }
    },
    {
     "filename":"I1CZ49670769.tif",
     "pagination":{
      "pgfolios":{
       "section":"1",
       "value":"78a"
      }
     }
    },
    {
     "filename":"I1CZ49670770.tif",
     "pagination":{
      "pgfolios":{
       "section":"1",
       "value":"78b"
      }
     }
    },
    {
     "filename":"I1CZ49670771.tif",
     "pagination":{
      "pgfolios":{
       "section":"1",
       "value":"79a"
      }
     }
    },
    {
     "filename":"I1CZ49670772.tif",
     "pagination":{
      "pgfolios":{
       "section":"1",
       "value":"79b"
      }
     }
    },
    {
     "filename":"I1CZ49670773.tif",
     "pagination":{
      "pgfolios":{
       "section":"1",
       "value":"80a"
      }
     }
    },
    {
     "filename":"I1CZ49670774.tif",
     "pagination":{
      "pgfolios":{
       "section":"1",
       "value":"80b"
      }
     }
    },
    {
     "filename":"I1CZ49670775.tif",
     "pagination":{
      "pgfolios":{
       "section":"1",
       "value":"81a"
      }
     }
    },
    {
     "filename":"I1CZ49670776.tif",
     "pagination":{
      "pgfolios":{
       "section":"1",
       "value":"81b"
      }
     }
    },
    {
     "filename":"I1CZ49670777.tif",
     "pagination":{
      "pgfolios":{
       "section":"1",
       "value":"82a"
      }
     }
    },
    {
     "filename":"I1CZ49670778.tif",
     "pagination":{
      "pgfolios":{
       "section":"1",
       "value":"82b"
      }
     }
    },
    {
     "filename":"I1CZ49670779.tif",
     "pagination":{
      "pgfolios":{
       "section":"1",
       "value":"83a"
      }
     }
    },
    {
     "filename":"I1CZ49670780.tif",
     "pagination":{
      "pgfolios":{
       "section":"1",
       "value":"83b"
      }
     }
    },
    {
     "filename":"I1CZ49670781.tif",
     "pagination":{
      "pgfolios":{
       "section":"1",
       "value":"84a"
      }
     }
    },
    {
     "filename":"I1CZ49670782.tif",
     "pagination":{
      "pgfolios":{
       "section":"1",
       "value":"84b"
      }
     }
    },
    {
     "filename":"I1CZ49670783.tif",
     "pagination":{
      "pgfolios":{
       "section":"1",
       "value":"85a"
      }
     }
    },
    {
     "filename":"I1CZ49670784.tif",
     "pagination":{
      "pgfolios":{
       "section":"1",
       "value":"85b"
      }
     }
    },
    {
     "filename":"I1CZ49670785.tif",
     "pagination":{
      "pgfolios":{
       "section":"1",
       "value":"86a"
      }
     }
    },
    {
     "filename":"I1CZ49670786.tif",
     "pagination":{
      "pgfolios":{
       "section":"1",
       "value":"86b"
      }
     }
    },
    {
     "filename":"I1CZ49670787.tif",
     "pagination":{
      "pgfolios":{
       "section":"1",
       "value":"87a"
      }
     }
    },
    {
     "filename":"I1CZ49670788.tif",
     "pagination":{
      "pgfolios":{
       "section":"2",
       "value":"1a"
      }
     }
    },
    {
     "filename":"I1CZ49670789.tif",
     "pagination":{
      "pgfolios":{
       "section":"2",
       "value":"1b"
      }
     }
    },
    {
     "filename":"I1CZ49670790.tif",
     "pagination":{
      "pgfolios":{
       "section":"2",
       "value":"2a"
      }
     }
    },
    {
     "filename":"I1CZ49670791.tif",
     "pagination":{
      "pgfolios":{
       "section":"2",
       "value":"2b"
      }
     }
    },
    {
     "filename":"I1CZ49670792.tif",
     "pagination":{
      "pgfolios":{
       "section":"2",
       "value":"3a"
      }
     }
    },
    {
     "filename":"I1CZ49670793.tif",
     "pagination":{
      "pgfolios":{
       "section":"2",
       "value":"3b"
      }
     }
    },
    {
     "filename":"I1CZ49670794.tif",
     "pagination":{
      "pgfolios":{
       "section":"2",
       "value":"4a"
      }
     }
    },
    {
     "filename":"I1CZ49670795.tif",
     "pagination":{
      "pgfolios":{
       "section":"2",
       "value":"4b"
      }
     }
    },
    {
     "filename":"I1CZ49670796.tif",
     "pagination":{
      "pgfolios":{
       "section":"2",
       "value":"5a"
      }
     }
    },
    {
     "filename":"I1CZ49670797.tif",
     "pagination":{
      "pgfolios":{
       "section":"2",
       "value":"5b"
      }
     }
    },
    {
     "filename":"I1CZ49670798.tif",
     "pagination":{
      "pgfolios":{
       "section":"2",
       "value":"6a"
      }
     }
    },
    {
     "filename":"I1CZ49670799.tif",
     "pagination":{
      "pgfolios":{
       "section":"2",
       "value":"6b"
      }
     }
    },
    {
     "filename":"I1CZ49670800.tif",
     "pagination":{
      "pgfolios":{
       "section":"2",
       "value":"7a"
      }
     }
    },
    {
     "filename":"I1CZ49670801.tif",
     "pagination":{
      "pgfolios":{
       "section":"2",
       "value":"7b"
      }
     }
    },
    {
     "filename":"I1CZ49670802.tif",
     "pagination":{
      "pgfolios":{
       "section":"2",
       "value":"8a"
      }
     }
    },
    {
     "filename":"I1CZ49670803.tif",
     "pagination":{
      "pgfolios":{
       "section":"2",
       "value":"8b"
      }
     }
    },
    {
     "filename":"I1CZ49670804.tif",
     "pagination":{
      "pgfolios":{
       "section":"2",
       "value":"9a"
      }
     }
    },
    {
     "filename":"I1CZ49670805.tif",
     "pagination":{
      "pgfolios":{
       "section":"2",
       "value":"9b"
      }
     }
    },
    {
     "filename":"I1CZ49670806.tif",
     "pagination":{
      "pgfolios":{
       "section":"2",
       "value":"10a"
      }
     }
    },
    {
     "filename":"I1CZ49670807.tif",
     "pagination":{
      "pgfolios":{
       "section":"2",
       "value":"10b"
      }
     }
    },
    {
     "filename":"I1CZ49670808.tif",
     "pagination":{
      "pgfolios":{
       "section":"2",
       "value":"11a"
      }
     }
    },
    {
     "filename":"I1CZ49670809.tif",
     "pagination":{
      "pgfolios":{
       "section":"2",
       "value":"11b"
      }
     }
    },
    {
     "filename":"I1CZ49670810.tif",
     "pagination":{
      "pgfolios":{
       "section":"2",
       "value":"12a"
      }
     }
    },
    {
     "filename":"I1CZ49670811.tif",
     "pagination":{
      "pgfolios":{
       "section":"2",
       "value":"12b"
      }
     }
    },
    {
     "filename":"I1CZ49670812.tif",
     "pagination":{
      "pgfolios":{
       "section":"2",
       "value":"13a"
      }
     }
    },
    {
     "filename":"I1CZ49670813.tif",
     "pagination":{
      "pgfolios":{
       "section":"2",
       "value":"13b"
      }
     }
    },
    {
     "filename":"I1CZ49670814.tif",
     "pagination":{
      "pgfolios":{
       "section":"2",
       "value":"14a"
      }
     }
    },
    {
     "filename":"I1CZ49670815.tif",
     "pagination":{
      "pgfolios":{
       "section":"2",
       "value":"14b"
      }
     }
    },
    {
     "filename":"I1CZ49670816.tif",
     "pagination":{
      "pgfolios":{
       "section":"2",
       "value":"15a"
      }
     }
    },
    {
     "filename":"I1CZ49670817.tif",
     "pagination":{
      "pgfolios":{
       "section":"2",
       "value":"15b"
      }
     }
    },
    {
     "filename":"I1CZ49670818.tif",
     "pagination":{
      "pgfolios":{
       "section":"2",
       "value":"16a"
      }
     }
    },
    {
     "filename":"I1CZ49670819.tif",
     "pagination":{
      "pgfolios":{
       "section":"2",
       "value":"16b"
      }
     }
    },
    {
     "filename":"I1CZ49670820.tif",
     "pagination":{
      "pgfolios":{
       "section":"2",
       "value":"17a"
      }
     }
    },
    {
     "filename":"I1CZ49670821.tif",
     "pagination":{
      "pgfolios":{
       "section":"2",
       "value":"17b"
      }
     }
    },
    {
     "filename":"I1CZ49670822.tif",
     "pagination":{
      "pgfolios":{
       "section":"2",
       "value":"18a"
      }
     }
    },
    {
     "filename":"I1CZ49670823.tif",
     "pagination":{
      "pgfolios":{
       "section":"2",
       "value":"18b"
      }
     }
    },
    {
     "filename":"I1CZ49670824.tif",
     "pagination":{
      "pgfolios":{
       "section":"2",
       "value":"19a"
      }
     }
    },
    {
     "filename":"I1CZ49670825.tif",
     "pagination":{
      "pgfolios":{
       "section":"2",
       "value":"19b"
      }
     }
    },
    {
     "filename":"I1CZ49670826.tif",
     "pagination":{
      "pgfolios":{
       "section":"2",
       "value":"20a"
      }
     }
    },
    {
     "filename":"I1CZ49670827.tif",
     "pagination":{
      "pgfolios":{
       "section":"2",
       "value":"20b"
      }
     }
    },
    {
     "filename":"I1CZ49670828.tif",
     "pagination":{
      "pgfolios":{
       "section":"2",
       "value":"21a"
      }
     }
    },
    {
     "filename":"I1CZ49670829.tif",
     "pagination":{
      "pgfolios":{
       "section":"2",
       "value":"21b"
      }
     }
    },
    {
     "filename":"I1CZ49670830.tif",
     "pagination":{
      "pgfolios":{
       "section":"2",
       "value":"22a"
      }
     }
    },
    {
     "filename":"I1CZ49670831.tif",
     "pagination":{
      "pgfolios":{
       "section":"2",
       "value":"22b"
      }
     }
    },
    {
     "filename":"I1CZ49670832.tif",
     "pagination":{
      "pgfolios":{
       "section":"2",
       "value":"23a"
      }
     }
    },
    {
     "filename":"I1CZ49670833.tif",
     "pagination":{
      "pgfolios":{
       "section":"2",
       "value":"23b"
      }
     }
    },
    {
     "filename":"I1CZ49670834.tif",
     "pagination":{
      "pgfolios":{
       "section":"2",
       "value":"24a"
      }
     }
    },
    {
     "filename":"I1CZ49670835.tif",
     "pagination":{
      "pgfolios":{
       "section":"2",
       "value":"24b"
      }
     }
    },
    {
     "filename":"I1CZ49670836.tif",
     "pagination":{
      "pgfolios":{
       "section":"2",
       "value":"25a"
      }
     }
    },
    {
     "filename":"I1CZ49670837.tif",
     "pagination":{
      "pgfolios":{
       "section":"2",
       "value":"25b"
      }
     }
    },
    {
     "filename":"I1CZ49670838.tif",
     "pagination":{
      "pgfolios":{
       "section":"2",
       "value":"26a"
      }
     }
    },
    {
     "filename":"I1CZ49670839.tif",
     "pagination":{
      "pgfolios":{
       "section":"2",
       "value":"26b"
      }
     }
    },
    {
     "filename":"I1CZ49670840.tif",
     "pagination":{
      "pgfolios":{
       "section":"2",
       "value":"27a"
      }
     }
    },
    {
     "filename":"I1CZ49670841.tif",
     "pagination":{
      "pgfolios":{
       "section":"2",
       "value":"27b"
      }
     }
    },
    {
     "filename":"I1CZ49670842.tif",
     "pagination":{
      "pgfolios":{
       "section":"2",
       "value":"28a"
      }
     }
    },
    {
     "filename":"I1CZ49670843.tif",
     "pagination":{
      "pgfolios":{
       "section":"2",
       "value":"28b"
      }
     }
    },
    {
     "filename":"I1CZ49670844.tif",
     "pagination":{
      "pgfolios":{
       "section":"2",
       "value":"29a"
      }
     }
    },
    {
     "filename":"I1CZ49670845.tif",
     "pagination":{
      "pgfolios":{
       "section":"2",
       "value":"29b"
      }
     }
    },
    {
     "filename":"I1CZ49670846.tif",
     "pagination":{
      "pgfolios":{
       "section":"2",
       "value":"30a"
      }
     }
    },
    {
     "filename":"I1CZ49670847.tif",
     "pagination":{
      "pgfolios":{
       "section":"2",
       "value":"30b"
      }
     }
    },
    {
     "filename":"I1CZ49670848.tif",
     "pagination":{
      "pgfolios":{
       "section":"2",
       "value":"31a"
      }
     }
    },
    {
     "filename":"I1CZ49670849.tif",
     "pagination":{
      "pgfolios":{
       "section":"2",
       "value":"31b"
      }
     }
    },
    {
     "filename":"I1CZ49670850.tif",
     "pagination":{
      "pgfolios":{
       "section":"2",
       "value":"32a"
      }
     }
    },
    {
     "filename":"I1CZ49670851.tif",
     "pagination":{
      "pgfolios":{
       "section":"2",
       "value":"32b"
      }
     }
    },
    {
     "filename":"I1CZ49670852.tif",
     "pagination":{
      "pgfolios":{
       "section":"2",
       "value":"33a"
      }
     }
    },
    {
     "filename":"I1CZ49670853.tif",
     "pagination":{
      "pgfolios":{
       "section":"2",
       "value":"33b"
      }
     }
    },
    {
     "filename":"I1CZ49670854.tif",
     "pagination":{
      "pgfolios":{
       "section":"2",
       "value":"34a"
      }
     }
    },
    {
     "filename":"I1CZ49670855.tif",
     "pagination":{
      "pgfolios":{
       "section":"2",
       "value":"34b"
      }
     }
    },
    {
     "filename":"I1CZ49670856.tif",
     "pagination":{
      "pgfolios":{
       "section":"2",
       "value":"35a"
      }
     }
    },
    {
     "filename":"I1CZ49670857.tif",
     "pagination":{
      "pgfolios":{
       "section":"2",
       "value":"35b"
      }
     }
    },
    {
     "filename":"I1CZ49670858.tif",
     "pagination":{
      "pgfolios":{
       "section":"2",
       "value":"36a"
      }
     }
    },
    {
     "filename":"I1CZ49670859.tif",
     "pagination":{
      "pgfolios":{
       "section":"2",
       "value":"36b"
      }
     }
    },
    {
     "filename":"I1CZ49670860.tif",
     "pagination":{
      "pgfolios":{
       "section":"2",
       "value":"37a"
      }
     }
    },
    {
     "filename":"I1CZ49670861.tif",
     "pagination":{
      "pgfolios":{
       "section":"2",
       "value":"37b"
      }
     }
    },
    {
     "filename":"I1CZ49670862.tif",
     "pagination":{
      "pgfolios":{
       "section":"2",
       "value":"38a"
      }
     }
    },
    {
     "filename":"I1CZ49670863.tif",
     "pagination":{
      "pgfolios":{
       "section":"2",
       "value":"38b"
      }
     }
    },
    {
     "filename":"I1CZ49670864.tif",
     "pagination":{
      "pgfolios":{
       "section":"2",
       "value":"39a"
      }
     }
    },
    {
     "filename":"I1CZ49670865.tif",
     "pagination":{
      "pgfolios":{
       "section":"2",
       "value":"39b"
      }
     }
    },
    {
     "filename":"I1CZ49670866.tif",
     "pagination":{
      "pgfolios":{
       "section":"2",
       "value":"40a"
      }
     }
    },
    {
     "filename":"I1CZ49670867.tif",
     "pagination":{
      "pgfolios":{
       "section":"2",
       "value":"40b"
      }
     }
    },
    {
     "filename":"I1CZ49670868.tif",
     "pagination":{
      "pgfolios":{
       "section":"2",
       "value":"41a"
      }
     }
    },
    {
     "filename":"I1CZ49670869.tif",
     "pagination":{
      "pgfolios":{
       "section":"2",
       "value":"41b"
      }
     }
    },
    {
     "filename":"I1CZ49670870.tif",
     "pagination":{
      "pgfolios":{
       "section":"2",
       "value":"42a"
      }
     }
    },
    {
     "filename":"I1CZ49670871.tif",
     "pagination":{
      "pgfolios":{
       "section":"2",
       "value":"42b"
      }
     }
    },
    {
     "filename":"I1CZ49670872.tif",
     "pagination":{
      "pgfolios":{
       "section":"2",
       "value":"43a"
      }
     }
    },
    {
     "filename":"I1CZ49670873.tif",
     "pagination":{
      "pgfolios":{
       "section":"2",
       "value":"43b"
      }
     }
    },
    {
     "filename":"I1CZ49670874.tif",
     "pagination":{
      "pgfolios":{
       "section":"2",
       "value":"44a"
      }
     }
    },
    {
     "filename":"I1CZ49670875.tif",
     "pagination":{
      "pgfolios":{
       "section":"2",
       "value":"44b"
      }
     }
    },
    {
     "filename":"I1CZ49670876.tif",
     "pagination":{
      "pgfolios":{
       "section":"2",
       "value":"45a"
      }
     }
    },
    {
     "filename":"I1CZ49670877.tif",
     "pagination":{
      "pgfolios":{
       "section":"2",
       "value":"45b"
      }
     }
    },
    {
     "filename":"I1CZ49670878.tif",
     "pagination":{
      "pgfolios":{
       "section":"2",
       "value":"46a"
      }
     }
    },
    {
     "filename":"I1CZ49670879.tif",
     "pagination":{
      "pgfolios":{
       "section":"2",
       "value":"46b"
      }
     }
    },
    {
     "filename":"I1CZ49670880.tif",
     "pagination":{
      "pgfolios":{
       "section":"2",
       "value":"47a"
      }
     }
    },
    {
     "filename":"I1CZ49670881.tif",
     "pagination":{
      "pgfolios":{
       "section":"2",
       "value":"47b"
      }
     }
    },
    {
     "filename":"I1CZ49670882.tif",
     "pagination":{
      "pgfolios":{
       "section":"2",
       "value":"48a"
      }
     }
    },
    {
     "filename":"I1CZ49670883.tif",
     "pagination":{
      "pgfolios":{
       "section":"2",
       "value":"48b"
      }
     }
    },
    {
     "filename":"I1CZ49670884.tif",
     "pagination":{
      "pgfolios":{
       "section":"2",
       "value":"49a"
      }
     }
    },
    {
     "filename":"I1CZ49670885.tif",
     "pagination":{
      "pgfolios":{
       "section":"2",
       "value":"49b"
      }
     }
    },
    {
     "filename":"I1CZ49670886.tif",
     "pagination":{
      "pgfolios":{
       "section":"2",
       "value":"50a"
      }
     }
    },
    {
     "filename":"I1CZ49670887.tif",
     "pagination":{
      "pgfolios":{
       "section":"2",
       "value":"50b"
      }
     }
    },
    {
     "filename":"I1CZ49670888.tif",
     "pagination":{
      "pgfolios":{
       "section":"2",
       "value":"51a"
      }
     }
    },
    {
     "filename":"I1CZ49670889.tif",
     "pagination":{
      "pgfolios":{
       "section":"2",
       "value":"51b"
      }
     }
    },
    {
     "filename":"I1CZ49670890.tif",
     "pagination":{
      "pgfolios":{
       "section":"2",
       "value":"52a"
      }
     }
    },
    {
     "filename":"I1CZ49670891.tif",
     "pagination":{
      "pgfolios":{
       "section":"2",
       "value":"52b"
      }
     }
    },
    {
     "filename":"I1CZ49670892.tif",
     "pagination":{
      "pgfolios":{
       "section":"2",
       "value":"53a"
      }
     }
    },
    {
     "filename":"I1CZ49670893.tif",
     "pagination":{
      "pgfolios":{
       "section":"2",
       "value":"53b"
      }
     }
    },
    {
     "filename":"I1CZ49670894.tif",
     "pagination":{
      "pgfolios":{
       "section":"2",
       "value":"54a"
      }
     }
    },
    {
     "filename":"I1CZ49670895.tif",
     "pagination":{
      "pgfolios":{
       "section":"2",
       "value":"54b"
      }
     }
    },
    {
     "filename":"I1CZ49670896.tif",
     "pagination":{
      "pgfolios":{
       "section":"2",
       "value":"55a"
      }
     }
    },
    {
     "filename":"I1CZ49670897.tif",
     "pagination":{
      "pgfolios":{
       "section":"2",
       "value":"55b"
      }
     }
    },
    {
     "filename":"I1CZ49670898.tif",
     "pagination":{
      "pgfolios":{
       "section":"2",
       "value":"56a"
      }
     }
    },
    {
     "filename":"I1CZ49670899.tif",
     "pagination":{
      "pgfolios":{
       "section":"2",
       "value":"56b"
      }
     }
    },
    {
     "filename":"I1CZ49670900.tif",
     "pagination":{
      "pgfolios":{
       "section":"2",
       "value":"57a"
      }
     }
    },
    {
     "filename":"I1CZ49670901.tif",
     "pagination":{
      "pgfolios":{
       "section":"2",
       "value":"57b"
      }
     }
    },
    {
     "filename":"I1CZ49670902.tif",
     "pagination":{
      "pgfolios":{
       "section":"2",
       "value":"58a"
      }
     }
    },
    {
     "filename":"I1CZ49670903.tif",
     "pagination":{
      "pgfolios":{
       "section":"2",
       "value":"58b"
      }
     }
    },
    {
     "filename":"I1CZ49670904.tif",
     "pagination":{
      "pgfolios":{
       "section":"2",
       "value":"59a"
      }
     }
    },
    {
     "filename":"I1CZ49670905.tif",
     "pagination":{
      "pgfolios":{
       "section":"2",
       "value":"59b"
      }
     }
    },
    {
     "filename":"I1CZ49670906.tif",
     "pagination":{
      "pgfolios":{
       "section":"2",
       "value":"60a"
      }
     }
    },
    {
     "filename":"I1CZ49670907.tif",
     "pagination":{
      "pgfolios":{
       "section":"2",
       "value":"60b"
      }
     }
    },
    {
     "filename":"I1CZ49670908.tif",
     "pagination":{
      "pgfolios":{
       "section":"2",
       "value":"61a"
      }
     }
    },
    {
     "filename":"I1CZ49670909.tif",
     "pagination":{
      "pgfolios":{
       "section":"2",
       "value":"61b"
      }
     }
    },
    {
     "filename":"I1CZ49670910.tif",
     "pagination":{
      "pgfolios":{
       "section":"2",
       "value":"62a"
      }
     }
    },
    {
     "filename":"I1CZ49670911.tif",
     "pagination":{
      "pgfolios":{
       "section":"2",
       "value":"62b"
      }
     }
    },
    {
     "filename":"I1CZ49670912.tif",
     "pagination":{
      "pgfolios":{
       "section":"2",
       "value":"63a"
      }
     }
    },
    {
     "filename":"I1CZ49670913.tif",
     "pagination":{
      "pgfolios":{
       "section":"2",
       "value":"63b"
      }
     }
    },
    {
     "filename":"I1CZ49670914.tif",
     "pagination":{
      "pgfolios":{
       "section":"2",
       "value":"64a"
      }
     }
    },
    {
     "filename":"I1CZ49670915.tif",
     "pagination":{
      "pgfolios":{
       "section":"2",
       "value":"64b"
      }
     }
    },
    {
     "filename":"I1CZ49670916.tif",
     "pagination":{
      "pgfolios":{
       "section":"2",
       "value":"65a"
      }
     }
    },
    {
     "filename":"I1CZ49670917.tif",
     "pagination":{
      "pgfolios":{
       "section":"2",
       "value":"65b"
      }
     }
    },
    {
     "filename":"I1CZ49670918.tif",
     "pagination":{
      "pgfolios":{
       "section":"2",
       "value":"66a"
      }
     }
    },
    {
     "filename":"I1CZ49670919.tif",
     "pagination":{
      "pgfolios":{
       "section":"2",
       "value":"66b"
      }
     }
    },
    {
     "filename":"I1CZ49670920.tif",
     "pagination":{
      "pgfolios":{
       "section":"2",
       "value":"67a"
      }
     }
    },
    {
     "filename":"I1CZ49670921.tif",
     "pagination":{
      "pgfolios":{
       "section":"2",
       "value":"67b"
      }
     }
    },
    {
     "filename":"I1CZ49670922.tif",
     "pagination":{
      "pgfolios":{
       "section":"2",
       "value":"68a"
      }
     }
    },
    {
     "filename":"I1CZ49670923.tif",
     "pagination":{
      "pgfolios":{
       "section":"2",
       "value":"68b"
      }
     }
    },
    {
     "filename":"I1CZ49670924.tif",
     "pagination":{
      "pgfolios":{
       "section":"2",
       "value":"69a"
      }
     }
    },
    {
     "filename":"I1CZ49670925.tif",
     "pagination":{
      "pgfolios":{
       "section":"2",
       "value":"69b"
      }
     }
    },
    {
     "filename":"I1CZ49670926.tif",
     "pagination":{
      "pgfolios":{
       "section":"2",
       "value":"70a"
      }
     }
    },
    {
     "filename":"I1CZ49670927.tif",
     "pagination":{
      "pgfolios":{
       "section":"2",
       "value":"70b"
      }
     }
    },
    {
     "filename":"I1CZ49670928.tif",
     "pagination":{
      "pgfolios":{
       "section":"2",
       "value":"71a"
      }
     }
    },
    {
     "filename":"I1CZ49670929.tif",
     "pagination":{
      "pgfolios":{
       "section":"2",
       "value":"71b"
      }
     }
    },
    {
     "filename":"I1CZ49670930.tif",
     "pagination":{
      "pgfolios":{
       "section":"2",
       "value":"72a"
      }
     }
    },
    {
     "filename":"I1CZ49670931.tif",
     "pagination":{
      "pgfolios":{
       "section":"2",
       "value":"72b"
      }
     }
    },
    {
     "filename":"I1CZ49670932.tif",
     "pagination":{
      "pgfolios":{
       "section":"2",
       "value":"73a"
      }
     }
    },
    {
     "filename":"I1CZ49670933.tif",
     "pagination":{
      "pgfolios":{
       "section":"2",
       "value":"73b"
      }
     }
    },
    {
     "filename":"I1CZ49670934.tif",
     "pagination":{
      "pgfolios":{
       "section":"2",
       "value":"74a"
      }
     }
    },
    {
     "filename":"I1CZ49670935.tif",
     "pagination":{
      "pgfolios":{
       "section":"2",
       "value":"74b"
      }
     }
    },
    {
     "filename":"I1CZ49670936.tif",
     "pagination":{
      "pgfolios":{
       "section":"2",
       "value":"75a"
      }
     }
    },
    {
     "filename":"I1CZ49670937.tif",
     "pagination":{
      "pgfolios":{
       "section":"2",
       "value":"75b"
      }
     }
    },
    {
     "filename":"I1CZ49670938.tif",
     "pagination":{
      "pgfolios":{
       "section":"2",
       "value":"76a"
      }
     }
    },
    {
     "filename":"I1CZ49670939.tif",
     "pagination":{
      "pgfolios":{
       "section":"2",
       "value":"76b"
      }
     }
    },
    {
     "filename":"I1CZ49670940.tif",
     "pagination":{
      "pgfolios":{
       "section":"2",
       "value":"77a"
      }
     }
    },
    {
     "filename":"I1CZ49670941.tif",
     "pagination":{
      "pgfolios":{
       "section":"2",
       "value":"77b"
      }
     }
    },
    {
     "filename":"I1CZ49670942.tif",
     "pagination":{
      "pgfolios":{
       "section":"2",
       "value":"78a"
      }
     }
    },
    {
     "filename":"I1CZ49670943.tif",
     "pagination":{
      "pgfolios":{
       "section":"2",
       "value":"78b"
      }
     }
    },
    {
     "filename":"I1CZ49670944.tif",
     "pagination":{
      "pgfolios":{
       "section":"2",
       "value":"79a"
      }
     }
    },
    {
     "filename":"I1CZ49670945.tif",
     "pagination":{
      "pgfolios":{
       "section":"2",
       "value":"79b"
      }
     }
    },
    {
     "filename":"I1CZ49670946.tif",
     "pagination":{
      "pgfolios":{
       "section":"2",
       "value":"80a"
      }
     }
    },
    {
     "filename":"I1CZ49670947.tif",
     "pagination":{
      "pgfolios":{
       "section":"2",
       "value":"80b"
      }
     }
    },
    {
     "filename":"I1CZ49670948.tif",
     "pagination":{
      "pgfolios":{
       "section":"2",
       "value":"81a"
      }
     }
    },
    {
     "filename":"I1CZ49670949.tif",
     "pagination":{
      "pgfolios":{
       "section":"2",
       "value":"81b"
      }
     }
    },
    {
     "filename":"I1CZ49670950.tif",
     "pagination":{
      "pgfolios":{
       "section":"2",
       "value":"82a"
      }
     }
    },
    {
     "filename":"I1CZ49670951.tif",
     "pagination":{
      "pgfolios":{
       "section":"2",
       "value":"82b"
      }
     }
    },
    {
     "filename":"I1CZ49670952.tif",
     "pagination":{
      "pgfolios":{
       "section":"2",
       "value":"83a"
      }
     }
    },
    {
     "filename":"I1CZ49670953.tif",
     "pagination":{
      "pgfolios":{
       "section":"2",
       "value":"83b"
      }
     }
    },
    {
     "filename":"I1CZ49670954.tif",
     "pagination":{
      "pgfolios":{
       "section":"2",
       "value":"84a"
      }
     }
    },
    {
     "filename":"I1CZ49670955.tif",
     "pagination":{
      "pgfolios":{
       "section":"2",
       "value":"84b"
      }
     }
    },
    {
     "filename":"I1CZ49670956.tif",
     "pagination":{
      "pgfolios":{
       "section":"2",
       "value":"85a"
      }
     }
    },
    {
     "filename":"I1CZ49670957.tif",
     "pagination":{
      "pgfolios":{
       "section":"2",
       "value":"85b"
      }
     }
    },
    {
     "filename":"I1CZ49670958.tif",
     "pagination":{
      "pgfolios":{
       "section":"2",
       "value":"86a"
      }
     }
    },
    {
     "filename":"I1CZ49670959.tif",
     "pagination":{
      "pgfolios":{
       "section":"2",
       "value":"86b"
      }
     }
    },
    {
     "filename":"I1CZ49670960.tif",
     "pagination":{
      "pgfolios":{
       "section":"2",
       "value":"87a"
      }
     }
    },
    {
     "filename":"I1CZ49670961.tif",
     "pagination":{
      "pgfolios":{
       "section":"2",
       "value":"87b"
      }
     }
    },
    {
     "filename":"I1CZ49670962.tif",
     "pagination":{
      "pgfolios":{
       "section":"2",
       "value":"88a"
      }
     }
    },
    {
     "filename":"I1CZ49670963.tif",
     "pagination":{
      "pgfolios":{
       "section":"2",
       "value":"88b"
      }
     }
    },
    {
     "filename":"I1CZ49670964.tif",
     "pagination":{
      "pgfolios":{
       "section":"2",
       "value":"89a"
      }
     }
    },
    {
     "filename":"I1CZ49670965.tif",
     "pagination":{
      "pgfolios":{
       "section":"2",
       "value":"89b"
      }
     }
    },
    {
     "filename":"I1CZ49670966.tif",
     "pagination":{
      "pgfolios":{
       "section":"2",
       "value":"90a"
      }
     }
    },
    {
     "filename":"I1CZ49670967.tif",
     "pagination":{
      "pgfolios":{
       "section":"2",
       "value":"90b"
      }
     }
    },
    {
     "filename":"I1CZ49670968.tif",
     "pagination":{
      "pgfolios":{
       "section":"2",
       "value":"91a"
      }
     }
    },
    {
     "filename":"I1CZ49670969.tif",
     "pagination":{
      "pgfolios":{
       "section":"2",
       "value":"91b"
      }
     }
    },
    {
     "filename":"I1CZ49670970.tif",
     "pagination":{
      "pgfolios":{
       "section":"2",
       "value":"92a"
      }
     }
    },
    {
     "filename":"I1CZ49670971.tif",
     "pagination":{
      "pgfolios":{
       "section":"2",
       "value":"92b"
      }
     }
    },
    {
     "filename":"I1CZ49670972.tif",
     "pagination":{
      "pgfolios":{
       "section":"2",
       "value":"93a"
      }
     }
    },
    {
     "filename":"I1CZ49670973.tif",
     "pagination":{
      "pgfolios":{
       "section":"2",
       "value":"93b"
      }
     }
    },
    {
     "filename":"I1CZ49670974.tif",
     "pagination":{
      "pgfolios":{
       "section":"2",
       "value":"94a"
      }
     }
    },
    {
     "filename":"I1CZ49670975.tif",
     "pagination":{
      "pgfolios":{
       "section":"2",
       "value":"94b"
      }
     }
    },
    {
     "filename":"I1CZ49670976.tif",
     "pagination":{
      "pgfolios":{
       "section":"2",
       "value":"95a"
      }
     }
    },
    {
     "filename":"I1CZ49670977.tif",
     "pagination":{
      "pgfolios":{
       "section":"2",
       "value":"95b"
      }
     }
    },
    {
     "filename":"I1CZ49670978.tif",
     "pagination":{
      "pgfolios":{
       "section":"2",
       "value":"96a"
      }
     }
    },
    {
     "filename":"I1CZ49670979.tif",
     "pagination":{
      "pgfolios":{
       "section":"2",
       "value":"96b"
      }
     }
    },
    {
     "filename":"I1CZ49670980.tif",
     "pagination":{
      "pgfolios":{
       "section":"2",
       "value":"97a"
      }
     }
    },
    {
     "filename":"I1CZ49670981.tif",
     "pagination":{
      "pgfolios":{
       "section":"2",
       "value":"97b"
      }
     }
    },
    {
     "filename":"I1CZ49670982.tif",
     "pagination":{
      "pgfolios":{
       "section":"2",
       "value":"98a"
      }
     }
    },
    {
     "filename":"I1CZ49670983.tif",
     "pagination":{
      "pgfolios":{
       "section":"2",
       "value":"98b"
      }
     }
    },
    {
     "filename":"I1CZ49670984.tif",
     "pagination":{
      "pgfolios":{
       "section":"2",
       "value":"99a"
      }
     }
    },
    {
     "filename":"I1CZ49670985.tif",
     "pagination":{
      "pgfolios":{
       "section":"2",
       "value":"99b"
      }
     }
    },
    {
     "filename":"I1CZ49670986.tif",
     "pagination":{
      "pgfolios":{
       "section":"2",
       "value":"100a"
      }
     }
    },
    {
     "filename":"I1CZ49670987.tif",
     "pagination":{
      "pgfolios":{
       "section":"2",
       "value":"100b"
      }
     }
    },
    {
     "filename":"I1CZ49670988.tif",
     "pagination":{
      "pgfolios":{
       "section":"2",
       "value":"101a"
      }
     }
    },
    {
     "filename":"I1CZ49670989.tif",
     "pagination":{
      "pgfolios":{
       "section":"2",
       "value":"101b"
      }
     }
    },
    {
     "filename":"I1CZ49670990.tif",
     "pagination":{
      "pgfolios":{
       "section":"2",
       "value":"102a"
      }
     }
    },
    {
     "filename":"I1CZ49670991.tif",
     "pagination":{
      "pgfolios":{
       "section":"2",
       "value":"102b"
      }
     }
    },
    {
     "filename":"I1CZ49670992.tif",
     "pagination":{
      "pgfolios":{
       "section":"2",
       "value":"103a"
      }
     }
    },
    {
     "filename":"I1CZ49670993.tif",
     "pagination":{
      "pgfolios":{
       "section":"2",
       "value":"103b"
      }
     }
    },
    {
     "filename":"I1CZ49670994.tif",
     "pagination":{
      "pgfolios":{
       "section":"2",
       "value":"104a"
      }
     }
    },
    {
     "filename":"I1CZ49670995.tif",
     "pagination":{
      "pgfolios":{
       "section":"2",
       "value":"104b"
      }
     }
    },
    {
     "filename":"I1CZ49670996.tif",
     "pagination":{
      "pgfolios":{
       "section":"2",
       "value":"105a"
      }
     }
    },
    {
     "filename":"I1CZ49670997.tif",
     "pagination":{
      "pgfolios":{
       "section":"2",
       "value":"105b"
      }
     }
    },
    {
     "filename":"I1CZ49670998.tif",
     "pagination":{
      "pgfolios":{
       "section":"2",
       "value":"106a"
      }
     }
    },
    {
     "filename":"I1CZ49670999.tif",
     "pagination":{
      "pgfolios":{
       "section":"2",
       "value":"106b"
      }
     }
    },
    {
     "filename":"I1CZ49671000.tif",
     "pagination":{
      "pgfolios":{
       "section":"2",
       "value":"107a"
      }
     }
    },
    {
     "filename":"I1CZ49671001.tif",
     "pagination":{
      "pgfolios":{
       "section":"2",
       "value":"107b"
      }
     }
    },
    {
     "filename":"I1CZ49671002.tif",
     "pagination":{
      "pgfolios":{
       "section":"2",
       "value":"108a"
      }
     }
    },
    {
     "filename":"I1CZ49671003.tif",
     "pagination":{
      "pgfolios":{
       "section":"2",
       "value":"108b"
      }
     }
    },
    {
     "filename":"I1CZ49671004.tif",
     "pagination":{
      "pgfolios":{
       "section":"2",
       "value":"109a"
      }
     }
    },
    {
     "filename":"I1CZ49671005.tif",
     "pagination":{
      "pgfolios":{
       "section":"2",
       "value":"109b"
      }
     }
    },
    {
     "filename":"I1CZ49671006.tif",
     "pagination":{
      "pgfolios":{
       "section":"2",
       "value":"110a"
      }
     }
    },
    {
     "filename":"I1CZ49671007.tif",
     "pagination":{
      "pgfolios":{
       "section":"2",
       "value":"110b"
      }
     }
    },
    {
     "filename":"I1CZ49671008.tif",
     "pagination":{
      "pgfolios":{
       "section":"2",
       "value":"111a"
      }
     }
    },
    {
     "filename":"I1CZ49671009.tif",
     "pagination":{
      "pgfolios":{
       "section":"2",
       "value":"111b"
      }
     }
    },
    {
     "filename":"I1CZ49671010.tif",
     "pagination":{
      "pgfolios":{
       "section":"2",
       "value":"112a"
      }
     }
    },
    {
     "filename":"I1CZ49671011.tif",
     "pagination":{
      "pgfolios":{
       "section":"2",
       "value":"112b"
      }
     }
    },
    {
     "filename":"I1CZ49671012.tif",
     "pagination":{
      "pgfolios":{
       "section":"2",
       "value":"113a"
      }
     }
    },
    {
     "filename":"I1CZ49671013.tif",
     "pagination":{
      "pgfolios":{
       "section":"2",
       "value":"113b"
      }
     }
    },
    {
     "filename":"I1CZ49671014.tif",
     "pagination":{
      "pgfolios":{
       "section":"2",
       "value":"114a"
      }
     }
    },
    {
     "filename":"I1CZ49671015.tif",
     "pagination":{
      "pgfolios":{
       "section":"2",
       "value":"114b"
      }
     }
    },
    {
     "filename":"I1CZ49671016.tif",
     "pagination":{
      "pgfolios":{
       "section":"2",
       "value":"115a"
      }
     }
    },
    {
     "filename":"I1CZ49671017.tif",
     "pagination":{
      "pgfolios":{
       "section":"2",
       "value":"115b"
      }
     }
    },
    {
     "filename":"I1CZ49671018.tif",
     "pagination":{
      "pgfolios":{
       "section":"2",
       "value":"116a"
      }
     }
    },
    {
     "filename":"I1CZ49671019.tif",
     "pagination":{
      "pgfolios":{
       "section":"2",
       "value":"116b"
      }
     }
    },
    {
     "filename":"I1CZ49671020.tif",
     "pagination":{
      "pgfolios":{
       "section":"2",
       "value":"117a"
      }
     }
    },
    {
     "filename":"I1CZ49671021.tif",
     "pagination":{
      "pgfolios":{
       "section":"2",
       "value":"117b"
      }
     }
    },
    {
     "filename":"I1CZ49671022.tif",
     "pagination":{
      "pgfolios":{
       "section":"2",
       "value":"118a"
      }
     }
    },
    {
     "filename":"I1CZ49671023.tif",
     "pagination":{
      "pgfolios":{
       "section":"2",
       "value":"118b"
      }
     }
    },
    {
     "filename":"I1CZ49671024.tif",
     "pagination":{
      "pgfolios":{
       "section":"2",
       "value":"119a"
      }
     }
    },
    {
     "filename":"I1CZ49671025.tif",
     "pagination":{
      "pgfolios":{
       "section":"2",
       "value":"119b"
      }
     }
    },
    {
     "filename":"I1CZ49671026.tif",
     "pagination":{
      "pgfolios":{
       "section":"2",
       "value":"120a"
      }
     }
    },
    {
     "filename":"I1CZ49671027.tif",
     "pagination":{
      "pgfolios":{
       "section":"2",
       "value":"120b"
      }
     }
    },
    {
     "filename":"I1CZ49671028.tif",
     "pagination":{
      "pgfolios":{
       "section":"2",
       "value":"121a"
      }
     }
    },
    {
     "filename":"I1CZ49671029.tif",
     "pagination":{
      "pgfolios":{
       "section":"2",
       "value":"121b"
      }
     }
    },
    {
     "filename":"I1CZ49671030.tif",
     "pagination":{
      "pgfolios":{
       "section":"2",
       "value":"122a"
      }
     }
    },
    {
     "filename":"I1CZ49671031.tif",
     "pagination":{
      "pgfolios":{
       "section":"2",
       "value":"122b"
      }
     }
    },
    {
     "filename":"I1CZ49671032.tif",
     "pagination":{
      "pgfolios":{
       "section":"2",
       "value":"123a"
      }
     }
    },
    {
     "filename":"I1CZ49671033.tif",
     "pagination":{
      "pgfolios":{
       "section":"2",
       "value":"123b"
      }
     }
    },
    {
     "filename":"I1CZ49671034.tif",
     "pagination":{
      "pgfolios":{
       "section":"2",
       "value":"124a"
      }
     }
    },
    {
     "filename":"I1CZ49671035.tif",
     "pagination":{
      "pgfolios":{
       "section":"2",
       "value":"124b"
      }
     }
    },
    {
     "filename":"I1CZ49671036.tif",
     "pagination":{
      "pgfolios":{
       "section":"2",
       "value":"125a"
      }
     }
    },
    {
     "filename":"I1CZ49671037.tif",
     "pagination":{
      "pgfolios":{
       "section":"2",
       "value":"125b"
      }
     }
    },
    {
     "filename":"I1CZ49671038.tif",
     "pagination":{
      "pgfolios":{
       "section":"2",
       "value":"126a"
      }
     }
    },
    {
     "filename":"I1CZ49671039.tif",
     "pagination":{
      "pgfolios":{
       "section":"2",
       "value":"126b"
      }
     }
    },
    {
     "filename":"I1CZ49671040.tif",
     "pagination":{
      "pgfolios":{
       "section":"2",
       "value":"127a"
      }
     }
    },
    {
     "filename":"I1CZ49671041.tif",
     "pagination":{
      "pgfolios":{
       "section":"2",
       "value":"127b"
      }
     }
    },
    {
     "filename":"I1CZ49671042.tif",
     "pagination":{
      "pgfolios":{
       "section":"2",
       "value":"128a"
      }
     }
    },
    {
     "filename":"I1CZ49671043.tif",
     "pagination":{
      "pgfolios":{
       "section":"2",
       "value":"128b"
      }
     }
    },
    {
     "filename":"I1CZ49671044.tif",
     "pagination":{
      "pgfolios":{
       "section":"2",
       "value":"129a"
      }
     }
    },
    {
     "filename":"I1CZ49671045.tif",
     "pagination":{
      "pgfolios":{
       "section":"2",
       "value":"129b"
      }
     }
    },
    {
     "filename":"I1CZ49671046.tif",
     "pagination":{
      "pgfolios":{
       "section":"2",
       "value":"130a"
      }
     }
    },
    {
     "filename":"I1CZ49671047.tif",
     "pagination":{
      "pgfolios":{
       "section":"2",
       "value":"130b"
      }
     }
    },
    {
     "filename":"I1CZ49671048.tif",
     "pagination":{
      "pgfolios":{
       "section":"2",
       "value":"131a"
      }
     }
    },
    {
     "filename":"I1CZ49671049.tif",
     "pagination":{
      "pgfolios":{
       "section":"2",
       "value":"131b"
      }
     }
    },
    {
     "filename":"I1CZ49671050.tif",
     "pagination":{
      "pgfolios":{
       "section":"2",
       "value":"132a"
      }
     }
    },
    {
     "filename":"I1CZ49671051.tif",
     "pagination":{
      "pgfolios":{
       "section":"2",
       "value":"132b"
      }
     }
    },
    {
     "filename":"I1CZ49671052.tif",
     "pagination":{
      "pgfolios":{
       "section":"2",
       "value":"133a"
      }
     }
    },
    {
     "filename":"I1CZ49671053.tif",
     "pagination":{
      "pgfolios":{
       "section":"2",
       "value":"133b"
      }
     }
    },
    {
     "filename":"I1CZ49671054.tif",
     "pagination":{
      "pgfolios":{
       "section":"2",
       "value":"134a"
      }
     }
    },
    {
     "filename":"I1CZ49671055.tif",
     "pagination":{
      "pgfolios":{
       "section":"2",
       "value":"134b"
      }
     }
    },
    {
     "filename":"I1CZ49671056.tif",
     "pagination":{
      "pgfolios":{
       "section":"2",
       "value":"135a"
      }
     }
    },
    {
     "filename":"I1CZ49671057.tif",
     "pagination":{
      "pgfolios":{
       "section":"2",
       "value":"135b"
      }
     }
    },
    {
     "filename":"I1CZ49671058.tif",
     "pagination":{
      "pgfolios":{
       "section":"2",
       "value":"136a"
      }
     }
    },
    {
     "filename":"I1CZ49671059.tif",
     "pagination":{
      "pgfolios":{
       "section":"2",
       "value":"136b"
      }
     }
    },
    {
     "filename":"I1CZ49671060.tif",
     "pagination":{
      "pgfolios":{
       "section":"2",
       "value":"137a"
      }
     }
    },
    {
     "filename":"I1CZ49671061.tif",
     "pagination":{
      "pgfolios":{
       "section":"2",
       "value":"137b"
      }
     }
    },
    {
     "filename":"I1CZ49671062.tif",
     "pagination":{
      "pgfolios":{
       "section":"2",
       "value":"138a"
      }
     }
    },
    {
     "filename":"I1CZ49671063.tif",
     "pagination":{
      "pgfolios":{
       "section":"2",
       "value":"138b"
      }
     }
    },
    {
     "filename":"I1CZ49671064.tif",
     "pagination":{
      "pgfolios":{
       "section":"2",
       "value":"139a"
      }
     }
    },
    {
     "filename":"I1CZ49671065.tif",
     "pagination":{
      "pgfolios":{
       "section":"2",
       "value":"139b"
      }
     }
    },
    {
     "filename":"I1CZ49671066.tif",
     "pagination":{
      "pgfolios":{
       "section":"2",
       "value":"140a"
      }
     }
    },
    {
     "filename":"I1CZ49671067.tif",
     "pagination":{
      "pgfolios":{
       "section":"2",
       "value":"140b"
      }
     }
    },
    {
     "filename":"I1CZ49671068.tif",
     "pagination":{
      "pgfolios":{
       "section":"2",
       "value":"141a"
      }
     }
    },
    {
     "filename":"I1CZ49671069.tif",
     "pagination":{
      "pgfolios":{
       "section":"2",
       "value":"141b"
      }
     }
    },
    {
     "filename":"I1CZ49671070.tif",
     "pagination":{
      "pgfolios":{
       "section":"2",
       "value":"142a"
      }
     }
    },
    {
     "filename":"I1CZ49671071.tif",
     "pagination":{
      "pgfolios":{
       "section":"2",
       "value":"142b"
      }
     }
    },
    {
     "filename":"I1CZ49671072.tif",
     "pagination":{
      "pgfolios":{
       "section":"2",
       "value":"143a"
      }
     }
    },
    {
     "filename":"I1CZ49671073.tif",
     "pagination":{
      "pgfolios":{
       "section":"2",
       "value":"143b"
      }
     }
    },
    {
     "filename":"I1CZ49671074.tif",
     "pagination":{
      "pgfolios":{
       "section":"2",
       "value":"144a"
      }
     }
    },
    {
     "filename":"I1CZ49671075.tif",
     "pagination":{
      "pgfolios":{
       "section":"2",
       "value":"144b"
      }
     }
    },
    {
     "filename":"I1CZ49671076.tif",
     "pagination":{
      "pgfolios":{
       "section":"2",
       "value":"145a"
      }
     }
    },
    {
     "filename":"I1CZ49671077.tif",
     "pagination":{
      "pgfolios":{
       "section":"2",
       "value":"145b"
      }
     }
    },
    {
     "filename":"I1CZ49671078.tif",
     "pagination":{
      "pgfolios":{
       "section":"2",
       "value":"146a"
      }
     }
    },
    {
     "filename":"I1CZ49671079.tif",
     "pagination":{
      "pgfolios":{
       "section":"2",
       "value":"146b"
      }
     }
    },
    {
     "filename":"I1CZ49671080.tif",
     "pagination":{
      "pgfolios":{
       "section":"2",
       "value":"147a"
      }
     }
    },
    {
     "filename":"I1CZ49671081.tif",
     "pagination":{
      "pgfolios":{
       "section":"2",
       "value":"147b"
      }
     }
    },
    {
     "filename":"I1CZ49671082.tif",
     "pagination":{
      "pgfolios":{
       "section":"2",
       "value":"148a"
      }
     }
    },
    {
     "filename":"I1CZ49671083.tif",
     "pagination":{
      "pgfolios":{
       "section":"2",
       "value":"148b"
      }
     }
    },
    {
     "filename":"I1CZ49671084.tif",
     "pagination":{
      "pgfolios":{
       "section":"2",
       "value":"149a"
      }
     }
    },
    {
     "filename":"I1CZ49671085.tif",
     "pagination":{
      "pgfolios":{
       "section":"2",
       "value":"149b"
      }
     }
    },
    {
     "filename":"I1CZ49671086.tif",
     "pagination":{
      "pgfolios":{
       "section":"2",
       "value":"150a"
      }
     }
    },
    {
     "filename":"I1CZ49671087.tif",
     "pagination":{
      "pgfolios":{
       "section":"2",
       "value":"150b"
      }
     }
    },
    {
     "filename":"I1CZ49671088.tif",
     "pagination":{
      "pgfolios":{
       "section":"2",
       "value":"151a"
      }
     }
    },
    {
     "filename":"I1CZ49671089.tif",
     "pagination":{
      "pgfolios":{
       "section":"2",
       "value":"151b"
      }
     }
    },
    {
     "filename":"I1CZ49671090.tif",
     "pagination":{
      "pgfolios":{
       "section":"2",
       "value":"152a"
      }
     }
    },
    {
     "filename":"I1CZ49671091.tif",
     "pagination":{
      "pgfolios":{
       "section":"2",
       "value":"152b"
      }
     }
    },
    {
     "filename":"I1CZ49671092.tif",
     "pagination":{
      "pgfolios":{
       "section":"2",
       "value":"153a"
      }
     }
    },
    {
     "filename":"I1CZ49671093.tif",
     "pagination":{
      "pgfolios":{
       "section":"2",
       "value":"153b"
      }
     }
    },
    {
     "filename":"I1CZ49671094.tif",
     "pagination":{
      "pgfolios":{
       "section":"2",
       "value":"154a"
      }
     }
    },
    {
     "filename":"I1CZ49671095.tif",
     "pagination":{
      "pgfolios":{
       "section":"2",
       "value":"154b"
      }
     }
    },
    {
     "filename":"I1CZ49671096.tif",
     "pagination":{
      "pgfolios":{
       "section":"2",
       "value":"155a"
      }
     }
    },
    {
     "filename":"I1CZ49671097.tif",
     "pagination":{
      "pgfolios":{
       "section":"2",
       "value":"155b"
      }
     }
    },
    {
     "filename":"I1CZ49671098.tif",
     "pagination":{
      "pgfolios":{
       "section":"2",
       "value":"156a"
      }
     }
    },
    {
     "filename":"I1CZ49671099.tif",
     "pagination":{
      "pgfolios":{
       "section":"2",
       "value":"156b"
      }
     }
    },
    {
     "filename":"I1CZ49671100.tif",
     "pagination":{
      "pgfolios":{
       "section":"2",
       "value":"157a"
      }
     }
    },
    {
     "filename":"I1CZ49671101.tif",
     "pagination":{
      "pgfolios":{
       "section":"2",
       "value":"157b"
      }
     }
    },
    {
     "filename":"I1CZ49671102.tif",
     "pagination":{
      "pgfolios":{
       "section":"2",
       "value":"158a"
      }
     }
    },
    {
     "filename":"I1CZ49671103.tif",
     "pagination":{
      "pgfolios":{
       "section":"2",
       "value":"158b"
      }
     }
    },
    {
     "filename":"I1CZ49671104.tif",
     "pagination":{
      "pgfolios":{
       "section":"2",
       "value":"159a"
      }
     }
    },
    {
     "filename":"I1CZ49671105.tif",
     "pagination":{
      "pgfolios":{
       "section":"2",
       "value":"159b"
      }
     }
    },
    {
     "filename":"I1CZ49671106.tif",
     "pagination":{
      "pgfolios":{
       "section":"2",
       "value":"160a"
      }
     }
    },
    {
     "filename":"I1CZ49671107.tif",
     "pagination":{
      "pgfolios":{
       "section":"2",
       "value":"160b"
      }
     }
    },
    {
     "filename":"I1CZ49671108.tif",
     "pagination":{
      "pgfolios":{
       "section":"2",
       "value":"161a"
      }
     }
    },
    {
     "filename":"I1CZ49671109.tif",
     "pagination":{
      "pgfolios":{
       "section":"2",
       "value":"161b"
      }
     }
    },
    {
     "filename":"I1CZ49671110.tif",
     "pagination":{
      "pgfolios":{
       "section":"2",
       "value":"162a"
      }
     }
    },
    {
     "filename":"I1CZ49671111.tif",
     "pagination":{
      "pgfolios":{
       "section":"2",
       "value":"162b"
      }
     }
    },
    {
     "filename":"I1CZ49671112.tif",
     "pagination":{
      "pgfolios":{
       "section":"2",
       "value":"163a"
      }
     }
    },
    {
     "filename":"I1CZ49671113.tif",
     "pagination":{
      "pgfolios":{
       "section":"2",
       "value":"163b"
      }
     }
    },
    {
     "filename":"I1CZ49671114.tif",
     "pagination":{
      "pgfolios":{
       "section":"2",
       "value":"164a"
      }
     }
    },
    {
     "filename":"I1CZ49671115.tif",
     "pagination":{
      "pgfolios":{
       "section":"2",
       "value":"164b"
      }
     }
    },
    {
     "filename":"I1CZ49671116.tif",
     "pagination":{
      "pgfolios":{
       "section":"2",
       "value":"165a"
      }
     }
    },
    {
     "filename":"I1CZ49671117.tif",
     "pagination":{
      "pgfolios":{
       "section":"2",
       "value":"165b"
      }
     }
    },
    {
     "filename":"I1CZ49671118.tif",
     "pagination":{
      "pgfolios":{
       "section":"2",
       "value":"166a"
      }
     }
    },
    {
     "filename":"I1CZ49671119.tif",
     "pagination":{
      "pgfolios":{
       "section":"2",
       "value":"166b"
      }
     }
    },
    {
     "filename":"I1CZ49671120.tif",
     "pagination":{
      "pgfolios":{
       "section":"2",
       "value":"167a"
      }
     }
    },
    {
     "filename":"I1CZ49671121.tif",
     "pagination":{
      "pgfolios":{
       "section":"2",
       "value":"167b"
      }
     }
    },
    {
     "filename":"I1CZ49671122.tif",
     "pagination":{
      "pgfolios":{
       "section":"2",
       "value":"168a"
      }
     }
    },
    {
     "filename":"I1CZ49671123.tif",
     "pagination":{
      "pgfolios":{
       "section":"2",
       "value":"168b"
      }
     }
    },
    {
     "filename":"I1CZ49671124.tif",
     "pagination":{
      "pgfolios":{
       "section":"2",
       "value":"169a"
      }
     }
    },
    {
     "filename":"I1CZ49671125.tif",
     "pagination":{
      "pgfolios":{
       "section":"2",
       "value":"169b"
      }
     }
    },
    {
     "filename":"I1CZ49671126.tif",
     "pagination":{
      "pgfolios":{
       "section":"2",
       "value":"170a"
      }
     }
    },
    {
     "filename":"I1CZ49671127.tif",
     "pagination":{
      "pgfolios":{
       "section":"2",
       "value":"170b"
      }
     }
    },
    {
     "filename":"I1CZ49671128.tif",
     "pagination":{
      "pgfolios":{
       "section":"2",
       "value":"171a"
      }
     }
    },
    {
     "filename":"I1CZ49671129.tif",
     "pagination":{
      "pgfolios":{
       "section":"2",
       "value":"171b"
      }
     }
    },
    {
     "filename":"I1CZ49671130.tif",
     "pagination":{
      "pgfolios":{
       "section":"2",
       "value":"172a"
      }
     }
    },
    {
     "filename":"I1CZ49671131.tif",
     "pagination":{
      "pgfolios":{
       "section":"2",
       "value":"172b"
      }
     }
    },
    {
     "filename":"I1CZ49671132.tif",
     "pagination":{
      "pgfolios":{
       "section":"2",
       "value":"173a"
      }
     }
    },
    {
     "filename":"I1CZ49671133.tif",
     "pagination":{
      "pgfolios":{
       "section":"2",
       "value":"173b"
      }
     }
    },
    {
     "filename":"I1CZ49671134.tif",
     "pagination":{
      "pgfolios":{
       "section":"2",
       "value":"174a"
      }
     }
    },
    {
     "filename":"I1CZ49671135.tif",
     "pagination":{
      "pgfolios":{
       "section":"2",
       "value":"174b"
      }
     }
    },
    {
     "filename":"I1CZ49671136.tif",
     "pagination":{
      "pgfolios":{
       "section":"2",
       "value":"175a"
      }
     }
    },
    {
     "filename":"I1CZ49671137.tif",
     "pagination":{
      "pgfolios":{
       "section":"2",
       "value":"175b"
      }
     }
    },
    {
     "filename":"I1CZ49671138.tif",
     "pagination":{
      "pgfolios":{
       "section":"2",
       "value":"176a"
      }
     }
    },
    {
     "filename":"I1CZ49671139.tif",
     "pagination":{
      "pgfolios":{
       "section":"2",
       "value":"176b"
      }
     }
    },
    {
     "filename":"I1CZ49671140.tif",
     "pagination":{
      "pgfolios":{
       "section":"2",
       "value":"177a"
      }
     }
    },
    {
     "filename":"I1CZ49671141.tif",
     "pagination":{
      "pgfolios":{
       "section":"2",
       "value":"177b"
      }
     }
    },
    {
     "filename":"I1CZ49671142.tif",
     "pagination":{
      "pgfolios":{
       "section":"2",
       "value":"178a"
      }
     }
    },
    {
     "filename":"I1CZ49671143.tif",
     "pagination":{
      "pgfolios":{
       "section":"2",
       "value":"178b"
      }
     }
    },
    {
     "filename":"I1CZ49671144.tif",
     "pagination":{
      "pgfolios":{
       "section":"2",
       "value":"179a"
      }
     }
    },
    {
     "filename":"I1CZ49671145.tif",
     "pagination":{
      "pgfolios":{
       "section":"2",
       "value":"179b"
      }
     }
    },
    {
     "filename":"I1CZ49671146.tif",
     "pagination":{
      "pgfolios":{
       "section":"2",
       "value":"180a"
      }
     }
    },
    {
     "filename":"I1CZ49671147.tif",
     "pagination":{
      "pgfolios":{
       "section":"2",
       "value":"180b"
      }
     }
    },
    {
     "filename":"I1CZ49671148.tif",
     "pagination":{
      "pgfolios":{
       "section":"2",
       "value":"181a"
      }
     }
    },
    {
     "filename":"I1CZ49671149.tif",
     "pagination":{
      "pgfolios":{
       "section":"2",
       "value":"181b"
      }
     }
    },
    {
     "filename":"I1CZ49671150.tif",
     "pagination":{
      "pgfolios":{
       "section":"2",
       "value":"182a"
      }
     }
    },
    {
     "filename":"I1CZ49671151.tif",
     "pagination":{
      "pgfolios":{
       "section":"2",
       "value":"182b"
      }
     }
    },
    {
     "filename":"I1CZ49671152.tif",
     "pagination":{
      "pgfolios":{
       "section":"2",
       "value":"183a"
      }
     }
    },
    {
     "filename":"I1CZ49671153.tif",
     "pagination":{
      "pgfolios":{
       "section":"2",
       "value":"183b"
      }
     }
    },
    {
     "filename":"I1CZ49671154.tif",
     "pagination":{
      "pgfolios":{
       "section":"2",
       "value":"184a"
      }
     }
    },
    {
     "filename":"I1CZ49671155.tif",
     "pagination":{
      "pgfolios":{
       "section":"2",
       "value":"184b"
      }
     }
    },
    {
     "filename":"I1CZ49671156.tif",
     "pagination":{
      "pgfolios":{
       "section":"2",
       "value":"185a"
      }
     }
    },
    {
     "filename":"I1CZ49671157.tif",
     "pagination":{
      "pgfolios":{
       "section":"2",
       "value":"185b"
      }
     }
    },
    {
     "filename":"I1CZ49671158.tif",
     "pagination":{
      "pgfolios":{
       "section":"2",
       "value":"186a"
      }
     }
    },
    {
     "filename":"I1CZ49671159.tif",
     "pagination":{
      "pgfolios":{
       "section":"2",
       "value":"186b"
      }
     }
    },
    {
     "filename":"I1CZ49671160.tif",
     "pagination":{
      "pgfolios":{
       "section":"2",
       "value":"187a"
      }
     }
    },
    {
     "filename":"I1CZ49671161.tif",
     "pagination":{
      "pgfolios":{
       "section":"2",
       "value":"187b"
      }
     }
    },
    {
     "filename":"I1CZ49671162.tif",
     "pagination":{
      "pgfolios":{
       "section":"2",
       "value":"188a"
      }
     }
    },
    {
     "filename":"I1CZ49671163.tif",
     "pagination":{
      "pgfolios":{
       "section":"2",
       "value":"188b"
      }
     }
    },
    {
     "filename":"I1CZ49671164.tif",
     "pagination":{
      "pgfolios":{
       "section":"2",
       "value":"189a"
      }
     }
    },
    {
     "filename":"I1CZ49671165.tif",
     "pagination":{
      "pgfolios":{
       "section":"2",
       "value":"189b"
      }
     }
    },
    {
     "filename":"I1CZ49671166.tif",
     "pagination":{
      "pgfolios":{
       "section":"2",
       "value":"190a"
      }
     }
    },
    {
     "filename":"I1CZ49671167.tif",
     "pagination":{
      "pgfolios":{
       "section":"2",
       "value":"190b"
      }
     }
    },
    {
     "filename":"I1CZ49671168.tif",
     "pagination":{
      "pgfolios":{
       "section":"2",
       "value":"191a"
      }
     }
    },
    {
     "filename":"I1CZ49671169.tif",
     "pagination":{
      "pgfolios":{
       "section":"2",
       "value":"191b"
      }
     }
    },
    {
     "filename":"I1CZ49671170.tif",
     "pagination":{
      "pgfolios":{
       "section":"2",
       "value":"192a"
      }
     }
    },
    {
     "filename":"I1CZ49671171.tif",
     "pagination":{
      "pgfolios":{
       "section":"2",
       "value":"192b"
      }
     }
    },
    {
     "filename":"I1CZ49671172.tif",
     "pagination":{
      "pgfolios":{
       "section":"2",
       "value":"193a"
      }
     }
    },
    {
     "filename":"I1CZ49671173.tif",
     "pagination":{
      "pgfolios":{
       "section":"2",
       "value":"193b"
      }
     }
    },
    {
     "filename":"I1CZ49671174.tif",
     "pagination":{
      "pgfolios":{
       "section":"2",
       "value":"194a"
      }
     }
    },
    {
     "filename":"I1CZ49671175.tif",
     "pagination":{
      "pgfolios":{
       "section":"2",
       "value":"194b"
      }
     }
    },
    {
     "filename":"I1CZ49671176.tif",
     "pagination":{
      "pgfolios":{
       "section":"2",
       "value":"195a"
      }
     }
    },
    {
     "filename":"I1CZ49671177.tif",
     "pagination":{
      "pgfolios":{
       "section":"2",
       "value":"195b"
      }
     }
    },
    {
     "filename":"I1CZ49671178.tif",
     "pagination":{
      "pgfolios":{
       "section":"2",
       "value":"196a"
      }
     }
    },
    {
     "filename":"I1CZ49671179.tif",
     "pagination":{
      "pgfolios":{
       "section":"2",
       "value":"196b"
      }
     }
    },
    {
     "filename":"I1CZ49671180.tif",
     "pagination":{
      "pgfolios":{
       "section":"2",
       "value":"197a"
      }
     }
    },
    {
     "filename":"I1CZ49671181.tif",
     "pagination":{
      "pgfolios":{
       "section":"2",
       "value":"197b"
      }
     }
    },
    {
     "filename":"I1CZ49671182.tif",
     "pagination":{
      "pgfolios":{
       "section":"2",
       "value":"198a"
      }
     }
    },
    {
     "filename":"I1CZ49671183.tif",
     "pagination":{
      "pgfolios":{
       "section":"2",
       "value":"198b"
      }
     }
    },
    {
     "filename":"I1CZ49671184.tif",
     "pagination":{
      "pgfolios":{
       "section":"2",
       "value":"199a"
      }
     }
    }
   ]
  }
 },
 "viewing-direction":"top-to-bottom"
}