{
 "appData":{
  "bvmt":{
   "default-vol-string-lang":"bo",
   "metadata-for-bvmt-ver":"0.1.0"
  }
 },
 "attribution":[
  {
   "@language":"en",
   "@value":"Data provided by rKTs under the CC0 license"
  }
 ],
 "changes":[
  {
   "message":{
    "@language":"en",
    "@value":"migration from rKTs data"
   },
   "time":"2020-10-03T11:35:30Z",
   "user":"bdu:U1653882847"
  }
 ],
 "default-view":"view1",
 "imggroup":"bdr:I1CZ4942",
 "pagination":[
  {
   "id":"pgfolios",
   "type":"folios"
  }
 ],
 "sections":[
  {
   "id":"1",
   "name":{
    "@language":"bo-x-ewts",
    "@value":"1"
   }
  },
  {
   "id":"2",
   "name":{
    "@language":"bo-x-ewts",
    "@value":"2"
   }
  },
  {
   "id":"3",
   "name":{
    "@language":"bo-x-ewts",
    "@value":"3"
   }
  },
  {
   "id":"4",
   "name":{
    "@language":"bo-x-ewts",
    "@value":"4"
   }
  },
  {
   "id":"5",
   "name":{
    "@language":"bo-x-ewts",
    "@value":"5"
   }
  },
  {
   "id":"6",
   "name":{
    "@language":"bo-x-ewts",
    "@value":"6"
   }
  },
  {
   "id":"7",
   "name":{
    "@language":"bo-x-ewts",
    "@value":"7"
   }
  },
  {
   "id":"8",
   "name":{
    "@language":"bo-x-ewts",
    "@value":"8"
   }
  },
  {
   "id":"9",
   "name":{
    "@language":"bo-x-ewts",
    "@value":"9"
   }
  },
  {
   "id":"10",
   "name":{
    "@language":"bo-x-ewts",
    "@value":"10"
   }
  },
  {
   "id":"11",
   "name":{
    "@language":"bo-x-ewts",
    "@value":"11"
   }
  },
  {
   "id":"12",
   "name":{
    "@language":"bo-x-ewts",
    "@value":"12"
   }
  },
  {
   "id":"13",
   "name":{
    "@language":"bo-x-ewts",
    "@value":"13"
   }
  },
  {
   "id":"14",
   "name":{
    "@language":"bo-x-ewts",
    "@value":"14"
   }
  },
  {
   "id":"15",
   "name":{
    "@language":"bo-x-ewts",
    "@value":"15"
   }
  },
  {
   "id":"17",
   "name":{
    "@language":"bo-x-ewts",
    "@value":"17"
   }
  },
  {
   "id":"18",
   "name":{
    "@language":"bo-x-ewts",
    "@value":"18"
   }
  },
  {
   "id":"19",
   "name":{
    "@language":"bo-x-ewts",
    "@value":"19"
   }
  },
  {
   "id":"20",
   "name":{
    "@language":"bo-x-ewts",
    "@value":"20"
   }
  },
  {
   "id":"21",
   "name":{
    "@language":"bo-x-ewts",
    "@value":"21"
   }
  },
  {
   "id":"22",
   "name":{
    "@language":"bo-x-ewts",
    "@value":"22"
   }
  }
 ],
 "spec-version":"0.1.0",
 "status":"released",
 "view":{
  "view1":{
   "imagelist":[
    {
     "filename":"I1CZ49420001.tif",
     "hidden":true,
     "tags":[
      "T0005"
     ]
    },
    {
     "filename":"I1CZ49420002.tif",
     "hidden":true,
     "tags":[
      "T0005"
     ]
    },
    {
     "filename":"I1CZ49420003.tif",
     "pagination":{
      "pgfolios":{
       "section":"1",
       "value":"1a"
      }
     }
    },
    {
     "filename":"I1CZ49420004.tif",
     "pagination":{
      "pgfolios":{
       "section":"1",
       "value":"1b"
      }
     }
    },
    {
     "filename":"I1CZ49420005.tif",
     "pagination":{
      "pgfolios":{
       "section":"1",
       "value":"2a"
      }
     }
    },
    {
     "filename":"I1CZ49420006.tif",
     "pagination":{
      "pgfolios":{
       "section":"1",
       "value":"2b"
      }
     }
    },
    {
     "filename":"I1CZ49420007.tif",
     "pagination":{
      "pgfolios":{
       "section":"1",
       "value":"3a"
      }
     }
    },
    {
     "filename":"I1CZ49420008.tif",
     "pagination":{
      "pgfolios":{
       "section":"1",
       "value":"3b"
      }
     }
    },
    {
     "filename":"I1CZ49420009.tif",
     "pagination":{
      "pgfolios":{
       "section":"1",
       "value":"4a"
      }
     }
    },
    {
     "filename":"I1CZ49420010.tif",
     "pagination":{
      "pgfolios":{
       "section":"1",
       "value":"4b"
      }
     }
    },
    {
     "filename":"I1CZ49420011.tif",
     "pagination":{
      "pgfolios":{
       "section":"1",
       "value":"5a"
      }
     }
    },
    {
     "filename":"I1CZ49420012.tif",
     "pagination":{
      "pgfolios":{
       "section":"1",
       "value":"5b"
      }
     }
    },
    {
     "filename":"I1CZ49420013.tif",
     "pagination":{
      "pgfolios":{
       "section":"1",
       "value":"6a"
      }
     }
    },
    {
     "filename":"I1CZ49420014.tif",
     "pagination":{
      "pgfolios":{
       "section":"1",
       "value":"6b"
      }
     }
    },
    {
     "filename":"I1CZ49420015.tif",
     "pagination":{
      "pgfolios":{
       "section":"1",
       "value":"7a"
      }
     }
    },
    {
     "filename":"I1CZ49420016.tif",
     "pagination":{
      "pgfolios":{
       "section":"1",
       "value":"7b"
      }
     }
    },
    {
     "filename":"I1CZ49420017.tif",
     "pagination":{
      "pgfolios":{
       "section":"1",
       "value":"8a"
      }
     }
    },
    {
     "filename":"I1CZ49420018.tif",
     "pagination":{
      "pgfolios":{
       "section":"1",
       "value":"8b"
      }
     }
    },
    {
     "filename":"I1CZ49420019.tif",
     "pagination":{
      "pgfolios":{
       "section":"1",
       "value":"9a"
      }
     }
    },
    {
     "filename":"I1CZ49420020.tif",
     "pagination":{
      "pgfolios":{
       "section":"1",
       "value":"9b"
      }
     }
    },
    {
     "filename":"I1CZ49420021.tif",
     "pagination":{
      "pgfolios":{
       "section":"1",
       "value":"10a"
      }
     }
    },
    {
     "filename":"I1CZ49420022.tif",
     "pagination":{
      "pgfolios":{
       "section":"1",
       "value":"10b"
      }
     }
    },
    {
     "filename":"I1CZ49420023.tif",
     "pagination":{
      "pgfolios":{
       "section":"1",
       "value":"11a"
      }
     }
    },
    {
     "filename":"I1CZ49420024.tif",
     "pagination":{
      "pgfolios":{
       "section":"1",
       "value":"11b"
      }
     }
    },
    {
     "filename":"I1CZ49420025.tif",
     "pagination":{
      "pgfolios":{
       "section":"1",
       "value":"12a"
      }
     }
    },
    {
     "filename":"I1CZ49420026.tif",
     "pagination":{
      "pgfolios":{
       "section":"1",
       "value":"12b"
      }
     }
    },
    {
     "filename":"I1CZ49420027.tif",
     "pagination":{
      "pgfolios":{
       "section":"1",
       "value":"13a"
      }
     }
    },
    {
     "filename":"I1CZ49420028.tif",
     "pagination":{
      "pgfolios":{
       "section":"1",
       "value":"13b"
      }
     }
    },
    {
     "filename":"I1CZ49420029.tif",
     "pagination":{
      "pgfolios":{
       "section":"1",
       "value":"14a"
      }
     }
    },
    {
     "filename":"I1CZ49420030.tif",
     "pagination":{
      "pgfolios":{
       "section":"1",
       "value":"14b"
      }
     }
    },
    {
     "filename":"I1CZ49420031.tif",
     "pagination":{
      "pgfolios":{
       "section":"2",
       "value":"1a"
      }
     }
    },
    {
     "filename":"I1CZ49420032.tif",
     "pagination":{
      "pgfolios":{
       "section":"2",
       "value":"1b"
      }
     }
    },
    {
     "filename":"I1CZ49420033.tif",
     "pagination":{
      "pgfolios":{
       "section":"2",
       "value":"2a"
      }
     }
    },
    {
     "filename":"I1CZ49420034.tif",
     "pagination":{
      "pgfolios":{
       "section":"2",
       "value":"2b"
      }
     }
    },
    {
     "filename":"I1CZ49420035.tif",
     "pagination":{
      "pgfolios":{
       "section":"2",
       "value":"3a"
      }
     }
    },
    {
     "filename":"I1CZ49420036.tif",
     "pagination":{
      "pgfolios":{
       "section":"2",
       "value":"3b"
      }
     }
    },
    {
     "filename":"I1CZ49420037.tif",
     "pagination":{
      "pgfolios":{
       "section":"2",
       "value":"4a"
      }
     }
    },
    {
     "filename":"I1CZ49420038.tif",
     "pagination":{
      "pgfolios":{
       "section":"2",
       "value":"4b"
      }
     }
    },
    {
     "filename":"I1CZ49420039.tif",
     "pagination":{
      "pgfolios":{
       "section":"2",
       "value":"5a"
      }
     }
    },
    {
     "filename":"I1CZ49420040.tif",
     "pagination":{
      "pgfolios":{
       "section":"2",
       "value":"5b"
      }
     }
    },
    {
     "filename":"I1CZ49420041.tif",
     "pagination":{
      "pgfolios":{
       "section":"2",
       "value":"6a"
      }
     }
    },
    {
     "filename":"I1CZ49420042.tif",
     "pagination":{
      "pgfolios":{
       "section":"2",
       "value":"6b"
      }
     }
    },
    {
     "filename":"I1CZ49420043.tif",
     "pagination":{
      "pgfolios":{
       "section":"2",
       "value":"7a"
      }
     }
    },
    {
     "filename":"I1CZ49420044.tif",
     "pagination":{
      "pgfolios":{
       "section":"2",
       "value":"7b"
      }
     }
    },
    {
     "filename":"I1CZ49420045.tif",
     "pagination":{
      "pgfolios":{
       "section":"2",
       "value":"8a"
      }
     }
    },
    {
     "filename":"I1CZ49420046.tif",
     "pagination":{
      "pgfolios":{
       "section":"2",
       "value":"8b"
      }
     }
    },
    {
     "filename":"I1CZ49420047.tif",
     "pagination":{
      "pgfolios":{
       "section":"3",
       "value":"1a"
      }
     }
    },
    {
     "filename":"I1CZ49420048.tif",
     "pagination":{
      "pgfolios":{
       "section":"3",
       "value":"1b"
      }
     }
    },
    {
     "filename":"I1CZ49420049.tif",
     "pagination":{
      "pgfolios":{
       "section":"3",
       "value":"2a"
      }
     }
    },
    {
     "filename":"I1CZ49420050.tif",
     "pagination":{
      "pgfolios":{
       "section":"3",
       "value":"2b"
      }
     }
    },
    {
     "filename":"I1CZ49420051.tif",
     "pagination":{
      "pgfolios":{
       "section":"3",
       "value":"3a"
      }
     }
    },
    {
     "filename":"I1CZ49420052.tif",
     "pagination":{
      "pgfolios":{
       "section":"3",
       "value":"3b"
      }
     }
    },
    {
     "filename":"I1CZ49420053.tif",
     "pagination":{
      "pgfolios":{
       "section":"3",
       "value":"4a"
      }
     }
    },
    {
     "filename":"I1CZ49420054.tif",
     "pagination":{
      "pgfolios":{
       "section":"3",
       "value":"4b"
      }
     }
    },
    {
     "filename":"I1CZ49420055.tif",
     "pagination":{
      "pgfolios":{
       "section":"3",
       "value":"5a"
      }
     }
    },
    {
     "filename":"I1CZ49420056.tif",
     "pagination":{
      "pgfolios":{
       "section":"3",
       "value":"5b"
      }
     }
    },
    {
     "filename":"I1CZ49420057.tif",
     "pagination":{
      "pgfolios":{
       "section":"3",
       "value":"6a"
      }
     }
    },
    {
     "filename":"I1CZ49420058.tif",
     "pagination":{
      "pgfolios":{
       "section":"3",
       "value":"6b"
      }
     }
    },
    {
     "filename":"I1CZ49420059.tif",
     "pagination":{
      "pgfolios":{
       "section":"3",
       "value":"7a"
      }
     }
    },
    {
     "filename":"I1CZ49420060.tif",
     "pagination":{
      "pgfolios":{
       "section":"3",
       "value":"7b"
      }
     }
    },
    {
     "filename":"I1CZ49420061.tif",
     "pagination":{
      "pgfolios":{
       "section":"3",
       "value":"8a"
      }
     }
    },
    {
     "filename":"I1CZ49420062.tif",
     "pagination":{
      "pgfolios":{
       "section":"3",
       "value":"8b"
      }
     }
    },
    {
     "filename":"I1CZ49420063.tif",
     "pagination":{
      "pgfolios":{
       "section":"4",
       "value":"1a"
      }
     }
    },
    {
     "filename":"I1CZ49420064.tif",
     "pagination":{
      "pgfolios":{
       "section":"4",
       "value":"1b"
      }
     }
    },
    {
     "filename":"I1CZ49420065.tif",
     "pagination":{
      "pgfolios":{
       "section":"4",
       "value":"2a"
      }
     }
    },
    {
     "filename":"I1CZ49420066.tif",
     "pagination":{
      "pgfolios":{
       "section":"4",
       "value":"2b"
      }
     }
    },
    {
     "filename":"I1CZ49420067.tif",
     "pagination":{
      "pgfolios":{
       "section":"4",
       "value":"3a"
      }
     }
    },
    {
     "filename":"I1CZ49420068.tif",
     "pagination":{
      "pgfolios":{
       "section":"4",
       "value":"3b"
      }
     }
    },
    {
     "filename":"I1CZ49420069.tif",
     "pagination":{
      "pgfolios":{
       "section":"4",
       "value":"4a"
      }
     }
    },
    {
     "filename":"I1CZ49420070.tif",
     "pagination":{
      "pgfolios":{
       "section":"4",
       "value":"4b"
      }
     }
    },
    {
     "filename":"I1CZ49420071.tif",
     "pagination":{
      "pgfolios":{
       "section":"4",
       "value":"5a"
      }
     }
    },
    {
     "filename":"I1CZ49420072.tif",
     "pagination":{
      "pgfolios":{
       "section":"4",
       "value":"5b"
      }
     }
    },
    {
     "filename":"I1CZ49420073.tif",
     "pagination":{
      "pgfolios":{
       "section":"4",
       "value":"6a"
      }
     }
    },
    {
     "filename":"I1CZ49420074.tif",
     "pagination":{
      "pgfolios":{
       "section":"4",
       "value":"6b"
      }
     }
    },
    {
     "filename":"I1CZ49420075.tif",
     "pagination":{
      "pgfolios":{
       "section":"4",
       "value":"7a"
      }
     }
    },
    {
     "filename":"I1CZ49420076.tif",
     "pagination":{
      "pgfolios":{
       "section":"4",
       "value":"7b"
      }
     }
    },
    {
     "filename":"I1CZ49420077.tif",
     "pagination":{
      "pgfolios":{
       "section":"4",
       "value":"8a"
      }
     }
    },
    {
     "filename":"I1CZ49420078.tif",
     "pagination":{
      "pgfolios":{
       "section":"4",
       "value":"8b"
      }
     }
    },
    {
     "filename":"I1CZ49420079.tif",
     "pagination":{
      "pgfolios":{
       "section":"4",
       "value":"9a"
      }
     }
    },
    {
     "filename":"I1CZ49420080.tif",
     "pagination":{
      "pgfolios":{
       "section":"4",
       "value":"9b"
      }
     }
    },
    {
     "filename":"I1CZ49420081.tif",
     "pagination":{
      "pgfolios":{
       "section":"5",
       "value":"1a"
      }
     }
    },
    {
     "filename":"I1CZ49420082.tif",
     "pagination":{
      "pgfolios":{
       "section":"5",
       "value":"1b"
      }
     }
    },
    {
     "filename":"I1CZ49420083.tif",
     "pagination":{
      "pgfolios":{
       "section":"5",
       "value":"2a"
      }
     }
    },
    {
     "filename":"I1CZ49420084.tif",
     "pagination":{
      "pgfolios":{
       "section":"5",
       "value":"2b"
      }
     }
    },
    {
     "filename":"I1CZ49420085.tif",
     "pagination":{
      "pgfolios":{
       "section":"5",
       "value":"3a"
      }
     }
    },
    {
     "filename":"I1CZ49420086.tif",
     "pagination":{
      "pgfolios":{
       "section":"5",
       "value":"3b"
      }
     }
    },
    {
     "filename":"I1CZ49420087.tif",
     "pagination":{
      "pgfolios":{
       "section":"5",
       "value":"4a"
      }
     }
    },
    {
     "filename":"I1CZ49420088.tif",
     "pagination":{
      "pgfolios":{
       "section":"5",
       "value":"4b"
      }
     }
    },
    {
     "filename":"I1CZ49420089.tif",
     "pagination":{
      "pgfolios":{
       "section":"5",
       "value":"5a"
      }
     }
    },
    {
     "filename":"I1CZ49420090.tif",
     "pagination":{
      "pgfolios":{
       "section":"5",
       "value":"5b"
      }
     }
    },
    {
     "filename":"I1CZ49420091.tif",
     "pagination":{
      "pgfolios":{
       "section":"5",
       "value":"6a"
      }
     }
    },
    {
     "filename":"I1CZ49420092.tif",
     "pagination":{
      "pgfolios":{
       "section":"5",
       "value":"6b"
      }
     }
    },
    {
     "filename":"I1CZ49420093.tif",
     "pagination":{
      "pgfolios":{
       "section":"5",
       "value":"7a"
      }
     }
    },
    {
     "filename":"I1CZ49420094.tif",
     "pagination":{
      "pgfolios":{
       "section":"5",
       "value":"7b"
      }
     }
    },
    {
     "filename":"I1CZ49420095.tif",
     "pagination":{
      "pgfolios":{
       "section":"5",
       "value":"8a"
      }
     }
    },
    {
     "filename":"I1CZ49420096.tif",
     "pagination":{
      "pgfolios":{
       "section":"5",
       "value":"8b"
      }
     }
    },
    {
     "filename":"I1CZ49420097.tif",
     "pagination":{
      "pgfolios":{
       "section":"5",
       "value":"9a"
      }
     }
    },
    {
     "filename":"I1CZ49420098.tif",
     "pagination":{
      "pgfolios":{
       "section":"5",
       "value":"9b"
      }
     }
    },
    {
     "filename":"I1CZ49420099.tif",
     "pagination":{
      "pgfolios":{
       "section":"6",
       "value":"1a"
      }
     }
    },
    {
     "filename":"I1CZ49420100.tif",
     "pagination":{
      "pgfolios":{
       "section":"6",
       "value":"1b"
      }
     }
    },
    {
     "filename":"I1CZ49420101.tif",
     "pagination":{
      "pgfolios":{
       "section":"6",
       "value":"2a"
      }
     }
    },
    {
     "filename":"I1CZ49420102.tif",
     "pagination":{
      "pgfolios":{
       "section":"6",
       "value":"2b"
      }
     }
    },
    {
     "filename":"I1CZ49420103.tif",
     "pagination":{
      "pgfolios":{
       "section":"6",
       "value":"3a"
      }
     }
    },
    {
     "filename":"I1CZ49420104.tif",
     "pagination":{
      "pgfolios":{
       "section":"6",
       "value":"3b"
      }
     }
    },
    {
     "filename":"I1CZ49420105.tif",
     "pagination":{
      "pgfolios":{
       "section":"6",
       "value":"4a"
      }
     }
    },
    {
     "filename":"I1CZ49420106.tif",
     "pagination":{
      "pgfolios":{
       "section":"6",
       "value":"4b"
      }
     }
    },
    {
     "filename":"I1CZ49420107.tif",
     "pagination":{
      "pgfolios":{
       "section":"6",
       "value":"5a"
      }
     }
    },
    {
     "filename":"I1CZ49420108.tif",
     "pagination":{
      "pgfolios":{
       "section":"6",
       "value":"5b"
      }
     }
    },
    {
     "filename":"I1CZ49420109.tif",
     "pagination":{
      "pgfolios":{
       "section":"6",
       "value":"6a"
      }
     }
    },
    {
     "filename":"I1CZ49420110.tif",
     "pagination":{
      "pgfolios":{
       "section":"6",
       "value":"6b"
      }
     }
    },
    {
     "filename":"I1CZ49420111.tif",
     "pagination":{
      "pgfolios":{
       "section":"6",
       "value":"7a"
      }
     }
    },
    {
     "filename":"I1CZ49420112.tif",
     "pagination":{
      "pgfolios":{
       "section":"6",
       "value":"7b"
      }
     }
    },
    {
     "filename":"I1CZ49420113.tif",
     "pagination":{
      "pgfolios":{
       "section":"6",
       "value":"8a"
      }
     }
    },
    {
     "filename":"I1CZ49420114.tif",
     "pagination":{
      "pgfolios":{
       "section":"6",
       "value":"8b"
      }
     }
    },
    {
     "filename":"I1CZ49420115.tif",
     "pagination":{
      "pgfolios":{
       "section":"6",
       "value":"9a"
      }
     }
    },
    {
     "filename":"I1CZ49420116.tif",
     "pagination":{
      "pgfolios":{
       "section":"6",
       "value":"9b"
      }
     }
    },
    {
     "filename":"I1CZ49420117.tif",
     "pagination":{
      "pgfolios":{
       "section":"6",
       "value":"10a"
      }
     }
    },
    {
     "filename":"I1CZ49420118.tif",
     "pagination":{
      "pgfolios":{
       "section":"6",
       "value":"10b"
      }
     }
    },
    {
     "filename":"I1CZ49420119.tif",
     "pagination":{
      "pgfolios":{
       "section":"6",
       "value":"11a"
      }
     }
    },
    {
     "filename":"I1CZ49420120.tif",
     "pagination":{
      "pgfolios":{
       "section":"6",
       "value":"11b"
      }
     }
    },
    {
     "filename":"I1CZ49420121.tif",
     "pagination":{
      "pgfolios":{
       "section":"6",
       "value":"12a"
      }
     }
    },
    {
     "filename":"I1CZ49420122.tif",
     "pagination":{
      "pgfolios":{
       "section":"6",
       "value":"12b"
      }
     }
    },
    {
     "filename":"I1CZ49420123.tif",
     "pagination":{
      "pgfolios":{
       "section":"6",
       "value":"13a"
      }
     }
    },
    {
     "filename":"I1CZ49420124.tif",
     "pagination":{
      "pgfolios":{
       "section":"6",
       "value":"13b"
      }
     }
    },
    {
     "filename":"I1CZ49420125.tif",
     "pagination":{
      "pgfolios":{
       "section":"6",
       "value":"14a"
      }
     }
    },
    {
     "filename":"I1CZ49420126.tif",
     "pagination":{
      "pgfolios":{
       "section":"6",
       "value":"14b"
      }
     }
    },
    {
     "filename":"I1CZ49420127.tif",
     "pagination":{
      "pgfolios":{
       "section":"6",
       "value":"15a"
      }
     }
    },
    {
     "filename":"I1CZ49420128.tif",
     "pagination":{
      "pgfolios":{
       "section":"6",
       "value":"15b"
      }
     }
    },
    {
     "filename":"I1CZ49420129.tif",
     "pagination":{
      "pgfolios":{
       "section":"6",
       "value":"16a"
      }
     }
    },
    {
     "filename":"I1CZ49420130.tif",
     "pagination":{
      "pgfolios":{
       "section":"6",
       "value":"16b"
      }
     }
    },
    {
     "filename":"I1CZ49420131.tif",
     "pagination":{
      "pgfolios":{
       "section":"6",
       "value":"17a"
      }
     }
    },
    {
     "filename":"I1CZ49420132.tif",
     "pagination":{
      "pgfolios":{
       "section":"6",
       "value":"17b"
      }
     }
    },
    {
     "filename":"I1CZ49420133.tif",
     "pagination":{
      "pgfolios":{
       "section":"6",
       "value":"18a"
      }
     }
    },
    {
     "filename":"I1CZ49420134.tif",
     "pagination":{
      "pgfolios":{
       "section":"6",
       "value":"18b"
      }
     }
    },
    {
     "filename":"I1CZ49420135.tif",
     "pagination":{
      "pgfolios":{
       "section":"6",
       "value":"19a"
      }
     }
    },
    {
     "filename":"I1CZ49420136.tif",
     "pagination":{
      "pgfolios":{
       "section":"6",
       "value":"19b"
      }
     }
    },
    {
     "filename":"I1CZ49420137.tif",
     "pagination":{
      "pgfolios":{
       "section":"6",
       "value":"20a"
      }
     }
    },
    {
     "filename":"I1CZ49420138.tif",
     "pagination":{
      "pgfolios":{
       "section":"6",
       "value":"20b"
      }
     }
    },
    {
     "filename":"I1CZ49420139.tif",
     "pagination":{
      "pgfolios":{
       "section":"6",
       "value":"21a"
      }
     }
    },
    {
     "filename":"I1CZ49420140.tif",
     "pagination":{
      "pgfolios":{
       "section":"6",
       "value":"21b"
      }
     }
    },
    {
     "filename":"I1CZ49420141.tif",
     "pagination":{
      "pgfolios":{
       "section":"6",
       "value":"22a"
      }
     }
    },
    {
     "filename":"I1CZ49420142.tif",
     "pagination":{
      "pgfolios":{
       "section":"6",
       "value":"22b"
      }
     }
    },
    {
     "filename":"I1CZ49420143.tif",
     "pagination":{
      "pgfolios":{
       "section":"6",
       "value":"23a"
      }
     }
    },
    {
     "filename":"I1CZ49420144.tif",
     "pagination":{
      "pgfolios":{
       "section":"6",
       "value":"23b"
      }
     }
    },
    {
     "filename":"I1CZ49420145.tif",
     "pagination":{
      "pgfolios":{
       "section":"6",
       "value":"24a"
      }
     }
    },
    {
     "filename":"I1CZ49420146.tif",
     "pagination":{
      "pgfolios":{
       "section":"6",
       "value":"24b"
      }
     }
    },
    {
     "filename":"I1CZ49420147.tif",
     "pagination":{
      "pgfolios":{
       "section":"6",
       "value":"25a"
      }
     }
    },
    {
     "filename":"I1CZ49420148.tif",
     "pagination":{
      "pgfolios":{
       "section":"6",
       "value":"25b"
      }
     }
    },
    {
     "filename":"I1CZ49420149.tif",
     "pagination":{
      "pgfolios":{
       "section":"6",
       "value":"26a"
      }
     }
    },
    {
     "filename":"I1CZ49420150.tif",
     "pagination":{
      "pgfolios":{
       "section":"6",
       "value":"26b"
      }
     }
    },
    {
     "filename":"I1CZ49420151.tif",
     "pagination":{
      "pgfolios":{
       "section":"6",
       "value":"27a"
      }
     }
    },
    {
     "filename":"I1CZ49420152.tif",
     "pagination":{
      "pgfolios":{
       "section":"6",
       "value":"27b"
      }
     }
    },
    {
     "filename":"I1CZ49420153.tif",
     "pagination":{
      "pgfolios":{
       "section":"7",
       "value":"1a"
      }
     }
    },
    {
     "filename":"I1CZ49420154.tif",
     "pagination":{
      "pgfolios":{
       "section":"7",
       "value":"1b"
      }
     }
    },
    {
     "filename":"I1CZ49420155.tif",
     "pagination":{
      "pgfolios":{
       "section":"7",
       "value":"2a"
      }
     }
    },
    {
     "filename":"I1CZ49420156.tif",
     "pagination":{
      "pgfolios":{
       "section":"7",
       "value":"2b"
      }
     }
    },
    {
     "filename":"I1CZ49420157.tif",
     "pagination":{
      "pgfolios":{
       "section":"8",
       "value":"1a"
      }
     }
    },
    {
     "filename":"I1CZ49420158.tif",
     "pagination":{
      "pgfolios":{
       "section":"8",
       "value":"1b"
      }
     }
    },
    {
     "filename":"I1CZ49420159.tif",
     "pagination":{
      "pgfolios":{
       "section":"8",
       "value":"2a"
      }
     }
    },
    {
     "filename":"I1CZ49420160.tif",
     "pagination":{
      "pgfolios":{
       "section":"8",
       "value":"2b"
      }
     }
    },
    {
     "filename":"I1CZ49420161.tif",
     "pagination":{
      "pgfolios":{
       "section":"8",
       "value":"3a"
      }
     }
    },
    {
     "filename":"I1CZ49420162.tif",
     "pagination":{
      "pgfolios":{
       "section":"8",
       "value":"3b"
      }
     }
    },
    {
     "filename":"I1CZ49420163.tif",
     "pagination":{
      "pgfolios":{
       "section":"8",
       "value":"4a"
      }
     }
    },
    {
     "filename":"I1CZ49420164.tif",
     "pagination":{
      "pgfolios":{
       "section":"8",
       "value":"4b"
      }
     }
    },
    {
     "filename":"I1CZ49420165.tif",
     "pagination":{
      "pgfolios":{
       "section":"8",
       "value":"5a"
      }
     }
    },
    {
     "filename":"I1CZ49420166.tif",
     "pagination":{
      "pgfolios":{
       "section":"8",
       "value":"5b"
      }
     }
    },
    {
     "filename":"I1CZ49420167.tif",
     "pagination":{
      "pgfolios":{
       "section":"8",
       "value":"6a"
      }
     }
    },
    {
     "filename":"I1CZ49420168.tif",
     "pagination":{
      "pgfolios":{
       "section":"8",
       "value":"6b"
      }
     }
    },
    {
     "filename":"I1CZ49420169.tif",
     "pagination":{
      "pgfolios":{
       "section":"8",
       "value":"7a"
      }
     }
    },
    {
     "filename":"I1CZ49420170.tif",
     "pagination":{
      "pgfolios":{
       "section":"8",
       "value":"7b"
      }
     }
    },
    {
     "filename":"I1CZ49420171.tif",
     "pagination":{
      "pgfolios":{
       "section":"8",
       "value":"8a"
      }
     }
    },
    {
     "filename":"I1CZ49420172.tif",
     "pagination":{
      "pgfolios":{
       "section":"8",
       "value":"8b"
      }
     }
    },
    {
     "filename":"I1CZ49420173.tif",
     "pagination":{
      "pgfolios":{
       "section":"8",
       "value":"9a"
      }
     }
    },
    {
     "filename":"I1CZ49420174.tif",
     "pagination":{
      "pgfolios":{
       "section":"8",
       "value":"9b"
      }
     }
    },
    {
     "filename":"I1CZ49420175.tif",
     "pagination":{
      "pgfolios":{
       "section":"8",
       "value":"10a"
      }
     }
    },
    {
     "filename":"I1CZ49420176.tif",
     "pagination":{
      "pgfolios":{
       "section":"8",
       "value":"10b"
      }
     }
    },
    {
     "filename":"I1CZ49420177.tif",
     "pagination":{
      "pgfolios":{
       "section":"8",
       "value":"11a"
      }
     }
    },
    {
     "filename":"I1CZ49420178.tif",
     "pagination":{
      "pgfolios":{
       "section":"8",
       "value":"11b"
      }
     }
    },
    {
     "filename":"I1CZ49420179.tif",
     "pagination":{
      "pgfolios":{
       "section":"8",
       "value":"12a"
      }
     }
    },
    {
     "filename":"I1CZ49420180.tif",
     "pagination":{
      "pgfolios":{
       "section":"8",
       "value":"12b"
      }
     }
    },
    {
     "filename":"I1CZ49420181.tif",
     "pagination":{
      "pgfolios":{
       "section":"9",
       "value":"1a"
      }
     }
    },
    {
     "filename":"I1CZ49420182.tif",
     "pagination":{
      "pgfolios":{
       "section":"9",
       "value":"1b"
      }
     }
    },
    {
     "filename":"I1CZ49420183.tif",
     "pagination":{
      "pgfolios":{
       "section":"9",
       "value":"2a"
      }
     }
    },
    {
     "filename":"I1CZ49420184.tif",
     "pagination":{
      "pgfolios":{
       "section":"9",
       "value":"2b"
      }
     }
    },
    {
     "filename":"I1CZ49420185.tif",
     "pagination":{
      "pgfolios":{
       "section":"9",
       "value":"3a"
      }
     }
    },
    {
     "filename":"I1CZ49420186.tif",
     "pagination":{
      "pgfolios":{
       "section":"9",
       "value":"3b"
      }
     }
    },
    {
     "filename":"I1CZ49420187.tif",
     "pagination":{
      "pgfolios":{
       "section":"9",
       "value":"4a"
      }
     }
    },
    {
     "filename":"I1CZ49420188.tif",
     "pagination":{
      "pgfolios":{
       "section":"9",
       "value":"4b"
      }
     }
    },
    {
     "filename":"I1CZ49420189.tif",
     "pagination":{
      "pgfolios":{
       "section":"9",
       "value":"5a"
      }
     }
    },
    {
     "filename":"I1CZ49420190.tif",
     "pagination":{
      "pgfolios":{
       "section":"9",
       "value":"5b"
      }
     }
    },
    {
     "filename":"I1CZ49420191.tif",
     "pagination":{
      "pgfolios":{
       "section":"9",
       "value":"6a"
      }
     }
    },
    {
     "filename":"I1CZ49420192.tif",
     "pagination":{
      "pgfolios":{
       "section":"9",
       "value":"6b"
      }
     }
    },
    {
     "filename":"I1CZ49420193.tif",
     "pagination":{
      "pgfolios":{
       "section":"9",
       "value":"7a"
      }
     }
    },
    {
     "filename":"I1CZ49420194.tif",
     "pagination":{
      "pgfolios":{
       "section":"9",
       "value":"7b"
      }
     }
    },
    {
     "filename":"I1CZ49420195.tif",
     "pagination":{
      "pgfolios":{
       "section":"9",
       "value":"8a"
      }
     }
    },
    {
     "filename":"I1CZ49420196.tif",
     "pagination":{
      "pgfolios":{
       "section":"9",
       "value":"8b"
      }
     }
    },
    {
     "filename":"I1CZ49420197.tif",
     "pagination":{
      "pgfolios":{
       "section":"9",
       "value":"9a"
      }
     }
    },
    {
     "filename":"I1CZ49420198.tif",
     "pagination":{
      "pgfolios":{
       "section":"9",
       "value":"9b"
      }
     }
    },
    {
     "filename":"I1CZ49420199.tif",
     "pagination":{
      "pgfolios":{
       "section":"10",
       "value":"1a"
      }
     }
    },
    {
     "filename":"I1CZ49420200.tif",
     "pagination":{
      "pgfolios":{
       "section":"10",
       "value":"1b"
      }
     }
    },
    {
     "filename":"I1CZ49420201.tif",
     "pagination":{
      "pgfolios":{
       "section":"10",
       "value":"2a"
      }
     }
    },
    {
     "filename":"I1CZ49420202.tif",
     "pagination":{
      "pgfolios":{
       "section":"10",
       "value":"2b"
      }
     }
    },
    {
     "filename":"I1CZ49420203.tif",
     "pagination":{
      "pgfolios":{
       "section":"10",
       "value":"3a"
      }
     }
    },
    {
     "filename":"I1CZ49420204.tif",
     "pagination":{
      "pgfolios":{
       "section":"10",
       "value":"3b"
      }
     }
    },
    {
     "filename":"I1CZ49420205.tif",
     "pagination":{
      "pgfolios":{
       "section":"10",
       "value":"4a"
      }
     }
    },
    {
     "filename":"I1CZ49420206.tif",
     "pagination":{
      "pgfolios":{
       "section":"10",
       "value":"4b"
      }
     }
    },
    {
     "filename":"I1CZ49420207.tif",
     "pagination":{
      "pgfolios":{
       "section":"10",
       "value":"5a"
      }
     }
    },
    {
     "filename":"I1CZ49420208.tif",
     "pagination":{
      "pgfolios":{
       "section":"10",
       "value":"5b"
      }
     }
    },
    {
     "filename":"I1CZ49420209.tif",
     "pagination":{
      "pgfolios":{
       "section":"10",
       "value":"6a"
      }
     }
    },
    {
     "filename":"I1CZ49420210.tif",
     "pagination":{
      "pgfolios":{
       "section":"10",
       "value":"6b"
      }
     }
    },
    {
     "filename":"I1CZ49420211.tif",
     "pagination":{
      "pgfolios":{
       "section":"10",
       "value":"7a"
      }
     }
    },
    {
     "filename":"I1CZ49420212.tif",
     "pagination":{
      "pgfolios":{
       "section":"10",
       "value":"7b"
      }
     }
    },
    {
     "filename":"I1CZ49420213.tif",
     "pagination":{
      "pgfolios":{
       "section":"10",
       "value":"8a"
      }
     }
    },
    {
     "filename":"I1CZ49420214.tif",
     "pagination":{
      "pgfolios":{
       "section":"10",
       "value":"8b"
      }
     }
    },
    {
     "filename":"I1CZ49420215.tif",
     "pagination":{
      "pgfolios":{
       "section":"10",
       "value":"9a"
      }
     }
    },
    {
     "filename":"I1CZ49420216.tif",
     "pagination":{
      "pgfolios":{
       "section":"10",
       "value":"9b"
      }
     }
    },
    {
     "filename":"I1CZ49420217.tif",
     "pagination":{
      "pgfolios":{
       "section":"10",
       "value":"10a"
      }
     }
    },
    {
     "filename":"I1CZ49420218.tif",
     "pagination":{
      "pgfolios":{
       "section":"10",
       "value":"10b"
      }
     }
    },
    {
     "filename":"I1CZ49420219.tif",
     "pagination":{
      "pgfolios":{
       "section":"10",
       "value":"11a"
      }
     }
    },
    {
     "filename":"I1CZ49420220.tif",
     "pagination":{
      "pgfolios":{
       "section":"10",
       "value":"11b"
      }
     }
    },
    {
     "filename":"I1CZ49420221.tif",
     "pagination":{
      "pgfolios":{
       "section":"10",
       "value":"12a"
      }
     }
    },
    {
     "filename":"I1CZ49420222.tif",
     "pagination":{
      "pgfolios":{
       "section":"10",
       "value":"12b"
      }
     }
    },
    {
     "filename":"I1CZ49420223.tif",
     "pagination":{
      "pgfolios":{
       "section":"10",
       "value":"13a"
      }
     }
    },
    {
     "filename":"I1CZ49420224.tif",
     "pagination":{
      "pgfolios":{
       "section":"10",
       "value":"13b"
      }
     }
    },
    {
     "filename":"I1CZ49420225.tif",
     "pagination":{
      "pgfolios":{
       "section":"10",
       "value":"14a"
      }
     }
    },
    {
     "filename":"I1CZ49420226.tif",
     "pagination":{
      "pgfolios":{
       "section":"10",
       "value":"14b"
      }
     }
    },
    {
     "filename":"I1CZ49420227.tif",
     "pagination":{
      "pgfolios":{
       "section":"10",
       "value":"15a"
      }
     }
    },
    {
     "filename":"I1CZ49420228.tif",
     "pagination":{
      "pgfolios":{
       "section":"10",
       "value":"15b"
      }
     }
    },
    {
     "filename":"I1CZ49420229.tif",
     "pagination":{
      "pgfolios":{
       "section":"10",
       "value":"16a"
      }
     }
    },
    {
     "filename":"I1CZ49420230.tif",
     "pagination":{
      "pgfolios":{
       "section":"10",
       "value":"16b"
      }
     }
    },
    {
     "filename":"I1CZ49420231.tif",
     "pagination":{
      "pgfolios":{
       "section":"10",
       "value":"17a"
      }
     }
    },
    {
     "filename":"I1CZ49420232.tif",
     "pagination":{
      "pgfolios":{
       "section":"10",
       "value":"17b"
      }
     }
    },
    {
     "filename":"I1CZ49420233.tif",
     "pagination":{
      "pgfolios":{
       "section":"10",
       "value":"18a"
      }
     }
    },
    {
     "filename":"I1CZ49420234.tif",
     "pagination":{
      "pgfolios":{
       "section":"10",
       "value":"18b"
      }
     }
    },
    {
     "filename":"I1CZ49420235.tif",
     "pagination":{
      "pgfolios":{
       "section":"10",
       "value":"19a"
      }
     }
    },
    {
     "filename":"I1CZ49420236.tif",
     "pagination":{
      "pgfolios":{
       "section":"10",
       "value":"19b"
      }
     }
    },
    {
     "filename":"I1CZ49420237.tif",
     "pagination":{
      "pgfolios":{
       "section":"10",
       "value":"20a"
      }
     }
    },
    {
     "filename":"I1CZ49420238.tif",
     "pagination":{
      "pgfolios":{
       "section":"10",
       "value":"20b"
      }
     }
    },
    {
     "filename":"I1CZ49420239.tif",
     "pagination":{
      "pgfolios":{
       "section":"10",
       "value":"21a"
      }
     }
    },
    {
     "filename":"I1CZ49420240.tif",
     "pagination":{
      "pgfolios":{
       "section":"10",
       "value":"21b"
      }
     }
    },
    {
     "filename":"I1CZ49420241.tif",
     "pagination":{
      "pgfolios":{
       "section":"10",
       "value":"22a"
      }
     }
    },
    {
     "filename":"I1CZ49420242.tif",
     "pagination":{
      "pgfolios":{
       "section":"10",
       "value":"22b"
      }
     }
    },
    {
     "filename":"I1CZ49420243.tif",
     "pagination":{
      "pgfolios":{
       "section":"10",
       "value":"23a"
      }
     }
    },
    {
     "filename":"I1CZ49420244.tif",
     "pagination":{
      "pgfolios":{
       "section":"10",
       "value":"23b"
      }
     }
    },
    {
     "filename":"I1CZ49420245.tif",
     "pagination":{
      "pgfolios":{
       "section":"10",
       "value":"24a"
      }
     }
    },
    {
     "filename":"I1CZ49420246.tif",
     "pagination":{
      "pgfolios":{
       "section":"10",
       "value":"24b"
      }
     }
    },
    {
     "filename":"I1CZ49420247.tif",
     "pagination":{
      "pgfolios":{
       "section":"10",
       "value":"25a"
      }
     }
    },
    {
     "filename":"I1CZ49420248.tif",
     "pagination":{
      "pgfolios":{
       "section":"10",
       "value":"25b"
      }
     }
    },
    {
     "filename":"I1CZ49420249.tif",
     "pagination":{
      "pgfolios":{
       "section":"10",
       "value":"26a"
      }
     }
    },
    {
     "filename":"I1CZ49420250.tif",
     "pagination":{
      "pgfolios":{
       "section":"10",
       "value":"26b"
      }
     }
    },
    {
     "filename":"I1CZ49420251.tif",
     "pagination":{
      "pgfolios":{
       "section":"10",
       "value":"27a"
      }
     }
    },
    {
     "filename":"I1CZ49420252.tif",
     "pagination":{
      "pgfolios":{
       "section":"10",
       "value":"27b"
      }
     }
    },
    {
     "filename":"I1CZ49420253.tif",
     "pagination":{
      "pgfolios":{
       "section":"10",
       "value":"28a"
      }
     }
    },
    {
     "filename":"I1CZ49420254.tif",
     "pagination":{
      "pgfolios":{
       "section":"10",
       "value":"28b"
      }
     }
    },
    {
     "filename":"I1CZ49420255.tif",
     "pagination":{
      "pgfolios":{
       "section":"10",
       "value":"29a"
      }
     }
    },
    {
     "filename":"I1CZ49420256.tif",
     "pagination":{
      "pgfolios":{
       "section":"10",
       "value":"29b"
      }
     }
    },
    {
     "filename":"I1CZ49420257.tif",
     "pagination":{
      "pgfolios":{
       "section":"10",
       "value":"30a"
      }
     }
    },
    {
     "filename":"I1CZ49420258.tif",
     "pagination":{
      "pgfolios":{
       "section":"10",
       "value":"30b"
      }
     }
    },
    {
     "filename":"I1CZ49420259.tif",
     "pagination":{
      "pgfolios":{
       "section":"10",
       "value":"31a"
      }
     }
    },
    {
     "filename":"I1CZ49420260.tif",
     "pagination":{
      "pgfolios":{
       "section":"10",
       "value":"31b"
      }
     }
    },
    {
     "filename":"I1CZ49420261.tif",
     "pagination":{
      "pgfolios":{
       "section":"11",
       "value":"1a"
      }
     }
    },
    {
     "filename":"I1CZ49420262.tif",
     "pagination":{
      "pgfolios":{
       "section":"11",
       "value":"1b"
      }
     }
    },
    {
     "filename":"I1CZ49420263.tif",
     "pagination":{
      "pgfolios":{
       "section":"11",
       "value":"2a"
      }
     }
    },
    {
     "filename":"I1CZ49420264.tif",
     "pagination":{
      "pgfolios":{
       "section":"11",
       "value":"2b"
      }
     }
    },
    {
     "filename":"I1CZ49420265.tif",
     "pagination":{
      "pgfolios":{
       "section":"11",
       "value":"3a"
      }
     }
    },
    {
     "filename":"I1CZ49420266.tif",
     "pagination":{
      "pgfolios":{
       "section":"11",
       "value":"3b"
      }
     }
    },
    {
     "filename":"I1CZ49420267.tif",
     "pagination":{
      "pgfolios":{
       "section":"11",
       "value":"4a"
      }
     }
    },
    {
     "filename":"I1CZ49420268.tif",
     "pagination":{
      "pgfolios":{
       "section":"11",
       "value":"4b"
      }
     }
    },
    {
     "filename":"I1CZ49420269.tif",
     "pagination":{
      "pgfolios":{
       "section":"11",
       "value":"5a"
      }
     }
    },
    {
     "filename":"I1CZ49420270.tif",
     "pagination":{
      "pgfolios":{
       "section":"11",
       "value":"5b"
      }
     }
    },
    {
     "filename":"I1CZ49420271.tif",
     "pagination":{
      "pgfolios":{
       "section":"11",
       "value":"6a"
      }
     }
    },
    {
     "filename":"I1CZ49420272.tif",
     "pagination":{
      "pgfolios":{
       "section":"11",
       "value":"6b"
      }
     }
    },
    {
     "filename":"I1CZ49420273.tif",
     "pagination":{
      "pgfolios":{
       "section":"11",
       "value":"7a"
      }
     }
    },
    {
     "filename":"I1CZ49420274.tif",
     "pagination":{
      "pgfolios":{
       "section":"11",
       "value":"7b"
      }
     }
    },
    {
     "filename":"I1CZ49420275.tif",
     "pagination":{
      "pgfolios":{
       "section":"11",
       "value":"8a"
      }
     }
    },
    {
     "filename":"I1CZ49420276.tif",
     "pagination":{
      "pgfolios":{
       "section":"11",
       "value":"8b"
      }
     }
    },
    {
     "filename":"I1CZ49420277.tif",
     "pagination":{
      "pgfolios":{
       "section":"11",
       "value":"9a"
      }
     }
    },
    {
     "filename":"I1CZ49420278.tif",
     "pagination":{
      "pgfolios":{
       "section":"11",
       "value":"9b"
      }
     }
    },
    {
     "filename":"I1CZ49420279.tif",
     "pagination":{
      "pgfolios":{
       "section":"11",
       "value":"10a"
      }
     }
    },
    {
     "filename":"I1CZ49420280.tif",
     "pagination":{
      "pgfolios":{
       "section":"11",
       "value":"10b"
      }
     }
    },
    {
     "filename":"I1CZ49420281.tif",
     "pagination":{
      "pgfolios":{
       "section":"11",
       "value":"11a"
      }
     }
    },
    {
     "filename":"I1CZ49420282.tif",
     "pagination":{
      "pgfolios":{
       "section":"11",
       "value":"11b"
      }
     }
    },
    {
     "filename":"I1CZ49420283.tif",
     "pagination":{
      "pgfolios":{
       "section":"11",
       "value":"12a"
      }
     }
    },
    {
     "filename":"I1CZ49420284.tif",
     "pagination":{
      "pgfolios":{
       "section":"11",
       "value":"12b"
      }
     }
    },
    {
     "filename":"I1CZ49420285.tif",
     "pagination":{
      "pgfolios":{
       "section":"11",
       "value":"13a"
      }
     }
    },
    {
     "filename":"I1CZ49420286.tif",
     "pagination":{
      "pgfolios":{
       "section":"11",
       "value":"13b"
      }
     }
    },
    {
     "filename":"I1CZ49420287.tif",
     "pagination":{
      "pgfolios":{
       "section":"12",
       "value":"1a"
      }
     }
    },
    {
     "filename":"I1CZ49420288.tif",
     "pagination":{
      "pgfolios":{
       "section":"12",
       "value":"1b"
      }
     }
    },
    {
     "filename":"I1CZ49420289.tif",
     "pagination":{
      "pgfolios":{
       "section":"12",
       "value":"2a"
      }
     }
    },
    {
     "filename":"I1CZ49420290.tif",
     "pagination":{
      "pgfolios":{
       "section":"12",
       "value":"2b"
      }
     }
    },
    {
     "filename":"I1CZ49420291.tif",
     "pagination":{
      "pgfolios":{
       "section":"12",
       "value":"3a"
      }
     }
    },
    {
     "filename":"I1CZ49420292.tif",
     "pagination":{
      "pgfolios":{
       "section":"12",
       "value":"3b"
      }
     }
    },
    {
     "filename":"I1CZ49420293.tif",
     "pagination":{
      "pgfolios":{
       "section":"12",
       "value":"4a"
      }
     }
    },
    {
     "filename":"I1CZ49420294.tif",
     "pagination":{
      "pgfolios":{
       "section":"12",
       "value":"4b"
      }
     }
    },
    {
     "filename":"I1CZ49420295.tif",
     "pagination":{
      "pgfolios":{
       "section":"12",
       "value":"5a"
      }
     }
    },
    {
     "filename":"I1CZ49420296.tif",
     "pagination":{
      "pgfolios":{
       "section":"12",
       "value":"5b"
      }
     }
    },
    {
     "filename":"I1CZ49420297.tif",
     "pagination":{
      "pgfolios":{
       "section":"12",
       "value":"6a"
      }
     }
    },
    {
     "filename":"I1CZ49420298.tif",
     "pagination":{
      "pgfolios":{
       "section":"12",
       "value":"6b"
      }
     }
    },
    {
     "filename":"I1CZ49420299.tif",
     "pagination":{
      "pgfolios":{
       "section":"12",
       "value":"7a"
      }
     }
    },
    {
     "filename":"I1CZ49420300.tif",
     "pagination":{
      "pgfolios":{
       "section":"12",
       "value":"7b"
      }
     }
    },
    {
     "filename":"I1CZ49420301.tif",
     "pagination":{
      "pgfolios":{
       "section":"12",
       "value":"8a"
      }
     }
    },
    {
     "filename":"I1CZ49420302.tif",
     "pagination":{
      "pgfolios":{
       "section":"12",
       "value":"8b"
      }
     }
    },
    {
     "filename":"I1CZ49420303.tif",
     "pagination":{
      "pgfolios":{
       "section":"12",
       "value":"9a"
      }
     }
    },
    {
     "filename":"I1CZ49420304.tif",
     "pagination":{
      "pgfolios":{
       "section":"12",
       "value":"9b"
      }
     }
    },
    {
     "filename":"I1CZ49420305.tif",
     "pagination":{
      "pgfolios":{
       "section":"12",
       "value":"10a"
      }
     }
    },
    {
     "filename":"I1CZ49420306.tif",
     "pagination":{
      "pgfolios":{
       "section":"12",
       "value":"10b"
      }
     }
    },
    {
     "filename":"I1CZ49420307.tif",
     "pagination":{
      "pgfolios":{
       "section":"12",
       "value":"11a"
      }
     }
    },
    {
     "filename":"I1CZ49420308.tif",
     "pagination":{
      "pgfolios":{
       "section":"12",
       "value":"11b"
      }
     }
    },
    {
     "filename":"I1CZ49420309.tif",
     "pagination":{
      "pgfolios":{
       "section":"12",
       "value":"12a"
      }
     }
    },
    {
     "filename":"I1CZ49420310.tif",
     "pagination":{
      "pgfolios":{
       "section":"12",
       "value":"12b"
      }
     }
    },
    {
     "filename":"I1CZ49420311.tif",
     "pagination":{
      "pgfolios":{
       "section":"12",
       "value":"13a"
      }
     }
    },
    {
     "filename":"I1CZ49420312.tif",
     "pagination":{
      "pgfolios":{
       "section":"12",
       "value":"13b"
      }
     }
    },
    {
     "filename":"I1CZ49420313.tif",
     "pagination":{
      "pgfolios":{
       "section":"12",
       "value":"14a"
      }
     }
    },
    {
     "filename":"I1CZ49420314.tif",
     "pagination":{
      "pgfolios":{
       "section":"12",
       "value":"14b"
      }
     }
    },
    {
     "filename":"I1CZ49420315.tif",
     "pagination":{
      "pgfolios":{
       "section":"12",
       "value":"15a"
      }
     }
    },
    {
     "filename":"I1CZ49420316.tif",
     "pagination":{
      "pgfolios":{
       "section":"12",
       "value":"15b"
      }
     }
    },
    {
     "filename":"I1CZ49420317.tif",
     "pagination":{
      "pgfolios":{
       "section":"12",
       "value":"16a"
      }
     }
    },
    {
     "filename":"I1CZ49420318.tif",
     "pagination":{
      "pgfolios":{
       "section":"12",
       "value":"16b"
      }
     }
    },
    {
     "filename":"I1CZ49420319.tif",
     "pagination":{
      "pgfolios":{
       "section":"12",
       "value":"17a"
      }
     }
    },
    {
     "filename":"I1CZ49420320.tif",
     "pagination":{
      "pgfolios":{
       "section":"12",
       "value":"17b"
      }
     }
    },
    {
     "filename":"I1CZ49420321.tif",
     "pagination":{
      "pgfolios":{
       "section":"12",
       "value":"18a"
      }
     }
    },
    {
     "filename":"I1CZ49420322.tif",
     "pagination":{
      "pgfolios":{
       "section":"12",
       "value":"18b"
      }
     }
    },
    {
     "filename":"I1CZ49420323.tif",
     "pagination":{
      "pgfolios":{
       "section":"12",
       "value":"19a"
      }
     }
    },
    {
     "filename":"I1CZ49420324.tif",
     "pagination":{
      "pgfolios":{
       "section":"12",
       "value":"19b"
      }
     }
    },
    {
     "filename":"I1CZ49420325.tif",
     "pagination":{
      "pgfolios":{
       "section":"12",
       "value":"20a"
      }
     }
    },
    {
     "filename":"I1CZ49420326.tif",
     "pagination":{
      "pgfolios":{
       "section":"12",
       "value":"20b"
      }
     }
    },
    {
     "filename":"I1CZ49420327.tif",
     "pagination":{
      "pgfolios":{
       "section":"12",
       "value":"21a"
      }
     }
    },
    {
     "filename":"I1CZ49420328.tif",
     "pagination":{
      "pgfolios":{
       "section":"12",
       "value":"21b"
      }
     }
    },
    {
     "filename":"I1CZ49420329.tif",
     "pagination":{
      "pgfolios":{
       "section":"12",
       "value":"22a"
      }
     }
    },
    {
     "filename":"I1CZ49420330.tif",
     "pagination":{
      "pgfolios":{
       "section":"12",
       "value":"22b"
      }
     }
    },
    {
     "filename":"I1CZ49420331.tif",
     "pagination":{
      "pgfolios":{
       "section":"12",
       "value":"23a"
      }
     }
    },
    {
     "filename":"I1CZ49420332.tif",
     "pagination":{
      "pgfolios":{
       "section":"12",
       "value":"23b"
      }
     }
    },
    {
     "filename":"I1CZ49420333.tif",
     "pagination":{
      "pgfolios":{
       "section":"12",
       "value":"24a"
      }
     }
    },
    {
     "filename":"I1CZ49420334.tif",
     "pagination":{
      "pgfolios":{
       "section":"12",
       "value":"24b"
      }
     }
    },
    {
     "filename":"I1CZ49420335.tif",
     "pagination":{
      "pgfolios":{
       "section":"12",
       "value":"25a"
      }
     }
    },
    {
     "filename":"I1CZ49420336.tif",
     "pagination":{
      "pgfolios":{
       "section":"12",
       "value":"25b"
      }
     }
    },
    {
     "filename":"I1CZ49420337.tif",
     "pagination":{
      "pgfolios":{
       "section":"12",
       "value":"26a"
      }
     }
    },
    {
     "filename":"I1CZ49420338.tif",
     "pagination":{
      "pgfolios":{
       "section":"12",
       "value":"26b"
      }
     }
    },
    {
     "filename":"I1CZ49420339.tif",
     "pagination":{
      "pgfolios":{
       "section":"12",
       "value":"27a"
      }
     }
    },
    {
     "filename":"I1CZ49420340.tif",
     "pagination":{
      "pgfolios":{
       "section":"12",
       "value":"27b"
      }
     }
    },
    {
     "filename":"I1CZ49420341.tif",
     "pagination":{
      "pgfolios":{
       "section":"12",
       "value":"28a"
      }
     }
    },
    {
     "filename":"I1CZ49420342.tif",
     "pagination":{
      "pgfolios":{
       "section":"12",
       "value":"28b"
      }
     }
    },
    {
     "filename":"I1CZ49420343.tif",
     "pagination":{
      "pgfolios":{
       "section":"13",
       "value":"1a"
      }
     }
    },
    {
     "filename":"I1CZ49420344.tif",
     "pagination":{
      "pgfolios":{
       "section":"13",
       "value":"1b"
      }
     }
    },
    {
     "filename":"I1CZ49420345.tif",
     "pagination":{
      "pgfolios":{
       "section":"14",
       "value":"1a"
      }
     }
    },
    {
     "filename":"I1CZ49420346.tif",
     "pagination":{
      "pgfolios":{
       "section":"14",
       "value":"1b"
      }
     }
    },
    {
     "filename":"I1CZ49420347.tif",
     "pagination":{
      "pgfolios":{
       "section":"14",
       "value":"2a"
      }
     }
    },
    {
     "filename":"I1CZ49420348.tif",
     "pagination":{
      "pgfolios":{
       "section":"14",
       "value":"2b"
      }
     }
    },
    {
     "filename":"I1CZ49420349.tif",
     "pagination":{
      "pgfolios":{
       "section":"14",
       "value":"3a"
      }
     }
    },
    {
     "filename":"I1CZ49420350.tif",
     "pagination":{
      "pgfolios":{
       "section":"14",
       "value":"3b"
      }
     }
    },
    {
     "filename":"I1CZ49420351.tif",
     "pagination":{
      "pgfolios":{
       "section":"14",
       "value":"4a"
      }
     }
    },
    {
     "filename":"I1CZ49420352.tif",
     "pagination":{
      "pgfolios":{
       "section":"14",
       "value":"4b"
      }
     }
    },
    {
     "filename":"I1CZ49420353.tif",
     "pagination":{
      "pgfolios":{
       "section":"14",
       "value":"5a"
      }
     }
    },
    {
     "filename":"I1CZ49420354.tif",
     "pagination":{
      "pgfolios":{
       "section":"14",
       "value":"5b"
      }
     }
    },
    {
     "filename":"I1CZ49420355.tif",
     "pagination":{
      "pgfolios":{
       "section":"14",
       "value":"6a"
      }
     }
    },
    {
     "filename":"I1CZ49420356.tif",
     "pagination":{
      "pgfolios":{
       "section":"14",
       "value":"6b"
      }
     }
    },
    {
     "filename":"I1CZ49420357.tif",
     "pagination":{
      "pgfolios":{
       "section":"14",
       "value":"7a"
      }
     }
    },
    {
     "filename":"I1CZ49420358.tif",
     "pagination":{
      "pgfolios":{
       "section":"14",
       "value":"7b"
      }
     }
    },
    {
     "filename":"I1CZ49420359.tif",
     "pagination":{
      "pgfolios":{
       "section":"14",
       "value":"8a"
      }
     }
    },
    {
     "filename":"I1CZ49420360.tif",
     "pagination":{
      "pgfolios":{
       "section":"14",
       "value":"8b"
      }
     }
    },
    {
     "filename":"I1CZ49420361.tif",
     "pagination":{
      "pgfolios":{
       "section":"14",
       "value":"9a"
      }
     }
    },
    {
     "filename":"I1CZ49420362.tif",
     "pagination":{
      "pgfolios":{
       "section":"14",
       "value":"9b"
      }
     }
    },
    {
     "filename":"I1CZ49420363.tif",
     "pagination":{
      "pgfolios":{
       "section":"14",
       "value":"10a"
      }
     }
    },
    {
     "filename":"I1CZ49420364.tif",
     "pagination":{
      "pgfolios":{
       "section":"14",
       "value":"10b"
      }
     }
    },
    {
     "filename":"I1CZ49420365.tif",
     "pagination":{
      "pgfolios":{
       "section":"14",
       "value":"11a"
      }
     }
    },
    {
     "filename":"I1CZ49420366.tif",
     "pagination":{
      "pgfolios":{
       "section":"14",
       "value":"11b"
      }
     }
    },
    {
     "filename":"I1CZ49420367.tif",
     "pagination":{
      "pgfolios":{
       "section":"14",
       "value":"12a"
      }
     }
    },
    {
     "filename":"I1CZ49420368.tif",
     "pagination":{
      "pgfolios":{
       "section":"14",
       "value":"12b"
      }
     }
    },
    {
     "filename":"I1CZ49420369.tif",
     "pagination":{
      "pgfolios":{
       "section":"14",
       "value":"13a"
      }
     }
    },
    {
     "filename":"I1CZ49420370.tif",
     "pagination":{
      "pgfolios":{
       "section":"14",
       "value":"13b"
      }
     }
    },
    {
     "filename":"I1CZ49420371.tif",
     "pagination":{
      "pgfolios":{
       "section":"14",
       "value":"14a"
      }
     }
    },
    {
     "filename":"I1CZ49420372.tif",
     "pagination":{
      "pgfolios":{
       "section":"14",
       "value":"14b"
      }
     }
    },
    {
     "filename":"I1CZ49420373.tif",
     "pagination":{
      "pgfolios":{
       "section":"14",
       "value":"15a"
      }
     }
    },
    {
     "filename":"I1CZ49420374.tif",
     "pagination":{
      "pgfolios":{
       "section":"14",
       "value":"15b"
      }
     }
    },
    {
     "filename":"I1CZ49420375.tif",
     "pagination":{
      "pgfolios":{
       "section":"14",
       "value":"16a"
      }
     }
    },
    {
     "filename":"I1CZ49420376.tif",
     "pagination":{
      "pgfolios":{
       "section":"14",
       "value":"16b"
      }
     }
    },
    {
     "filename":"I1CZ49420377.tif",
     "pagination":{
      "pgfolios":{
       "section":"14",
       "value":"17a"
      }
     }
    },
    {
     "filename":"I1CZ49420378.tif",
     "pagination":{
      "pgfolios":{
       "section":"14",
       "value":"17b"
      }
     }
    },
    {
     "filename":"I1CZ49420379.tif",
     "pagination":{
      "pgfolios":{
       "section":"14",
       "value":"18a"
      }
     }
    },
    {
     "filename":"I1CZ49420380.tif",
     "pagination":{
      "pgfolios":{
       "section":"14",
       "value":"18b"
      }
     }
    },
    {
     "filename":"I1CZ49420381.tif",
     "pagination":{
      "pgfolios":{
       "section":"14",
       "value":"19a"
      }
     }
    },
    {
     "filename":"I1CZ49420382.tif",
     "pagination":{
      "pgfolios":{
       "section":"14",
       "value":"19b"
      }
     }
    },
    {
     "filename":"I1CZ49420383.tif",
     "pagination":{
      "pgfolios":{
       "section":"14",
       "value":"20a"
      }
     }
    },
    {
     "filename":"I1CZ49420384.tif",
     "pagination":{
      "pgfolios":{
       "section":"14",
       "value":"20b"
      }
     }
    },
    {
     "filename":"I1CZ49420385.tif",
     "pagination":{
      "pgfolios":{
       "section":"14",
       "value":"21a"
      }
     }
    },
    {
     "filename":"I1CZ49420386.tif",
     "pagination":{
      "pgfolios":{
       "section":"14",
       "value":"21b"
      }
     }
    },
    {
     "filename":"I1CZ49420387.tif",
     "pagination":{
      "pgfolios":{
       "section":"14",
       "value":"22a"
      }
     }
    },
    {
     "filename":"I1CZ49420388.tif",
     "pagination":{
      "pgfolios":{
       "section":"14",
       "value":"22b"
      }
     }
    },
    {
     "filename":"I1CZ49420389.tif",
     "pagination":{
      "pgfolios":{
       "section":"14",
       "value":"23a"
      }
     }
    },
    {
     "filename":"I1CZ49420390.tif",
     "pagination":{
      "pgfolios":{
       "section":"14",
       "value":"23b"
      }
     }
    },
    {
     "filename":"I1CZ49420391.tif",
     "pagination":{
      "pgfolios":{
       "section":"14",
       "value":"24a"
      }
     }
    },
    {
     "filename":"I1CZ49420392.tif",
     "pagination":{
      "pgfolios":{
       "section":"14",
       "value":"24b"
      }
     }
    },
    {
     "filename":"I1CZ49420393.tif",
     "pagination":{
      "pgfolios":{
       "section":"14",
       "value":"25a"
      }
     }
    },
    {
     "filename":"I1CZ49420394.tif",
     "pagination":{
      "pgfolios":{
       "section":"14",
       "value":"25b"
      }
     }
    },
    {
     "filename":"I1CZ49420395.tif",
     "pagination":{
      "pgfolios":{
       "section":"14",
       "value":"26a"
      }
     }
    },
    {
     "filename":"I1CZ49420396.tif",
     "pagination":{
      "pgfolios":{
       "section":"14",
       "value":"26b"
      }
     }
    },
    {
     "filename":"I1CZ49420397.tif",
     "pagination":{
      "pgfolios":{
       "section":"14",
       "value":"27a"
      }
     }
    },
    {
     "filename":"I1CZ49420398.tif",
     "pagination":{
      "pgfolios":{
       "section":"14",
       "value":"27b"
      }
     }
    },
    {
     "filename":"I1CZ49420399.tif",
     "pagination":{
      "pgfolios":{
       "section":"15",
       "value":"1a"
      }
     }
    },
    {
     "filename":"I1CZ49420400.tif",
     "pagination":{
      "pgfolios":{
       "section":"15",
       "value":"1b"
      }
     }
    },
    {
     "filename":"I1CZ49420401.tif",
     "pagination":{
      "pgfolios":{
       "section":"15",
       "value":"2a"
      }
     }
    },
    {
     "filename":"I1CZ49420402.tif",
     "pagination":{
      "pgfolios":{
       "section":"15",
       "value":"2b"
      }
     }
    },
    {
     "filename":"I1CZ49420403.tif",
     "pagination":{
      "pgfolios":{
       "section":"15",
       "value":"3a"
      }
     }
    },
    {
     "filename":"I1CZ49420404.tif",
     "pagination":{
      "pgfolios":{
       "section":"15",
       "value":"3b"
      }
     }
    },
    {
     "filename":"I1CZ49420405.tif",
     "pagination":{
      "pgfolios":{
       "section":"15",
       "value":"4a"
      }
     }
    },
    {
     "filename":"I1CZ49420406.tif",
     "pagination":{
      "pgfolios":{
       "section":"15",
       "value":"4b"
      }
     }
    },
    {
     "filename":"I1CZ49420407.tif",
     "pagination":{
      "pgfolios":{
       "section":"17",
       "value":"1a"
      }
     }
    },
    {
     "filename":"I1CZ49420408.tif",
     "pagination":{
      "pgfolios":{
       "section":"17",
       "value":"1b"
      }
     }
    },
    {
     "filename":"I1CZ49420409.tif",
     "pagination":{
      "pgfolios":{
       "section":"17",
       "value":"2a"
      }
     }
    },
    {
     "filename":"I1CZ49420410.tif",
     "pagination":{
      "pgfolios":{
       "section":"17",
       "value":"2b"
      }
     }
    },
    {
     "filename":"I1CZ49420411.tif",
     "pagination":{
      "pgfolios":{
       "section":"17",
       "value":"3a"
      }
     }
    },
    {
     "filename":"I1CZ49420412.tif",
     "pagination":{
      "pgfolios":{
       "section":"17",
       "value":"3b"
      }
     }
    },
    {
     "filename":"I1CZ49420413.tif",
     "pagination":{
      "pgfolios":{
       "section":"17",
       "value":"4a"
      }
     }
    },
    {
     "filename":"I1CZ49420414.tif",
     "pagination":{
      "pgfolios":{
       "section":"17",
       "value":"4b"
      }
     }
    },
    {
     "filename":"I1CZ49420415.tif",
     "pagination":{
      "pgfolios":{
       "section":"17",
       "value":"5a"
      }
     }
    },
    {
     "filename":"I1CZ49420416.tif",
     "pagination":{
      "pgfolios":{
       "section":"17",
       "value":"5b"
      }
     }
    },
    {
     "filename":"I1CZ49420417.tif",
     "pagination":{
      "pgfolios":{
       "section":"17",
       "value":"6a"
      }
     }
    },
    {
     "filename":"I1CZ49420418.tif",
     "pagination":{
      "pgfolios":{
       "section":"17",
       "value":"6b"
      }
     }
    },
    {
     "filename":"I1CZ49420419.tif",
     "pagination":{
      "pgfolios":{
       "section":"17",
       "value":"7a"
      }
     }
    },
    {
     "filename":"I1CZ49420420.tif",
     "pagination":{
      "pgfolios":{
       "section":"17",
       "value":"7b"
      }
     }
    },
    {
     "filename":"I1CZ49420421.tif",
     "pagination":{
      "pgfolios":{
       "section":"17",
       "value":"8a"
      }
     }
    },
    {
     "filename":"I1CZ49420422.tif",
     "pagination":{
      "pgfolios":{
       "section":"17",
       "value":"8b"
      }
     }
    },
    {
     "filename":"I1CZ49420423.tif",
     "pagination":{
      "pgfolios":{
       "section":"17",
       "value":"9a"
      }
     }
    },
    {
     "filename":"I1CZ49420424.tif",
     "pagination":{
      "pgfolios":{
       "section":"17",
       "value":"9b"
      }
     }
    },
    {
     "filename":"I1CZ49420425.tif",
     "pagination":{
      "pgfolios":{
       "section":"17",
       "value":"10a"
      }
     }
    },
    {
     "filename":"I1CZ49420426.tif",
     "pagination":{
      "pgfolios":{
       "section":"17",
       "value":"10b"
      }
     }
    },
    {
     "filename":"I1CZ49420427.tif",
     "pagination":{
      "pgfolios":{
       "section":"17",
       "value":"11a"
      }
     }
    },
    {
     "filename":"I1CZ49420428.tif",
     "pagination":{
      "pgfolios":{
       "section":"17",
       "value":"11b"
      }
     }
    },
    {
     "filename":"I1CZ49420429.tif",
     "pagination":{
      "pgfolios":{
       "section":"18",
       "value":"1a"
      }
     }
    },
    {
     "filename":"I1CZ49420430.tif",
     "pagination":{
      "pgfolios":{
       "section":"18",
       "value":"1b"
      }
     }
    },
    {
     "filename":"I1CZ49420431.tif",
     "pagination":{
      "pgfolios":{
       "section":"19",
       "value":"1a"
      }
     }
    },
    {
     "filename":"I1CZ49420432.tif",
     "pagination":{
      "pgfolios":{
       "section":"19",
       "value":"1b"
      }
     }
    },
    {
     "filename":"I1CZ49420433.tif",
     "pagination":{
      "pgfolios":{
       "section":"19",
       "value":"2a"
      }
     }
    },
    {
     "filename":"I1CZ49420434.tif",
     "pagination":{
      "pgfolios":{
       "section":"19",
       "value":"2b"
      }
     }
    },
    {
     "filename":"I1CZ49420435.tif",
     "pagination":{
      "pgfolios":{
       "section":"19",
       "value":"3a"
      }
     }
    },
    {
     "filename":"I1CZ49420436.tif",
     "pagination":{
      "pgfolios":{
       "section":"19",
       "value":"3b"
      }
     }
    },
    {
     "filename":"I1CZ49420437.tif",
     "pagination":{
      "pgfolios":{
       "section":"19",
       "value":"4a"
      }
     }
    },
    {
     "filename":"I1CZ49420438.tif",
     "pagination":{
      "pgfolios":{
       "section":"19",
       "value":"4b"
      }
     }
    },
    {
     "filename":"I1CZ49420439.tif",
     "pagination":{
      "pgfolios":{
       "section":"19",
       "value":"5a"
      }
     }
    },
    {
     "filename":"I1CZ49420440.tif",
     "pagination":{
      "pgfolios":{
       "section":"19",
       "value":"5b"
      }
     }
    },
    {
     "filename":"I1CZ49420441.tif",
     "pagination":{
      "pgfolios":{
       "section":"19",
       "value":"6a"
      }
     }
    },
    {
     "filename":"I1CZ49420442.tif",
     "pagination":{
      "pgfolios":{
       "section":"19",
       "value":"6b"
      }
     }
    },
    {
     "filename":"I1CZ49420443.tif",
     "pagination":{
      "pgfolios":{
       "section":"19",
       "value":"7a"
      }
     }
    },
    {
     "filename":"I1CZ49420444.tif",
     "pagination":{
      "pgfolios":{
       "section":"19",
       "value":"7b"
      }
     }
    },
    {
     "filename":"I1CZ49420445.tif",
     "pagination":{
      "pgfolios":{
       "section":"19",
       "value":"8a"
      }
     }
    },
    {
     "filename":"I1CZ49420446.tif",
     "pagination":{
      "pgfolios":{
       "section":"19",
       "value":"8b"
      }
     }
    },
    {
     "filename":"I1CZ49420447.tif",
     "pagination":{
      "pgfolios":{
       "section":"19",
       "value":"9a"
      }
     }
    },
    {
     "filename":"I1CZ49420448.tif",
     "pagination":{
      "pgfolios":{
       "section":"19",
       "value":"9b"
      }
     }
    },
    {
     "filename":"I1CZ49420449.tif",
     "pagination":{
      "pgfolios":{
       "section":"19",
       "value":"10a"
      }
     }
    },
    {
     "filename":"I1CZ49420450.tif",
     "pagination":{
      "pgfolios":{
       "section":"19",
       "value":"10b"
      }
     }
    },
    {
     "filename":"I1CZ49420451.tif",
     "pagination":{
      "pgfolios":{
       "section":"19",
       "value":"11a"
      }
     }
    },
    {
     "filename":"I1CZ49420452.tif",
     "pagination":{
      "pgfolios":{
       "section":"19",
       "value":"11b"
      }
     }
    },
    {
     "filename":"I1CZ49420453.tif",
     "pagination":{
      "pgfolios":{
       "section":"19",
       "value":"12a"
      }
     }
    },
    {
     "filename":"I1CZ49420454.tif",
     "pagination":{
      "pgfolios":{
       "section":"19",
       "value":"12b"
      }
     }
    },
    {
     "filename":"I1CZ49420455.tif",
     "pagination":{
      "pgfolios":{
       "section":"19",
       "value":"13a"
      }
     }
    },
    {
     "filename":"I1CZ49420456.tif",
     "pagination":{
      "pgfolios":{
       "section":"19",
       "value":"13b"
      }
     }
    },
    {
     "filename":"I1CZ49420457.tif",
     "pagination":{
      "pgfolios":{
       "section":"19",
       "value":"14a"
      }
     }
    },
    {
     "filename":"I1CZ49420458.tif",
     "pagination":{
      "pgfolios":{
       "section":"19",
       "value":"14b"
      }
     }
    },
    {
     "filename":"I1CZ49420459.tif",
     "pagination":{
      "pgfolios":{
       "section":"19",
       "value":"15a"
      }
     }
    },
    {
     "filename":"I1CZ49420460.tif",
     "pagination":{
      "pgfolios":{
       "section":"19",
       "value":"15b"
      }
     }
    },
    {
     "filename":"I1CZ49420461.tif",
     "pagination":{
      "pgfolios":{
       "section":"19",
       "value":"16a"
      }
     }
    },
    {
     "filename":"I1CZ49420462.tif",
     "pagination":{
      "pgfolios":{
       "section":"19",
       "value":"16b"
      }
     }
    },
    {
     "filename":"I1CZ49420463.tif",
     "pagination":{
      "pgfolios":{
       "section":"19",
       "value":"17a"
      }
     }
    },
    {
     "filename":"I1CZ49420464.tif",
     "pagination":{
      "pgfolios":{
       "section":"19",
       "value":"17b"
      }
     }
    },
    {
     "filename":"I1CZ49420465.tif",
     "pagination":{
      "pgfolios":{
       "section":"19",
       "value":"18a"
      }
     }
    },
    {
     "filename":"I1CZ49420466.tif",
     "pagination":{
      "pgfolios":{
       "section":"19",
       "value":"18b"
      }
     }
    },
    {
     "filename":"I1CZ49420467.tif",
     "pagination":{
      "pgfolios":{
       "section":"19",
       "value":"19a"
      }
     }
    },
    {
     "filename":"I1CZ49420468.tif",
     "pagination":{
      "pgfolios":{
       "section":"19",
       "value":"19b"
      }
     }
    },
    {
     "filename":"I1CZ49420469.tif",
     "pagination":{
      "pgfolios":{
       "section":"19",
       "value":"20a"
      }
     }
    },
    {
     "filename":"I1CZ49420470.tif",
     "pagination":{
      "pgfolios":{
       "section":"19",
       "value":"20b"
      }
     }
    },
    {
     "filename":"I1CZ49420471.tif",
     "pagination":{
      "pgfolios":{
       "section":"19",
       "value":"21a"
      }
     }
    },
    {
     "filename":"I1CZ49420472.tif",
     "pagination":{
      "pgfolios":{
       "section":"19",
       "value":"21b"
      }
     }
    },
    {
     "filename":"I1CZ49420473.tif",
     "pagination":{
      "pgfolios":{
       "section":"20",
       "value":"1a"
      }
     }
    },
    {
     "filename":"I1CZ49420474.tif",
     "pagination":{
      "pgfolios":{
       "section":"20",
       "value":"1b"
      }
     }
    },
    {
     "filename":"I1CZ49420475.tif",
     "pagination":{
      "pgfolios":{
       "section":"20",
       "value":"2a"
      }
     }
    },
    {
     "filename":"I1CZ49420476.tif",
     "pagination":{
      "pgfolios":{
       "section":"20",
       "value":"2b"
      }
     }
    },
    {
     "filename":"I1CZ49420477.tif",
     "pagination":{
      "pgfolios":{
       "section":"20",
       "value":"3a"
      }
     }
    },
    {
     "filename":"I1CZ49420478.tif",
     "pagination":{
      "pgfolios":{
       "section":"20",
       "value":"3b"
      }
     }
    },
    {
     "filename":"I1CZ49420479.tif",
     "pagination":{
      "pgfolios":{
       "section":"21",
       "value":"1a"
      }
     }
    },
    {
     "filename":"I1CZ49420480.tif",
     "pagination":{
      "pgfolios":{
       "section":"21",
       "value":"1b"
      }
     }
    },
    {
     "filename":"I1CZ49420481.tif",
     "pagination":{
      "pgfolios":{
       "section":"21",
       "value":"2a"
      }
     }
    },
    {
     "filename":"I1CZ49420482.tif",
     "pagination":{
      "pgfolios":{
       "section":"21",
       "value":"2b"
      }
     }
    },
    {
     "filename":"I1CZ49420483.tif",
     "pagination":{
      "pgfolios":{
       "section":"21",
       "value":"3a"
      }
     }
    },
    {
     "filename":"I1CZ49420484.tif",
     "pagination":{
      "pgfolios":{
       "section":"21",
       "value":"3b"
      }
     }
    },
    {
     "filename":"I1CZ49420485.tif",
     "pagination":{
      "pgfolios":{
       "section":"21",
       "value":"4a"
      }
     }
    },
    {
     "filename":"I1CZ49420486.tif",
     "pagination":{
      "pgfolios":{
       "section":"21",
       "value":"4b"
      }
     }
    },
    {
     "filename":"I1CZ49420487.tif",
     "pagination":{
      "pgfolios":{
       "section":"21",
       "value":"5a"
      }
     }
    },
    {
     "filename":"I1CZ49420488.tif",
     "pagination":{
      "pgfolios":{
       "section":"21",
       "value":"5b"
      }
     }
    },
    {
     "filename":"I1CZ49420489.tif",
     "pagination":{
      "pgfolios":{
       "section":"21",
       "value":"6a"
      }
     }
    },
    {
     "filename":"I1CZ49420490.tif",
     "pagination":{
      "pgfolios":{
       "section":"21",
       "value":"6b"
      }
     }
    },
    {
     "filename":"I1CZ49420491.tif",
     "pagination":{
      "pgfolios":{
       "section":"21",
       "value":"7a"
      }
     }
    },
    {
     "filename":"I1CZ49420492.tif",
     "pagination":{
      "pgfolios":{
       "section":"21",
       "value":"7b"
      }
     }
    },
    {
     "filename":"I1CZ49420493.tif",
     "pagination":{
      "pgfolios":{
       "section":"21",
       "value":"8a"
      }
     }
    },
    {
     "filename":"I1CZ49420494.tif",
     "pagination":{
      "pgfolios":{
       "section":"21",
       "value":"8b"
      }
     }
    },
    {
     "filename":"I1CZ49420495.tif",
     "pagination":{
      "pgfolios":{
       "section":"21",
       "value":"9a"
      }
     }
    },
    {
     "filename":"I1CZ49420496.tif",
     "pagination":{
      "pgfolios":{
       "section":"21",
       "value":"9b"
      }
     }
    },
    {
     "filename":"I1CZ49420497.tif",
     "pagination":{
      "pgfolios":{
       "section":"21",
       "value":"10a"
      }
     }
    },
    {
     "filename":"I1CZ49420498.tif",
     "pagination":{
      "pgfolios":{
       "section":"21",
       "value":"10b"
      }
     }
    },
    {
     "filename":"I1CZ49420499.tif",
     "pagination":{
      "pgfolios":{
       "section":"21",
       "value":"11a"
      }
     }
    },
    {
     "filename":"I1CZ49420500.tif",
     "pagination":{
      "pgfolios":{
       "section":"21",
       "value":"11b"
      }
     }
    },
    {
     "filename":"I1CZ49420501.tif",
     "pagination":{
      "pgfolios":{
       "section":"21",
       "value":"12a"
      }
     }
    },
    {
     "filename":"I1CZ49420502.tif",
     "pagination":{
      "pgfolios":{
       "section":"21",
       "value":"12b"
      }
     }
    },
    {
     "filename":"I1CZ49420503.tif",
     "pagination":{
      "pgfolios":{
       "section":"21",
       "value":"13a"
      }
     }
    },
    {
     "filename":"I1CZ49420504.tif",
     "pagination":{
      "pgfolios":{
       "section":"21",
       "value":"13b"
      }
     }
    },
    {
     "filename":"I1CZ49420505.tif",
     "pagination":{
      "pgfolios":{
       "section":"21",
       "value":"14a"
      }
     }
    },
    {
     "filename":"I1CZ49420506.tif",
     "pagination":{
      "pgfolios":{
       "section":"21",
       "value":"14b"
      }
     }
    },
    {
     "filename":"I1CZ49420507.tif",
     "pagination":{
      "pgfolios":{
       "section":"21",
       "value":"15a"
      }
     }
    },
    {
     "filename":"I1CZ49420508.tif",
     "pagination":{
      "pgfolios":{
       "section":"21",
       "value":"15b"
      }
     }
    },
    {
     "filename":"I1CZ49420509.tif",
     "pagination":{
      "pgfolios":{
       "section":"21",
       "value":"16a"
      }
     }
    },
    {
     "filename":"I1CZ49420510.tif",
     "pagination":{
      "pgfolios":{
       "section":"21",
       "value":"16b"
      }
     }
    },
    {
     "filename":"I1CZ49420511.tif",
     "pagination":{
      "pgfolios":{
       "section":"21",
       "value":"17a"
      }
     }
    },
    {
     "filename":"I1CZ49420512.tif",
     "pagination":{
      "pgfolios":{
       "section":"21",
       "value":"17b"
      }
     }
    },
    {
     "filename":"I1CZ49420513.tif",
     "pagination":{
      "pgfolios":{
       "section":"21",
       "value":"18a"
      }
     }
    },
    {
     "filename":"I1CZ49420514.tif",
     "pagination":{
      "pgfolios":{
       "section":"21",
       "value":"18b"
      }
     }
    },
    {
     "filename":"I1CZ49420515.tif",
     "pagination":{
      "pgfolios":{
       "section":"21",
       "value":"19a"
      }
     }
    },
    {
     "filename":"I1CZ49420516.tif",
     "pagination":{
      "pgfolios":{
       "section":"21",
       "value":"19b"
      }
     }
    },
    {
     "filename":"I1CZ49420517.tif",
     "pagination":{
      "pgfolios":{
       "section":"21",
       "value":"20a"
      }
     }
    },
    {
     "filename":"I1CZ49420518.tif",
     "pagination":{
      "pgfolios":{
       "section":"21",
       "value":"20b"
      }
     }
    },
    {
     "filename":"I1CZ49420519.tif",
     "pagination":{
      "pgfolios":{
       "section":"21",
       "value":"21a"
      }
     }
    },
    {
     "filename":"I1CZ49420520.tif",
     "pagination":{
      "pgfolios":{
       "section":"21",
       "value":"21b"
      }
     }
    },
    {
     "filename":"I1CZ49420521.tif",
     "pagination":{
      "pgfolios":{
       "section":"21",
       "value":"22a"
      }
     }
    },
    {
     "filename":"I1CZ49420522.tif",
     "pagination":{
      "pgfolios":{
       "section":"21",
       "value":"22b"
      }
     }
    },
    {
     "filename":"I1CZ49420523.tif",
     "pagination":{
      "pgfolios":{
       "section":"21",
       "value":"23a"
      }
     }
    },
    {
     "filename":"I1CZ49420524.tif",
     "pagination":{
      "pgfolios":{
       "section":"21",
       "value":"23b"
      }
     }
    },
    {
     "filename":"I1CZ49420525.tif",
     "pagination":{
      "pgfolios":{
       "section":"21",
       "value":"24a"
      }
     }
    },
    {
     "filename":"I1CZ49420526.tif",
     "pagination":{
      "pgfolios":{
       "section":"21",
       "value":"24b"
      }
     }
    },
    {
     "filename":"I1CZ49420527.tif",
     "pagination":{
      "pgfolios":{
       "section":"21",
       "value":"25a"
      }
     }
    },
    {
     "filename":"I1CZ49420528.tif",
     "pagination":{
      "pgfolios":{
       "section":"21",
       "value":"25b"
      }
     }
    },
    {
     "filename":"I1CZ49420529.tif",
     "pagination":{
      "pgfolios":{
       "section":"21",
       "value":"26a"
      }
     }
    },
    {
     "filename":"I1CZ49420530.tif",
     "pagination":{
      "pgfolios":{
       "section":"21",
       "value":"26b"
      }
     }
    },
    {
     "filename":"I1CZ49420531.tif",
     "pagination":{
      "pgfolios":{
       "section":"21",
       "value":"27a"
      }
     }
    },
    {
     "filename":"I1CZ49420532.tif",
     "pagination":{
      "pgfolios":{
       "section":"21",
       "value":"27b"
      }
     }
    },
    {
     "filename":"I1CZ49420533.tif",
     "pagination":{
      "pgfolios":{
       "section":"21",
       "value":"28a"
      }
     }
    },
    {
     "filename":"I1CZ49420534.tif",
     "pagination":{
      "pgfolios":{
       "section":"21",
       "value":"28b"
      }
     }
    },
    {
     "filename":"I1CZ49420535.tif",
     "pagination":{
      "pgfolios":{
       "section":"21",
       "value":"29a"
      }
     }
    },
    {
     "filename":"I1CZ49420536.tif",
     "pagination":{
      "pgfolios":{
       "section":"21",
       "value":"29b"
      }
     }
    },
    {
     "filename":"I1CZ49420537.tif",
     "pagination":{
      "pgfolios":{
       "section":"21",
       "value":"30a"
      }
     }
    },
    {
     "filename":"I1CZ49420538.tif",
     "pagination":{
      "pgfolios":{
       "section":"21",
       "value":"30b"
      }
     }
    },
    {
     "filename":"I1CZ49420539.tif",
     "pagination":{
      "pgfolios":{
       "section":"21",
       "value":"31a"
      }
     }
    },
    {
     "filename":"I1CZ49420540.tif",
     "pagination":{
      "pgfolios":{
       "section":"21",
       "value":"31b"
      }
     }
    },
    {
     "filename":"I1CZ49420541.tif",
     "pagination":{
      "pgfolios":{
       "section":"21",
       "value":"32a"
      }
     }
    },
    {
     "filename":"I1CZ49420542.tif",
     "pagination":{
      "pgfolios":{
       "section":"21",
       "value":"32b"
      }
     }
    },
    {
     "filename":"I1CZ49420543.tif",
     "pagination":{
      "pgfolios":{
       "section":"21",
       "value":"33a"
      }
     }
    },
    {
     "filename":"I1CZ49420544.tif",
     "pagination":{
      "pgfolios":{
       "section":"21",
       "value":"33b"
      }
     }
    },
    {
     "filename":"I1CZ49420545.tif",
     "pagination":{
      "pgfolios":{
       "section":"21",
       "value":"34a"
      }
     }
    },
    {
     "filename":"I1CZ49420546.tif",
     "pagination":{
      "pgfolios":{
       "section":"21",
       "value":"34b"
      }
     }
    },
    {
     "filename":"I1CZ49420547.tif",
     "pagination":{
      "pgfolios":{
       "section":"21",
       "value":"35a"
      }
     }
    },
    {
     "filename":"I1CZ49420548.tif",
     "pagination":{
      "pgfolios":{
       "section":"21",
       "value":"35b"
      }
     }
    },
    {
     "filename":"I1CZ49420549.tif",
     "pagination":{
      "pgfolios":{
       "section":"21",
       "value":"36a"
      }
     }
    },
    {
     "filename":"I1CZ49420550.tif",
     "pagination":{
      "pgfolios":{
       "section":"21",
       "value":"36b"
      }
     }
    },
    {
     "filename":"I1CZ49420551.tif",
     "pagination":{
      "pgfolios":{
       "section":"21",
       "value":"37a"
      }
     }
    },
    {
     "filename":"I1CZ49420552.tif",
     "pagination":{
      "pgfolios":{
       "section":"21",
       "value":"37b"
      }
     }
    },
    {
     "filename":"I1CZ49420553.tif",
     "pagination":{
      "pgfolios":{
       "section":"21",
       "value":"38a"
      }
     }
    },
    {
     "filename":"I1CZ49420554.tif",
     "pagination":{
      "pgfolios":{
       "section":"21",
       "value":"38b"
      }
     }
    },
    {
     "filename":"I1CZ49420555.tif",
     "pagination":{
      "pgfolios":{
       "section":"21",
       "value":"39a"
      }
     }
    },
    {
     "filename":"I1CZ49420556.tif",
     "pagination":{
      "pgfolios":{
       "section":"21",
       "value":"39b"
      }
     }
    },
    {
     "filename":"I1CZ49420557.tif",
     "pagination":{
      "pgfolios":{
       "section":"21",
       "value":"40a"
      }
     }
    },
    {
     "filename":"I1CZ49420558.tif",
     "pagination":{
      "pgfolios":{
       "section":"21",
       "value":"40b"
      }
     }
    },
    {
     "filename":"I1CZ49420559.tif",
     "pagination":{
      "pgfolios":{
       "section":"21",
       "value":"41a"
      }
     }
    },
    {
     "filename":"I1CZ49420560.tif",
     "pagination":{
      "pgfolios":{
       "section":"21",
       "value":"41b"
      }
     }
    },
    {
     "filename":"I1CZ49420561.tif",
     "pagination":{
      "pgfolios":{
       "section":"21",
       "value":"42a"
      }
     }
    },
    {
     "filename":"I1CZ49420562.tif",
     "pagination":{
      "pgfolios":{
       "section":"21",
       "value":"42b"
      }
     }
    },
    {
     "filename":"I1CZ49420563.tif",
     "pagination":{
      "pgfolios":{
       "section":"21",
       "value":"43a"
      }
     }
    },
    {
     "filename":"I1CZ49420564.tif",
     "pagination":{
      "pgfolios":{
       "section":"21",
       "value":"43b"
      }
     }
    },
    {
     "filename":"I1CZ49420565.tif",
     "pagination":{
      "pgfolios":{
       "section":"21",
       "value":"44a"
      }
     }
    },
    {
     "filename":"I1CZ49420566.tif",
     "pagination":{
      "pgfolios":{
       "section":"21",
       "value":"44b"
      }
     }
    },
    {
     "filename":"I1CZ49420567.tif",
     "pagination":{
      "pgfolios":{
       "section":"21",
       "value":"45a"
      }
     }
    },
    {
     "filename":"I1CZ49420568.tif",
     "pagination":{
      "pgfolios":{
       "section":"21",
       "value":"45b"
      }
     }
    },
    {
     "filename":"I1CZ49420569.tif",
     "pagination":{
      "pgfolios":{
       "section":"22",
       "value":"1a"
      }
     }
    },
    {
     "filename":"I1CZ49420570.tif",
     "pagination":{
      "pgfolios":{
       "section":"22",
       "value":"1b"
      }
     }
    },
    {
     "filename":"I1CZ49420571.tif",
     "pagination":{
      "pgfolios":{
       "section":"22",
       "value":"2a"
      }
     }
    },
    {
     "filename":"I1CZ49420572.tif",
     "pagination":{
      "pgfolios":{
       "section":"22",
       "value":"2b"
      }
     }
    },
    {
     "filename":"I1CZ49420573.tif",
     "pagination":{
      "pgfolios":{
       "section":"22",
       "value":"3a"
      }
     }
    },
    {
     "filename":"I1CZ49420574.tif",
     "pagination":{
      "pgfolios":{
       "section":"22",
       "value":"3b"
      }
     }
    },
    {
     "filename":"I1CZ49420575.tif",
     "pagination":{
      "pgfolios":{
       "section":"22",
       "value":"4a"
      }
     }
    },
    {
     "filename":"I1CZ49420576.tif",
     "pagination":{
      "pgfolios":{
       "section":"22",
       "value":"4b"
      }
     }
    },
    {
     "filename":"I1CZ49420577.tif",
     "pagination":{
      "pgfolios":{
       "section":"22",
       "value":"5a"
      }
     }
    },
    {
     "filename":"I1CZ49420578.tif",
     "pagination":{
      "pgfolios":{
       "section":"22",
       "value":"5b"
      }
     }
    },
    {
     "filename":"I1CZ49420579.tif",
     "pagination":{
      "pgfolios":{
       "section":"22",
       "value":"6a"
      }
     }
    },
    {
     "filename":"I1CZ49420580.tif",
     "pagination":{
      "pgfolios":{
       "section":"22",
       "value":"6b"
      }
     }
    },
    {
     "filename":"I1CZ49420581.tif",
     "pagination":{
      "pgfolios":{
       "section":"22",
       "value":"7a"
      }
     }
    },
    {
     "filename":"I1CZ49420582.tif",
     "pagination":{
      "pgfolios":{
       "section":"22",
       "value":"7b"
      }
     }
    },
    {
     "filename":"I1CZ49420583.tif",
     "pagination":{
      "pgfolios":{
       "section":"22",
       "value":"8a"
      }
     }
    },
    {
     "filename":"I1CZ49420584.tif",
     "pagination":{
      "pgfolios":{
       "section":"22",
       "value":"8b"
      }
     }
    },
    {
     "filename":"I1CZ49420585.tif",
     "pagination":{
      "pgfolios":{
       "section":"22",
       "value":"9a"
      }
     }
    },
    {
     "filename":"I1CZ49420586.tif",
     "pagination":{
      "pgfolios":{
       "section":"22",
       "value":"9b"
      }
     }
    },
    {
     "filename":"I1CZ49420587.tif",
     "pagination":{
      "pgfolios":{
       "section":"22",
       "value":"10a"
      }
     }
    },
    {
     "filename":"I1CZ49420588.tif",
     "pagination":{
      "pgfolios":{
       "section":"22",
       "value":"10b"
      }
     }
    },
    {
     "filename":"I1CZ49420589.tif",
     "pagination":{
      "pgfolios":{
       "section":"22",
       "value":"11a"
      }
     }
    },
    {
     "filename":"I1CZ49420590.tif",
     "pagination":{
      "pgfolios":{
       "section":"22",
       "value":"11b"
      }
     }
    },
    {
     "filename":"I1CZ49420591.tif",
     "pagination":{
      "pgfolios":{
       "section":"22",
       "value":"12a"
      }
     }
    },
    {
     "filename":"I1CZ49420592.tif",
     "pagination":{
      "pgfolios":{
       "section":"22",
       "value":"12b"
      }
     }
    },
    {
     "filename":"I1CZ49420593.tif",
     "pagination":{
      "pgfolios":{
       "section":"22",
       "value":"13a"
      }
     }
    },
    {
     "filename":"I1CZ49420594.tif",
     "pagination":{
      "pgfolios":{
       "section":"22",
       "value":"13b"
      }
     }
    },
    {
     "filename":"I1CZ49420595.tif",
     "pagination":{
      "pgfolios":{
       "section":"22",
       "value":"14a"
      }
     }
    },
    {
     "filename":"I1CZ49420596.tif",
     "pagination":{
      "pgfolios":{
       "section":"22",
       "value":"14b"
      }
     }
    },
    {
     "filename":"I1CZ49420597.tif",
     "pagination":{
      "pgfolios":{
       "section":"22",
       "value":"15a"
      }
     }
    },
    {
     "filename":"I1CZ49420598.tif",
     "pagination":{
      "pgfolios":{
       "section":"22",
       "value":"15b"
      }
     }
    },
    {
     "filename":"I1CZ49420599.tif",
     "pagination":{
      "pgfolios":{
       "section":"22",
       "value":"16a"
      }
     }
    },
    {
     "filename":"I1CZ49420600.tif",
     "pagination":{
      "pgfolios":{
       "section":"22",
       "value":"16b"
      }
     }
    },
    {
     "filename":"I1CZ49420601.tif",
     "pagination":{
      "pgfolios":{
       "section":"22",
       "value":"17a"
      }
     }
    },
    {
     "filename":"I1CZ49420602.tif",
     "pagination":{
      "pgfolios":{
       "section":"22",
       "value":"17b"
      }
     }
    },
    {
     "filename":"I1CZ49420603.tif",
     "pagination":{
      "pgfolios":{
       "section":"22",
       "value":"18a"
      }
     }
    },
    {
     "filename":"I1CZ49420604.tif",
     "pagination":{
      "pgfolios":{
       "section":"22",
       "value":"18b"
      }
     }
    },
    {
     "filename":"I1CZ49420605.tif",
     "pagination":{
      "pgfolios":{
       "section":"22",
       "value":"19a"
      }
     }
    },
    {
     "filename":"I1CZ49420606.tif",
     "pagination":{
      "pgfolios":{
       "section":"22",
       "value":"19b"
      }
     }
    }
   ]
  }
 },
 "viewing-direction":"top-to-bottom"
}