{
 "appData":{
  "bvmt":{
   "default-vol-string-lang":"bo",
   "metadata-for-bvmt-ver":"0.1.0"
  }
 },
 "attribution":[
  {
   "@language":"en",
   "@value":"Data provided by Esukhia under the CC0 license"
  }
 ],
 "changes":[
  {
   "message":{
    "@language":"en",
    "@value":"migration from rKTs data"
   },
   "time":"2020-10-03T11:35:30Z",
   "user":"bdu:U1653882847"
  }
 ],
 "default-view":"view1",
 "imggroup":"bdr:I2KG210122",
 "pagination":[
  {
   "id":"pgfolios",
   "type":"folios"
  }
 ],
 "spec-version":"0.1.0",
 "status":"released",
 "view":{
  "view1":{
   "imagelist":[
    {
     "filename":"I2KG2101220001.tif",
     "hidden":true,
     "tags":[
      "T0005"
     ]
    },
    {
     "filename":"I2KG2101220002.tif",
     "hidden":true,
     "tags":[
      "T0005"
     ]
    },
    {
     "filename":"I2KG2101220003.jpg",
     "hidden":true,
     "tags":[
      "T0005"
     ]
    },
    {
     "filename":"I2KG2101220004.jpg",
     "pagination":{
      "pgfolios":{
       "value":"1b"
      }
     }
    },
    {
     "filename":"I2KG2101220005.jpg",
     "pagination":{
      "pgfolios":{
       "value":"2a"
      }
     }
    },
    {
     "filename":"I2KG2101220006.jpg",
     "pagination":{
      "pgfolios":{
       "value":"2b"
      }
     }
    },
    {
     "filename":"I2KG2101220007.jpg",
     "pagination":{
      "pgfolios":{
       "value":"3a"
      }
     }
    },
    {
     "filename":"I2KG2101220008.jpg",
     "pagination":{
      "pgfolios":{
       "value":"3b"
      }
     }
    },
    {
     "filename":"I2KG2101220009.jpg",
     "pagination":{
      "pgfolios":{
       "value":"4a"
      }
     }
    },
    {
     "filename":"I2KG2101220010.jpg",
     "pagination":{
      "pgfolios":{
       "value":"4b"
      }
     }
    },
    {
     "filename":"I2KG2101220011.jpg",
     "pagination":{
      "pgfolios":{
       "value":"5a"
      }
     }
    },
    {
     "filename":"I2KG2101220012.jpg",
     "pagination":{
      "pgfolios":{
       "value":"5b"
      }
     }
    },
    {
     "filename":"I2KG2101220013.jpg",
     "pagination":{
      "pgfolios":{
       "value":"6a"
      }
     }
    },
    {
     "filename":"I2KG2101220014.jpg",
     "pagination":{
      "pgfolios":{
       "value":"6b"
      }
     }
    },
    {
     "filename":"I2KG2101220015.jpg",
     "pagination":{
      "pgfolios":{
       "value":"7a"
      }
     }
    },
    {
     "filename":"I2KG2101220016.jpg",
     "pagination":{
      "pgfolios":{
       "value":"7b"
      }
     }
    },
    {
     "filename":"I2KG2101220017.jpg",
     "pagination":{
      "pgfolios":{
       "value":"8a"
      }
     }
    },
    {
     "filename":"I2KG2101220018.jpg",
     "pagination":{
      "pgfolios":{
       "value":"8b"
      }
     }
    },
    {
     "filename":"I2KG2101220019.jpg",
     "pagination":{
      "pgfolios":{
       "value":"9a"
      }
     }
    },
    {
     "filename":"I2KG2101220020.jpg",
     "pagination":{
      "pgfolios":{
       "value":"9b"
      }
     }
    },
    {
     "filename":"I2KG2101220021.jpg",
     "pagination":{
      "pgfolios":{
       "value":"10a"
      }
     }
    },
    {
     "filename":"I2KG2101220022.jpg",
     "pagination":{
      "pgfolios":{
       "value":"10b"
      }
     }
    },
    {
     "filename":"I2KG2101220023.jpg",
     "pagination":{
      "pgfolios":{
       "value":"11a"
      }
     }
    },
    {
     "filename":"I2KG2101220024.jpg",
     "pagination":{
      "pgfolios":{
       "value":"11b"
      }
     }
    },
    {
     "filename":"I2KG2101220025.jpg",
     "pagination":{
      "pgfolios":{
       "value":"12a"
      }
     }
    },
    {
     "filename":"I2KG2101220026.jpg",
     "pagination":{
      "pgfolios":{
       "value":"12b"
      }
     }
    },
    {
     "filename":"I2KG2101220027.jpg",
     "pagination":{
      "pgfolios":{
       "value":"13a"
      }
     }
    },
    {
     "filename":"I2KG2101220028.jpg",
     "pagination":{
      "pgfolios":{
       "value":"13b"
      }
     }
    },
    {
     "filename":"I2KG2101220029.jpg",
     "pagination":{
      "pgfolios":{
       "value":"14a"
      }
     }
    },
    {
     "filename":"I2KG2101220030.jpg",
     "pagination":{
      "pgfolios":{
       "value":"14b"
      }
     }
    },
    {
     "filename":"I2KG2101220031.jpg",
     "pagination":{
      "pgfolios":{
       "value":"15a"
      }
     }
    },
    {
     "filename":"I2KG2101220032.jpg",
     "pagination":{
      "pgfolios":{
       "value":"15b"
      }
     }
    },
    {
     "filename":"I2KG2101220033.jpg",
     "pagination":{
      "pgfolios":{
       "value":"16a"
      }
     }
    },
    {
     "filename":"I2KG2101220034.jpg",
     "pagination":{
      "pgfolios":{
       "value":"16b"
      }
     }
    },
    {
     "filename":"I2KG2101220035.jpg",
     "pagination":{
      "pgfolios":{
       "value":"17a"
      }
     }
    },
    {
     "filename":"I2KG2101220036.jpg",
     "pagination":{
      "pgfolios":{
       "value":"17b"
      }
     }
    },
    {
     "filename":"I2KG2101220037.jpg",
     "pagination":{
      "pgfolios":{
       "value":"18a"
      }
     }
    },
    {
     "filename":"I2KG2101220038.jpg",
     "pagination":{
      "pgfolios":{
       "value":"18b"
      }
     }
    },
    {
     "filename":"I2KG2101220039.jpg",
     "pagination":{
      "pgfolios":{
       "value":"19a"
      }
     }
    },
    {
     "filename":"I2KG2101220040.jpg",
     "pagination":{
      "pgfolios":{
       "value":"19b"
      }
     }
    },
    {
     "filename":"I2KG2101220041.jpg",
     "pagination":{
      "pgfolios":{
       "value":"20a"
      }
     }
    },
    {
     "filename":"I2KG2101220042.jpg",
     "pagination":{
      "pgfolios":{
       "value":"20b"
      }
     }
    },
    {
     "filename":"I2KG2101220043.jpg",
     "pagination":{
      "pgfolios":{
       "value":"21a"
      }
     }
    },
    {
     "filename":"I2KG2101220044.jpg",
     "pagination":{
      "pgfolios":{
       "value":"21b"
      }
     }
    },
    {
     "filename":"I2KG2101220045.jpg",
     "pagination":{
      "pgfolios":{
       "value":"22a"
      }
     }
    },
    {
     "filename":"I2KG2101220046.jpg",
     "pagination":{
      "pgfolios":{
       "value":"22b"
      }
     }
    },
    {
     "filename":"I2KG2101220047.jpg",
     "pagination":{
      "pgfolios":{
       "value":"23a"
      }
     }
    },
    {
     "filename":"I2KG2101220048.jpg",
     "pagination":{
      "pgfolios":{
       "value":"23b"
      }
     }
    },
    {
     "filename":"I2KG2101220049.jpg",
     "pagination":{
      "pgfolios":{
       "value":"24a"
      }
     }
    },
    {
     "filename":"I2KG2101220050.jpg",
     "pagination":{
      "pgfolios":{
       "value":"24b"
      }
     }
    },
    {
     "filename":"I2KG2101220051.jpg",
     "pagination":{
      "pgfolios":{
       "value":"25a"
      }
     }
    },
    {
     "filename":"I2KG2101220052.jpg",
     "pagination":{
      "pgfolios":{
       "value":"25b"
      }
     }
    },
    {
     "filename":"I2KG2101220053.jpg",
     "pagination":{
      "pgfolios":{
       "value":"26a"
      }
     }
    },
    {
     "filename":"I2KG2101220054.jpg",
     "pagination":{
      "pgfolios":{
       "value":"26b"
      }
     }
    },
    {
     "filename":"I2KG2101220055.jpg",
     "pagination":{
      "pgfolios":{
       "value":"27a"
      }
     }
    },
    {
     "filename":"I2KG2101220056.jpg",
     "pagination":{
      "pgfolios":{
       "value":"27b"
      }
     }
    },
    {
     "filename":"I2KG2101220057.jpg",
     "pagination":{
      "pgfolios":{
       "value":"28a"
      }
     }
    },
    {
     "filename":"I2KG2101220058.jpg",
     "pagination":{
      "pgfolios":{
       "value":"28b"
      }
     }
    },
    {
     "filename":"I2KG2101220059.jpg",
     "pagination":{
      "pgfolios":{
       "value":"29a"
      }
     }
    },
    {
     "filename":"I2KG2101220060.jpg",
     "pagination":{
      "pgfolios":{
       "value":"29b"
      }
     }
    },
    {
     "filename":"I2KG2101220061.jpg",
     "pagination":{
      "pgfolios":{
       "value":"30a"
      }
     }
    },
    {
     "filename":"I2KG2101220062.jpg",
     "pagination":{
      "pgfolios":{
       "value":"30b"
      }
     }
    },
    {
     "filename":"I2KG2101220063.jpg",
     "pagination":{
      "pgfolios":{
       "value":"31a"
      }
     }
    },
    {
     "filename":"I2KG2101220064.jpg",
     "pagination":{
      "pgfolios":{
       "value":"31b"
      }
     }
    },
    {
     "filename":"I2KG2101220065.jpg",
     "pagination":{
      "pgfolios":{
       "value":"32a"
      }
     }
    },
    {
     "filename":"I2KG2101220066.jpg",
     "pagination":{
      "pgfolios":{
       "value":"32b"
      }
     }
    },
    {
     "filename":"I2KG2101220067.jpg",
     "pagination":{
      "pgfolios":{
       "value":"33a"
      }
     }
    },
    {
     "filename":"I2KG2101220068.jpg",
     "pagination":{
      "pgfolios":{
       "value":"33b"
      }
     }
    },
    {
     "filename":"I2KG2101220069.jpg",
     "pagination":{
      "pgfolios":{
       "value":"34a"
      }
     }
    },
    {
     "filename":"I2KG2101220070.jpg",
     "pagination":{
      "pgfolios":{
       "value":"34b"
      }
     }
    },
    {
     "filename":"I2KG2101220071.jpg",
     "pagination":{
      "pgfolios":{
       "value":"35a"
      }
     }
    },
    {
     "filename":"I2KG2101220072.jpg",
     "pagination":{
      "pgfolios":{
       "value":"35b"
      }
     }
    },
    {
     "filename":"I2KG2101220073.jpg",
     "pagination":{
      "pgfolios":{
       "value":"36a"
      }
     }
    },
    {
     "filename":"I2KG2101220074.jpg",
     "pagination":{
      "pgfolios":{
       "value":"36b"
      }
     }
    },
    {
     "filename":"I2KG2101220075.jpg",
     "pagination":{
      "pgfolios":{
       "value":"37a"
      }
     }
    },
    {
     "filename":"I2KG2101220076.jpg",
     "pagination":{
      "pgfolios":{
       "value":"37b"
      }
     }
    },
    {
     "filename":"I2KG2101220077.jpg",
     "pagination":{
      "pgfolios":{
       "value":"38a"
      }
     }
    },
    {
     "filename":"I2KG2101220078.jpg",
     "pagination":{
      "pgfolios":{
       "value":"38b"
      }
     }
    },
    {
     "filename":"I2KG2101220079.jpg",
     "pagination":{
      "pgfolios":{
       "value":"39a"
      }
     }
    },
    {
     "filename":"I2KG2101220080.jpg",
     "pagination":{
      "pgfolios":{
       "value":"39b"
      }
     }
    },
    {
     "filename":"I2KG2101220081.jpg",
     "pagination":{
      "pgfolios":{
       "value":"40a"
      }
     }
    },
    {
     "filename":"I2KG2101220082.jpg",
     "pagination":{
      "pgfolios":{
       "value":"40b"
      }
     }
    },
    {
     "filename":"I2KG2101220083.jpg",
     "pagination":{
      "pgfolios":{
       "value":"41a"
      }
     }
    },
    {
     "filename":"I2KG2101220084.jpg",
     "pagination":{
      "pgfolios":{
       "value":"41b"
      }
     }
    },
    {
     "filename":"I2KG2101220085.jpg",
     "pagination":{
      "pgfolios":{
       "value":"42a"
      }
     }
    },
    {
     "filename":"I2KG2101220086.jpg",
     "pagination":{
      "pgfolios":{
       "value":"42b"
      }
     }
    },
    {
     "filename":"I2KG2101220087.jpg",
     "pagination":{
      "pgfolios":{
       "value":"43a"
      }
     }
    },
    {
     "filename":"I2KG2101220088.jpg",
     "pagination":{
      "pgfolios":{
       "value":"43b"
      }
     }
    },
    {
     "filename":"I2KG2101220089.jpg",
     "pagination":{
      "pgfolios":{
       "value":"44a"
      }
     }
    },
    {
     "filename":"I2KG2101220090.jpg",
     "pagination":{
      "pgfolios":{
       "value":"44b"
      }
     }
    },
    {
     "filename":"I2KG2101220091.jpg",
     "pagination":{
      "pgfolios":{
       "value":"45a"
      }
     }
    },
    {
     "filename":"I2KG2101220092.jpg",
     "pagination":{
      "pgfolios":{
       "value":"45b"
      }
     }
    },
    {
     "filename":"I2KG2101220093.jpg",
     "pagination":{
      "pgfolios":{
       "value":"46a"
      }
     }
    },
    {
     "filename":"I2KG2101220094.jpg",
     "pagination":{
      "pgfolios":{
       "value":"46b"
      }
     }
    },
    {
     "filename":"I2KG2101220095.jpg",
     "pagination":{
      "pgfolios":{
       "value":"47a"
      }
     }
    },
    {
     "filename":"I2KG2101220096.jpg",
     "pagination":{
      "pgfolios":{
       "value":"47b"
      }
     }
    },
    {
     "filename":"I2KG2101220097.jpg",
     "pagination":{
      "pgfolios":{
       "value":"48a"
      }
     }
    },
    {
     "filename":"I2KG2101220098.jpg",
     "pagination":{
      "pgfolios":{
       "value":"48b"
      }
     }
    },
    {
     "filename":"I2KG2101220099.jpg",
     "pagination":{
      "pgfolios":{
       "value":"49a"
      }
     }
    },
    {
     "filename":"I2KG2101220100.jpg",
     "pagination":{
      "pgfolios":{
       "value":"49b"
      }
     }
    },
    {
     "filename":"I2KG2101220101.jpg",
     "pagination":{
      "pgfolios":{
       "value":"50a"
      }
     }
    },
    {
     "filename":"I2KG2101220102.jpg",
     "pagination":{
      "pgfolios":{
       "value":"50b"
      }
     }
    },
    {
     "filename":"I2KG2101220103.jpg",
     "pagination":{
      "pgfolios":{
       "value":"51a"
      }
     }
    },
    {
     "filename":"I2KG2101220104.jpg",
     "pagination":{
      "pgfolios":{
       "value":"51b"
      }
     }
    },
    {
     "filename":"I2KG2101220105.jpg",
     "pagination":{
      "pgfolios":{
       "value":"52a"
      }
     }
    },
    {
     "filename":"I2KG2101220106.jpg",
     "pagination":{
      "pgfolios":{
       "value":"52b"
      }
     }
    },
    {
     "filename":"I2KG2101220107.jpg",
     "pagination":{
      "pgfolios":{
       "value":"53a"
      }
     }
    },
    {
     "filename":"I2KG2101220108.jpg",
     "pagination":{
      "pgfolios":{
       "value":"53b"
      }
     }
    },
    {
     "filename":"I2KG2101220109.jpg",
     "pagination":{
      "pgfolios":{
       "value":"54a"
      }
     }
    },
    {
     "filename":"I2KG2101220110.jpg",
     "pagination":{
      "pgfolios":{
       "value":"54b"
      }
     }
    },
    {
     "filename":"I2KG2101220111.jpg",
     "pagination":{
      "pgfolios":{
       "value":"55a"
      }
     }
    },
    {
     "filename":"I2KG2101220112.jpg",
     "pagination":{
      "pgfolios":{
       "value":"55b"
      }
     }
    },
    {
     "filename":"I2KG2101220113.jpg",
     "pagination":{
      "pgfolios":{
       "value":"56a"
      }
     }
    },
    {
     "filename":"I2KG2101220114.jpg",
     "pagination":{
      "pgfolios":{
       "value":"56b"
      }
     }
    },
    {
     "filename":"I2KG2101220115.jpg",
     "pagination":{
      "pgfolios":{
       "value":"57a"
      }
     }
    },
    {
     "filename":"I2KG2101220116.jpg",
     "pagination":{
      "pgfolios":{
       "value":"57b"
      }
     }
    },
    {
     "filename":"I2KG2101220117.jpg",
     "pagination":{
      "pgfolios":{
       "value":"58a"
      }
     }
    },
    {
     "filename":"I2KG2101220118.jpg",
     "pagination":{
      "pgfolios":{
       "value":"58b"
      }
     }
    },
    {
     "filename":"I2KG2101220119.jpg",
     "pagination":{
      "pgfolios":{
       "value":"59a"
      }
     }
    },
    {
     "filename":"I2KG2101220120.jpg",
     "pagination":{
      "pgfolios":{
       "value":"59b"
      }
     }
    },
    {
     "filename":"I2KG2101220121.jpg",
     "pagination":{
      "pgfolios":{
       "value":"60a"
      }
     }
    },
    {
     "filename":"I2KG2101220122.jpg",
     "pagination":{
      "pgfolios":{
       "value":"60b"
      }
     }
    },
    {
     "filename":"I2KG2101220123.jpg",
     "pagination":{
      "pgfolios":{
       "value":"61a"
      }
     }
    },
    {
     "filename":"I2KG2101220124.jpg",
     "pagination":{
      "pgfolios":{
       "value":"61b"
      }
     }
    },
    {
     "filename":"I2KG2101220125.jpg",
     "pagination":{
      "pgfolios":{
       "value":"62a"
      }
     }
    },
    {
     "filename":"I2KG2101220126.jpg",
     "pagination":{
      "pgfolios":{
       "value":"62b"
      }
     }
    },
    {
     "filename":"I2KG2101220127.jpg",
     "pagination":{
      "pgfolios":{
       "value":"63a"
      }
     }
    },
    {
     "filename":"I2KG2101220128.jpg",
     "pagination":{
      "pgfolios":{
       "value":"63b"
      }
     }
    },
    {
     "filename":"I2KG2101220129.jpg",
     "pagination":{
      "pgfolios":{
       "value":"64a"
      }
     }
    },
    {
     "filename":"I2KG2101220130.jpg",
     "pagination":{
      "pgfolios":{
       "value":"64b"
      }
     }
    },
    {
     "filename":"I2KG2101220131.jpg",
     "pagination":{
      "pgfolios":{
       "value":"65a"
      }
     }
    },
    {
     "filename":"I2KG2101220132.jpg",
     "pagination":{
      "pgfolios":{
       "value":"65b"
      }
     }
    },
    {
     "filename":"I2KG2101220133.jpg",
     "pagination":{
      "pgfolios":{
       "value":"66a"
      }
     }
    },
    {
     "filename":"I2KG2101220134.jpg",
     "pagination":{
      "pgfolios":{
       "value":"66b"
      }
     }
    },
    {
     "filename":"I2KG2101220135.jpg",
     "pagination":{
      "pgfolios":{
       "value":"67a"
      }
     }
    },
    {
     "filename":"I2KG2101220136.jpg",
     "pagination":{
      "pgfolios":{
       "value":"67b"
      }
     }
    },
    {
     "filename":"I2KG2101220137.jpg",
     "pagination":{
      "pgfolios":{
       "value":"68a"
      }
     }
    },
    {
     "filename":"I2KG2101220138.jpg",
     "pagination":{
      "pgfolios":{
       "value":"68b"
      }
     }
    },
    {
     "filename":"I2KG2101220139.jpg",
     "pagination":{
      "pgfolios":{
       "value":"69a"
      }
     }
    },
    {
     "filename":"I2KG2101220140.jpg",
     "pagination":{
      "pgfolios":{
       "value":"69b"
      }
     }
    },
    {
     "filename":"I2KG2101220141.jpg",
     "pagination":{
      "pgfolios":{
       "value":"70a"
      }
     }
    },
    {
     "filename":"I2KG2101220142.jpg",
     "pagination":{
      "pgfolios":{
       "value":"70b"
      }
     }
    },
    {
     "filename":"I2KG2101220143.jpg",
     "pagination":{
      "pgfolios":{
       "value":"71a"
      }
     }
    },
    {
     "filename":"I2KG2101220144.jpg",
     "pagination":{
      "pgfolios":{
       "value":"71b"
      }
     }
    },
    {
     "filename":"I2KG2101220145.jpg",
     "pagination":{
      "pgfolios":{
       "value":"72a"
      }
     }
    },
    {
     "filename":"I2KG2101220146.jpg",
     "pagination":{
      "pgfolios":{
       "value":"72b"
      }
     }
    },
    {
     "filename":"I2KG2101220147.jpg",
     "pagination":{
      "pgfolios":{
       "value":"73a"
      }
     }
    },
    {
     "filename":"I2KG2101220148.jpg",
     "pagination":{
      "pgfolios":{
       "value":"73b"
      }
     }
    },
    {
     "filename":"I2KG2101220149.jpg",
     "pagination":{
      "pgfolios":{
       "value":"74a"
      }
     }
    },
    {
     "filename":"I2KG2101220150.jpg",
     "pagination":{
      "pgfolios":{
       "value":"74b"
      }
     }
    },
    {
     "filename":"I2KG2101220151.jpg",
     "pagination":{
      "pgfolios":{
       "value":"75a"
      }
     }
    },
    {
     "filename":"I2KG2101220152.jpg",
     "pagination":{
      "pgfolios":{
       "value":"75b"
      }
     }
    },
    {
     "filename":"I2KG2101220153.jpg",
     "pagination":{
      "pgfolios":{
       "value":"76a"
      }
     }
    },
    {
     "filename":"I2KG2101220154.jpg",
     "pagination":{
      "pgfolios":{
       "value":"76b"
      }
     }
    },
    {
     "filename":"I2KG2101220155.jpg",
     "pagination":{
      "pgfolios":{
       "value":"77a"
      }
     }
    },
    {
     "filename":"I2KG2101220156.jpg",
     "pagination":{
      "pgfolios":{
       "value":"77b"
      }
     }
    },
    {
     "filename":"I2KG2101220157.jpg",
     "pagination":{
      "pgfolios":{
       "value":"78a"
      }
     }
    },
    {
     "filename":"I2KG2101220158.jpg",
     "pagination":{
      "pgfolios":{
       "value":"78b"
      }
     }
    },
    {
     "filename":"I2KG2101220159.jpg",
     "pagination":{
      "pgfolios":{
       "value":"79a"
      }
     }
    },
    {
     "filename":"I2KG2101220160.jpg",
     "pagination":{
      "pgfolios":{
       "value":"79b"
      }
     }
    },
    {
     "filename":"I2KG2101220161.jpg",
     "pagination":{
      "pgfolios":{
       "value":"80a"
      }
     }
    },
    {
     "filename":"I2KG2101220162.jpg",
     "pagination":{
      "pgfolios":{
       "value":"80b"
      }
     }
    },
    {
     "filename":"I2KG2101220163.jpg",
     "pagination":{
      "pgfolios":{
       "value":"81a"
      }
     }
    },
    {
     "filename":"I2KG2101220164.jpg",
     "pagination":{
      "pgfolios":{
       "value":"81b"
      }
     }
    },
    {
     "filename":"I2KG2101220165.jpg",
     "pagination":{
      "pgfolios":{
       "value":"82a"
      }
     }
    },
    {
     "filename":"I2KG2101220166.jpg",
     "pagination":{
      "pgfolios":{
       "value":"82b"
      }
     }
    },
    {
     "filename":"I2KG2101220167.jpg",
     "pagination":{
      "pgfolios":{
       "value":"83a"
      }
     }
    },
    {
     "filename":"I2KG2101220168.jpg",
     "pagination":{
      "pgfolios":{
       "value":"83b"
      }
     }
    },
    {
     "filename":"I2KG2101220169.jpg",
     "pagination":{
      "pgfolios":{
       "value":"84a"
      }
     }
    },
    {
     "filename":"I2KG2101220170.jpg",
     "pagination":{
      "pgfolios":{
       "value":"84b"
      }
     }
    },
    {
     "filename":"I2KG2101220171.jpg",
     "pagination":{
      "pgfolios":{
       "value":"85a"
      }
     }
    },
    {
     "filename":"I2KG2101220172.jpg",
     "pagination":{
      "pgfolios":{
       "value":"85b"
      }
     }
    },
    {
     "filename":"I2KG2101220173.jpg",
     "pagination":{
      "pgfolios":{
       "value":"86a"
      }
     }
    },
    {
     "filename":"I2KG2101220174.jpg",
     "pagination":{
      "pgfolios":{
       "value":"86b"
      }
     }
    },
    {
     "filename":"I2KG2101220175.jpg",
     "pagination":{
      "pgfolios":{
       "value":"87a"
      }
     }
    },
    {
     "filename":"I2KG2101220176.jpg",
     "pagination":{
      "pgfolios":{
       "value":"87b"
      }
     }
    },
    {
     "filename":"I2KG2101220177.jpg",
     "pagination":{
      "pgfolios":{
       "value":"88a"
      }
     }
    },
    {
     "filename":"I2KG2101220178.jpg",
     "pagination":{
      "pgfolios":{
       "value":"88b"
      }
     }
    },
    {
     "filename":"I2KG2101220179.jpg",
     "pagination":{
      "pgfolios":{
       "value":"89a"
      }
     }
    },
    {
     "filename":"I2KG2101220180.jpg",
     "pagination":{
      "pgfolios":{
       "value":"89b"
      }
     }
    },
    {
     "filename":"I2KG2101220181.jpg",
     "pagination":{
      "pgfolios":{
       "value":"90a"
      }
     }
    },
    {
     "filename":"I2KG2101220182.jpg",
     "pagination":{
      "pgfolios":{
       "value":"90b"
      }
     }
    },
    {
     "filename":"I2KG2101220183.jpg",
     "pagination":{
      "pgfolios":{
       "value":"91a"
      }
     }
    },
    {
     "filename":"I2KG2101220184.jpg",
     "pagination":{
      "pgfolios":{
       "value":"91b"
      }
     }
    },
    {
     "filename":"I2KG2101220185.jpg",
     "pagination":{
      "pgfolios":{
       "value":"92a"
      }
     }
    },
    {
     "filename":"I2KG2101220186.jpg",
     "pagination":{
      "pgfolios":{
       "value":"92b"
      }
     }
    },
    {
     "filename":"I2KG2101220187.jpg",
     "pagination":{
      "pgfolios":{
       "value":"93a"
      }
     }
    },
    {
     "filename":"I2KG2101220188.jpg",
     "pagination":{
      "pgfolios":{
       "value":"93b"
      }
     }
    },
    {
     "filename":"I2KG2101220189.jpg",
     "pagination":{
      "pgfolios":{
       "value":"94a"
      }
     }
    },
    {
     "filename":"I2KG2101220190.jpg",
     "pagination":{
      "pgfolios":{
       "value":"94b"
      }
     }
    },
    {
     "filename":"I2KG2101220191.jpg",
     "pagination":{
      "pgfolios":{
       "value":"95a"
      }
     }
    },
    {
     "filename":"I2KG2101220192.jpg",
     "pagination":{
      "pgfolios":{
       "value":"95b"
      }
     }
    },
    {
     "filename":"I2KG2101220193.jpg",
     "pagination":{
      "pgfolios":{
       "value":"96a"
      }
     }
    },
    {
     "filename":"I2KG2101220194.jpg",
     "pagination":{
      "pgfolios":{
       "value":"96b"
      }
     }
    },
    {
     "filename":"I2KG2101220195.jpg",
     "pagination":{
      "pgfolios":{
       "value":"97a"
      }
     }
    },
    {
     "filename":"I2KG2101220196.jpg",
     "pagination":{
      "pgfolios":{
       "value":"97b"
      }
     }
    },
    {
     "filename":"I2KG2101220197.jpg",
     "pagination":{
      "pgfolios":{
       "value":"98a"
      }
     }
    },
    {
     "filename":"I2KG2101220198.jpg",
     "pagination":{
      "pgfolios":{
       "value":"98b"
      }
     }
    },
    {
     "filename":"I2KG2101220199.jpg",
     "pagination":{
      "pgfolios":{
       "value":"99a"
      }
     }
    },
    {
     "filename":"I2KG2101220200.jpg",
     "pagination":{
      "pgfolios":{
       "value":"99b"
      }
     }
    },
    {
     "filename":"I2KG2101220201.jpg",
     "pagination":{
      "pgfolios":{
       "value":"100a"
      }
     }
    },
    {
     "filename":"I2KG2101220202.jpg",
     "pagination":{
      "pgfolios":{
       "value":"100b"
      }
     }
    },
    {
     "filename":"I2KG2101220203.jpg",
     "pagination":{
      "pgfolios":{
       "value":"101a"
      }
     }
    },
    {
     "filename":"I2KG2101220204.jpg",
     "pagination":{
      "pgfolios":{
       "value":"101b"
      }
     }
    },
    {
     "filename":"I2KG2101220205.jpg",
     "pagination":{
      "pgfolios":{
       "value":"102a"
      }
     }
    },
    {
     "filename":"I2KG2101220206.jpg",
     "pagination":{
      "pgfolios":{
       "value":"102b"
      }
     }
    },
    {
     "filename":"I2KG2101220207.jpg",
     "pagination":{
      "pgfolios":{
       "value":"103a"
      }
     }
    },
    {
     "filename":"I2KG2101220208.jpg",
     "pagination":{
      "pgfolios":{
       "value":"103b"
      }
     }
    },
    {
     "filename":"I2KG2101220209.jpg",
     "pagination":{
      "pgfolios":{
       "value":"104a"
      }
     }
    },
    {
     "filename":"I2KG2101220210.jpg",
     "pagination":{
      "pgfolios":{
       "value":"104b"
      }
     }
    },
    {
     "filename":"I2KG2101220211.jpg",
     "pagination":{
      "pgfolios":{
       "value":"105a"
      }
     }
    },
    {
     "filename":"I2KG2101220212.jpg",
     "pagination":{
      "pgfolios":{
       "value":"105b"
      }
     }
    },
    {
     "filename":"I2KG2101220213.jpg",
     "pagination":{
      "pgfolios":{
       "value":"106a"
      }
     }
    },
    {
     "filename":"I2KG2101220214.jpg",
     "pagination":{
      "pgfolios":{
       "value":"106b"
      }
     }
    },
    {
     "filename":"I2KG2101220215.jpg",
     "pagination":{
      "pgfolios":{
       "value":"107a"
      }
     }
    },
    {
     "filename":"I2KG2101220216.jpg",
     "pagination":{
      "pgfolios":{
       "value":"107b"
      }
     }
    },
    {
     "filename":"I2KG2101220217.jpg",
     "pagination":{
      "pgfolios":{
       "value":"108a"
      }
     }
    },
    {
     "filename":"I2KG2101220218.jpg",
     "pagination":{
      "pgfolios":{
       "value":"108b"
      }
     }
    },
    {
     "filename":"I2KG2101220219.jpg",
     "pagination":{
      "pgfolios":{
       "value":"109a"
      }
     }
    },
    {
     "filename":"I2KG2101220220.jpg",
     "pagination":{
      "pgfolios":{
       "value":"109b"
      }
     }
    },
    {
     "filename":"I2KG2101220221.jpg",
     "pagination":{
      "pgfolios":{
       "value":"110a"
      }
     }
    },
    {
     "filename":"I2KG2101220222.jpg",
     "pagination":{
      "pgfolios":{
       "value":"110b"
      }
     }
    },
    {
     "filename":"I2KG2101220223.jpg",
     "pagination":{
      "pgfolios":{
       "value":"111a"
      }
     }
    },
    {
     "filename":"I2KG2101220224.jpg",
     "pagination":{
      "pgfolios":{
       "value":"111b"
      }
     }
    },
    {
     "filename":"I2KG2101220225.jpg",
     "pagination":{
      "pgfolios":{
       "value":"112a"
      }
     }
    },
    {
     "filename":"I2KG2101220226.jpg",
     "pagination":{
      "pgfolios":{
       "value":"112b"
      }
     }
    },
    {
     "filename":"I2KG2101220227.jpg",
     "pagination":{
      "pgfolios":{
       "value":"113a"
      }
     }
    },
    {
     "filename":"I2KG2101220228.jpg",
     "pagination":{
      "pgfolios":{
       "value":"113b"
      }
     }
    },
    {
     "filename":"I2KG2101220229.jpg",
     "pagination":{
      "pgfolios":{
       "value":"114a"
      }
     }
    },
    {
     "filename":"I2KG2101220230.jpg",
     "pagination":{
      "pgfolios":{
       "value":"114b"
      }
     }
    },
    {
     "filename":"I2KG2101220231.jpg",
     "pagination":{
      "pgfolios":{
       "value":"115a"
      }
     }
    },
    {
     "filename":"I2KG2101220232.jpg",
     "pagination":{
      "pgfolios":{
       "value":"115b"
      }
     }
    },
    {
     "filename":"I2KG2101220233.jpg",
     "pagination":{
      "pgfolios":{
       "value":"116a"
      }
     }
    },
    {
     "filename":"I2KG2101220234.jpg",
     "pagination":{
      "pgfolios":{
       "value":"116b"
      }
     }
    },
    {
     "filename":"I2KG2101220235.jpg",
     "pagination":{
      "pgfolios":{
       "value":"117a"
      }
     }
    },
    {
     "filename":"I2KG2101220236.jpg",
     "pagination":{
      "pgfolios":{
       "value":"117b"
      }
     }
    },
    {
     "filename":"I2KG2101220237.jpg",
     "pagination":{
      "pgfolios":{
       "value":"118a"
      }
     }
    },
    {
     "filename":"I2KG2101220238.jpg",
     "pagination":{
      "pgfolios":{
       "value":"118b"
      }
     }
    },
    {
     "filename":"I2KG2101220239.jpg",
     "pagination":{
      "pgfolios":{
       "value":"119a"
      }
     }
    },
    {
     "filename":"I2KG2101220240.jpg",
     "pagination":{
      "pgfolios":{
       "value":"119b"
      }
     }
    },
    {
     "filename":"I2KG2101220241.jpg",
     "pagination":{
      "pgfolios":{
       "value":"120a"
      }
     }
    },
    {
     "filename":"I2KG2101220242.jpg",
     "pagination":{
      "pgfolios":{
       "value":"120b"
      }
     }
    },
    {
     "filename":"I2KG2101220243.jpg",
     "pagination":{
      "pgfolios":{
       "value":"121a"
      }
     }
    },
    {
     "filename":"I2KG2101220244.jpg",
     "pagination":{
      "pgfolios":{
       "value":"121b"
      }
     }
    },
    {
     "filename":"I2KG2101220245.jpg",
     "pagination":{
      "pgfolios":{
       "value":"122a"
      }
     }
    },
    {
     "filename":"I2KG2101220246.jpg",
     "pagination":{
      "pgfolios":{
       "value":"122b"
      }
     }
    },
    {
     "filename":"I2KG2101220247.jpg",
     "pagination":{
      "pgfolios":{
       "value":"123a"
      }
     }
    },
    {
     "filename":"I2KG2101220248.jpg",
     "pagination":{
      "pgfolios":{
       "value":"123b"
      }
     }
    },
    {
     "filename":"I2KG2101220249.jpg",
     "pagination":{
      "pgfolios":{
       "value":"124a"
      }
     }
    },
    {
     "filename":"I2KG2101220250.jpg",
     "pagination":{
      "pgfolios":{
       "value":"124b"
      }
     }
    },
    {
     "filename":"I2KG2101220251.jpg",
     "pagination":{
      "pgfolios":{
       "value":"125a"
      }
     }
    },
    {
     "filename":"I2KG2101220252.jpg",
     "pagination":{
      "pgfolios":{
       "value":"125b"
      }
     }
    },
    {
     "filename":"I2KG2101220253.jpg",
     "pagination":{
      "pgfolios":{
       "value":"126a"
      }
     }
    },
    {
     "filename":"I2KG2101220254.jpg",
     "pagination":{
      "pgfolios":{
       "value":"126b"
      }
     }
    },
    {
     "filename":"I2KG2101220255.jpg",
     "pagination":{
      "pgfolios":{
       "value":"127a"
      }
     }
    },
    {
     "filename":"I2KG2101220256.jpg",
     "pagination":{
      "pgfolios":{
       "value":"127b"
      }
     }
    },
    {
     "filename":"I2KG2101220257.jpg",
     "pagination":{
      "pgfolios":{
       "value":"128a"
      }
     }
    },
    {
     "filename":"I2KG2101220258.jpg",
     "pagination":{
      "pgfolios":{
       "value":"128b"
      }
     }
    },
    {
     "filename":"I2KG2101220259.jpg",
     "pagination":{
      "pgfolios":{
       "value":"129a"
      }
     }
    },
    {
     "filename":"I2KG2101220260.jpg",
     "pagination":{
      "pgfolios":{
       "value":"129b"
      }
     }
    },
    {
     "filename":"I2KG2101220261.jpg",
     "pagination":{
      "pgfolios":{
       "value":"130a"
      }
     }
    },
    {
     "filename":"I2KG2101220262.jpg",
     "pagination":{
      "pgfolios":{
       "value":"130b"
      }
     }
    },
    {
     "filename":"I2KG2101220263.jpg",
     "pagination":{
      "pgfolios":{
       "value":"131a"
      }
     }
    },
    {
     "filename":"I2KG2101220264.jpg",
     "pagination":{
      "pgfolios":{
       "value":"131b"
      }
     }
    },
    {
     "filename":"I2KG2101220265.jpg",
     "pagination":{
      "pgfolios":{
       "value":"132a"
      }
     }
    },
    {
     "filename":"I2KG2101220266.jpg",
     "pagination":{
      "pgfolios":{
       "value":"132b"
      }
     }
    },
    {
     "filename":"I2KG2101220267.jpg",
     "pagination":{
      "pgfolios":{
       "value":"133a"
      }
     }
    },
    {
     "filename":"I2KG2101220268.jpg",
     "pagination":{
      "pgfolios":{
       "value":"133b"
      }
     }
    },
    {
     "filename":"I2KG2101220269.jpg",
     "pagination":{
      "pgfolios":{
       "value":"134a"
      }
     }
    },
    {
     "filename":"I2KG2101220270.jpg",
     "pagination":{
      "pgfolios":{
       "value":"134b"
      }
     }
    },
    {
     "filename":"I2KG2101220271.jpg",
     "pagination":{
      "pgfolios":{
       "value":"135a"
      }
     }
    },
    {
     "filename":"I2KG2101220272.jpg",
     "pagination":{
      "pgfolios":{
       "value":"135b"
      }
     }
    },
    {
     "filename":"I2KG2101220273.jpg",
     "pagination":{
      "pgfolios":{
       "value":"136a"
      }
     }
    },
    {
     "filename":"I2KG2101220274.jpg",
     "pagination":{
      "pgfolios":{
       "value":"136b"
      }
     }
    },
    {
     "filename":"I2KG2101220275.jpg",
     "pagination":{
      "pgfolios":{
       "value":"137a"
      }
     }
    },
    {
     "filename":"I2KG2101220276.jpg",
     "pagination":{
      "pgfolios":{
       "value":"137b"
      }
     }
    },
    {
     "filename":"I2KG2101220277.jpg",
     "pagination":{
      "pgfolios":{
       "value":"138a"
      }
     }
    },
    {
     "filename":"I2KG2101220278.jpg",
     "pagination":{
      "pgfolios":{
       "value":"138b"
      }
     }
    },
    {
     "filename":"I2KG2101220279.jpg",
     "pagination":{
      "pgfolios":{
       "value":"139a"
      }
     }
    },
    {
     "filename":"I2KG2101220280.jpg",
     "pagination":{
      "pgfolios":{
       "value":"139b"
      }
     }
    },
    {
     "filename":"I2KG2101220281.jpg",
     "pagination":{
      "pgfolios":{
       "value":"140a"
      }
     }
    },
    {
     "filename":"I2KG2101220282.jpg",
     "pagination":{
      "pgfolios":{
       "value":"140b"
      }
     }
    },
    {
     "filename":"I2KG2101220283.jpg",
     "pagination":{
      "pgfolios":{
       "value":"141a"
      }
     }
    },
    {
     "filename":"I2KG2101220284.jpg",
     "pagination":{
      "pgfolios":{
       "value":"141b"
      }
     }
    },
    {
     "filename":"I2KG2101220285.jpg",
     "pagination":{
      "pgfolios":{
       "value":"142a"
      }
     }
    },
    {
     "filename":"I2KG2101220286.jpg",
     "pagination":{
      "pgfolios":{
       "value":"142b"
      }
     }
    },
    {
     "filename":"I2KG2101220287.jpg",
     "pagination":{
      "pgfolios":{
       "value":"143a"
      }
     }
    },
    {
     "filename":"I2KG2101220288.jpg",
     "pagination":{
      "pgfolios":{
       "value":"143b"
      }
     }
    },
    {
     "filename":"I2KG2101220289.jpg",
     "pagination":{
      "pgfolios":{
       "value":"144a"
      }
     }
    },
    {
     "filename":"I2KG2101220290.jpg",
     "pagination":{
      "pgfolios":{
       "value":"144b"
      }
     }
    },
    {
     "filename":"I2KG2101220291.jpg",
     "pagination":{
      "pgfolios":{
       "value":"145a"
      }
     }
    },
    {
     "filename":"I2KG2101220292.jpg",
     "pagination":{
      "pgfolios":{
       "value":"145b"
      }
     }
    },
    {
     "filename":"I2KG2101220293.jpg",
     "pagination":{
      "pgfolios":{
       "value":"146a"
      }
     }
    },
    {
     "filename":"I2KG2101220294.jpg",
     "pagination":{
      "pgfolios":{
       "value":"146b"
      }
     }
    },
    {
     "filename":"I2KG2101220295.jpg",
     "pagination":{
      "pgfolios":{
       "value":"147a"
      }
     }
    },
    {
     "filename":"I2KG2101220296.jpg",
     "pagination":{
      "pgfolios":{
       "value":"147b"
      }
     }
    },
    {
     "filename":"I2KG2101220297.jpg",
     "pagination":{
      "pgfolios":{
       "value":"148a"
      }
     }
    },
    {
     "filename":"I2KG2101220298.jpg",
     "pagination":{
      "pgfolios":{
       "value":"148b"
      }
     }
    },
    {
     "filename":"I2KG2101220299.jpg",
     "pagination":{
      "pgfolios":{
       "value":"149a"
      }
     }
    },
    {
     "filename":"I2KG2101220300.jpg",
     "pagination":{
      "pgfolios":{
       "value":"149b"
      }
     }
    },
    {
     "filename":"I2KG2101220301.jpg",
     "pagination":{
      "pgfolios":{
       "value":"150a"
      }
     }
    },
    {
     "filename":"I2KG2101220302.jpg",
     "pagination":{
      "pgfolios":{
       "value":"150b"
      }
     }
    },
    {
     "filename":"I2KG2101220303.jpg",
     "pagination":{
      "pgfolios":{
       "value":"151a"
      }
     }
    },
    {
     "filename":"I2KG2101220304.jpg",
     "pagination":{
      "pgfolios":{
       "value":"151b"
      }
     }
    },
    {
     "filename":"I2KG2101220305.jpg",
     "pagination":{
      "pgfolios":{
       "value":"152a"
      }
     }
    },
    {
     "filename":"I2KG2101220306.jpg",
     "pagination":{
      "pgfolios":{
       "value":"152b"
      }
     }
    },
    {
     "filename":"I2KG2101220307.jpg",
     "pagination":{
      "pgfolios":{
       "value":"153a"
      }
     }
    },
    {
     "filename":"I2KG2101220308.jpg",
     "pagination":{
      "pgfolios":{
       "value":"153b"
      }
     }
    },
    {
     "filename":"I2KG2101220309.jpg",
     "pagination":{
      "pgfolios":{
       "value":"154a"
      }
     }
    },
    {
     "filename":"I2KG2101220310.jpg",
     "pagination":{
      "pgfolios":{
       "value":"154b"
      }
     }
    },
    {
     "filename":"I2KG2101220311.jpg",
     "pagination":{
      "pgfolios":{
       "value":"155a"
      }
     }
    },
    {
     "filename":"I2KG2101220312.jpg",
     "pagination":{
      "pgfolios":{
       "value":"155b"
      }
     }
    },
    {
     "filename":"I2KG2101220313.jpg",
     "pagination":{
      "pgfolios":{
       "value":"156a"
      }
     }
    },
    {
     "filename":"I2KG2101220314.jpg",
     "pagination":{
      "pgfolios":{
       "value":"156b"
      }
     }
    },
    {
     "filename":"I2KG2101220315.jpg",
     "pagination":{
      "pgfolios":{
       "value":"157a"
      }
     }
    },
    {
     "filename":"I2KG2101220316.jpg",
     "pagination":{
      "pgfolios":{
       "value":"157b"
      }
     }
    },
    {
     "filename":"I2KG2101220317.jpg",
     "pagination":{
      "pgfolios":{
       "value":"158a"
      }
     }
    },
    {
     "filename":"I2KG2101220318.jpg",
     "pagination":{
      "pgfolios":{
       "value":"158b"
      }
     }
    },
    {
     "filename":"I2KG2101220319.jpg",
     "pagination":{
      "pgfolios":{
       "value":"159a"
      }
     }
    },
    {
     "filename":"I2KG2101220320.jpg",
     "pagination":{
      "pgfolios":{
       "value":"159b"
      }
     }
    },
    {
     "filename":"I2KG2101220321.jpg",
     "pagination":{
      "pgfolios":{
       "value":"160a"
      }
     }
    },
    {
     "filename":"I2KG2101220322.jpg",
     "pagination":{
      "pgfolios":{
       "value":"160b"
      }
     }
    },
    {
     "filename":"I2KG2101220323.jpg",
     "pagination":{
      "pgfolios":{
       "value":"161a"
      }
     }
    },
    {
     "filename":"I2KG2101220324.jpg",
     "pagination":{
      "pgfolios":{
       "value":"161b"
      }
     }
    },
    {
     "filename":"I2KG2101220325.jpg",
     "pagination":{
      "pgfolios":{
       "value":"162a"
      }
     }
    },
    {
     "filename":"I2KG2101220326.jpg",
     "pagination":{
      "pgfolios":{
       "value":"162b"
      }
     }
    },
    {
     "filename":"I2KG2101220327.jpg",
     "pagination":{
      "pgfolios":{
       "value":"163a"
      }
     }
    },
    {
     "filename":"I2KG2101220328.jpg",
     "pagination":{
      "pgfolios":{
       "value":"163b"
      }
     }
    },
    {
     "filename":"I2KG2101220329.jpg",
     "pagination":{
      "pgfolios":{
       "value":"164a"
      }
     }
    },
    {
     "filename":"I2KG2101220330.jpg",
     "pagination":{
      "pgfolios":{
       "value":"164b"
      }
     }
    },
    {
     "filename":"I2KG2101220331.jpg",
     "pagination":{
      "pgfolios":{
       "value":"165a"
      }
     }
    },
    {
     "filename":"I2KG2101220332.jpg",
     "pagination":{
      "pgfolios":{
       "value":"165b"
      }
     }
    },
    {
     "filename":"I2KG2101220333.jpg",
     "pagination":{
      "pgfolios":{
       "value":"166a"
      }
     }
    },
    {
     "filename":"I2KG2101220334.jpg",
     "pagination":{
      "pgfolios":{
       "value":"166b"
      }
     }
    },
    {
     "filename":"I2KG2101220335.jpg",
     "pagination":{
      "pgfolios":{
       "value":"167a"
      }
     }
    },
    {
     "filename":"I2KG2101220336.jpg",
     "pagination":{
      "pgfolios":{
       "value":"167b"
      }
     }
    },
    {
     "filename":"I2KG2101220337.jpg",
     "pagination":{
      "pgfolios":{
       "value":"168a"
      }
     }
    },
    {
     "filename":"I2KG2101220338.jpg",
     "pagination":{
      "pgfolios":{
       "value":"168b"
      }
     }
    },
    {
     "filename":"I2KG2101220339.jpg",
     "pagination":{
      "pgfolios":{
       "value":"169a"
      }
     }
    },
    {
     "filename":"I2KG2101220340.jpg",
     "pagination":{
      "pgfolios":{
       "value":"169b"
      }
     }
    },
    {
     "filename":"I2KG2101220341.jpg",
     "pagination":{
      "pgfolios":{
       "value":"170a"
      }
     }
    },
    {
     "filename":"I2KG2101220342.jpg",
     "pagination":{
      "pgfolios":{
       "value":"170b"
      }
     }
    },
    {
     "filename":"I2KG2101220343.jpg",
     "pagination":{
      "pgfolios":{
       "value":"171a"
      }
     }
    },
    {
     "filename":"I2KG2101220344.jpg",
     "pagination":{
      "pgfolios":{
       "value":"171b"
      }
     }
    },
    {
     "filename":"I2KG2101220345.jpg",
     "pagination":{
      "pgfolios":{
       "value":"172a"
      }
     }
    },
    {
     "filename":"I2KG2101220346.jpg",
     "pagination":{
      "pgfolios":{
       "value":"172b"
      }
     }
    },
    {
     "filename":"I2KG2101220347.jpg",
     "pagination":{
      "pgfolios":{
       "value":"173a"
      }
     }
    },
    {
     "filename":"I2KG2101220348.jpg",
     "pagination":{
      "pgfolios":{
       "value":"173b"
      }
     }
    },
    {
     "filename":"I2KG2101220349.jpg",
     "pagination":{
      "pgfolios":{
       "value":"174a"
      }
     }
    },
    {
     "filename":"I2KG2101220350.jpg",
     "pagination":{
      "pgfolios":{
       "value":"174b"
      }
     }
    },
    {
     "filename":"I2KG2101220351.jpg",
     "pagination":{
      "pgfolios":{
       "value":"175a"
      }
     }
    },
    {
     "filename":"I2KG2101220352.jpg",
     "pagination":{
      "pgfolios":{
       "value":"175b"
      }
     }
    },
    {
     "filename":"I2KG2101220353.jpg",
     "pagination":{
      "pgfolios":{
       "value":"176a"
      }
     }
    },
    {
     "filename":"I2KG2101220354.jpg",
     "pagination":{
      "pgfolios":{
       "value":"176b"
      }
     }
    },
    {
     "filename":"I2KG2101220355.jpg",
     "pagination":{
      "pgfolios":{
       "value":"177a"
      }
     }
    },
    {
     "filename":"I2KG2101220356.jpg",
     "pagination":{
      "pgfolios":{
       "value":"177b"
      }
     }
    },
    {
     "filename":"I2KG2101220357.jpg",
     "pagination":{
      "pgfolios":{
       "value":"178a"
      }
     }
    },
    {
     "filename":"I2KG2101220358.jpg",
     "pagination":{
      "pgfolios":{
       "value":"178b"
      }
     }
    },
    {
     "filename":"I2KG2101220359.jpg",
     "pagination":{
      "pgfolios":{
       "value":"179a"
      }
     }
    },
    {
     "filename":"I2KG2101220360.jpg",
     "pagination":{
      "pgfolios":{
       "value":"179b"
      }
     }
    },
    {
     "filename":"I2KG2101220361.jpg",
     "pagination":{
      "pgfolios":{
       "value":"180a"
      }
     }
    },
    {
     "filename":"I2KG2101220362.jpg",
     "pagination":{
      "pgfolios":{
       "value":"180b"
      }
     }
    },
    {
     "filename":"I2KG2101220363.jpg",
     "pagination":{
      "pgfolios":{
       "value":"181a"
      }
     }
    },
    {
     "filename":"I2KG2101220364.jpg",
     "pagination":{
      "pgfolios":{
       "value":"181b"
      }
     }
    },
    {
     "filename":"I2KG2101220365.jpg",
     "pagination":{
      "pgfolios":{
       "value":"182a"
      }
     }
    },
    {
     "filename":"I2KG2101220366.jpg",
     "pagination":{
      "pgfolios":{
       "value":"182b"
      }
     }
    },
    {
     "filename":"I2KG2101220367.jpg",
     "pagination":{
      "pgfolios":{
       "value":"183a"
      }
     }
    },
    {
     "filename":"I2KG2101220368.jpg",
     "pagination":{
      "pgfolios":{
       "value":"183b"
      }
     }
    },
    {
     "filename":"I2KG2101220369.jpg",
     "pagination":{
      "pgfolios":{
       "value":"184a"
      }
     }
    },
    {
     "filename":"I2KG2101220370.jpg",
     "pagination":{
      "pgfolios":{
       "value":"184b"
      }
     }
    },
    {
     "filename":"I2KG2101220371.jpg",
     "pagination":{
      "pgfolios":{
       "value":"185a"
      }
     }
    },
    {
     "filename":"I2KG2101220372.jpg",
     "pagination":{
      "pgfolios":{
       "value":"185b"
      }
     }
    },
    {
     "filename":"I2KG2101220373.jpg",
     "pagination":{
      "pgfolios":{
       "value":"186a"
      }
     }
    },
    {
     "filename":"I2KG2101220374.jpg",
     "pagination":{
      "pgfolios":{
       "value":"186b"
      }
     }
    },
    {
     "filename":"I2KG2101220375.jpg",
     "pagination":{
      "pgfolios":{
       "value":"187a"
      }
     }
    },
    {
     "filename":"I2KG2101220376.jpg",
     "pagination":{
      "pgfolios":{
       "value":"187b"
      }
     }
    },
    {
     "filename":"I2KG2101220377.jpg",
     "pagination":{
      "pgfolios":{
       "value":"188a"
      }
     }
    },
    {
     "filename":"I2KG2101220378.jpg",
     "pagination":{
      "pgfolios":{
       "value":"188b"
      }
     }
    },
    {
     "filename":"I2KG2101220379.jpg",
     "pagination":{
      "pgfolios":{
       "value":"189a"
      }
     }
    },
    {
     "filename":"I2KG2101220380.jpg",
     "pagination":{
      "pgfolios":{
       "value":"189b"
      }
     }
    },
    {
     "filename":"I2KG2101220381.jpg",
     "pagination":{
      "pgfolios":{
       "value":"190a"
      }
     }
    },
    {
     "filename":"I2KG2101220382.jpg",
     "pagination":{
      "pgfolios":{
       "value":"190b"
      }
     }
    },
    {
     "filename":"I2KG2101220383.jpg",
     "pagination":{
      "pgfolios":{
       "value":"191a"
      }
     }
    },
    {
     "filename":"I2KG2101220384.jpg",
     "pagination":{
      "pgfolios":{
       "value":"191b"
      }
     }
    },
    {
     "filename":"I2KG2101220385.jpg",
     "pagination":{
      "pgfolios":{
       "value":"192a"
      }
     }
    },
    {
     "filename":"I2KG2101220386.jpg",
     "pagination":{
      "pgfolios":{
       "value":"192b"
      }
     }
    },
    {
     "filename":"I2KG2101220387.jpg",
     "pagination":{
      "pgfolios":{
       "value":"193a"
      }
     }
    },
    {
     "filename":"I2KG2101220388.jpg",
     "pagination":{
      "pgfolios":{
       "value":"193b"
      }
     }
    },
    {
     "filename":"I2KG2101220389.jpg",
     "pagination":{
      "pgfolios":{
       "value":"194a"
      }
     }
    },
    {
     "filename":"I2KG2101220390.jpg",
     "pagination":{
      "pgfolios":{
       "value":"194b"
      }
     }
    },
    {
     "filename":"I2KG2101220391.jpg",
     "pagination":{
      "pgfolios":{
       "value":"195a"
      }
     }
    },
    {
     "filename":"I2KG2101220392.jpg",
     "pagination":{
      "pgfolios":{
       "value":"195b"
      }
     }
    },
    {
     "filename":"I2KG2101220393.jpg",
     "pagination":{
      "pgfolios":{
       "value":"196a"
      }
     }
    },
    {
     "filename":"I2KG2101220394.jpg",
     "pagination":{
      "pgfolios":{
       "value":"196b"
      }
     }
    },
    {
     "filename":"I2KG2101220395.jpg",
     "pagination":{
      "pgfolios":{
       "value":"197a"
      }
     }
    },
    {
     "filename":"I2KG2101220396.jpg",
     "pagination":{
      "pgfolios":{
       "value":"197b"
      }
     }
    },
    {
     "filename":"I2KG2101220397.jpg",
     "pagination":{
      "pgfolios":{
       "value":"198a"
      }
     }
    },
    {
     "filename":"I2KG2101220398.jpg",
     "pagination":{
      "pgfolios":{
       "value":"198b"
      }
     }
    },
    {
     "filename":"I2KG2101220399.jpg",
     "pagination":{
      "pgfolios":{
       "value":"199a"
      }
     }
    },
    {
     "filename":"I2KG2101220400.jpg",
     "pagination":{
      "pgfolios":{
       "value":"199b"
      }
     }
    },
    {
     "filename":"I2KG2101220401.jpg",
     "pagination":{
      "pgfolios":{
       "value":"200a"
      }
     }
    },
    {
     "filename":"I2KG2101220402.jpg",
     "pagination":{
      "pgfolios":{
       "value":"200b"
      }
     }
    },
    {
     "filename":"I2KG2101220403.jpg",
     "pagination":{
      "pgfolios":{
       "value":"201a"
      }
     }
    },
    {
     "filename":"I2KG2101220404.jpg",
     "pagination":{
      "pgfolios":{
       "value":"201b"
      }
     }
    },
    {
     "filename":"I2KG2101220405.jpg",
     "pagination":{
      "pgfolios":{
       "value":"202a"
      }
     }
    },
    {
     "filename":"I2KG2101220406.jpg",
     "pagination":{
      "pgfolios":{
       "value":"202b"
      }
     }
    },
    {
     "filename":"I2KG2101220407.jpg",
     "pagination":{
      "pgfolios":{
       "value":"203a"
      }
     }
    },
    {
     "filename":"I2KG2101220408.jpg",
     "pagination":{
      "pgfolios":{
       "value":"203b"
      }
     }
    },
    {
     "filename":"I2KG2101220409.jpg",
     "pagination":{
      "pgfolios":{
       "value":"204a"
      }
     }
    },
    {
     "filename":"I2KG2101220410.jpg",
     "pagination":{
      "pgfolios":{
       "value":"204b"
      }
     }
    },
    {
     "filename":"I2KG2101220411.jpg",
     "pagination":{
      "pgfolios":{
       "value":"205a"
      }
     }
    },
    {
     "filename":"I2KG2101220412.jpg",
     "pagination":{
      "pgfolios":{
       "value":"205b"
      }
     }
    },
    {
     "filename":"I2KG2101220413.jpg",
     "pagination":{
      "pgfolios":{
       "value":"206a"
      }
     }
    },
    {
     "filename":"I2KG2101220414.jpg",
     "pagination":{
      "pgfolios":{
       "value":"206b"
      }
     }
    },
    {
     "filename":"I2KG2101220415.jpg",
     "pagination":{
      "pgfolios":{
       "value":"207a"
      }
     }
    },
    {
     "filename":"I2KG2101220416.jpg",
     "pagination":{
      "pgfolios":{
       "value":"207b"
      }
     }
    },
    {
     "filename":"I2KG2101220417.jpg",
     "pagination":{
      "pgfolios":{
       "value":"208a"
      }
     }
    },
    {
     "filename":"I2KG2101220418.jpg",
     "pagination":{
      "pgfolios":{
       "value":"208b"
      }
     }
    },
    {
     "filename":"I2KG2101220419.jpg",
     "pagination":{
      "pgfolios":{
       "value":"209a"
      }
     }
    },
    {
     "filename":"I2KG2101220420.jpg",
     "pagination":{
      "pgfolios":{
       "value":"209b"
      }
     }
    },
    {
     "filename":"I2KG2101220421.jpg",
     "pagination":{
      "pgfolios":{
       "value":"210a"
      }
     }
    },
    {
     "filename":"I2KG2101220422.jpg",
     "pagination":{
      "pgfolios":{
       "value":"210b"
      }
     }
    },
    {
     "filename":"I2KG2101220423.jpg",
     "pagination":{
      "pgfolios":{
       "value":"211a"
      }
     }
    },
    {
     "filename":"I2KG2101220424.jpg",
     "pagination":{
      "pgfolios":{
       "value":"211b"
      }
     }
    },
    {
     "filename":"I2KG2101220425.jpg",
     "pagination":{
      "pgfolios":{
       "value":"212a"
      }
     }
    },
    {
     "filename":"I2KG2101220426.jpg",
     "pagination":{
      "pgfolios":{
       "value":"212b"
      }
     }
    },
    {
     "filename":"I2KG2101220427.jpg",
     "pagination":{
      "pgfolios":{
       "value":"213a"
      }
     }
    },
    {
     "filename":"I2KG2101220428.jpg",
     "pagination":{
      "pgfolios":{
       "value":"213b"
      }
     }
    },
    {
     "filename":"I2KG2101220429.jpg",
     "pagination":{
      "pgfolios":{
       "value":"214a"
      }
     }
    },
    {
     "filename":"I2KG2101220430.jpg",
     "pagination":{
      "pgfolios":{
       "value":"214b"
      }
     }
    },
    {
     "filename":"I2KG2101220431.jpg",
     "pagination":{
      "pgfolios":{
       "value":"215a"
      }
     }
    },
    {
     "filename":"I2KG2101220432.jpg",
     "pagination":{
      "pgfolios":{
       "value":"215b"
      }
     }
    },
    {
     "filename":"I2KG2101220433.jpg",
     "pagination":{
      "pgfolios":{
       "value":"216a"
      }
     }
    },
    {
     "filename":"I2KG2101220434.jpg",
     "pagination":{
      "pgfolios":{
       "value":"216b"
      }
     }
    },
    {
     "filename":"I2KG2101220435.jpg",
     "pagination":{
      "pgfolios":{
       "value":"217a"
      }
     }
    },
    {
     "filename":"I2KG2101220436.jpg",
     "pagination":{
      "pgfolios":{
       "value":"217b"
      }
     }
    },
    {
     "filename":"I2KG2101220437.jpg",
     "pagination":{
      "pgfolios":{
       "value":"218a"
      }
     }
    },
    {
     "filename":"I2KG2101220438.jpg",
     "pagination":{
      "pgfolios":{
       "value":"218b"
      }
     }
    },
    {
     "filename":"I2KG2101220439.jpg",
     "pagination":{
      "pgfolios":{
       "value":"219a"
      }
     }
    },
    {
     "filename":"I2KG2101220440.jpg",
     "pagination":{
      "pgfolios":{
       "value":"219b"
      }
     }
    },
    {
     "filename":"I2KG2101220441.jpg",
     "pagination":{
      "pgfolios":{
       "value":"220a"
      }
     }
    },
    {
     "filename":"I2KG2101220442.jpg",
     "pagination":{
      "pgfolios":{
       "value":"220b"
      }
     }
    },
    {
     "filename":"I2KG2101220443.jpg",
     "pagination":{
      "pgfolios":{
       "value":"221a"
      }
     }
    },
    {
     "filename":"I2KG2101220444.jpg",
     "pagination":{
      "pgfolios":{
       "value":"221b"
      }
     }
    },
    {
     "filename":"I2KG2101220445.jpg",
     "pagination":{
      "pgfolios":{
       "value":"222a"
      }
     }
    },
    {
     "filename":"I2KG2101220446.jpg",
     "pagination":{
      "pgfolios":{
       "value":"222b"
      }
     }
    },
    {
     "filename":"I2KG2101220447.jpg",
     "pagination":{
      "pgfolios":{
       "value":"223a"
      }
     }
    },
    {
     "filename":"I2KG2101220448.jpg",
     "pagination":{
      "pgfolios":{
       "value":"223b"
      }
     }
    },
    {
     "filename":"I2KG2101220449.jpg",
     "pagination":{
      "pgfolios":{
       "value":"224a"
      }
     }
    },
    {
     "filename":"I2KG2101220450.jpg",
     "pagination":{
      "pgfolios":{
       "value":"224b"
      }
     }
    },
    {
     "filename":"I2KG2101220451.jpg",
     "pagination":{
      "pgfolios":{
       "value":"225a"
      }
     }
    },
    {
     "filename":"I2KG2101220452.jpg",
     "pagination":{
      "pgfolios":{
       "value":"225b"
      }
     }
    },
    {
     "filename":"I2KG2101220453.jpg",
     "pagination":{
      "pgfolios":{
       "value":"226a"
      }
     }
    },
    {
     "filename":"I2KG2101220454.jpg",
     "pagination":{
      "pgfolios":{
       "value":"226b"
      }
     }
    },
    {
     "filename":"I2KG2101220455.jpg",
     "pagination":{
      "pgfolios":{
       "value":"227a"
      }
     }
    },
    {
     "filename":"I2KG2101220456.jpg",
     "pagination":{
      "pgfolios":{
       "value":"227b"
      }
     }
    },
    {
     "filename":"I2KG2101220457.jpg",
     "pagination":{
      "pgfolios":{
       "value":"228a"
      }
     }
    },
    {
     "filename":"I2KG2101220458.jpg",
     "pagination":{
      "pgfolios":{
       "value":"228b"
      }
     }
    },
    {
     "filename":"I2KG2101220459.jpg",
     "pagination":{
      "pgfolios":{
       "value":"229a"
      }
     }
    },
    {
     "filename":"I2KG2101220460.jpg",
     "pagination":{
      "pgfolios":{
       "value":"229b"
      }
     }
    },
    {
     "filename":"I2KG2101220461.jpg",
     "pagination":{
      "pgfolios":{
       "value":"230a"
      }
     }
    },
    {
     "filename":"I2KG2101220462.jpg",
     "pagination":{
      "pgfolios":{
       "value":"230b"
      }
     }
    },
    {
     "filename":"I2KG2101220463.jpg",
     "pagination":{
      "pgfolios":{
       "value":"231a"
      }
     }
    },
    {
     "filename":"I2KG2101220464.jpg",
     "pagination":{
      "pgfolios":{
       "value":"231b"
      }
     }
    },
    {
     "filename":"I2KG2101220465.jpg",
     "pagination":{
      "pgfolios":{
       "value":"232a"
      }
     }
    },
    {
     "filename":"I2KG2101220466.jpg",
     "pagination":{
      "pgfolios":{
       "value":"232b"
      }
     }
    },
    {
     "filename":"I2KG2101220467.jpg",
     "pagination":{
      "pgfolios":{
       "value":"233a"
      }
     }
    },
    {
     "filename":"I2KG2101220468.jpg",
     "pagination":{
      "pgfolios":{
       "value":"233b"
      }
     }
    },
    {
     "filename":"I2KG2101220469.jpg",
     "pagination":{
      "pgfolios":{
       "value":"234a"
      }
     }
    },
    {
     "filename":"I2KG2101220470.jpg",
     "pagination":{
      "pgfolios":{
       "value":"234b"
      }
     }
    },
    {
     "filename":"I2KG2101220471.jpg",
     "pagination":{
      "pgfolios":{
       "value":"235a"
      }
     }
    },
    {
     "filename":"I2KG2101220472.jpg",
     "pagination":{
      "pgfolios":{
       "value":"235b"
      }
     }
    },
    {
     "filename":"I2KG2101220473.jpg",
     "pagination":{
      "pgfolios":{
       "value":"236a"
      }
     }
    },
    {
     "filename":"I2KG2101220474.jpg",
     "pagination":{
      "pgfolios":{
       "value":"236b"
      }
     }
    },
    {
     "filename":"I2KG2101220475.jpg",
     "pagination":{
      "pgfolios":{
       "value":"237a"
      }
     }
    },
    {
     "filename":"I2KG2101220476.jpg",
     "pagination":{
      "pgfolios":{
       "value":"237b"
      }
     }
    },
    {
     "filename":"I2KG2101220477.jpg",
     "pagination":{
      "pgfolios":{
       "value":"238a"
      }
     }
    },
    {
     "filename":"I2KG2101220478.jpg",
     "pagination":{
      "pgfolios":{
       "value":"238b"
      }
     }
    },
    {
     "filename":"I2KG2101220479.jpg",
     "pagination":{
      "pgfolios":{
       "value":"239a"
      }
     }
    },
    {
     "filename":"I2KG2101220480.jpg",
     "pagination":{
      "pgfolios":{
       "value":"239b"
      }
     }
    },
    {
     "filename":"I2KG2101220481.jpg",
     "pagination":{
      "pgfolios":{
       "value":"240a"
      }
     }
    },
    {
     "filename":"I2KG2101220482.jpg",
     "pagination":{
      "pgfolios":{
       "value":"240b"
      }
     }
    },
    {
     "filename":"I2KG2101220483.jpg",
     "pagination":{
      "pgfolios":{
       "value":"241a"
      }
     }
    },
    {
     "filename":"I2KG2101220484.jpg",
     "pagination":{
      "pgfolios":{
       "value":"241b"
      }
     }
    },
    {
     "filename":"I2KG2101220485.jpg",
     "pagination":{
      "pgfolios":{
       "value":"242a"
      }
     }
    },
    {
     "filename":"I2KG2101220486.jpg",
     "pagination":{
      "pgfolios":{
       "value":"242b"
      }
     }
    },
    {
     "filename":"I2KG2101220487.jpg",
     "pagination":{
      "pgfolios":{
       "value":"243a"
      }
     }
    },
    {
     "filename":"I2KG2101220488.jpg",
     "pagination":{
      "pgfolios":{
       "value":"243b"
      }
     }
    },
    {
     "filename":"I2KG2101220489.jpg",
     "pagination":{
      "pgfolios":{
       "value":"244a"
      }
     }
    },
    {
     "filename":"I2KG2101220490.jpg",
     "pagination":{
      "pgfolios":{
       "value":"244b"
      }
     }
    },
    {
     "filename":"I2KG2101220491.jpg",
     "pagination":{
      "pgfolios":{
       "value":"245a"
      }
     }
    },
    {
     "filename":"I2KG2101220492.jpg",
     "pagination":{
      "pgfolios":{
       "value":"245b"
      }
     }
    },
    {
     "filename":"I2KG2101220493.jpg",
     "pagination":{
      "pgfolios":{
       "value":"246a"
      }
     }
    },
    {
     "filename":"I2KG2101220494.jpg",
     "pagination":{
      "pgfolios":{
       "value":"246b"
      }
     }
    },
    {
     "filename":"I2KG2101220495.jpg",
     "pagination":{
      "pgfolios":{
       "value":"247a"
      }
     }
    },
    {
     "filename":"I2KG2101220496.jpg",
     "pagination":{
      "pgfolios":{
       "value":"247b"
      }
     }
    },
    {
     "filename":"I2KG2101220497.jpg",
     "pagination":{
      "pgfolios":{
       "value":"248a"
      }
     }
    },
    {
     "filename":"I2KG2101220498.jpg",
     "pagination":{
      "pgfolios":{
       "value":"248b"
      }
     }
    },
    {
     "filename":"I2KG2101220499.jpg",
     "pagination":{
      "pgfolios":{
       "value":"249a"
      }
     }
    },
    {
     "filename":"I2KG2101220500.jpg",
     "pagination":{
      "pgfolios":{
       "value":"249b"
      }
     }
    },
    {
     "filename":"I2KG2101220501.jpg",
     "pagination":{
      "pgfolios":{
       "value":"250a"
      }
     }
    },
    {
     "filename":"I2KG2101220502.jpg",
     "pagination":{
      "pgfolios":{
       "value":"250b"
      }
     }
    },
    {
     "filename":"I2KG2101220503.jpg",
     "pagination":{
      "pgfolios":{
       "value":"251a"
      }
     }
    },
    {
     "filename":"I2KG2101220504.jpg",
     "pagination":{
      "pgfolios":{
       "value":"251b"
      }
     }
    },
    {
     "filename":"I2KG2101220505.jpg",
     "pagination":{
      "pgfolios":{
       "value":"252a"
      }
     }
    },
    {
     "filename":"I2KG2101220506.jpg",
     "pagination":{
      "pgfolios":{
       "value":"252b"
      }
     }
    },
    {
     "filename":"I2KG2101220507.jpg",
     "pagination":{
      "pgfolios":{
       "value":"253a"
      }
     }
    },
    {
     "filename":"I2KG2101220508.jpg",
     "pagination":{
      "pgfolios":{
       "value":"253b"
      }
     }
    },
    {
     "filename":"I2KG2101220509.jpg",
     "pagination":{
      "pgfolios":{
       "value":"254a"
      }
     }
    },
    {
     "filename":"I2KG2101220510.jpg",
     "pagination":{
      "pgfolios":{
       "value":"254b"
      }
     }
    },
    {
     "filename":"I2KG2101220511.jpg",
     "pagination":{
      "pgfolios":{
       "value":"255a"
      }
     }
    },
    {
     "filename":"I2KG2101220512.jpg",
     "pagination":{
      "pgfolios":{
       "value":"255b"
      }
     }
    },
    {
     "filename":"I2KG2101220513.jpg",
     "pagination":{
      "pgfolios":{
       "value":"256a"
      }
     }
    },
    {
     "filename":"I2KG2101220514.jpg",
     "pagination":{
      "pgfolios":{
       "value":"256b"
      }
     }
    },
    {
     "filename":"I2KG2101220515.jpg",
     "pagination":{
      "pgfolios":{
       "value":"257a"
      }
     }
    },
    {
     "filename":"I2KG2101220516.jpg",
     "pagination":{
      "pgfolios":{
       "value":"257b"
      }
     }
    },
    {
     "filename":"I2KG2101220517.jpg",
     "pagination":{
      "pgfolios":{
       "value":"258a"
      }
     }
    },
    {
     "filename":"I2KG2101220518.jpg",
     "pagination":{
      "pgfolios":{
       "value":"258b"
      }
     }
    },
    {
     "filename":"I2KG2101220519.jpg",
     "pagination":{
      "pgfolios":{
       "value":"259a"
      }
     }
    },
    {
     "filename":"I2KG2101220520.jpg",
     "pagination":{
      "pgfolios":{
       "value":"259b"
      }
     }
    },
    {
     "filename":"I2KG2101220521.jpg",
     "pagination":{
      "pgfolios":{
       "value":"260a"
      }
     }
    },
    {
     "filename":"I2KG2101220522.jpg",
     "pagination":{
      "pgfolios":{
       "value":"260b"
      }
     }
    },
    {
     "filename":"I2KG2101220523.jpg",
     "pagination":{
      "pgfolios":{
       "value":"261a"
      }
     }
    },
    {
     "filename":"I2KG2101220524.jpg",
     "pagination":{
      "pgfolios":{
       "value":"261b"
      }
     }
    },
    {
     "filename":"I2KG2101220525.jpg",
     "pagination":{
      "pgfolios":{
       "value":"262a"
      }
     }
    },
    {
     "filename":"I2KG2101220526.jpg",
     "pagination":{
      "pgfolios":{
       "value":"262b"
      }
     }
    },
    {
     "filename":"I2KG2101220527.jpg",
     "pagination":{
      "pgfolios":{
       "value":"263a"
      }
     }
    },
    {
     "filename":"I2KG2101220528.jpg",
     "pagination":{
      "pgfolios":{
       "value":"263b"
      }
     }
    },
    {
     "filename":"I2KG2101220529.jpg",
     "pagination":{
      "pgfolios":{
       "value":"264a"
      }
     }
    },
    {
     "filename":"I2KG2101220530.jpg",
     "pagination":{
      "pgfolios":{
       "value":"264b"
      }
     }
    },
    {
     "filename":"I2KG2101220531.jpg",
     "pagination":{
      "pgfolios":{
       "value":"265a"
      }
     }
    },
    {
     "filename":"I2KG2101220532.jpg",
     "pagination":{
      "pgfolios":{
       "value":"265b"
      }
     }
    },
    {
     "filename":"I2KG2101220533.jpg",
     "pagination":{
      "pgfolios":{
       "value":"266a"
      }
     }
    },
    {
     "filename":"I2KG2101220534.jpg",
     "pagination":{
      "pgfolios":{
       "value":"266b"
      }
     }
    },
    {
     "filename":"I2KG2101220535.jpg",
     "pagination":{
      "pgfolios":{
       "value":"267a"
      }
     }
    },
    {
     "filename":"I2KG2101220536.jpg",
     "pagination":{
      "pgfolios":{
       "value":"267b"
      }
     }
    },
    {
     "filename":"I2KG2101220537.jpg",
     "pagination":{
      "pgfolios":{
       "value":"268a"
      }
     }
    },
    {
     "filename":"I2KG2101220538.jpg",
     "pagination":{
      "pgfolios":{
       "value":"268b"
      }
     }
    },
    {
     "filename":"I2KG2101220539.jpg",
     "pagination":{
      "pgfolios":{
       "value":"269a"
      }
     }
    },
    {
     "filename":"I2KG2101220540.jpg",
     "pagination":{
      "pgfolios":{
       "value":"269b"
      }
     }
    },
    {
     "filename":"I2KG2101220541.jpg",
     "pagination":{
      "pgfolios":{
       "value":"270a"
      }
     }
    },
    {
     "filename":"I2KG2101220542.jpg",
     "pagination":{
      "pgfolios":{
       "value":"270b"
      }
     }
    },
    {
     "filename":"I2KG2101220543.jpg",
     "pagination":{
      "pgfolios":{
       "value":"271a"
      }
     }
    },
    {
     "filename":"I2KG2101220544.jpg",
     "pagination":{
      "pgfolios":{
       "value":"271b"
      }
     }
    },
    {
     "filename":"I2KG2101220545.jpg",
     "pagination":{
      "pgfolios":{
       "value":"272a"
      }
     }
    },
    {
     "filename":"I2KG2101220546.jpg",
     "pagination":{
      "pgfolios":{
       "value":"272b"
      }
     }
    },
    {
     "filename":"I2KG2101220547.jpg",
     "pagination":{
      "pgfolios":{
       "value":"273a"
      }
     }
    },
    {
     "filename":"I2KG2101220548.jpg",
     "pagination":{
      "pgfolios":{
       "value":"273b"
      }
     }
    },
    {
     "filename":"I2KG2101220549.jpg",
     "pagination":{
      "pgfolios":{
       "value":"274a"
      }
     }
    },
    {
     "filename":"I2KG2101220550.jpg",
     "pagination":{
      "pgfolios":{
       "value":"274b"
      }
     }
    },
    {
     "filename":"I2KG2101220551.jpg",
     "pagination":{
      "pgfolios":{
       "value":"275a"
      }
     }
    },
    {
     "filename":"I2KG2101220552.jpg",
     "pagination":{
      "pgfolios":{
       "value":"275b"
      }
     }
    },
    {
     "filename":"I2KG2101220553.jpg",
     "pagination":{
      "pgfolios":{
       "value":"276a"
      }
     }
    },
    {
     "filename":"I2KG2101220554.jpg",
     "pagination":{
      "pgfolios":{
       "value":"276b"
      }
     }
    },
    {
     "filename":"I2KG2101220555.jpg",
     "pagination":{
      "pgfolios":{
       "value":"277a"
      }
     }
    },
    {
     "filename":"I2KG2101220556.jpg",
     "pagination":{
      "pgfolios":{
       "value":"277b"
      }
     }
    },
    {
     "filename":"I2KG2101220557.jpg",
     "pagination":{
      "pgfolios":{
       "value":"278a"
      }
     }
    },
    {
     "filename":"I2KG2101220558.jpg",
     "pagination":{
      "pgfolios":{
       "value":"278b"
      }
     }
    },
    {
     "filename":"I2KG2101220559.jpg",
     "pagination":{
      "pgfolios":{
       "value":"279a"
      }
     }
    },
    {
     "filename":"I2KG2101220560.jpg",
     "pagination":{
      "pgfolios":{
       "value":"279b"
      }
     }
    },
    {
     "filename":"I2KG2101220561.jpg",
     "pagination":{
      "pgfolios":{
       "value":"280a"
      }
     }
    },
    {
     "filename":"I2KG2101220562.jpg",
     "pagination":{
      "pgfolios":{
       "value":"280b"
      }
     }
    },
    {
     "filename":"I2KG2101220563.jpg",
     "pagination":{
      "pgfolios":{
       "value":"281a"
      }
     }
    },
    {
     "filename":"I2KG2101220564.jpg",
     "pagination":{
      "pgfolios":{
       "value":"281b"
      }
     }
    },
    {
     "filename":"I2KG2101220565.jpg",
     "pagination":{
      "pgfolios":{
       "value":"282a"
      }
     }
    },
    {
     "filename":"I2KG2101220566.jpg",
     "pagination":{
      "pgfolios":{
       "value":"282b"
      }
     }
    },
    {
     "filename":"I2KG2101220567.jpg",
     "pagination":{
      "pgfolios":{
       "value":"283a"
      }
     }
    },
    {
     "filename":"I2KG2101220568.jpg",
     "pagination":{
      "pgfolios":{
       "value":"283b"
      }
     }
    },
    {
     "filename":"I2KG2101220569.jpg",
     "pagination":{
      "pgfolios":{
       "value":"284a"
      }
     }
    },
    {
     "filename":"I2KG2101220570.jpg",
     "pagination":{
      "pgfolios":{
       "value":"284b"
      }
     }
    },
    {
     "filename":"I2KG2101220571.jpg",
     "pagination":{
      "pgfolios":{
       "value":"285a"
      }
     }
    },
    {
     "filename":"I2KG2101220572.jpg",
     "pagination":{
      "pgfolios":{
       "value":"285b"
      }
     }
    },
    {
     "filename":"I2KG2101220573.jpg",
     "pagination":{
      "pgfolios":{
       "value":"286a"
      }
     }
    },
    {
     "filename":"I2KG2101220574.jpg",
     "pagination":{
      "pgfolios":{
       "value":"286b"
      }
     }
    },
    {
     "filename":"I2KG2101220575.jpg",
     "pagination":{
      "pgfolios":{
       "value":"287a"
      }
     }
    },
    {
     "filename":"I2KG2101220576.jpg",
     "pagination":{
      "pgfolios":{
       "value":"287b"
      }
     }
    },
    {
     "filename":"I2KG2101220577.jpg",
     "pagination":{
      "pgfolios":{
       "value":"288a"
      }
     }
    },
    {
     "filename":"I2KG2101220578.jpg",
     "pagination":{
      "pgfolios":{
       "value":"288b"
      }
     }
    },
    {
     "filename":"I2KG2101220579.jpg",
     "pagination":{
      "pgfolios":{
       "value":"289a"
      }
     }
    },
    {
     "filename":"I2KG2101220580.jpg",
     "pagination":{
      "pgfolios":{
       "value":"289b"
      }
     }
    },
    {
     "filename":"I2KG2101220581.jpg",
     "pagination":{
      "pgfolios":{
       "value":"290a"
      }
     }
    },
    {
     "filename":"I2KG2101220582.jpg",
     "pagination":{
      "pgfolios":{
       "value":"290b"
      }
     }
    },
    {
     "filename":"I2KG2101220583.jpg",
     "pagination":{
      "pgfolios":{
       "value":"291a"
      }
     }
    },
    {
     "filename":"I2KG2101220584.jpg",
     "pagination":{
      "pgfolios":{
       "value":"291b"
      }
     }
    },
    {
     "filename":"I2KG2101220585.jpg",
     "pagination":{
      "pgfolios":{
       "value":"292a"
      }
     }
    },
    {
     "filename":"I2KG2101220586.jpg",
     "pagination":{
      "pgfolios":{
       "value":"292b"
      }
     }
    },
    {
     "filename":"I2KG2101220587.jpg",
     "pagination":{
      "pgfolios":{
       "value":"293a"
      }
     }
    },
    {
     "filename":"I2KG2101220588.jpg",
     "pagination":{
      "pgfolios":{
       "value":"293b"
      }
     }
    },
    {
     "filename":"I2KG2101220589.jpg",
     "pagination":{
      "pgfolios":{
       "value":"294a"
      }
     }
    },
    {
     "filename":"I2KG2101220590.jpg",
     "pagination":{
      "pgfolios":{
       "value":"294b"
      }
     }
    },
    {
     "filename":"I2KG2101220591.jpg",
     "pagination":{
      "pgfolios":{
       "value":"295a"
      }
     }
    },
    {
     "filename":"I2KG2101220592.jpg",
     "pagination":{
      "pgfolios":{
       "value":"295b"
      }
     }
    },
    {
     "filename":"I2KG2101220593.jpg",
     "pagination":{
      "pgfolios":{
       "value":"296a"
      }
     }
    },
    {
     "filename":"I2KG2101220594.jpg",
     "pagination":{
      "pgfolios":{
       "value":"296b"
      }
     }
    },
    {
     "filename":"I2KG2101220595.jpg",
     "pagination":{
      "pgfolios":{
       "value":"297a"
      }
     }
    },
    {
     "filename":"I2KG2101220596.jpg",
     "pagination":{
      "pgfolios":{
       "value":"297b"
      }
     }
    },
    {
     "filename":"I2KG2101220597.jpg",
     "pagination":{
      "pgfolios":{
       "value":"298a"
      }
     }
    },
    {
     "filename":"I2KG2101220598.jpg",
     "pagination":{
      "pgfolios":{
       "value":"298b"
      }
     }
    },
    {
     "filename":"I2KG2101220599.jpg",
     "pagination":{
      "pgfolios":{
       "value":"299a"
      }
     }
    },
    {
     "filename":"I2KG2101220600.jpg",
     "pagination":{
      "pgfolios":{
       "value":"299b"
      }
     }
    },
    {
     "filename":"I2KG2101220601.jpg",
     "pagination":{
      "pgfolios":{
       "value":"300a"
      }
     }
    },
    {
     "filename":"I2KG2101220602.jpg",
     "pagination":{
      "pgfolios":{
       "value":"300b"
      }
     }
    },
    {
     "filename":"I2KG2101220603.jpg",
     "pagination":{
      "pgfolios":{
       "value":"301a"
      }
     }
    },
    {
     "filename":"I2KG2101220604.jpg",
     "pagination":{
      "pgfolios":{
       "value":"301b"
      }
     }
    },
    {
     "filename":"I2KG2101220605.jpg",
     "pagination":{
      "pgfolios":{
       "value":"302a"
      }
     }
    },
    {
     "filename":"I2KG2101220606.jpg",
     "pagination":{
      "pgfolios":{
       "value":"302b"
      }
     }
    },
    {
     "filename":"I2KG2101220607.jpg",
     "pagination":{
      "pgfolios":{
       "value":"303a"
      }
     }
    },
    {
     "filename":"I2KG2101220608.jpg",
     "pagination":{
      "pgfolios":{
       "value":"303b"
      }
     }
    },
    {
     "filename":"I2KG2101220609.jpg",
     "pagination":{
      "pgfolios":{
       "value":"304a"
      }
     }
    },
    {
     "filename":"I2KG2101220610.jpg",
     "pagination":{
      "pgfolios":{
       "value":"304b"
      }
     }
    },
    {
     "filename":"I2KG2101220611.jpg",
     "pagination":{
      "pgfolios":{
       "value":"305a"
      }
     }
    },
    {
     "filename":"I2KG2101220612.jpg",
     "pagination":{
      "pgfolios":{
       "value":"305b"
      }
     }
    },
    {
     "filename":"I2KG2101220613.jpg",
     "pagination":{
      "pgfolios":{
       "value":"306a"
      }
     }
    },
    {
     "filename":"I2KG2101220614.jpg",
     "pagination":{
      "pgfolios":{
       "value":"306b"
      }
     }
    },
    {
     "filename":"I2KG2101220615.jpg",
     "pagination":{
      "pgfolios":{
       "value":"307a"
      }
     }
    },
    {
     "filename":"I2KG2101220616.jpg",
     "pagination":{
      "pgfolios":{
       "value":"307b"
      }
     }
    },
    {
     "filename":"I2KG2101220617.jpg",
     "pagination":{
      "pgfolios":{
       "value":"308a"
      }
     }
    },
    {
     "filename":"I2KG2101220618.jpg",
     "pagination":{
      "pgfolios":{
       "value":"308b"
      }
     }
    },
    {
     "filename":"I2KG2101220619.jpg",
     "pagination":{
      "pgfolios":{
       "value":"309a"
      }
     }
    },
    {
     "filename":"I2KG2101220620.jpg",
     "pagination":{
      "pgfolios":{
       "value":"309b"
      }
     }
    },
    {
     "filename":"I2KG2101220621.jpg",
     "pagination":{
      "pgfolios":{
       "value":"310a"
      }
     }
    },
    {
     "filename":"I2KG2101220622.jpg",
     "pagination":{
      "pgfolios":{
       "value":"310b"
      }
     }
    },
    {
     "filename":"I2KG2101220623.jpg",
     "pagination":{
      "pgfolios":{
       "value":"311a"
      }
     }
    },
    {
     "filename":"I2KG2101220624.jpg",
     "pagination":{
      "pgfolios":{
       "value":"311b"
      }
     }
    },
    {
     "filename":"I2KG2101220625.jpg",
     "pagination":{
      "pgfolios":{
       "value":"312a"
      }
     }
    },
    {
     "filename":"I2KG2101220626.jpg",
     "pagination":{
      "pgfolios":{
       "value":"312b"
      }
     }
    },
    {
     "filename":"I2KG2101220627.jpg",
     "pagination":{
      "pgfolios":{
       "value":"313a"
      }
     }
    },
    {
     "filename":"I2KG2101220628.jpg",
     "pagination":{
      "pgfolios":{
       "value":"313b"
      }
     }
    },
    {
     "filename":"I2KG2101220629.jpg",
     "pagination":{
      "pgfolios":{
       "value":"314a"
      }
     }
    },
    {
     "filename":"I2KG2101220630.jpg",
     "pagination":{
      "pgfolios":{
       "value":"314b"
      }
     }
    },
    {
     "filename":"I2KG2101220631.jpg",
     "pagination":{
      "pgfolios":{
       "value":"315a"
      }
     }
    },
    {
     "filename":"I2KG2101220632.jpg",
     "pagination":{
      "pgfolios":{
       "value":"315b"
      }
     }
    },
    {
     "filename":"I2KG2101220633.jpg",
     "pagination":{
      "pgfolios":{
       "value":"316a"
      }
     }
    },
    {
     "filename":"I2KG2101220634.jpg",
     "pagination":{
      "pgfolios":{
       "value":"316b"
      }
     }
    },
    {
     "filename":"I2KG2101220635.jpg",
     "pagination":{
      "pgfolios":{
       "value":"317a"
      }
     }
    },
    {
     "filename":"I2KG2101220636.jpg",
     "pagination":{
      "pgfolios":{
       "value":"317b"
      }
     }
    },
    {
     "filename":"I2KG2101220637.jpg",
     "pagination":{
      "pgfolios":{
       "value":"318a"
      }
     }
    },
    {
     "filename":"I2KG2101220638.jpg",
     "pagination":{
      "pgfolios":{
       "value":"318b"
      }
     }
    },
    {
     "filename":"I2KG2101220639.jpg",
     "pagination":{
      "pgfolios":{
       "value":"319a"
      }
     }
    },
    {
     "filename":"I2KG2101220640.jpg",
     "pagination":{
      "pgfolios":{
       "value":"319b"
      }
     }
    },
    {
     "filename":"I2KG2101220641.jpg",
     "pagination":{
      "pgfolios":{
       "value":"320a"
      }
     }
    },
    {
     "filename":"I2KG2101220642.jpg",
     "pagination":{
      "pgfolios":{
       "value":"320b"
      }
     }
    },
    {
     "filename":"I2KG2101220643.jpg",
     "pagination":{
      "pgfolios":{
       "value":"321a"
      }
     }
    },
    {
     "filename":"I2KG2101220644.jpg",
     "pagination":{
      "pgfolios":{
       "value":"321b"
      }
     }
    },
    {
     "filename":"I2KG2101220645.jpg",
     "pagination":{
      "pgfolios":{
       "value":"322a"
      }
     }
    },
    {
     "filename":"I2KG2101220646.jpg",
     "pagination":{
      "pgfolios":{
       "value":"322b"
      }
     }
    },
    {
     "filename":"I2KG2101220647.jpg",
     "pagination":{
      "pgfolios":{
       "value":"323a"
      }
     }
    },
    {
     "filename":"I2KG2101220648.jpg",
     "pagination":{
      "pgfolios":{
       "value":"323b"
      }
     }
    },
    {
     "filename":"I2KG2101220649.jpg",
     "pagination":{
      "pgfolios":{
       "value":"324a"
      }
     }
    },
    {
     "filename":"I2KG2101220650.jpg",
     "pagination":{
      "pgfolios":{
       "value":"324b"
      }
     }
    },
    {
     "filename":"I2KG2101220651.jpg",
     "pagination":{
      "pgfolios":{
       "value":"325a"
      }
     }
    },
    {
     "filename":"I2KG2101220652.jpg",
     "pagination":{
      "pgfolios":{
       "value":"325b"
      }
     }
    },
    {
     "filename":"I2KG2101220653.jpg",
     "pagination":{
      "pgfolios":{
       "value":"326a"
      }
     }
    },
    {
     "filename":"I2KG2101220654.jpg",
     "pagination":{
      "pgfolios":{
       "value":"326b"
      }
     }
    },
    {
     "filename":"I2KG2101220655.jpg",
     "pagination":{
      "pgfolios":{
       "value":"327a"
      }
     }
    },
    {
     "filename":"I2KG2101220656.jpg",
     "pagination":{
      "pgfolios":{
       "value":"327b"
      }
     }
    },
    {
     "filename":"I2KG2101220657.jpg",
     "pagination":{
      "pgfolios":{
       "value":"328a"
      }
     }
    },
    {
     "filename":"I2KG2101220658.jpg",
     "pagination":{
      "pgfolios":{
       "value":"328b"
      }
     }
    },
    {
     "filename":"I2KG2101220659.jpg",
     "pagination":{
      "pgfolios":{
       "value":"329a"
      }
     }
    },
    {
     "filename":"I2KG2101220660.jpg",
     "pagination":{
      "pgfolios":{
       "value":"329b"
      }
     }
    },
    {
     "filename":"I2KG2101220661.jpg",
     "pagination":{
      "pgfolios":{
       "value":"330a"
      }
     }
    },
    {
     "filename":"I2KG2101220662.jpg",
     "pagination":{
      "pgfolios":{
       "value":"330b"
      }
     }
    }
   ]
  }
 },
 "viewing-direction":"top-to-bottom"
}