{
 "appData":{
  "bvmt":{
   "default-vol-string-lang":"bo",
   "metadata-for-bvmt-ver":"0.1.0"
  }
 },
 "attribution":[
  {
   "@language":"en",
   "@value":"Data provided by rKTs under the CC0 license"
  }
 ],
 "changes":[
  {
   "message":{
    "@language":"en",
    "@value":"migration from rKTs data"
   },
   "time":"2020-10-03T11:35:30Z",
   "user":"bdu:U1653882847"
  }
 ],
 "default-view":"view1",
 "imggroup":"bdr:I1CZ4753",
 "pagination":[
  {
   "id":"pgfolios",
   "type":"folios"
  }
 ],
 "sections":[
  {
   "id":"1",
   "name":{
    "@language":"bo-x-ewts",
    "@value":"1"
   }
  },
  {
   "id":"2",
   "name":{
    "@language":"bo-x-ewts",
    "@value":"2"
   }
  },
  {
   "id":"3",
   "name":{
    "@language":"bo-x-ewts",
    "@value":"3"
   }
  },
  {
   "id":"4",
   "name":{
    "@language":"bo-x-ewts",
    "@value":"4"
   }
  },
  {
   "id":"5",
   "name":{
    "@language":"bo-x-ewts",
    "@value":"5"
   }
  },
  {
   "id":"6",
   "name":{
    "@language":"bo-x-ewts",
    "@value":"6"
   }
  },
  {
   "id":"7",
   "name":{
    "@language":"bo-x-ewts",
    "@value":"7"
   }
  },
  {
   "id":"8",
   "name":{
    "@language":"bo-x-ewts",
    "@value":"8"
   }
  },
  {
   "id":"9",
   "name":{
    "@language":"bo-x-ewts",
    "@value":"9"
   }
  },
  {
   "id":"10",
   "name":{
    "@language":"bo-x-ewts",
    "@value":"10"
   }
  },
  {
   "id":"11",
   "name":{
    "@language":"bo-x-ewts",
    "@value":"11"
   }
  },
  {
   "id":"12",
   "name":{
    "@language":"bo-x-ewts",
    "@value":"12"
   }
  },
  {
   "id":"13",
   "name":{
    "@language":"bo-x-ewts",
    "@value":"13"
   }
  },
  {
   "id":"14",
   "name":{
    "@language":"bo-x-ewts",
    "@value":"14"
   }
  },
  {
   "id":"15",
   "name":{
    "@language":"bo-x-ewts",
    "@value":"15"
   }
  },
  {
   "id":"16",
   "name":{
    "@language":"bo-x-ewts",
    "@value":"16"
   }
  },
  {
   "id":"17",
   "name":{
    "@language":"bo-x-ewts",
    "@value":"17"
   }
  },
  {
   "id":"18",
   "name":{
    "@language":"bo-x-ewts",
    "@value":"18"
   }
  },
  {
   "id":"19",
   "name":{
    "@language":"bo-x-ewts",
    "@value":"19"
   }
  },
  {
   "id":"20",
   "name":{
    "@language":"bo-x-ewts",
    "@value":"20"
   }
  },
  {
   "id":"21",
   "name":{
    "@language":"bo-x-ewts",
    "@value":"21"
   }
  },
  {
   "id":"22",
   "name":{
    "@language":"bo-x-ewts",
    "@value":"22"
   }
  },
  {
   "id":"23",
   "name":{
    "@language":"bo-x-ewts",
    "@value":"23"
   }
  },
  {
   "id":"24",
   "name":{
    "@language":"bo-x-ewts",
    "@value":"24"
   }
  },
  {
   "id":"25",
   "name":{
    "@language":"bo-x-ewts",
    "@value":"25"
   }
  },
  {
   "id":"26",
   "name":{
    "@language":"bo-x-ewts",
    "@value":"26"
   }
  },
  {
   "id":"27",
   "name":{
    "@language":"bo-x-ewts",
    "@value":"27"
   }
  },
  {
   "id":"28",
   "name":{
    "@language":"bo-x-ewts",
    "@value":"28"
   }
  },
  {
   "id":"29",
   "name":{
    "@language":"bo-x-ewts",
    "@value":"29"
   }
  },
  {
   "id":"30",
   "name":{
    "@language":"bo-x-ewts",
    "@value":"30"
   }
  }
 ],
 "spec-version":"0.1.0",
 "status":"released",
 "view":{
  "view1":{
   "imagelist":[
    {
     "filename":"I1CZ47530001.tif",
     "hidden":true,
     "tags":[
      "T0005"
     ]
    },
    {
     "filename":"I1CZ47530002.tif",
     "hidden":true,
     "tags":[
      "T0005"
     ]
    },
    {
     "filename":"I1CZ47530003.tif",
     "pagination":{
      "pgfolios":{
       "section":"1",
       "value":"1a"
      }
     }
    },
    {
     "filename":"I1CZ47530004.tif",
     "pagination":{
      "pgfolios":{
       "section":"1",
       "value":"1b"
      }
     }
    },
    {
     "filename":"I1CZ47530005.tif",
     "pagination":{
      "pgfolios":{
       "section":"1",
       "value":"2a"
      }
     }
    },
    {
     "filename":"I1CZ47530006.tif",
     "pagination":{
      "pgfolios":{
       "section":"1",
       "value":"2b"
      }
     }
    },
    {
     "filename":"I1CZ47530007.tif",
     "pagination":{
      "pgfolios":{
       "section":"1",
       "value":"3a"
      }
     }
    },
    {
     "filename":"I1CZ47530008.tif",
     "pagination":{
      "pgfolios":{
       "section":"1",
       "value":"3b"
      }
     }
    },
    {
     "filename":"I1CZ47530009.tif",
     "pagination":{
      "pgfolios":{
       "section":"1",
       "value":"4a"
      }
     }
    },
    {
     "filename":"I1CZ47530010.tif",
     "pagination":{
      "pgfolios":{
       "section":"1",
       "value":"4b"
      }
     }
    },
    {
     "filename":"I1CZ47530011.tif",
     "pagination":{
      "pgfolios":{
       "section":"1",
       "value":"5a"
      }
     }
    },
    {
     "filename":"I1CZ47530012.tif",
     "pagination":{
      "pgfolios":{
       "section":"1",
       "value":"5b"
      }
     }
    },
    {
     "filename":"I1CZ47530013.tif",
     "pagination":{
      "pgfolios":{
       "section":"1",
       "value":"6a"
      }
     }
    },
    {
     "filename":"I1CZ47530014.tif",
     "pagination":{
      "pgfolios":{
       "section":"1",
       "value":"6b"
      }
     }
    },
    {
     "filename":"I1CZ47530015.tif",
     "pagination":{
      "pgfolios":{
       "section":"1",
       "value":"7a"
      }
     }
    },
    {
     "filename":"I1CZ47530016.tif",
     "pagination":{
      "pgfolios":{
       "section":"1",
       "value":"7b"
      }
     }
    },
    {
     "filename":"I1CZ47530017.tif",
     "pagination":{
      "pgfolios":{
       "section":"1",
       "value":"8a"
      }
     }
    },
    {
     "filename":"I1CZ47530018.tif",
     "pagination":{
      "pgfolios":{
       "section":"1",
       "value":"8b"
      }
     }
    },
    {
     "filename":"I1CZ47530019.tif",
     "pagination":{
      "pgfolios":{
       "section":"1",
       "value":"9a"
      }
     }
    },
    {
     "filename":"I1CZ47530020.tif",
     "pagination":{
      "pgfolios":{
       "section":"1",
       "value":"9b"
      }
     }
    },
    {
     "filename":"I1CZ47530021.tif",
     "pagination":{
      "pgfolios":{
       "section":"1",
       "value":"10a"
      }
     }
    },
    {
     "filename":"I1CZ47530022.tif",
     "pagination":{
      "pgfolios":{
       "section":"1",
       "value":"10b"
      }
     }
    },
    {
     "filename":"I1CZ47530023.tif",
     "pagination":{
      "pgfolios":{
       "section":"1",
       "value":"11a"
      }
     }
    },
    {
     "filename":"I1CZ47530024.tif",
     "pagination":{
      "pgfolios":{
       "section":"1",
       "value":"11b"
      }
     }
    },
    {
     "filename":"I1CZ47530025.tif",
     "pagination":{
      "pgfolios":{
       "section":"1",
       "value":"12a"
      }
     }
    },
    {
     "filename":"I1CZ47530026.tif",
     "pagination":{
      "pgfolios":{
       "section":"1",
       "value":"12b"
      }
     }
    },
    {
     "filename":"I1CZ47530027.tif",
     "pagination":{
      "pgfolios":{
       "section":"1",
       "value":"13a"
      }
     }
    },
    {
     "filename":"I1CZ47530028.tif",
     "pagination":{
      "pgfolios":{
       "section":"1",
       "value":"13b"
      }
     }
    },
    {
     "filename":"I1CZ47530029.tif",
     "pagination":{
      "pgfolios":{
       "section":"1",
       "value":"14a"
      }
     }
    },
    {
     "filename":"I1CZ47530030.tif",
     "pagination":{
      "pgfolios":{
       "section":"1",
       "value":"14b"
      }
     }
    },
    {
     "filename":"I1CZ47530031.tif",
     "pagination":{
      "pgfolios":{
       "section":"1",
       "value":"15a"
      }
     }
    },
    {
     "filename":"I1CZ47530032.tif",
     "pagination":{
      "pgfolios":{
       "section":"1",
       "value":"15b"
      }
     }
    },
    {
     "filename":"I1CZ47530033.tif",
     "pagination":{
      "pgfolios":{
       "section":"1",
       "value":"16a"
      }
     }
    },
    {
     "filename":"I1CZ47530034.tif",
     "pagination":{
      "pgfolios":{
       "section":"1",
       "value":"16b"
      }
     }
    },
    {
     "filename":"I1CZ47530035.tif",
     "pagination":{
      "pgfolios":{
       "section":"1",
       "value":"17a"
      }
     }
    },
    {
     "filename":"I1CZ47530036.tif",
     "pagination":{
      "pgfolios":{
       "section":"1",
       "value":"17b"
      }
     }
    },
    {
     "filename":"I1CZ47530037.tif",
     "pagination":{
      "pgfolios":{
       "section":"1",
       "value":"18a"
      }
     }
    },
    {
     "filename":"I1CZ47530038.tif",
     "pagination":{
      "pgfolios":{
       "section":"1",
       "value":"18b"
      }
     }
    },
    {
     "filename":"I1CZ47530039.tif",
     "pagination":{
      "pgfolios":{
       "section":"2",
       "value":"1a"
      }
     }
    },
    {
     "filename":"I1CZ47530040.tif",
     "pagination":{
      "pgfolios":{
       "section":"2",
       "value":"1b"
      }
     }
    },
    {
     "filename":"I1CZ47530041.tif",
     "pagination":{
      "pgfolios":{
       "section":"2",
       "value":"2a"
      }
     }
    },
    {
     "filename":"I1CZ47530042.tif",
     "pagination":{
      "pgfolios":{
       "section":"2",
       "value":"2b"
      }
     }
    },
    {
     "filename":"I1CZ47530043.tif",
     "pagination":{
      "pgfolios":{
       "section":"2",
       "value":"3a"
      }
     }
    },
    {
     "filename":"I1CZ47530044.tif",
     "pagination":{
      "pgfolios":{
       "section":"2",
       "value":"3b"
      }
     }
    },
    {
     "filename":"I1CZ47530045.tif",
     "pagination":{
      "pgfolios":{
       "section":"2",
       "value":"4a"
      }
     }
    },
    {
     "filename":"I1CZ47530046.tif",
     "pagination":{
      "pgfolios":{
       "section":"2",
       "value":"4b"
      }
     }
    },
    {
     "filename":"I1CZ47530047.tif",
     "pagination":{
      "pgfolios":{
       "section":"2",
       "value":"5a"
      }
     }
    },
    {
     "filename":"I1CZ47530048.tif",
     "pagination":{
      "pgfolios":{
       "section":"2",
       "value":"5b"
      }
     }
    },
    {
     "filename":"I1CZ47530049.tif",
     "pagination":{
      "pgfolios":{
       "section":"2",
       "value":"6a"
      }
     }
    },
    {
     "filename":"I1CZ47530050.tif",
     "pagination":{
      "pgfolios":{
       "section":"2",
       "value":"6b"
      }
     }
    },
    {
     "filename":"I1CZ47530051.tif",
     "pagination":{
      "pgfolios":{
       "section":"2",
       "value":"7a"
      }
     }
    },
    {
     "filename":"I1CZ47530052.tif",
     "pagination":{
      "pgfolios":{
       "section":"2",
       "value":"7b"
      }
     }
    },
    {
     "filename":"I1CZ47530053.tif",
     "pagination":{
      "pgfolios":{
       "section":"2",
       "value":"8a"
      }
     }
    },
    {
     "filename":"I1CZ47530054.tif",
     "pagination":{
      "pgfolios":{
       "section":"2",
       "value":"8b"
      }
     }
    },
    {
     "filename":"I1CZ47530055.tif",
     "pagination":{
      "pgfolios":{
       "section":"2",
       "value":"9a"
      }
     }
    },
    {
     "filename":"I1CZ47530056.tif",
     "pagination":{
      "pgfolios":{
       "section":"2",
       "value":"9b"
      }
     }
    },
    {
     "filename":"I1CZ47530057.tif",
     "pagination":{
      "pgfolios":{
       "section":"2",
       "value":"10a"
      }
     }
    },
    {
     "filename":"I1CZ47530058.tif",
     "pagination":{
      "pgfolios":{
       "section":"2",
       "value":"10b"
      }
     }
    },
    {
     "filename":"I1CZ47530059.tif",
     "pagination":{
      "pgfolios":{
       "section":"2",
       "value":"11a"
      }
     }
    },
    {
     "filename":"I1CZ47530060.tif",
     "pagination":{
      "pgfolios":{
       "section":"2",
       "value":"11b"
      }
     }
    },
    {
     "filename":"I1CZ47530061.tif",
     "pagination":{
      "pgfolios":{
       "section":"2",
       "value":"12a"
      }
     }
    },
    {
     "filename":"I1CZ47530062.tif",
     "pagination":{
      "pgfolios":{
       "section":"2",
       "value":"12b"
      }
     }
    },
    {
     "filename":"I1CZ47530063.tif",
     "pagination":{
      "pgfolios":{
       "section":"2",
       "value":"13a"
      }
     }
    },
    {
     "filename":"I1CZ47530064.tif",
     "pagination":{
      "pgfolios":{
       "section":"2",
       "value":"13b"
      }
     }
    },
    {
     "filename":"I1CZ47530065.tif",
     "pagination":{
      "pgfolios":{
       "section":"3",
       "value":"1a"
      }
     }
    },
    {
     "filename":"I1CZ47530066.tif",
     "pagination":{
      "pgfolios":{
       "section":"3",
       "value":"1b"
      }
     }
    },
    {
     "filename":"I1CZ47530067.tif",
     "pagination":{
      "pgfolios":{
       "section":"3",
       "value":"2a"
      }
     }
    },
    {
     "filename":"I1CZ47530068.tif",
     "pagination":{
      "pgfolios":{
       "section":"3",
       "value":"2b"
      }
     }
    },
    {
     "filename":"I1CZ47530069.tif",
     "pagination":{
      "pgfolios":{
       "section":"3",
       "value":"3a"
      }
     }
    },
    {
     "filename":"I1CZ47530070.tif",
     "pagination":{
      "pgfolios":{
       "section":"3",
       "value":"3b"
      }
     }
    },
    {
     "filename":"I1CZ47530071.tif",
     "pagination":{
      "pgfolios":{
       "section":"3",
       "value":"4a"
      }
     }
    },
    {
     "filename":"I1CZ47530072.tif",
     "pagination":{
      "pgfolios":{
       "section":"3",
       "value":"4b"
      }
     }
    },
    {
     "filename":"I1CZ47530073.tif",
     "pagination":{
      "pgfolios":{
       "section":"3",
       "value":"5a"
      }
     }
    },
    {
     "filename":"I1CZ47530074.tif",
     "pagination":{
      "pgfolios":{
       "section":"3",
       "value":"5b"
      }
     }
    },
    {
     "filename":"I1CZ47530075.tif",
     "pagination":{
      "pgfolios":{
       "section":"4",
       "value":"1a"
      }
     }
    },
    {
     "filename":"I1CZ47530076.tif",
     "pagination":{
      "pgfolios":{
       "section":"4",
       "value":"1b"
      }
     }
    },
    {
     "filename":"I1CZ47530077.tif",
     "pagination":{
      "pgfolios":{
       "section":"4",
       "value":"2a"
      }
     }
    },
    {
     "filename":"I1CZ47530078.tif",
     "pagination":{
      "pgfolios":{
       "section":"4",
       "value":"2b"
      }
     }
    },
    {
     "filename":"I1CZ47530079.tif",
     "pagination":{
      "pgfolios":{
       "section":"4",
       "value":"3a"
      }
     }
    },
    {
     "filename":"I1CZ47530080.tif",
     "pagination":{
      "pgfolios":{
       "section":"4",
       "value":"3b"
      }
     }
    },
    {
     "filename":"I1CZ47530081.tif",
     "pagination":{
      "pgfolios":{
       "section":"4",
       "value":"4a"
      }
     }
    },
    {
     "filename":"I1CZ47530082.tif",
     "pagination":{
      "pgfolios":{
       "section":"4",
       "value":"4b"
      }
     }
    },
    {
     "filename":"I1CZ47530083.tif",
     "pagination":{
      "pgfolios":{
       "section":"4",
       "value":"5a"
      }
     }
    },
    {
     "filename":"I1CZ47530084.tif",
     "pagination":{
      "pgfolios":{
       "section":"4",
       "value":"5b"
      }
     }
    },
    {
     "filename":"I1CZ47530085.tif",
     "pagination":{
      "pgfolios":{
       "section":"4",
       "value":"6a"
      }
     }
    },
    {
     "filename":"I1CZ47530086.tif",
     "pagination":{
      "pgfolios":{
       "section":"4",
       "value":"6b"
      }
     }
    },
    {
     "filename":"I1CZ47530087.tif",
     "pagination":{
      "pgfolios":{
       "section":"4",
       "value":"7a"
      }
     }
    },
    {
     "filename":"I1CZ47530088.tif",
     "pagination":{
      "pgfolios":{
       "section":"4",
       "value":"7b"
      }
     }
    },
    {
     "filename":"I1CZ47530089.tif",
     "pagination":{
      "pgfolios":{
       "section":"4",
       "value":"8a"
      }
     }
    },
    {
     "filename":"I1CZ47530090.tif",
     "pagination":{
      "pgfolios":{
       "section":"4",
       "value":"8b"
      }
     }
    },
    {
     "filename":"I1CZ47530091.tif",
     "pagination":{
      "pgfolios":{
       "section":"4",
       "value":"9a"
      }
     }
    },
    {
     "filename":"I1CZ47530092.tif",
     "pagination":{
      "pgfolios":{
       "section":"4",
       "value":"9b"
      }
     }
    },
    {
     "filename":"I1CZ47530093.tif",
     "pagination":{
      "pgfolios":{
       "section":"4",
       "value":"10a"
      }
     }
    },
    {
     "filename":"I1CZ47530094.tif",
     "pagination":{
      "pgfolios":{
       "section":"4",
       "value":"10b"
      }
     }
    },
    {
     "filename":"I1CZ47530095.tif",
     "pagination":{
      "pgfolios":{
       "section":"4",
       "value":"11a"
      }
     }
    },
    {
     "filename":"I1CZ47530096.tif",
     "pagination":{
      "pgfolios":{
       "section":"4",
       "value":"11b"
      }
     }
    },
    {
     "filename":"I1CZ47530097.tif",
     "pagination":{
      "pgfolios":{
       "section":"4",
       "value":"12a"
      }
     }
    },
    {
     "filename":"I1CZ47530098.tif",
     "pagination":{
      "pgfolios":{
       "section":"4",
       "value":"12b"
      }
     }
    },
    {
     "filename":"I1CZ47530099.tif",
     "pagination":{
      "pgfolios":{
       "section":"4",
       "value":"13a"
      }
     }
    },
    {
     "filename":"I1CZ47530100.tif",
     "pagination":{
      "pgfolios":{
       "section":"4",
       "value":"13b"
      }
     }
    },
    {
     "filename":"I1CZ47530101.tif",
     "pagination":{
      "pgfolios":{
       "section":"4",
       "value":"14a"
      }
     }
    },
    {
     "filename":"I1CZ47530102.tif",
     "pagination":{
      "pgfolios":{
       "section":"4",
       "value":"14b"
      }
     }
    },
    {
     "filename":"I1CZ47530103.tif",
     "pagination":{
      "pgfolios":{
       "section":"4",
       "value":"15a"
      }
     }
    },
    {
     "filename":"I1CZ47530104.tif",
     "pagination":{
      "pgfolios":{
       "section":"4",
       "value":"15b"
      }
     }
    },
    {
     "filename":"I1CZ47530105.tif",
     "pagination":{
      "pgfolios":{
       "section":"4",
       "value":"16a"
      }
     }
    },
    {
     "filename":"I1CZ47530106.tif",
     "pagination":{
      "pgfolios":{
       "section":"4",
       "value":"16b"
      }
     }
    },
    {
     "filename":"I1CZ47530107.tif",
     "pagination":{
      "pgfolios":{
       "section":"4",
       "value":"17a"
      }
     }
    },
    {
     "filename":"I1CZ47530108.tif",
     "pagination":{
      "pgfolios":{
       "section":"4",
       "value":"17b"
      }
     }
    },
    {
     "filename":"I1CZ47530109.tif",
     "pagination":{
      "pgfolios":{
       "section":"4",
       "value":"18a"
      }
     }
    },
    {
     "filename":"I1CZ47530110.tif",
     "pagination":{
      "pgfolios":{
       "section":"4",
       "value":"18b"
      }
     }
    },
    {
     "filename":"I1CZ47530111.tif",
     "pagination":{
      "pgfolios":{
       "section":"4",
       "value":"19a"
      }
     }
    },
    {
     "filename":"I1CZ47530112.tif",
     "pagination":{
      "pgfolios":{
       "section":"4",
       "value":"19b"
      }
     }
    },
    {
     "filename":"I1CZ47530113.tif",
     "pagination":{
      "pgfolios":{
       "section":"4",
       "value":"20a"
      }
     }
    },
    {
     "filename":"I1CZ47530114.tif",
     "pagination":{
      "pgfolios":{
       "section":"4",
       "value":"20b"
      }
     }
    },
    {
     "filename":"I1CZ47530115.tif",
     "pagination":{
      "pgfolios":{
       "section":"4",
       "value":"21a"
      }
     }
    },
    {
     "filename":"I1CZ47530116.tif",
     "pagination":{
      "pgfolios":{
       "section":"4",
       "value":"21b"
      }
     }
    },
    {
     "filename":"I1CZ47530117.tif",
     "pagination":{
      "pgfolios":{
       "section":"4",
       "value":"22a"
      }
     }
    },
    {
     "filename":"I1CZ47530118.tif",
     "pagination":{
      "pgfolios":{
       "section":"4",
       "value":"22b"
      }
     }
    },
    {
     "filename":"I1CZ47530119.tif",
     "pagination":{
      "pgfolios":{
       "section":"4",
       "value":"23a"
      }
     }
    },
    {
     "filename":"I1CZ47530120.tif",
     "pagination":{
      "pgfolios":{
       "section":"4",
       "value":"23b"
      }
     }
    },
    {
     "filename":"I1CZ47530121.tif",
     "pagination":{
      "pgfolios":{
       "section":"4",
       "value":"24a"
      }
     }
    },
    {
     "filename":"I1CZ47530122.tif",
     "pagination":{
      "pgfolios":{
       "section":"4",
       "value":"24b"
      }
     }
    },
    {
     "filename":"I1CZ47530123.tif",
     "pagination":{
      "pgfolios":{
       "section":"4",
       "value":"25a"
      }
     }
    },
    {
     "filename":"I1CZ47530124.tif",
     "pagination":{
      "pgfolios":{
       "section":"4",
       "value":"25b"
      }
     }
    },
    {
     "filename":"I1CZ47530125.tif",
     "pagination":{
      "pgfolios":{
       "section":"4",
       "value":"26a"
      }
     }
    },
    {
     "filename":"I1CZ47530126.tif",
     "pagination":{
      "pgfolios":{
       "section":"4",
       "value":"26b"
      }
     }
    },
    {
     "filename":"I1CZ47530127.tif",
     "pagination":{
      "pgfolios":{
       "section":"4",
       "value":"27a"
      }
     }
    },
    {
     "filename":"I1CZ47530128.tif",
     "pagination":{
      "pgfolios":{
       "section":"4",
       "value":"27b"
      }
     }
    },
    {
     "filename":"I1CZ47530129.tif",
     "pagination":{
      "pgfolios":{
       "section":"4",
       "value":"28a"
      }
     }
    },
    {
     "filename":"I1CZ47530130.tif",
     "pagination":{
      "pgfolios":{
       "section":"4",
       "value":"28b"
      }
     }
    },
    {
     "filename":"I1CZ47530131.tif",
     "pagination":{
      "pgfolios":{
       "section":"4",
       "value":"29a"
      }
     }
    },
    {
     "filename":"I1CZ47530132.tif",
     "pagination":{
      "pgfolios":{
       "section":"4",
       "value":"29b"
      }
     }
    },
    {
     "filename":"I1CZ47530133.tif",
     "pagination":{
      "pgfolios":{
       "section":"4",
       "value":"30a"
      }
     }
    },
    {
     "filename":"I1CZ47530134.tif",
     "pagination":{
      "pgfolios":{
       "section":"4",
       "value":"30b"
      }
     }
    },
    {
     "filename":"I1CZ47530135.tif",
     "pagination":{
      "pgfolios":{
       "section":"4",
       "value":"31a"
      }
     }
    },
    {
     "filename":"I1CZ47530136.tif",
     "pagination":{
      "pgfolios":{
       "section":"4",
       "value":"31b"
      }
     }
    },
    {
     "filename":"I1CZ47530137.tif",
     "pagination":{
      "pgfolios":{
       "section":"4",
       "value":"32a"
      }
     }
    },
    {
     "filename":"I1CZ47530138.tif",
     "pagination":{
      "pgfolios":{
       "section":"4",
       "value":"32b"
      }
     }
    },
    {
     "filename":"I1CZ47530139.tif",
     "pagination":{
      "pgfolios":{
       "section":"4",
       "value":"33a"
      }
     }
    },
    {
     "filename":"I1CZ47530140.tif",
     "pagination":{
      "pgfolios":{
       "section":"4",
       "value":"33b"
      }
     }
    },
    {
     "filename":"I1CZ47530141.tif",
     "pagination":{
      "pgfolios":{
       "section":"4",
       "value":"34a"
      }
     }
    },
    {
     "filename":"I1CZ47530142.tif",
     "pagination":{
      "pgfolios":{
       "section":"4",
       "value":"34b"
      }
     }
    },
    {
     "filename":"I1CZ47530143.tif",
     "pagination":{
      "pgfolios":{
       "section":"4",
       "value":"35a"
      }
     }
    },
    {
     "filename":"I1CZ47530144.tif",
     "pagination":{
      "pgfolios":{
       "section":"4",
       "value":"35b"
      }
     }
    },
    {
     "filename":"I1CZ47530145.tif",
     "pagination":{
      "pgfolios":{
       "section":"4",
       "value":"36a"
      }
     }
    },
    {
     "filename":"I1CZ47530146.tif",
     "pagination":{
      "pgfolios":{
       "section":"4",
       "value":"36b"
      }
     }
    },
    {
     "filename":"I1CZ47530147.tif",
     "pagination":{
      "pgfolios":{
       "section":"4",
       "value":"37a"
      }
     }
    },
    {
     "filename":"I1CZ47530148.tif",
     "pagination":{
      "pgfolios":{
       "section":"4",
       "value":"37b"
      }
     }
    },
    {
     "filename":"I1CZ47530149.tif",
     "pagination":{
      "pgfolios":{
       "section":"4",
       "value":"38a"
      }
     }
    },
    {
     "filename":"I1CZ47530150.tif",
     "pagination":{
      "pgfolios":{
       "section":"4",
       "value":"38b"
      }
     }
    },
    {
     "filename":"I1CZ47530151.tif",
     "pagination":{
      "pgfolios":{
       "section":"4",
       "value":"39a"
      }
     }
    },
    {
     "filename":"I1CZ47530152.tif",
     "pagination":{
      "pgfolios":{
       "section":"4",
       "value":"39b"
      }
     }
    },
    {
     "filename":"I1CZ47530153.tif",
     "pagination":{
      "pgfolios":{
       "section":"4",
       "value":"40a"
      }
     }
    },
    {
     "filename":"I1CZ47530154.tif",
     "pagination":{
      "pgfolios":{
       "section":"4",
       "value":"40b"
      }
     }
    },
    {
     "filename":"I1CZ47530155.tif",
     "pagination":{
      "pgfolios":{
       "section":"4",
       "value":"41a"
      }
     }
    },
    {
     "filename":"I1CZ47530156.tif",
     "pagination":{
      "pgfolios":{
       "section":"4",
       "value":"41b"
      }
     }
    },
    {
     "filename":"I1CZ47530157.tif",
     "pagination":{
      "pgfolios":{
       "section":"4",
       "value":"42a"
      }
     }
    },
    {
     "filename":"I1CZ47530158.tif",
     "pagination":{
      "pgfolios":{
       "section":"4",
       "value":"42b"
      }
     }
    },
    {
     "filename":"I1CZ47530159.tif",
     "pagination":{
      "pgfolios":{
       "section":"4",
       "value":"43a"
      }
     }
    },
    {
     "filename":"I1CZ47530160.tif",
     "pagination":{
      "pgfolios":{
       "section":"4",
       "value":"43b"
      }
     }
    },
    {
     "filename":"I1CZ47530161.tif",
     "pagination":{
      "pgfolios":{
       "section":"4",
       "value":"44a"
      }
     }
    },
    {
     "filename":"I1CZ47530162.tif",
     "pagination":{
      "pgfolios":{
       "section":"4",
       "value":"44b"
      }
     }
    },
    {
     "filename":"I1CZ47530163.tif",
     "pagination":{
      "pgfolios":{
       "section":"4",
       "value":"45a"
      }
     }
    },
    {
     "filename":"I1CZ47530164.tif",
     "pagination":{
      "pgfolios":{
       "section":"4",
       "value":"45b"
      }
     }
    },
    {
     "filename":"I1CZ47530165.tif",
     "pagination":{
      "pgfolios":{
       "section":"4",
       "value":"46a"
      }
     }
    },
    {
     "filename":"I1CZ47530166.tif",
     "pagination":{
      "pgfolios":{
       "section":"4",
       "value":"46b"
      }
     }
    },
    {
     "filename":"I1CZ47530167.tif",
     "pagination":{
      "pgfolios":{
       "section":"4",
       "value":"47a"
      }
     }
    },
    {
     "filename":"I1CZ47530168.tif",
     "pagination":{
      "pgfolios":{
       "section":"4",
       "value":"47b"
      }
     }
    },
    {
     "filename":"I1CZ47530169.tif",
     "pagination":{
      "pgfolios":{
       "section":"4",
       "value":"48a"
      }
     }
    },
    {
     "filename":"I1CZ47530170.tif",
     "pagination":{
      "pgfolios":{
       "section":"4",
       "value":"48b"
      }
     }
    },
    {
     "filename":"I1CZ47530171.tif",
     "pagination":{
      "pgfolios":{
       "section":"4",
       "value":"49a"
      }
     }
    },
    {
     "filename":"I1CZ47530172.tif",
     "pagination":{
      "pgfolios":{
       "section":"4",
       "value":"49b"
      }
     }
    },
    {
     "filename":"I1CZ47530173.tif",
     "pagination":{
      "pgfolios":{
       "section":"4",
       "value":"50a"
      }
     }
    },
    {
     "filename":"I1CZ47530174.tif",
     "pagination":{
      "pgfolios":{
       "section":"4",
       "value":"50b"
      }
     }
    },
    {
     "filename":"I1CZ47530175.tif",
     "pagination":{
      "pgfolios":{
       "section":"4",
       "value":"51a"
      }
     }
    },
    {
     "filename":"I1CZ47530176.tif",
     "pagination":{
      "pgfolios":{
       "section":"4",
       "value":"51b"
      }
     }
    },
    {
     "filename":"I1CZ47530177.tif",
     "pagination":{
      "pgfolios":{
       "section":"4",
       "value":"52a"
      }
     }
    },
    {
     "filename":"I1CZ47530178.tif",
     "pagination":{
      "pgfolios":{
       "section":"4",
       "value":"52b"
      }
     }
    },
    {
     "filename":"I1CZ47530179.tif",
     "pagination":{
      "pgfolios":{
       "section":"4",
       "value":"53a"
      }
     }
    },
    {
     "filename":"I1CZ47530180.tif",
     "pagination":{
      "pgfolios":{
       "section":"4",
       "value":"53b"
      }
     }
    },
    {
     "filename":"I1CZ47530181.tif",
     "pagination":{
      "pgfolios":{
       "section":"4",
       "value":"54a"
      }
     }
    },
    {
     "filename":"I1CZ47530182.tif",
     "pagination":{
      "pgfolios":{
       "section":"4",
       "value":"54b"
      }
     }
    },
    {
     "filename":"I1CZ47530183.tif",
     "pagination":{
      "pgfolios":{
       "section":"4",
       "value":"55a"
      }
     }
    },
    {
     "filename":"I1CZ47530184.tif",
     "pagination":{
      "pgfolios":{
       "section":"4",
       "value":"55b"
      }
     }
    },
    {
     "filename":"I1CZ47530185.tif",
     "pagination":{
      "pgfolios":{
       "section":"4",
       "value":"56a"
      }
     }
    },
    {
     "filename":"I1CZ47530186.tif",
     "pagination":{
      "pgfolios":{
       "section":"4",
       "value":"56b"
      }
     }
    },
    {
     "filename":"I1CZ47530187.tif",
     "pagination":{
      "pgfolios":{
       "section":"4",
       "value":"57a"
      }
     }
    },
    {
     "filename":"I1CZ47530188.tif",
     "pagination":{
      "pgfolios":{
       "section":"4",
       "value":"57b"
      }
     }
    },
    {
     "filename":"I1CZ47530189.tif",
     "pagination":{
      "pgfolios":{
       "section":"4",
       "value":"58a"
      }
     }
    },
    {
     "filename":"I1CZ47530190.tif",
     "pagination":{
      "pgfolios":{
       "section":"4",
       "value":"58b"
      }
     }
    },
    {
     "filename":"I1CZ47530191.tif",
     "pagination":{
      "pgfolios":{
       "section":"4",
       "value":"59a"
      }
     }
    },
    {
     "filename":"I1CZ47530192.tif",
     "pagination":{
      "pgfolios":{
       "section":"4",
       "value":"59b"
      }
     }
    },
    {
     "filename":"I1CZ47530193.tif",
     "pagination":{
      "pgfolios":{
       "section":"4",
       "value":"60a"
      }
     }
    },
    {
     "filename":"I1CZ47530194.tif",
     "pagination":{
      "pgfolios":{
       "section":"4",
       "value":"60b"
      }
     }
    },
    {
     "filename":"I1CZ47530195.tif",
     "pagination":{
      "pgfolios":{
       "section":"4",
       "value":"61a"
      }
     }
    },
    {
     "filename":"I1CZ47530196.tif",
     "pagination":{
      "pgfolios":{
       "section":"4",
       "value":"61b"
      }
     }
    },
    {
     "filename":"I1CZ47530197.tif",
     "pagination":{
      "pgfolios":{
       "section":"4",
       "value":"62a"
      }
     }
    },
    {
     "filename":"I1CZ47530198.tif",
     "pagination":{
      "pgfolios":{
       "section":"4",
       "value":"62b"
      }
     }
    },
    {
     "filename":"I1CZ47530199.tif",
     "pagination":{
      "pgfolios":{
       "section":"4",
       "value":"63a"
      }
     }
    },
    {
     "filename":"I1CZ47530200.tif",
     "pagination":{
      "pgfolios":{
       "section":"4",
       "value":"63b"
      }
     }
    },
    {
     "filename":"I1CZ47530201.tif",
     "pagination":{
      "pgfolios":{
       "section":"4",
       "value":"64a"
      }
     }
    },
    {
     "filename":"I1CZ47530202.tif",
     "pagination":{
      "pgfolios":{
       "section":"4",
       "value":"64b"
      }
     }
    },
    {
     "filename":"I1CZ47530203.tif",
     "pagination":{
      "pgfolios":{
       "section":"4",
       "value":"65a"
      }
     }
    },
    {
     "filename":"I1CZ47530204.tif",
     "pagination":{
      "pgfolios":{
       "section":"4",
       "value":"65b"
      }
     }
    },
    {
     "filename":"I1CZ47530205.tif",
     "pagination":{
      "pgfolios":{
       "section":"4",
       "value":"66a"
      }
     }
    },
    {
     "filename":"I1CZ47530206.tif",
     "pagination":{
      "pgfolios":{
       "section":"4",
       "value":"66b"
      }
     }
    },
    {
     "filename":"I1CZ47530207.tif",
     "pagination":{
      "pgfolios":{
       "section":"4",
       "value":"67a"
      }
     }
    },
    {
     "filename":"I1CZ47530208.tif",
     "pagination":{
      "pgfolios":{
       "section":"4",
       "value":"67b"
      }
     }
    },
    {
     "filename":"I1CZ47530209.tif",
     "pagination":{
      "pgfolios":{
       "section":"4",
       "value":"68a"
      }
     }
    },
    {
     "filename":"I1CZ47530210.tif",
     "pagination":{
      "pgfolios":{
       "section":"4",
       "value":"68b"
      }
     }
    },
    {
     "filename":"I1CZ47530211.tif",
     "pagination":{
      "pgfolios":{
       "section":"4",
       "value":"69a"
      }
     }
    },
    {
     "filename":"I1CZ47530212.tif",
     "pagination":{
      "pgfolios":{
       "section":"4",
       "value":"69b"
      }
     }
    },
    {
     "filename":"I1CZ47530213.tif",
     "pagination":{
      "pgfolios":{
       "section":"4",
       "value":"70a"
      }
     }
    },
    {
     "filename":"I1CZ47530214.tif",
     "pagination":{
      "pgfolios":{
       "section":"4",
       "value":"70b"
      }
     }
    },
    {
     "filename":"I1CZ47530215.tif",
     "pagination":{
      "pgfolios":{
       "section":"4",
       "value":"71a"
      }
     }
    },
    {
     "filename":"I1CZ47530216.tif",
     "pagination":{
      "pgfolios":{
       "section":"4",
       "value":"71b"
      }
     }
    },
    {
     "filename":"I1CZ47530217.tif",
     "pagination":{
      "pgfolios":{
       "section":"4",
       "value":"72a"
      }
     }
    },
    {
     "filename":"I1CZ47530218.tif",
     "pagination":{
      "pgfolios":{
       "section":"4",
       "value":"72b"
      }
     }
    },
    {
     "filename":"I1CZ47530219.tif",
     "pagination":{
      "pgfolios":{
       "section":"4",
       "value":"73a"
      }
     }
    },
    {
     "filename":"I1CZ47530220.tif",
     "pagination":{
      "pgfolios":{
       "section":"4",
       "value":"73b"
      }
     }
    },
    {
     "filename":"I1CZ47530221.tif",
     "pagination":{
      "pgfolios":{
       "section":"4",
       "value":"74a"
      }
     }
    },
    {
     "filename":"I1CZ47530222.tif",
     "pagination":{
      "pgfolios":{
       "section":"4",
       "value":"74b"
      }
     }
    },
    {
     "filename":"I1CZ47530223.tif",
     "pagination":{
      "pgfolios":{
       "section":"4",
       "value":"75a"
      }
     }
    },
    {
     "filename":"I1CZ47530224.tif",
     "pagination":{
      "pgfolios":{
       "section":"4",
       "value":"75b"
      }
     }
    },
    {
     "filename":"I1CZ47530225.tif",
     "pagination":{
      "pgfolios":{
       "section":"4",
       "value":"76a"
      }
     }
    },
    {
     "filename":"I1CZ47530226.tif",
     "pagination":{
      "pgfolios":{
       "section":"4",
       "value":"76b"
      }
     }
    },
    {
     "filename":"I1CZ47530227.tif",
     "pagination":{
      "pgfolios":{
       "section":"4",
       "value":"77a"
      }
     }
    },
    {
     "filename":"I1CZ47530228.tif",
     "pagination":{
      "pgfolios":{
       "section":"4",
       "value":"77b"
      }
     }
    },
    {
     "filename":"I1CZ47530229.tif",
     "pagination":{
      "pgfolios":{
       "section":"5",
       "value":"1a"
      }
     }
    },
    {
     "filename":"I1CZ47530230.tif",
     "pagination":{
      "pgfolios":{
       "section":"5",
       "value":"1b"
      }
     }
    },
    {
     "filename":"I1CZ47530231.tif",
     "pagination":{
      "pgfolios":{
       "section":"5",
       "value":"2a"
      }
     }
    },
    {
     "filename":"I1CZ47530232.tif",
     "pagination":{
      "pgfolios":{
       "section":"5",
       "value":"2b"
      }
     }
    },
    {
     "filename":"I1CZ47530233.tif",
     "pagination":{
      "pgfolios":{
       "section":"5",
       "value":"3a"
      }
     }
    },
    {
     "filename":"I1CZ47530234.tif",
     "pagination":{
      "pgfolios":{
       "section":"5",
       "value":"3b"
      }
     }
    },
    {
     "filename":"I1CZ47530235.tif",
     "pagination":{
      "pgfolios":{
       "section":"5",
       "value":"4a"
      }
     }
    },
    {
     "filename":"I1CZ47530236.tif",
     "pagination":{
      "pgfolios":{
       "section":"5",
       "value":"4b"
      }
     }
    },
    {
     "filename":"I1CZ47530237.tif",
     "pagination":{
      "pgfolios":{
       "section":"5",
       "value":"5a"
      }
     }
    },
    {
     "filename":"I1CZ47530238.tif",
     "pagination":{
      "pgfolios":{
       "section":"5",
       "value":"5b"
      }
     }
    },
    {
     "filename":"I1CZ47530239.tif",
     "pagination":{
      "pgfolios":{
       "section":"5",
       "value":"6a"
      }
     }
    },
    {
     "filename":"I1CZ47530240.tif",
     "pagination":{
      "pgfolios":{
       "section":"5",
       "value":"6b"
      }
     }
    },
    {
     "filename":"I1CZ47530241.tif",
     "pagination":{
      "pgfolios":{
       "section":"5",
       "value":"7a"
      }
     }
    },
    {
     "filename":"I1CZ47530242.tif",
     "pagination":{
      "pgfolios":{
       "section":"5",
       "value":"7b"
      }
     }
    },
    {
     "filename":"I1CZ47530243.tif",
     "pagination":{
      "pgfolios":{
       "section":"5",
       "value":"8a"
      }
     }
    },
    {
     "filename":"I1CZ47530244.tif",
     "pagination":{
      "pgfolios":{
       "section":"5",
       "value":"8b"
      }
     }
    },
    {
     "filename":"I1CZ47530245.tif",
     "pagination":{
      "pgfolios":{
       "section":"5",
       "value":"9a"
      }
     }
    },
    {
     "filename":"I1CZ47530246.tif",
     "pagination":{
      "pgfolios":{
       "section":"5",
       "value":"9b"
      }
     }
    },
    {
     "filename":"I1CZ47530247.tif",
     "pagination":{
      "pgfolios":{
       "section":"5",
       "value":"10a"
      }
     }
    },
    {
     "filename":"I1CZ47530248.tif",
     "pagination":{
      "pgfolios":{
       "section":"5",
       "value":"10b"
      }
     }
    },
    {
     "filename":"I1CZ47530249.tif",
     "pagination":{
      "pgfolios":{
       "section":"5",
       "value":"11a"
      }
     }
    },
    {
     "filename":"I1CZ47530250.tif",
     "pagination":{
      "pgfolios":{
       "section":"5",
       "value":"11b"
      }
     }
    },
    {
     "filename":"I1CZ47530251.tif",
     "pagination":{
      "pgfolios":{
       "section":"5",
       "value":"12a"
      }
     }
    },
    {
     "filename":"I1CZ47530252.tif",
     "pagination":{
      "pgfolios":{
       "section":"5",
       "value":"12b"
      }
     }
    },
    {
     "filename":"I1CZ47530253.tif",
     "pagination":{
      "pgfolios":{
       "section":"6",
       "value":"1a"
      }
     }
    },
    {
     "filename":"I1CZ47530254.tif",
     "pagination":{
      "pgfolios":{
       "section":"6",
       "value":"1b"
      }
     }
    },
    {
     "filename":"I1CZ47530255.tif",
     "pagination":{
      "pgfolios":{
       "section":"6",
       "value":"2a"
      }
     }
    },
    {
     "filename":"I1CZ47530256.tif",
     "pagination":{
      "pgfolios":{
       "section":"6",
       "value":"2b"
      }
     }
    },
    {
     "filename":"I1CZ47530257.tif",
     "pagination":{
      "pgfolios":{
       "section":"6",
       "value":"3a"
      }
     }
    },
    {
     "filename":"I1CZ47530258.tif",
     "pagination":{
      "pgfolios":{
       "section":"6",
       "value":"3b"
      }
     }
    },
    {
     "filename":"I1CZ47530259.tif",
     "pagination":{
      "pgfolios":{
       "section":"6",
       "value":"4a"
      }
     }
    },
    {
     "filename":"I1CZ47530260.tif",
     "pagination":{
      "pgfolios":{
       "section":"6",
       "value":"4b"
      }
     }
    },
    {
     "filename":"I1CZ47530261.tif",
     "pagination":{
      "pgfolios":{
       "section":"6",
       "value":"5a"
      }
     }
    },
    {
     "filename":"I1CZ47530262.tif",
     "pagination":{
      "pgfolios":{
       "section":"6",
       "value":"5b"
      }
     }
    },
    {
     "filename":"I1CZ47530263.tif",
     "pagination":{
      "pgfolios":{
       "section":"6",
       "value":"6a"
      }
     }
    },
    {
     "filename":"I1CZ47530264.tif",
     "pagination":{
      "pgfolios":{
       "section":"6",
       "value":"6b"
      }
     }
    },
    {
     "filename":"I1CZ47530265.tif",
     "pagination":{
      "pgfolios":{
       "section":"6",
       "value":"7a"
      }
     }
    },
    {
     "filename":"I1CZ47530266.tif",
     "pagination":{
      "pgfolios":{
       "section":"6",
       "value":"7b"
      }
     }
    },
    {
     "filename":"I1CZ47530267.tif",
     "pagination":{
      "pgfolios":{
       "section":"6",
       "value":"8a"
      }
     }
    },
    {
     "filename":"I1CZ47530268.tif",
     "pagination":{
      "pgfolios":{
       "section":"6",
       "value":"8b"
      }
     }
    },
    {
     "filename":"I1CZ47530269.tif",
     "pagination":{
      "pgfolios":{
       "section":"7",
       "value":"1a"
      }
     }
    },
    {
     "filename":"I1CZ47530270.tif",
     "pagination":{
      "pgfolios":{
       "section":"7",
       "value":"1b"
      }
     }
    },
    {
     "filename":"I1CZ47530271.tif",
     "pagination":{
      "pgfolios":{
       "section":"7",
       "value":"2a"
      }
     }
    },
    {
     "filename":"I1CZ47530272.tif",
     "pagination":{
      "pgfolios":{
       "section":"7",
       "value":"2b"
      }
     }
    },
    {
     "filename":"I1CZ47530273.tif",
     "pagination":{
      "pgfolios":{
       "section":"7",
       "value":"3a"
      }
     }
    },
    {
     "filename":"I1CZ47530274.tif",
     "pagination":{
      "pgfolios":{
       "section":"7",
       "value":"3b"
      }
     }
    },
    {
     "filename":"I1CZ47530275.tif",
     "pagination":{
      "pgfolios":{
       "section":"7",
       "value":"4a"
      }
     }
    },
    {
     "filename":"I1CZ47530276.tif",
     "pagination":{
      "pgfolios":{
       "section":"7",
       "value":"4b"
      }
     }
    },
    {
     "filename":"I1CZ47530277.tif",
     "pagination":{
      "pgfolios":{
       "section":"7",
       "value":"5a"
      }
     }
    },
    {
     "filename":"I1CZ47530278.tif",
     "pagination":{
      "pgfolios":{
       "section":"7",
       "value":"5b"
      }
     }
    },
    {
     "filename":"I1CZ47530279.tif",
     "pagination":{
      "pgfolios":{
       "section":"8",
       "value":"1a"
      }
     }
    },
    {
     "filename":"I1CZ47530280.tif",
     "pagination":{
      "pgfolios":{
       "section":"8",
       "value":"1b"
      }
     }
    },
    {
     "filename":"I1CZ47530281.tif",
     "pagination":{
      "pgfolios":{
       "section":"8",
       "value":"2a"
      }
     }
    },
    {
     "filename":"I1CZ47530282.tif",
     "pagination":{
      "pgfolios":{
       "section":"8",
       "value":"2b"
      }
     }
    },
    {
     "filename":"I1CZ47530283.tif",
     "pagination":{
      "pgfolios":{
       "section":"8",
       "value":"3a"
      }
     }
    },
    {
     "filename":"I1CZ47530284.tif",
     "pagination":{
      "pgfolios":{
       "section":"8",
       "value":"3b"
      }
     }
    },
    {
     "filename":"I1CZ47530285.tif",
     "pagination":{
      "pgfolios":{
       "section":"8",
       "value":"4a"
      }
     }
    },
    {
     "filename":"I1CZ47530286.tif",
     "pagination":{
      "pgfolios":{
       "section":"8",
       "value":"4b"
      }
     }
    },
    {
     "filename":"I1CZ47530287.tif",
     "pagination":{
      "pgfolios":{
       "section":"8",
       "value":"5a"
      }
     }
    },
    {
     "filename":"I1CZ47530288.tif",
     "pagination":{
      "pgfolios":{
       "section":"8",
       "value":"5b"
      }
     }
    },
    {
     "filename":"I1CZ47530289.tif",
     "pagination":{
      "pgfolios":{
       "section":"8",
       "value":"6a"
      }
     }
    },
    {
     "filename":"I1CZ47530290.tif",
     "pagination":{
      "pgfolios":{
       "section":"8",
       "value":"6b"
      }
     }
    },
    {
     "filename":"I1CZ47530291.tif",
     "pagination":{
      "pgfolios":{
       "section":"8",
       "value":"7a"
      }
     }
    },
    {
     "filename":"I1CZ47530292.tif",
     "pagination":{
      "pgfolios":{
       "section":"8",
       "value":"7b"
      }
     }
    },
    {
     "filename":"I1CZ47530293.tif",
     "pagination":{
      "pgfolios":{
       "section":"8",
       "value":"8a"
      }
     }
    },
    {
     "filename":"I1CZ47530294.tif",
     "pagination":{
      "pgfolios":{
       "section":"8",
       "value":"8b"
      }
     }
    },
    {
     "filename":"I1CZ47530295.tif",
     "pagination":{
      "pgfolios":{
       "section":"8",
       "value":"9a"
      }
     }
    },
    {
     "filename":"I1CZ47530296.tif",
     "pagination":{
      "pgfolios":{
       "section":"8",
       "value":"9b"
      }
     }
    },
    {
     "filename":"I1CZ47530297.tif",
     "pagination":{
      "pgfolios":{
       "section":"8",
       "value":"10a"
      }
     }
    },
    {
     "filename":"I1CZ47530298.tif",
     "pagination":{
      "pgfolios":{
       "section":"8",
       "value":"10b"
      }
     }
    },
    {
     "filename":"I1CZ47530299.tif",
     "pagination":{
      "pgfolios":{
       "section":"8",
       "value":"11a"
      }
     }
    },
    {
     "filename":"I1CZ47530300.tif",
     "pagination":{
      "pgfolios":{
       "section":"8",
       "value":"11b"
      }
     }
    },
    {
     "filename":"I1CZ47530301.tif",
     "pagination":{
      "pgfolios":{
       "section":"8",
       "value":"12a"
      }
     }
    },
    {
     "filename":"I1CZ47530302.tif",
     "pagination":{
      "pgfolios":{
       "section":"8",
       "value":"12b"
      }
     }
    },
    {
     "filename":"I1CZ47530303.tif",
     "pagination":{
      "pgfolios":{
       "section":"9",
       "value":"1a"
      }
     }
    },
    {
     "filename":"I1CZ47530304.tif",
     "pagination":{
      "pgfolios":{
       "section":"9",
       "value":"1b"
      }
     }
    },
    {
     "filename":"I1CZ47530305.tif",
     "pagination":{
      "pgfolios":{
       "section":"9",
       "value":"2a"
      }
     }
    },
    {
     "filename":"I1CZ47530306.tif",
     "pagination":{
      "pgfolios":{
       "section":"9",
       "value":"2b"
      }
     }
    },
    {
     "filename":"I1CZ47530307.tif",
     "pagination":{
      "pgfolios":{
       "section":"9",
       "value":"3a"
      }
     }
    },
    {
     "filename":"I1CZ47530308.tif",
     "pagination":{
      "pgfolios":{
       "section":"9",
       "value":"3b"
      }
     }
    },
    {
     "filename":"I1CZ47530309.tif",
     "pagination":{
      "pgfolios":{
       "section":"9",
       "value":"4a"
      }
     }
    },
    {
     "filename":"I1CZ47530310.tif",
     "pagination":{
      "pgfolios":{
       "section":"9",
       "value":"4b"
      }
     }
    },
    {
     "filename":"I1CZ47530311.tif",
     "pagination":{
      "pgfolios":{
       "section":"9",
       "value":"5a"
      }
     }
    },
    {
     "filename":"I1CZ47530312.tif",
     "pagination":{
      "pgfolios":{
       "section":"9",
       "value":"5b"
      }
     }
    },
    {
     "filename":"I1CZ47530313.tif",
     "pagination":{
      "pgfolios":{
       "section":"9",
       "value":"6a"
      }
     }
    },
    {
     "filename":"I1CZ47530314.tif",
     "pagination":{
      "pgfolios":{
       "section":"9",
       "value":"6b"
      }
     }
    },
    {
     "filename":"I1CZ47530315.tif",
     "pagination":{
      "pgfolios":{
       "section":"9",
       "value":"7a"
      }
     }
    },
    {
     "filename":"I1CZ47530316.tif",
     "pagination":{
      "pgfolios":{
       "section":"9",
       "value":"7b"
      }
     }
    },
    {
     "filename":"I1CZ47530317.tif",
     "pagination":{
      "pgfolios":{
       "section":"9",
       "value":"8a"
      }
     }
    },
    {
     "filename":"I1CZ47530318.tif",
     "pagination":{
      "pgfolios":{
       "section":"9",
       "value":"8b"
      }
     }
    },
    {
     "filename":"I1CZ47530319.tif",
     "pagination":{
      "pgfolios":{
       "section":"9",
       "value":"9a"
      }
     }
    },
    {
     "filename":"I1CZ47530320.tif",
     "pagination":{
      "pgfolios":{
       "section":"9",
       "value":"9b"
      }
     }
    },
    {
     "filename":"I1CZ47530321.tif",
     "pagination":{
      "pgfolios":{
       "section":"9",
       "value":"10a"
      }
     }
    },
    {
     "filename":"I1CZ47530322.tif",
     "pagination":{
      "pgfolios":{
       "section":"9",
       "value":"10b"
      }
     }
    },
    {
     "filename":"I1CZ47530323.tif",
     "pagination":{
      "pgfolios":{
       "section":"9",
       "value":"11a"
      }
     }
    },
    {
     "filename":"I1CZ47530324.tif",
     "pagination":{
      "pgfolios":{
       "section":"9",
       "value":"11b"
      }
     }
    },
    {
     "filename":"I1CZ47530325.tif",
     "pagination":{
      "pgfolios":{
       "section":"9",
       "value":"12a"
      }
     }
    },
    {
     "filename":"I1CZ47530326.tif",
     "pagination":{
      "pgfolios":{
       "section":"9",
       "value":"12b"
      }
     }
    },
    {
     "filename":"I1CZ47530327.tif",
     "pagination":{
      "pgfolios":{
       "section":"10",
       "value":"1a"
      }
     }
    },
    {
     "filename":"I1CZ47530328.tif",
     "pagination":{
      "pgfolios":{
       "section":"10",
       "value":"1b"
      }
     }
    },
    {
     "filename":"I1CZ47530329.tif",
     "pagination":{
      "pgfolios":{
       "section":"10",
       "value":"2a"
      }
     }
    },
    {
     "filename":"I1CZ47530330.tif",
     "pagination":{
      "pgfolios":{
       "section":"10",
       "value":"2b"
      }
     }
    },
    {
     "filename":"I1CZ47530331.tif",
     "pagination":{
      "pgfolios":{
       "section":"10",
       "value":"3a"
      }
     }
    },
    {
     "filename":"I1CZ47530332.tif",
     "pagination":{
      "pgfolios":{
       "section":"10",
       "value":"3b"
      }
     }
    },
    {
     "filename":"I1CZ47530333.tif",
     "pagination":{
      "pgfolios":{
       "section":"10",
       "value":"4a"
      }
     }
    },
    {
     "filename":"I1CZ47530334.tif",
     "pagination":{
      "pgfolios":{
       "section":"10",
       "value":"4b"
      }
     }
    },
    {
     "filename":"I1CZ47530335.tif",
     "pagination":{
      "pgfolios":{
       "section":"10",
       "value":"5a"
      }
     }
    },
    {
     "filename":"I1CZ47530336.tif",
     "pagination":{
      "pgfolios":{
       "section":"10",
       "value":"5b"
      }
     }
    },
    {
     "filename":"I1CZ47530337.tif",
     "pagination":{
      "pgfolios":{
       "section":"11",
       "value":"1a"
      }
     }
    },
    {
     "filename":"I1CZ47530338.tif",
     "pagination":{
      "pgfolios":{
       "section":"11",
       "value":"1b"
      }
     }
    },
    {
     "filename":"I1CZ47530339.tif",
     "pagination":{
      "pgfolios":{
       "section":"11",
       "value":"2a"
      }
     }
    },
    {
     "filename":"I1CZ47530340.tif",
     "pagination":{
      "pgfolios":{
       "section":"11",
       "value":"2b"
      }
     }
    },
    {
     "filename":"I1CZ47530341.tif",
     "pagination":{
      "pgfolios":{
       "section":"11",
       "value":"3a"
      }
     }
    },
    {
     "filename":"I1CZ47530342.tif",
     "pagination":{
      "pgfolios":{
       "section":"11",
       "value":"3b"
      }
     }
    },
    {
     "filename":"I1CZ47530343.tif",
     "pagination":{
      "pgfolios":{
       "section":"11",
       "value":"4a"
      }
     }
    },
    {
     "filename":"I1CZ47530344.tif",
     "pagination":{
      "pgfolios":{
       "section":"11",
       "value":"4b"
      }
     }
    },
    {
     "filename":"I1CZ47530345.tif",
     "pagination":{
      "pgfolios":{
       "section":"11",
       "value":"5a"
      }
     }
    },
    {
     "filename":"I1CZ47530346.tif",
     "pagination":{
      "pgfolios":{
       "section":"11",
       "value":"5b"
      }
     }
    },
    {
     "filename":"I1CZ47530347.tif",
     "pagination":{
      "pgfolios":{
       "section":"12",
       "value":"1a"
      }
     }
    },
    {
     "filename":"I1CZ47530348.tif",
     "pagination":{
      "pgfolios":{
       "section":"12",
       "value":"1b"
      }
     }
    },
    {
     "filename":"I1CZ47530349.tif",
     "pagination":{
      "pgfolios":{
       "section":"12",
       "value":"2a"
      }
     }
    },
    {
     "filename":"I1CZ47530350.tif",
     "pagination":{
      "pgfolios":{
       "section":"12",
       "value":"2b"
      }
     }
    },
    {
     "filename":"I1CZ47530351.tif",
     "pagination":{
      "pgfolios":{
       "section":"12",
       "value":"3a"
      }
     }
    },
    {
     "filename":"I1CZ47530352.tif",
     "pagination":{
      "pgfolios":{
       "section":"12",
       "value":"3b"
      }
     }
    },
    {
     "filename":"I1CZ47530353.tif",
     "pagination":{
      "pgfolios":{
       "section":"12",
       "value":"4a"
      }
     }
    },
    {
     "filename":"I1CZ47530354.tif",
     "pagination":{
      "pgfolios":{
       "section":"12",
       "value":"4b"
      }
     }
    },
    {
     "filename":"I1CZ47530355.tif",
     "pagination":{
      "pgfolios":{
       "section":"12",
       "value":"5a"
      }
     }
    },
    {
     "filename":"I1CZ47530356.tif",
     "pagination":{
      "pgfolios":{
       "section":"12",
       "value":"5b"
      }
     }
    },
    {
     "filename":"I1CZ47530357.tif",
     "pagination":{
      "pgfolios":{
       "section":"12",
       "value":"6a"
      }
     }
    },
    {
     "filename":"I1CZ47530358.tif",
     "pagination":{
      "pgfolios":{
       "section":"12",
       "value":"6b"
      }
     }
    },
    {
     "filename":"I1CZ47530359.tif",
     "pagination":{
      "pgfolios":{
       "section":"13",
       "value":"1a"
      }
     }
    },
    {
     "filename":"I1CZ47530360.tif",
     "pagination":{
      "pgfolios":{
       "section":"13",
       "value":"1b"
      }
     }
    },
    {
     "filename":"I1CZ47530361.tif",
     "pagination":{
      "pgfolios":{
       "section":"13",
       "value":"2a"
      }
     }
    },
    {
     "filename":"I1CZ47530362.tif",
     "pagination":{
      "pgfolios":{
       "section":"13",
       "value":"2b"
      }
     }
    },
    {
     "filename":"I1CZ47530363.tif",
     "pagination":{
      "pgfolios":{
       "section":"13",
       "value":"3a"
      }
     }
    },
    {
     "filename":"I1CZ47530364.tif",
     "pagination":{
      "pgfolios":{
       "section":"13",
       "value":"3b"
      }
     }
    },
    {
     "filename":"I1CZ47530365.tif",
     "pagination":{
      "pgfolios":{
       "section":"13",
       "value":"4a"
      }
     }
    },
    {
     "filename":"I1CZ47530366.tif",
     "pagination":{
      "pgfolios":{
       "section":"13",
       "value":"4b"
      }
     }
    },
    {
     "filename":"I1CZ47530367.tif",
     "pagination":{
      "pgfolios":{
       "section":"13",
       "value":"5a"
      }
     }
    },
    {
     "filename":"I1CZ47530368.tif",
     "pagination":{
      "pgfolios":{
       "section":"13",
       "value":"5b"
      }
     }
    },
    {
     "filename":"I1CZ47530369.tif",
     "pagination":{
      "pgfolios":{
       "section":"14",
       "value":"1a"
      }
     }
    },
    {
     "filename":"I1CZ47530370.tif",
     "pagination":{
      "pgfolios":{
       "section":"14",
       "value":"1b"
      }
     }
    },
    {
     "filename":"I1CZ47530371.tif",
     "pagination":{
      "pgfolios":{
       "section":"14",
       "value":"2a"
      }
     }
    },
    {
     "filename":"I1CZ47530372.tif",
     "pagination":{
      "pgfolios":{
       "section":"14",
       "value":"2b"
      }
     }
    },
    {
     "filename":"I1CZ47530373.tif",
     "pagination":{
      "pgfolios":{
       "section":"14",
       "value":"3a"
      }
     }
    },
    {
     "filename":"I1CZ47530374.tif",
     "pagination":{
      "pgfolios":{
       "section":"14",
       "value":"3b"
      }
     }
    },
    {
     "filename":"I1CZ47530375.tif",
     "pagination":{
      "pgfolios":{
       "section":"14",
       "value":"4a"
      }
     }
    },
    {
     "filename":"I1CZ47530376.tif",
     "pagination":{
      "pgfolios":{
       "section":"14",
       "value":"4b"
      }
     }
    },
    {
     "filename":"I1CZ47530377.tif",
     "pagination":{
      "pgfolios":{
       "section":"14",
       "value":"5a"
      }
     }
    },
    {
     "filename":"I1CZ47530378.tif",
     "pagination":{
      "pgfolios":{
       "section":"14",
       "value":"5b"
      }
     }
    },
    {
     "filename":"I1CZ47530379.tif",
     "pagination":{
      "pgfolios":{
       "section":"14",
       "value":"6a"
      }
     }
    },
    {
     "filename":"I1CZ47530380.tif",
     "pagination":{
      "pgfolios":{
       "section":"14",
       "value":"6b"
      }
     }
    },
    {
     "filename":"I1CZ47530381.tif",
     "pagination":{
      "pgfolios":{
       "section":"14",
       "value":"7a"
      }
     }
    },
    {
     "filename":"I1CZ47530382.tif",
     "pagination":{
      "pgfolios":{
       "section":"14",
       "value":"7b"
      }
     }
    },
    {
     "filename":"I1CZ47530383.tif",
     "pagination":{
      "pgfolios":{
       "section":"14",
       "value":"8a"
      }
     }
    },
    {
     "filename":"I1CZ47530384.tif",
     "pagination":{
      "pgfolios":{
       "section":"14",
       "value":"8b"
      }
     }
    },
    {
     "filename":"I1CZ47530385.tif",
     "pagination":{
      "pgfolios":{
       "section":"14",
       "value":"9a"
      }
     }
    },
    {
     "filename":"I1CZ47530386.tif",
     "pagination":{
      "pgfolios":{
       "section":"14",
       "value":"9b"
      }
     }
    },
    {
     "filename":"I1CZ47530387.tif",
     "pagination":{
      "pgfolios":{
       "section":"14",
       "value":"10a"
      }
     }
    },
    {
     "filename":"I1CZ47530388.tif",
     "pagination":{
      "pgfolios":{
       "section":"14",
       "value":"10b"
      }
     }
    },
    {
     "filename":"I1CZ47530389.tif",
     "pagination":{
      "pgfolios":{
       "section":"14",
       "value":"11a"
      }
     }
    },
    {
     "filename":"I1CZ47530390.tif",
     "pagination":{
      "pgfolios":{
       "section":"14",
       "value":"11b"
      }
     }
    },
    {
     "filename":"I1CZ47530391.tif",
     "pagination":{
      "pgfolios":{
       "section":"14",
       "value":"12a"
      }
     }
    },
    {
     "filename":"I1CZ47530392.tif",
     "pagination":{
      "pgfolios":{
       "section":"14",
       "value":"12b"
      }
     }
    },
    {
     "filename":"I1CZ47530393.tif",
     "pagination":{
      "pgfolios":{
       "section":"14",
       "value":"13a"
      }
     }
    },
    {
     "filename":"I1CZ47530394.tif",
     "pagination":{
      "pgfolios":{
       "section":"14",
       "value":"13b"
      }
     }
    },
    {
     "filename":"I1CZ47530395.tif",
     "pagination":{
      "pgfolios":{
       "section":"14",
       "value":"14a"
      }
     }
    },
    {
     "filename":"I1CZ47530396.tif",
     "pagination":{
      "pgfolios":{
       "section":"14",
       "value":"14b"
      }
     }
    },
    {
     "filename":"I1CZ47530397.tif",
     "pagination":{
      "pgfolios":{
       "section":"14",
       "value":"15a"
      }
     }
    },
    {
     "filename":"I1CZ47530398.tif",
     "pagination":{
      "pgfolios":{
       "section":"14",
       "value":"15b"
      }
     }
    },
    {
     "filename":"I1CZ47530399.tif",
     "pagination":{
      "pgfolios":{
       "section":"14",
       "value":"16a"
      }
     }
    },
    {
     "filename":"I1CZ47530400.tif",
     "pagination":{
      "pgfolios":{
       "section":"14",
       "value":"16b"
      }
     }
    },
    {
     "filename":"I1CZ47530401.tif",
     "pagination":{
      "pgfolios":{
       "section":"14",
       "value":"17a"
      }
     }
    },
    {
     "filename":"I1CZ47530402.tif",
     "pagination":{
      "pgfolios":{
       "section":"14",
       "value":"17b"
      }
     }
    },
    {
     "filename":"I1CZ47530403.tif",
     "pagination":{
      "pgfolios":{
       "section":"14",
       "value":"18a"
      }
     }
    },
    {
     "filename":"I1CZ47530404.tif",
     "pagination":{
      "pgfolios":{
       "section":"14",
       "value":"18b"
      }
     }
    },
    {
     "filename":"I1CZ47530405.tif",
     "pagination":{
      "pgfolios":{
       "section":"14",
       "value":"19a"
      }
     }
    },
    {
     "filename":"I1CZ47530406.tif",
     "pagination":{
      "pgfolios":{
       "section":"14",
       "value":"19b"
      }
     }
    },
    {
     "filename":"I1CZ47530407.tif",
     "pagination":{
      "pgfolios":{
       "section":"14",
       "value":"20a"
      }
     }
    },
    {
     "filename":"I1CZ47530408.tif",
     "pagination":{
      "pgfolios":{
       "section":"14",
       "value":"20b"
      }
     }
    },
    {
     "filename":"I1CZ47530409.tif",
     "pagination":{
      "pgfolios":{
       "section":"14",
       "value":"21a"
      }
     }
    },
    {
     "filename":"I1CZ47530410.tif",
     "pagination":{
      "pgfolios":{
       "section":"14",
       "value":"21b"
      }
     }
    },
    {
     "filename":"I1CZ47530411.tif",
     "pagination":{
      "pgfolios":{
       "section":"14",
       "value":"22a"
      }
     }
    },
    {
     "filename":"I1CZ47530412.tif",
     "pagination":{
      "pgfolios":{
       "section":"14",
       "value":"22b"
      }
     }
    },
    {
     "filename":"I1CZ47530413.tif",
     "pagination":{
      "pgfolios":{
       "section":"14",
       "value":"23a"
      }
     }
    },
    {
     "filename":"I1CZ47530414.tif",
     "pagination":{
      "pgfolios":{
       "section":"14",
       "value":"23b"
      }
     }
    },
    {
     "filename":"I1CZ47530415.tif",
     "pagination":{
      "pgfolios":{
       "section":"14",
       "value":"24a"
      }
     }
    },
    {
     "filename":"I1CZ47530416.tif",
     "pagination":{
      "pgfolios":{
       "section":"14",
       "value":"24b"
      }
     }
    },
    {
     "filename":"I1CZ47530417.tif",
     "pagination":{
      "pgfolios":{
       "section":"14",
       "value":"25a"
      }
     }
    },
    {
     "filename":"I1CZ47530418.tif",
     "pagination":{
      "pgfolios":{
       "section":"14",
       "value":"25b"
      }
     }
    },
    {
     "filename":"I1CZ47530419.tif",
     "pagination":{
      "pgfolios":{
       "section":"14",
       "value":"26a"
      }
     }
    },
    {
     "filename":"I1CZ47530420.tif",
     "pagination":{
      "pgfolios":{
       "section":"14",
       "value":"26b"
      }
     }
    },
    {
     "filename":"I1CZ47530421.tif",
     "pagination":{
      "pgfolios":{
       "section":"14",
       "value":"27a"
      }
     }
    },
    {
     "filename":"I1CZ47530422.tif",
     "pagination":{
      "pgfolios":{
       "section":"14",
       "value":"27b"
      }
     }
    },
    {
     "filename":"I1CZ47530423.tif",
     "pagination":{
      "pgfolios":{
       "section":"14",
       "value":"28a"
      }
     }
    },
    {
     "filename":"I1CZ47530424.tif",
     "pagination":{
      "pgfolios":{
       "section":"14",
       "value":"28b"
      }
     }
    },
    {
     "filename":"I1CZ47530425.tif",
     "pagination":{
      "pgfolios":{
       "section":"14",
       "value":"29a"
      }
     }
    },
    {
     "filename":"I1CZ47530426.tif",
     "pagination":{
      "pgfolios":{
       "section":"14",
       "value":"29b"
      }
     }
    },
    {
     "filename":"I1CZ47530427.tif",
     "pagination":{
      "pgfolios":{
       "section":"14",
       "value":"30a"
      }
     }
    },
    {
     "filename":"I1CZ47530428.tif",
     "pagination":{
      "pgfolios":{
       "section":"14",
       "value":"30b"
      }
     }
    },
    {
     "filename":"I1CZ47530429.tif",
     "pagination":{
      "pgfolios":{
       "section":"14",
       "value":"31a"
      }
     }
    },
    {
     "filename":"I1CZ47530430.tif",
     "pagination":{
      "pgfolios":{
       "section":"14",
       "value":"31b"
      }
     }
    },
    {
     "filename":"I1CZ47530431.tif",
     "pagination":{
      "pgfolios":{
       "section":"14",
       "value":"32a"
      }
     }
    },
    {
     "filename":"I1CZ47530432.tif",
     "pagination":{
      "pgfolios":{
       "section":"14",
       "value":"32b"
      }
     }
    },
    {
     "filename":"I1CZ47530433.tif",
     "pagination":{
      "pgfolios":{
       "section":"14",
       "value":"33a"
      }
     }
    },
    {
     "filename":"I1CZ47530434.tif",
     "pagination":{
      "pgfolios":{
       "section":"14",
       "value":"33b"
      }
     }
    },
    {
     "filename":"I1CZ47530435.tif",
     "pagination":{
      "pgfolios":{
       "section":"14",
       "value":"34a"
      }
     }
    },
    {
     "filename":"I1CZ47530436.tif",
     "pagination":{
      "pgfolios":{
       "section":"14",
       "value":"34b"
      }
     }
    },
    {
     "filename":"I1CZ47530437.tif",
     "pagination":{
      "pgfolios":{
       "section":"15",
       "value":"1a"
      }
     }
    },
    {
     "filename":"I1CZ47530438.tif",
     "pagination":{
      "pgfolios":{
       "section":"15",
       "value":"1b"
      }
     }
    },
    {
     "filename":"I1CZ47530439.tif",
     "pagination":{
      "pgfolios":{
       "section":"15",
       "value":"2a"
      }
     }
    },
    {
     "filename":"I1CZ47530440.tif",
     "pagination":{
      "pgfolios":{
       "section":"15",
       "value":"2b"
      }
     }
    },
    {
     "filename":"I1CZ47530441.tif",
     "pagination":{
      "pgfolios":{
       "section":"15",
       "value":"3a"
      }
     }
    },
    {
     "filename":"I1CZ47530442.tif",
     "pagination":{
      "pgfolios":{
       "section":"15",
       "value":"3b"
      }
     }
    },
    {
     "filename":"I1CZ47530443.tif",
     "pagination":{
      "pgfolios":{
       "section":"15",
       "value":"4a"
      }
     }
    },
    {
     "filename":"I1CZ47530444.tif",
     "pagination":{
      "pgfolios":{
       "section":"15",
       "value":"4b"
      }
     }
    },
    {
     "filename":"I1CZ47530445.tif",
     "pagination":{
      "pgfolios":{
       "section":"15",
       "value":"5a"
      }
     }
    },
    {
     "filename":"I1CZ47530446.tif",
     "pagination":{
      "pgfolios":{
       "section":"15",
       "value":"5b"
      }
     }
    },
    {
     "filename":"I1CZ47530447.tif",
     "pagination":{
      "pgfolios":{
       "section":"15",
       "value":"6a"
      }
     }
    },
    {
     "filename":"I1CZ47530448.tif",
     "pagination":{
      "pgfolios":{
       "section":"15",
       "value":"6b"
      }
     }
    },
    {
     "filename":"I1CZ47530449.tif",
     "pagination":{
      "pgfolios":{
       "section":"15",
       "value":"7a"
      }
     }
    },
    {
     "filename":"I1CZ47530450.tif",
     "pagination":{
      "pgfolios":{
       "section":"15",
       "value":"7b"
      }
     }
    },
    {
     "filename":"I1CZ47530451.tif",
     "pagination":{
      "pgfolios":{
       "section":"15",
       "value":"8a"
      }
     }
    },
    {
     "filename":"I1CZ47530452.tif",
     "pagination":{
      "pgfolios":{
       "section":"15",
       "value":"8b"
      }
     }
    },
    {
     "filename":"I1CZ47530453.tif",
     "pagination":{
      "pgfolios":{
       "section":"15",
       "value":"9a"
      }
     }
    },
    {
     "filename":"I1CZ47530454.tif",
     "pagination":{
      "pgfolios":{
       "section":"15",
       "value":"9b"
      }
     }
    },
    {
     "filename":"I1CZ47530455.tif",
     "pagination":{
      "pgfolios":{
       "section":"15",
       "value":"10a"
      }
     }
    },
    {
     "filename":"I1CZ47530456.tif",
     "pagination":{
      "pgfolios":{
       "section":"15",
       "value":"10b"
      }
     }
    },
    {
     "filename":"I1CZ47530457.tif",
     "pagination":{
      "pgfolios":{
       "section":"15",
       "value":"11a"
      }
     }
    },
    {
     "filename":"I1CZ47530458.tif",
     "pagination":{
      "pgfolios":{
       "section":"15",
       "value":"11b"
      }
     }
    },
    {
     "filename":"I1CZ47530459.tif",
     "pagination":{
      "pgfolios":{
       "section":"15",
       "value":"12a"
      }
     }
    },
    {
     "filename":"I1CZ47530460.tif",
     "pagination":{
      "pgfolios":{
       "section":"15",
       "value":"12b"
      }
     }
    },
    {
     "filename":"I1CZ47530461.tif",
     "pagination":{
      "pgfolios":{
       "section":"16",
       "value":"1a"
      }
     }
    },
    {
     "filename":"I1CZ47530462.tif",
     "pagination":{
      "pgfolios":{
       "section":"16",
       "value":"1b"
      }
     }
    },
    {
     "filename":"I1CZ47530463.tif",
     "pagination":{
      "pgfolios":{
       "section":"16",
       "value":"2a"
      }
     }
    },
    {
     "filename":"I1CZ47530464.tif",
     "pagination":{
      "pgfolios":{
       "section":"16",
       "value":"2b"
      }
     }
    },
    {
     "filename":"I1CZ47530465.tif",
     "pagination":{
      "pgfolios":{
       "section":"16",
       "value":"3a"
      }
     }
    },
    {
     "filename":"I1CZ47530466.tif",
     "pagination":{
      "pgfolios":{
       "section":"16",
       "value":"3b"
      }
     }
    },
    {
     "filename":"I1CZ47530467.tif",
     "pagination":{
      "pgfolios":{
       "section":"16",
       "value":"4a"
      }
     }
    },
    {
     "filename":"I1CZ47530468.tif",
     "pagination":{
      "pgfolios":{
       "section":"16",
       "value":"4b"
      }
     }
    },
    {
     "filename":"I1CZ47530469.tif",
     "pagination":{
      "pgfolios":{
       "section":"16",
       "value":"5a"
      }
     }
    },
    {
     "filename":"I1CZ47530470.tif",
     "pagination":{
      "pgfolios":{
       "section":"16",
       "value":"5b"
      }
     }
    },
    {
     "filename":"I1CZ47530471.tif",
     "pagination":{
      "pgfolios":{
       "section":"16",
       "value":"6a"
      }
     }
    },
    {
     "filename":"I1CZ47530472.tif",
     "pagination":{
      "pgfolios":{
       "section":"16",
       "value":"6b"
      }
     }
    },
    {
     "filename":"I1CZ47530473.tif",
     "pagination":{
      "pgfolios":{
       "section":"17",
       "value":"1a"
      }
     }
    },
    {
     "filename":"I1CZ47530474.tif",
     "pagination":{
      "pgfolios":{
       "section":"17",
       "value":"1b"
      }
     }
    },
    {
     "filename":"I1CZ47530475.tif",
     "pagination":{
      "pgfolios":{
       "section":"17",
       "value":"2a"
      }
     }
    },
    {
     "filename":"I1CZ47530476.tif",
     "pagination":{
      "pgfolios":{
       "section":"17",
       "value":"2b"
      }
     }
    },
    {
     "filename":"I1CZ47530477.tif",
     "pagination":{
      "pgfolios":{
       "section":"17",
       "value":"3a"
      }
     }
    },
    {
     "filename":"I1CZ47530478.tif",
     "pagination":{
      "pgfolios":{
       "section":"17",
       "value":"3b"
      }
     }
    },
    {
     "filename":"I1CZ47530479.tif",
     "pagination":{
      "pgfolios":{
       "section":"17",
       "value":"4a"
      }
     }
    },
    {
     "filename":"I1CZ47530480.tif",
     "pagination":{
      "pgfolios":{
       "section":"17",
       "value":"4b"
      }
     }
    },
    {
     "filename":"I1CZ47530481.tif",
     "pagination":{
      "pgfolios":{
       "section":"18",
       "value":"1a"
      }
     }
    },
    {
     "filename":"I1CZ47530482.tif",
     "pagination":{
      "pgfolios":{
       "section":"18",
       "value":"1b"
      }
     }
    },
    {
     "filename":"I1CZ47530483.tif",
     "pagination":{
      "pgfolios":{
       "section":"19",
       "value":"1a"
      }
     }
    },
    {
     "filename":"I1CZ47530484.tif",
     "pagination":{
      "pgfolios":{
       "section":"19",
       "value":"1b"
      }
     }
    },
    {
     "filename":"I1CZ47530485.tif",
     "pagination":{
      "pgfolios":{
       "section":"19",
       "value":"2a"
      }
     }
    },
    {
     "filename":"I1CZ47530486.tif",
     "pagination":{
      "pgfolios":{
       "section":"19",
       "value":"2b"
      }
     }
    },
    {
     "filename":"I1CZ47530487.tif",
     "pagination":{
      "pgfolios":{
       "section":"20",
       "value":"1a"
      }
     }
    },
    {
     "filename":"I1CZ47530488.tif",
     "pagination":{
      "pgfolios":{
       "section":"20",
       "value":"1b"
      }
     }
    },
    {
     "filename":"I1CZ47530489.tif",
     "pagination":{
      "pgfolios":{
       "section":"20",
       "value":"2a"
      }
     }
    },
    {
     "filename":"I1CZ47530490.tif",
     "pagination":{
      "pgfolios":{
       "section":"20",
       "value":"2b"
      }
     }
    },
    {
     "filename":"I1CZ47530491.tif",
     "pagination":{
      "pgfolios":{
       "section":"20",
       "value":"3a"
      }
     }
    },
    {
     "filename":"I1CZ47530492.tif",
     "pagination":{
      "pgfolios":{
       "section":"20",
       "value":"3b"
      }
     }
    },
    {
     "filename":"I1CZ47530493.tif",
     "pagination":{
      "pgfolios":{
       "section":"20",
       "value":"4a"
      }
     }
    },
    {
     "filename":"I1CZ47530494.tif",
     "pagination":{
      "pgfolios":{
       "section":"20",
       "value":"4b"
      }
     }
    },
    {
     "filename":"I1CZ47530495.tif",
     "pagination":{
      "pgfolios":{
       "section":"20",
       "value":"5a"
      }
     }
    },
    {
     "filename":"I1CZ47530496.tif",
     "pagination":{
      "pgfolios":{
       "section":"20",
       "value":"5b"
      }
     }
    },
    {
     "filename":"I1CZ47530497.tif",
     "pagination":{
      "pgfolios":{
       "section":"20",
       "value":"6a"
      }
     }
    },
    {
     "filename":"I1CZ47530498.tif",
     "pagination":{
      "pgfolios":{
       "section":"20",
       "value":"6b"
      }
     }
    },
    {
     "filename":"I1CZ47530499.tif",
     "pagination":{
      "pgfolios":{
       "section":"20",
       "value":"7a"
      }
     }
    },
    {
     "filename":"I1CZ47530500.tif",
     "pagination":{
      "pgfolios":{
       "section":"20",
       "value":"7b"
      }
     }
    },
    {
     "filename":"I1CZ47530501.tif",
     "pagination":{
      "pgfolios":{
       "section":"20",
       "value":"8a"
      }
     }
    },
    {
     "filename":"I1CZ47530502.tif",
     "pagination":{
      "pgfolios":{
       "section":"20",
       "value":"8b"
      }
     }
    },
    {
     "filename":"I1CZ47530503.tif",
     "pagination":{
      "pgfolios":{
       "section":"20",
       "value":"9a"
      }
     }
    },
    {
     "filename":"I1CZ47530504.tif",
     "pagination":{
      "pgfolios":{
       "section":"20",
       "value":"9b"
      }
     }
    },
    {
     "filename":"I1CZ47530505.tif",
     "pagination":{
      "pgfolios":{
       "section":"20",
       "value":"10a"
      }
     }
    },
    {
     "filename":"I1CZ47530506.tif",
     "pagination":{
      "pgfolios":{
       "section":"20",
       "value":"10b"
      }
     }
    },
    {
     "filename":"I1CZ47530507.tif",
     "pagination":{
      "pgfolios":{
       "section":"20",
       "value":"11a"
      }
     }
    },
    {
     "filename":"I1CZ47530508.tif",
     "pagination":{
      "pgfolios":{
       "section":"20",
       "value":"11b"
      }
     }
    },
    {
     "filename":"I1CZ47530509.tif",
     "pagination":{
      "pgfolios":{
       "section":"21",
       "value":"1a"
      }
     }
    },
    {
     "filename":"I1CZ47530510.tif",
     "pagination":{
      "pgfolios":{
       "section":"21",
       "value":"1b"
      }
     }
    },
    {
     "filename":"I1CZ47530511.tif",
     "pagination":{
      "pgfolios":{
       "section":"21",
       "value":"2a"
      }
     }
    },
    {
     "filename":"I1CZ47530512.tif",
     "pagination":{
      "pgfolios":{
       "section":"21",
       "value":"2b"
      }
     }
    },
    {
     "filename":"I1CZ47530513.tif",
     "pagination":{
      "pgfolios":{
       "section":"21",
       "value":"3a"
      }
     }
    },
    {
     "filename":"I1CZ47530514.tif",
     "pagination":{
      "pgfolios":{
       "section":"21",
       "value":"3b"
      }
     }
    },
    {
     "filename":"I1CZ47530515.tif",
     "pagination":{
      "pgfolios":{
       "section":"21",
       "value":"4a"
      }
     }
    },
    {
     "filename":"I1CZ47530516.tif",
     "pagination":{
      "pgfolios":{
       "section":"21",
       "value":"4b"
      }
     }
    },
    {
     "filename":"I1CZ47530517.tif",
     "pagination":{
      "pgfolios":{
       "section":"21",
       "value":"5a"
      }
     }
    },
    {
     "filename":"I1CZ47530518.tif",
     "pagination":{
      "pgfolios":{
       "section":"21",
       "value":"5b"
      }
     }
    },
    {
     "filename":"I1CZ47530519.tif",
     "pagination":{
      "pgfolios":{
       "section":"22",
       "value":"1a"
      }
     }
    },
    {
     "filename":"I1CZ47530520.tif",
     "pagination":{
      "pgfolios":{
       "section":"22",
       "value":"1b"
      }
     }
    },
    {
     "filename":"I1CZ47530521.tif",
     "pagination":{
      "pgfolios":{
       "section":"22",
       "value":"2a"
      }
     }
    },
    {
     "filename":"I1CZ47530522.tif",
     "pagination":{
      "pgfolios":{
       "section":"22",
       "value":"2b"
      }
     }
    },
    {
     "filename":"I1CZ47530523.tif",
     "pagination":{
      "pgfolios":{
       "section":"22",
       "value":"3a"
      }
     }
    },
    {
     "filename":"I1CZ47530524.tif",
     "pagination":{
      "pgfolios":{
       "section":"22",
       "value":"3b"
      }
     }
    },
    {
     "filename":"I1CZ47530525.tif",
     "pagination":{
      "pgfolios":{
       "section":"22",
       "value":"4a"
      }
     }
    },
    {
     "filename":"I1CZ47530526.tif",
     "pagination":{
      "pgfolios":{
       "section":"22",
       "value":"4b"
      }
     }
    },
    {
     "filename":"I1CZ47530527.tif",
     "pagination":{
      "pgfolios":{
       "section":"22",
       "value":"5a"
      }
     }
    },
    {
     "filename":"I1CZ47530528.tif",
     "pagination":{
      "pgfolios":{
       "section":"22",
       "value":"5b"
      }
     }
    },
    {
     "filename":"I1CZ47530529.tif",
     "pagination":{
      "pgfolios":{
       "section":"22",
       "value":"6a"
      }
     }
    },
    {
     "filename":"I1CZ47530530.tif",
     "pagination":{
      "pgfolios":{
       "section":"22",
       "value":"6b"
      }
     }
    },
    {
     "filename":"I1CZ47530531.tif",
     "pagination":{
      "pgfolios":{
       "section":"22",
       "value":"7a"
      }
     }
    },
    {
     "filename":"I1CZ47530532.tif",
     "pagination":{
      "pgfolios":{
       "section":"22",
       "value":"7b"
      }
     }
    },
    {
     "filename":"I1CZ47530533.tif",
     "pagination":{
      "pgfolios":{
       "section":"22",
       "value":"8a"
      }
     }
    },
    {
     "filename":"I1CZ47530534.tif",
     "pagination":{
      "pgfolios":{
       "section":"22",
       "value":"8b"
      }
     }
    },
    {
     "filename":"I1CZ47530535.tif",
     "pagination":{
      "pgfolios":{
       "section":"23",
       "value":"1a"
      }
     }
    },
    {
     "filename":"I1CZ47530536.tif",
     "pagination":{
      "pgfolios":{
       "section":"23",
       "value":"1b"
      }
     }
    },
    {
     "filename":"I1CZ47530537.tif",
     "pagination":{
      "pgfolios":{
       "section":"23",
       "value":"2a"
      }
     }
    },
    {
     "filename":"I1CZ47530538.tif",
     "pagination":{
      "pgfolios":{
       "section":"23",
       "value":"2b"
      }
     }
    },
    {
     "filename":"I1CZ47530539.tif",
     "pagination":{
      "pgfolios":{
       "section":"23",
       "value":"3a"
      }
     }
    },
    {
     "filename":"I1CZ47530540.tif",
     "pagination":{
      "pgfolios":{
       "section":"23",
       "value":"3b"
      }
     }
    },
    {
     "filename":"I1CZ47530541.tif",
     "pagination":{
      "pgfolios":{
       "section":"23",
       "value":"4a"
      }
     }
    },
    {
     "filename":"I1CZ47530542.tif",
     "pagination":{
      "pgfolios":{
       "section":"23",
       "value":"4b"
      }
     }
    },
    {
     "filename":"I1CZ47530543.tif",
     "pagination":{
      "pgfolios":{
       "section":"23",
       "value":"5a"
      }
     }
    },
    {
     "filename":"I1CZ47530544.tif",
     "pagination":{
      "pgfolios":{
       "section":"23",
       "value":"5b"
      }
     }
    },
    {
     "filename":"I1CZ47530545.tif",
     "pagination":{
      "pgfolios":{
       "section":"24",
       "value":"1a"
      }
     }
    },
    {
     "filename":"I1CZ47530546.tif",
     "pagination":{
      "pgfolios":{
       "section":"24",
       "value":"1b"
      }
     }
    },
    {
     "filename":"I1CZ47530547.tif",
     "pagination":{
      "pgfolios":{
       "section":"24",
       "value":"2a"
      }
     }
    },
    {
     "filename":"I1CZ47530548.tif",
     "pagination":{
      "pgfolios":{
       "section":"24",
       "value":"2b"
      }
     }
    },
    {
     "filename":"I1CZ47530549.tif",
     "pagination":{
      "pgfolios":{
       "section":"24",
       "value":"3a"
      }
     }
    },
    {
     "filename":"I1CZ47530550.tif",
     "pagination":{
      "pgfolios":{
       "section":"24",
       "value":"3b"
      }
     }
    },
    {
     "filename":"I1CZ47530551.tif",
     "pagination":{
      "pgfolios":{
       "section":"24",
       "value":"4a"
      }
     }
    },
    {
     "filename":"I1CZ47530552.tif",
     "pagination":{
      "pgfolios":{
       "section":"24",
       "value":"4b"
      }
     }
    },
    {
     "filename":"I1CZ47530553.tif",
     "pagination":{
      "pgfolios":{
       "section":"24",
       "value":"5a"
      }
     }
    },
    {
     "filename":"I1CZ47530554.tif",
     "pagination":{
      "pgfolios":{
       "section":"24",
       "value":"5b"
      }
     }
    },
    {
     "filename":"I1CZ47530555.tif",
     "pagination":{
      "pgfolios":{
       "section":"24",
       "value":"6a"
      }
     }
    },
    {
     "filename":"I1CZ47530556.tif",
     "pagination":{
      "pgfolios":{
       "section":"24",
       "value":"6b"
      }
     }
    },
    {
     "filename":"I1CZ47530557.tif",
     "pagination":{
      "pgfolios":{
       "section":"24",
       "value":"7a"
      }
     }
    },
    {
     "filename":"I1CZ47530558.tif",
     "pagination":{
      "pgfolios":{
       "section":"24",
       "value":"7b"
      }
     }
    },
    {
     "filename":"I1CZ47530559.tif",
     "pagination":{
      "pgfolios":{
       "section":"24",
       "value":"8a"
      }
     }
    },
    {
     "filename":"I1CZ47530560.tif",
     "pagination":{
      "pgfolios":{
       "section":"24",
       "value":"8b"
      }
     }
    },
    {
     "filename":"I1CZ47530561.tif",
     "pagination":{
      "pgfolios":{
       "section":"24",
       "value":"9a"
      }
     }
    },
    {
     "filename":"I1CZ47530562.tif",
     "pagination":{
      "pgfolios":{
       "section":"24",
       "value":"9b"
      }
     }
    },
    {
     "filename":"I1CZ47530563.tif",
     "pagination":{
      "pgfolios":{
       "section":"24",
       "value":"10a"
      }
     }
    },
    {
     "filename":"I1CZ47530564.tif",
     "pagination":{
      "pgfolios":{
       "section":"24",
       "value":"10b"
      }
     }
    },
    {
     "filename":"I1CZ47530565.tif",
     "pagination":{
      "pgfolios":{
       "section":"24",
       "value":"11a"
      }
     }
    },
    {
     "filename":"I1CZ47530566.tif",
     "pagination":{
      "pgfolios":{
       "section":"24",
       "value":"11b"
      }
     }
    },
    {
     "filename":"I1CZ47530567.tif",
     "pagination":{
      "pgfolios":{
       "section":"24",
       "value":"12a"
      }
     }
    },
    {
     "filename":"I1CZ47530568.tif",
     "pagination":{
      "pgfolios":{
       "section":"24",
       "value":"12b"
      }
     }
    },
    {
     "filename":"I1CZ47530569.tif",
     "pagination":{
      "pgfolios":{
       "section":"24",
       "value":"13a"
      }
     }
    },
    {
     "filename":"I1CZ47530570.tif",
     "pagination":{
      "pgfolios":{
       "section":"24",
       "value":"13b"
      }
     }
    },
    {
     "filename":"I1CZ47530571.tif",
     "pagination":{
      "pgfolios":{
       "section":"24",
       "value":"14a"
      }
     }
    },
    {
     "filename":"I1CZ47530572.tif",
     "pagination":{
      "pgfolios":{
       "section":"24",
       "value":"14b"
      }
     }
    },
    {
     "filename":"I1CZ47530573.tif",
     "pagination":{
      "pgfolios":{
       "section":"24",
       "value":"15a"
      }
     }
    },
    {
     "filename":"I1CZ47530574.tif",
     "pagination":{
      "pgfolios":{
       "section":"24",
       "value":"15b"
      }
     }
    },
    {
     "filename":"I1CZ47530575.tif",
     "pagination":{
      "pgfolios":{
       "section":"24",
       "value":"16a"
      }
     }
    },
    {
     "filename":"I1CZ47530576.tif",
     "pagination":{
      "pgfolios":{
       "section":"24",
       "value":"16b"
      }
     }
    },
    {
     "filename":"I1CZ47530577.tif",
     "pagination":{
      "pgfolios":{
       "section":"24",
       "value":"17a"
      }
     }
    },
    {
     "filename":"I1CZ47530578.tif",
     "pagination":{
      "pgfolios":{
       "section":"24",
       "value":"17b"
      }
     }
    },
    {
     "filename":"I1CZ47530579.tif",
     "pagination":{
      "pgfolios":{
       "section":"24",
       "value":"18a"
      }
     }
    },
    {
     "filename":"I1CZ47530580.tif",
     "pagination":{
      "pgfolios":{
       "section":"24",
       "value":"18b"
      }
     }
    },
    {
     "filename":"I1CZ47530581.tif",
     "pagination":{
      "pgfolios":{
       "section":"24",
       "value":"19a"
      }
     }
    },
    {
     "filename":"I1CZ47530582.tif",
     "pagination":{
      "pgfolios":{
       "section":"24",
       "value":"19b"
      }
     }
    },
    {
     "filename":"I1CZ47530583.tif",
     "pagination":{
      "pgfolios":{
       "section":"24",
       "value":"20a"
      }
     }
    },
    {
     "filename":"I1CZ47530584.tif",
     "pagination":{
      "pgfolios":{
       "section":"24",
       "value":"20b"
      }
     }
    },
    {
     "filename":"I1CZ47530585.tif",
     "pagination":{
      "pgfolios":{
       "section":"25",
       "value":"1a"
      }
     }
    },
    {
     "filename":"I1CZ47530586.tif",
     "pagination":{
      "pgfolios":{
       "section":"25",
       "value":"1b"
      }
     }
    },
    {
     "filename":"I1CZ47530587.tif",
     "pagination":{
      "pgfolios":{
       "section":"26",
       "value":"1a"
      }
     }
    },
    {
     "filename":"I1CZ47530588.tif",
     "pagination":{
      "pgfolios":{
       "section":"26",
       "value":"1b"
      }
     }
    },
    {
     "filename":"I1CZ47530589.tif",
     "pagination":{
      "pgfolios":{
       "section":"26",
       "value":"2a"
      }
     }
    },
    {
     "filename":"I1CZ47530590.tif",
     "pagination":{
      "pgfolios":{
       "section":"26",
       "value":"2b"
      }
     }
    },
    {
     "filename":"I1CZ47530591.tif",
     "pagination":{
      "pgfolios":{
       "section":"26",
       "value":"3a"
      }
     }
    },
    {
     "filename":"I1CZ47530592.tif",
     "pagination":{
      "pgfolios":{
       "section":"26",
       "value":"3b"
      }
     }
    },
    {
     "filename":"I1CZ47530593.tif",
     "pagination":{
      "pgfolios":{
       "section":"26",
       "value":"4a"
      }
     }
    },
    {
     "filename":"I1CZ47530594.tif",
     "pagination":{
      "pgfolios":{
       "section":"26",
       "value":"4b"
      }
     }
    },
    {
     "filename":"I1CZ47530595.tif",
     "pagination":{
      "pgfolios":{
       "section":"27",
       "value":"1a"
      }
     }
    },
    {
     "filename":"I1CZ47530596.tif",
     "pagination":{
      "pgfolios":{
       "section":"27",
       "value":"1b"
      }
     }
    },
    {
     "filename":"I1CZ47530597.tif",
     "pagination":{
      "pgfolios":{
       "section":"27",
       "value":"2a"
      }
     }
    },
    {
     "filename":"I1CZ47530598.tif",
     "pagination":{
      "pgfolios":{
       "section":"27",
       "value":"2b"
      }
     }
    },
    {
     "filename":"I1CZ47530599.tif",
     "pagination":{
      "pgfolios":{
       "section":"27",
       "value":"3a"
      }
     }
    },
    {
     "filename":"I1CZ47530600.tif",
     "pagination":{
      "pgfolios":{
       "section":"27",
       "value":"3b"
      }
     }
    },
    {
     "filename":"I1CZ47530601.tif",
     "pagination":{
      "pgfolios":{
       "section":"27",
       "value":"4a"
      }
     }
    },
    {
     "filename":"I1CZ47530602.tif",
     "pagination":{
      "pgfolios":{
       "section":"27",
       "value":"4b"
      }
     }
    },
    {
     "filename":"I1CZ47530603.tif",
     "pagination":{
      "pgfolios":{
       "section":"28",
       "value":"1a"
      }
     }
    },
    {
     "filename":"I1CZ47530604.tif",
     "pagination":{
      "pgfolios":{
       "section":"28",
       "value":"1b"
      }
     }
    },
    {
     "filename":"I1CZ47530605.tif",
     "pagination":{
      "pgfolios":{
       "section":"28",
       "value":"2a"
      }
     }
    },
    {
     "filename":"I1CZ47530606.tif",
     "pagination":{
      "pgfolios":{
       "section":"28",
       "value":"2b"
      }
     }
    },
    {
     "filename":"I1CZ47530607.tif",
     "pagination":{
      "pgfolios":{
       "section":"28",
       "value":"3a"
      }
     }
    },
    {
     "filename":"I1CZ47530608.tif",
     "pagination":{
      "pgfolios":{
       "section":"28",
       "value":"3b"
      }
     }
    },
    {
     "filename":"I1CZ47530609.tif",
     "pagination":{
      "pgfolios":{
       "section":"28",
       "value":"4a"
      }
     }
    },
    {
     "filename":"I1CZ47530610.tif",
     "pagination":{
      "pgfolios":{
       "section":"28",
       "value":"4b"
      }
     }
    },
    {
     "filename":"I1CZ47530611.tif",
     "pagination":{
      "pgfolios":{
       "section":"29",
       "value":"1a"
      }
     }
    },
    {
     "filename":"I1CZ47530612.tif",
     "pagination":{
      "pgfolios":{
       "section":"29",
       "value":"1b"
      }
     }
    },
    {
     "filename":"I1CZ47530613.tif",
     "pagination":{
      "pgfolios":{
       "section":"29",
       "value":"2a"
      }
     }
    },
    {
     "filename":"I1CZ47530614.tif",
     "pagination":{
      "pgfolios":{
       "section":"29",
       "value":"2b"
      }
     }
    },
    {
     "filename":"I1CZ47530615.tif",
     "pagination":{
      "pgfolios":{
       "section":"29",
       "value":"3a"
      }
     }
    },
    {
     "filename":"I1CZ47530616.tif",
     "pagination":{
      "pgfolios":{
       "section":"29",
       "value":"3b"
      }
     }
    },
    {
     "filename":"I1CZ47530617.tif",
     "pagination":{
      "pgfolios":{
       "section":"29",
       "value":"4a"
      }
     }
    },
    {
     "filename":"I1CZ47530618.tif",
     "pagination":{
      "pgfolios":{
       "section":"29",
       "value":"4b"
      }
     }
    },
    {
     "filename":"I1CZ47530619.tif",
     "pagination":{
      "pgfolios":{
       "section":"29",
       "value":"5a"
      }
     }
    },
    {
     "filename":"I1CZ47530620.tif",
     "pagination":{
      "pgfolios":{
       "section":"29",
       "value":"5b"
      }
     }
    },
    {
     "filename":"I1CZ47530621.tif",
     "pagination":{
      "pgfolios":{
       "section":"29",
       "value":"6a"
      }
     }
    },
    {
     "filename":"I1CZ47530622.tif",
     "pagination":{
      "pgfolios":{
       "section":"29",
       "value":"6b"
      }
     }
    },
    {
     "filename":"I1CZ47530623.tif",
     "pagination":{
      "pgfolios":{
       "section":"29",
       "value":"7a"
      }
     }
    },
    {
     "filename":"I1CZ47530624.tif",
     "pagination":{
      "pgfolios":{
       "section":"29",
       "value":"7b"
      }
     }
    },
    {
     "filename":"I1CZ47530625.tif",
     "pagination":{
      "pgfolios":{
       "section":"29",
       "value":"8a"
      }
     }
    },
    {
     "filename":"I1CZ47530626.tif",
     "pagination":{
      "pgfolios":{
       "section":"29",
       "value":"8b"
      }
     }
    },
    {
     "filename":"I1CZ47530627.tif",
     "pagination":{
      "pgfolios":{
       "section":"30",
       "value":"1a"
      }
     }
    },
    {
     "filename":"I1CZ47530628.tif",
     "pagination":{
      "pgfolios":{
       "section":"30",
       "value":"1b"
      }
     }
    },
    {
     "filename":"I1CZ47530629.tif",
     "pagination":{
      "pgfolios":{
       "section":"30",
       "value":"2a"
      }
     }
    },
    {
     "filename":"I1CZ47530630.tif",
     "pagination":{
      "pgfolios":{
       "section":"30",
       "value":"2b"
      }
     }
    },
    {
     "filename":"I1CZ47530631.tif",
     "pagination":{
      "pgfolios":{
       "section":"30",
       "value":"3a"
      }
     }
    },
    {
     "filename":"I1CZ47530632.tif",
     "pagination":{
      "pgfolios":{
       "section":"30",
       "value":"3b"
      }
     }
    },
    {
     "filename":"I1CZ47530633.tif",
     "pagination":{
      "pgfolios":{
       "section":"30",
       "value":"4a"
      }
     }
    },
    {
     "filename":"I1CZ47530634.tif",
     "pagination":{
      "pgfolios":{
       "section":"30",
       "value":"4b"
      }
     }
    },
    {
     "filename":"I1CZ47530635.tif",
     "pagination":{
      "pgfolios":{
       "section":"30",
       "value":"5a"
      }
     }
    },
    {
     "filename":"I1CZ47530636.tif",
     "pagination":{
      "pgfolios":{
       "section":"30",
       "value":"5b"
      }
     }
    },
    {
     "filename":"I1CZ47530637.tif",
     "pagination":{
      "pgfolios":{
       "section":"30",
       "value":"6a"
      }
     }
    },
    {
     "filename":"I1CZ47530638.tif",
     "pagination":{
      "pgfolios":{
       "section":"30",
       "value":"6b"
      }
     }
    },
    {
     "filename":"I1CZ47530639.tif",
     "pagination":{
      "pgfolios":{
       "section":"30",
       "value":"7a"
      }
     }
    },
    {
     "filename":"I1CZ47530640.tif",
     "pagination":{
      "pgfolios":{
       "section":"30",
       "value":"7b"
      }
     }
    },
    {
     "filename":"I1CZ47530641.tif",
     "pagination":{
      "pgfolios":{
       "section":"30",
       "value":"8a"
      }
     }
    },
    {
     "filename":"I1CZ47530642.tif",
     "pagination":{
      "pgfolios":{
       "section":"30",
       "value":"8b"
      }
     }
    },
    {
     "filename":"I1CZ47530643.tif",
     "pagination":{
      "pgfolios":{
       "section":"30",
       "value":"9a"
      }
     }
    },
    {
     "filename":"I1CZ47530644.tif",
     "pagination":{
      "pgfolios":{
       "section":"30",
       "value":"9b"
      }
     }
    }
   ]
  }
 },
 "viewing-direction":"top-to-bottom"
}