{
 "appData":{
  "bvmt":{
   "default-vol-string-lang":"bo",
   "metadata-for-bvmt-ver":"0.1.0"
  }
 },
 "attribution":[
  {
   "@language":"en",
   "@value":"Data provided by rKTs under the CC0 license"
  }
 ],
 "changes":[
  {
   "message":{
    "@language":"en",
    "@value":"migration from rKTs data"
   },
   "time":"2020-10-03T11:35:30Z",
   "user":"bdu:U1653882847"
  }
 ],
 "default-view":"view1",
 "imggroup":"bdr:I1CZ4733",
 "pagination":[
  {
   "id":"pgfolios",
   "type":"folios"
  }
 ],
 "sections":[
  {
   "id":"1",
   "name":{
    "@language":"bo-x-ewts",
    "@value":"1"
   }
  },
  {
   "id":"2",
   "name":{
    "@language":"bo-x-ewts",
    "@value":"2"
   }
  },
  {
   "id":"3",
   "name":{
    "@language":"bo-x-ewts",
    "@value":"3"
   }
  },
  {
   "id":"4",
   "name":{
    "@language":"bo-x-ewts",
    "@value":"4"
   }
  },
  {
   "id":"5",
   "name":{
    "@language":"bo-x-ewts",
    "@value":"5"
   }
  },
  {
   "id":"6",
   "name":{
    "@language":"bo-x-ewts",
    "@value":"6"
   }
  },
  {
   "id":"7",
   "name":{
    "@language":"bo-x-ewts",
    "@value":"7"
   }
  },
  {
   "id":"8",
   "name":{
    "@language":"bo-x-ewts",
    "@value":"8"
   }
  },
  {
   "id":"9",
   "name":{
    "@language":"bo-x-ewts",
    "@value":"9"
   }
  },
  {
   "id":"10",
   "name":{
    "@language":"bo-x-ewts",
    "@value":"10"
   }
  },
  {
   "id":"11",
   "name":{
    "@language":"bo-x-ewts",
    "@value":"11"
   }
  },
  {
   "id":"12",
   "name":{
    "@language":"bo-x-ewts",
    "@value":"12"
   }
  },
  {
   "id":"13",
   "name":{
    "@language":"bo-x-ewts",
    "@value":"13"
   }
  },
  {
   "id":"14",
   "name":{
    "@language":"bo-x-ewts",
    "@value":"14"
   }
  },
  {
   "id":"15",
   "name":{
    "@language":"bo-x-ewts",
    "@value":"15"
   }
  },
  {
   "id":"16",
   "name":{
    "@language":"bo-x-ewts",
    "@value":"16"
   }
  },
  {
   "id":"17",
   "name":{
    "@language":"bo-x-ewts",
    "@value":"17"
   }
  },
  {
   "id":"18",
   "name":{
    "@language":"bo-x-ewts",
    "@value":"18"
   }
  },
  {
   "id":"19",
   "name":{
    "@language":"bo-x-ewts",
    "@value":"19"
   }
  },
  {
   "id":"20",
   "name":{
    "@language":"bo-x-ewts",
    "@value":"20"
   }
  },
  {
   "id":"21",
   "name":{
    "@language":"bo-x-ewts",
    "@value":"21"
   }
  },
  {
   "id":"22",
   "name":{
    "@language":"bo-x-ewts",
    "@value":"22"
   }
  },
  {
   "id":"23",
   "name":{
    "@language":"bo-x-ewts",
    "@value":"23"
   }
  },
  {
   "id":"24",
   "name":{
    "@language":"bo-x-ewts",
    "@value":"24"
   }
  },
  {
   "id":"25",
   "name":{
    "@language":"bo-x-ewts",
    "@value":"25"
   }
  },
  {
   "id":"26",
   "name":{
    "@language":"bo-x-ewts",
    "@value":"26"
   }
  },
  {
   "id":"27",
   "name":{
    "@language":"bo-x-ewts",
    "@value":"27"
   }
  }
 ],
 "spec-version":"0.1.0",
 "status":"released",
 "view":{
  "view1":{
   "imagelist":[
    {
     "filename":"I1CZ47330001.tif",
     "hidden":true,
     "tags":[
      "T0005"
     ]
    },
    {
     "filename":"I1CZ47330002.tif",
     "hidden":true,
     "tags":[
      "T0005"
     ]
    },
    {
     "filename":"I1CZ47330003.tif",
     "pagination":{
      "pgfolios":{
       "section":"1",
       "value":"1a"
      }
     }
    },
    {
     "filename":"I1CZ47330004.tif",
     "pagination":{
      "pgfolios":{
       "section":"1",
       "value":"1b"
      }
     }
    },
    {
     "filename":"I1CZ47330005.tif",
     "pagination":{
      "pgfolios":{
       "section":"2",
       "value":"1a"
      }
     }
    },
    {
     "filename":"I1CZ47330006.tif",
     "pagination":{
      "pgfolios":{
       "section":"2",
       "value":"1b"
      }
     }
    },
    {
     "filename":"I1CZ47330007.tif",
     "pagination":{
      "pgfolios":{
       "section":"2",
       "value":"2a"
      }
     }
    },
    {
     "filename":"I1CZ47330008.tif",
     "pagination":{
      "pgfolios":{
       "section":"2",
       "value":"2b"
      }
     }
    },
    {
     "filename":"I1CZ47330009.tif",
     "pagination":{
      "pgfolios":{
       "section":"2",
       "value":"3a"
      }
     }
    },
    {
     "filename":"I1CZ47330010.tif",
     "pagination":{
      "pgfolios":{
       "section":"2",
       "value":"3b"
      }
     }
    },
    {
     "filename":"I1CZ47330011.tif",
     "pagination":{
      "pgfolios":{
       "section":"2",
       "value":"4a"
      }
     }
    },
    {
     "filename":"I1CZ47330012.tif",
     "pagination":{
      "pgfolios":{
       "section":"2",
       "value":"4b"
      }
     }
    },
    {
     "filename":"I1CZ47330013.tif",
     "pagination":{
      "pgfolios":{
       "section":"2",
       "value":"5a"
      }
     }
    },
    {
     "filename":"I1CZ47330014.tif",
     "pagination":{
      "pgfolios":{
       "section":"2",
       "value":"5b"
      }
     }
    },
    {
     "filename":"I1CZ47330015.tif",
     "pagination":{
      "pgfolios":{
       "section":"2",
       "value":"6a"
      }
     }
    },
    {
     "filename":"I1CZ47330016.tif",
     "pagination":{
      "pgfolios":{
       "section":"2",
       "value":"6b"
      }
     }
    },
    {
     "filename":"I1CZ47330017.tif",
     "pagination":{
      "pgfolios":{
       "section":"2",
       "value":"7a"
      }
     }
    },
    {
     "filename":"I1CZ47330018.tif",
     "pagination":{
      "pgfolios":{
       "section":"2",
       "value":"7b"
      }
     }
    },
    {
     "filename":"I1CZ47330019.tif",
     "pagination":{
      "pgfolios":{
       "section":"2",
       "value":"8a"
      }
     }
    },
    {
     "filename":"I1CZ47330020.tif",
     "pagination":{
      "pgfolios":{
       "section":"2",
       "value":"8b"
      }
     }
    },
    {
     "filename":"I1CZ47330021.tif",
     "pagination":{
      "pgfolios":{
       "section":"2",
       "value":"9a"
      }
     }
    },
    {
     "filename":"I1CZ47330022.tif",
     "pagination":{
      "pgfolios":{
       "section":"2",
       "value":"9b"
      }
     }
    },
    {
     "filename":"I1CZ47330023.tif",
     "pagination":{
      "pgfolios":{
       "section":"2",
       "value":"10a"
      }
     }
    },
    {
     "filename":"I1CZ47330024.tif",
     "pagination":{
      "pgfolios":{
       "section":"2",
       "value":"10b"
      }
     }
    },
    {
     "filename":"I1CZ47330025.tif",
     "pagination":{
      "pgfolios":{
       "section":"2",
       "value":"11a"
      }
     }
    },
    {
     "filename":"I1CZ47330026.tif",
     "pagination":{
      "pgfolios":{
       "section":"2",
       "value":"11b"
      }
     }
    },
    {
     "filename":"I1CZ47330027.tif",
     "pagination":{
      "pgfolios":{
       "section":"2",
       "value":"12a"
      }
     }
    },
    {
     "filename":"I1CZ47330028.tif",
     "pagination":{
      "pgfolios":{
       "section":"2",
       "value":"12b"
      }
     }
    },
    {
     "filename":"I1CZ47330029.tif",
     "pagination":{
      "pgfolios":{
       "section":"2",
       "value":"13a"
      }
     }
    },
    {
     "filename":"I1CZ47330030.tif",
     "pagination":{
      "pgfolios":{
       "section":"2",
       "value":"13b"
      }
     }
    },
    {
     "filename":"I1CZ47330031.tif",
     "pagination":{
      "pgfolios":{
       "section":"2",
       "value":"14a"
      }
     }
    },
    {
     "filename":"I1CZ47330032.tif",
     "pagination":{
      "pgfolios":{
       "section":"2",
       "value":"14b"
      }
     }
    },
    {
     "filename":"I1CZ47330033.tif",
     "pagination":{
      "pgfolios":{
       "section":"2",
       "value":"15a"
      }
     }
    },
    {
     "filename":"I1CZ47330034.tif",
     "pagination":{
      "pgfolios":{
       "section":"2",
       "value":"15b"
      }
     }
    },
    {
     "filename":"I1CZ47330035.tif",
     "pagination":{
      "pgfolios":{
       "section":"2",
       "value":"16a"
      }
     }
    },
    {
     "filename":"I1CZ47330036.tif",
     "pagination":{
      "pgfolios":{
       "section":"2",
       "value":"16b"
      }
     }
    },
    {
     "filename":"I1CZ47330037.tif",
     "pagination":{
      "pgfolios":{
       "section":"2",
       "value":"17a"
      }
     }
    },
    {
     "filename":"I1CZ47330038.tif",
     "pagination":{
      "pgfolios":{
       "section":"2",
       "value":"17b"
      }
     }
    },
    {
     "filename":"I1CZ47330039.tif",
     "pagination":{
      "pgfolios":{
       "section":"2",
       "value":"18a"
      }
     }
    },
    {
     "filename":"I1CZ47330040.tif",
     "pagination":{
      "pgfolios":{
       "section":"2",
       "value":"18b"
      }
     }
    },
    {
     "filename":"I1CZ47330041.tif",
     "pagination":{
      "pgfolios":{
       "section":"3",
       "value":"1a"
      }
     }
    },
    {
     "filename":"I1CZ47330042.tif",
     "pagination":{
      "pgfolios":{
       "section":"3",
       "value":"1b"
      }
     }
    },
    {
     "filename":"I1CZ47330043.tif",
     "pagination":{
      "pgfolios":{
       "section":"3",
       "value":"2a"
      }
     }
    },
    {
     "filename":"I1CZ47330044.tif",
     "pagination":{
      "pgfolios":{
       "section":"3",
       "value":"2b"
      }
     }
    },
    {
     "filename":"I1CZ47330045.tif",
     "pagination":{
      "pgfolios":{
       "section":"3",
       "value":"3a"
      }
     }
    },
    {
     "filename":"I1CZ47330046.tif",
     "pagination":{
      "pgfolios":{
       "section":"3",
       "value":"3b"
      }
     }
    },
    {
     "filename":"I1CZ47330047.tif",
     "pagination":{
      "pgfolios":{
       "section":"3",
       "value":"4a"
      }
     }
    },
    {
     "filename":"I1CZ47330048.tif",
     "pagination":{
      "pgfolios":{
       "section":"3",
       "value":"4b"
      }
     }
    },
    {
     "filename":"I1CZ47330049.tif",
     "pagination":{
      "pgfolios":{
       "section":"3",
       "value":"5a"
      }
     }
    },
    {
     "filename":"I1CZ47330050.tif",
     "pagination":{
      "pgfolios":{
       "section":"3",
       "value":"5b"
      }
     }
    },
    {
     "filename":"I1CZ47330051.tif",
     "pagination":{
      "pgfolios":{
       "section":"3",
       "value":"6a"
      }
     }
    },
    {
     "filename":"I1CZ47330052.tif",
     "pagination":{
      "pgfolios":{
       "section":"3",
       "value":"6b"
      }
     }
    },
    {
     "filename":"I1CZ47330053.tif",
     "pagination":{
      "pgfolios":{
       "section":"3",
       "value":"7a"
      }
     }
    },
    {
     "filename":"I1CZ47330054.tif",
     "pagination":{
      "pgfolios":{
       "section":"3",
       "value":"7b"
      }
     }
    },
    {
     "filename":"I1CZ47330055.tif",
     "pagination":{
      "pgfolios":{
       "section":"3",
       "value":"8a"
      }
     }
    },
    {
     "filename":"I1CZ47330056.tif",
     "pagination":{
      "pgfolios":{
       "section":"3",
       "value":"8b"
      }
     }
    },
    {
     "filename":"I1CZ47330057.tif",
     "pagination":{
      "pgfolios":{
       "section":"3",
       "value":"9a"
      }
     }
    },
    {
     "filename":"I1CZ47330058.tif",
     "pagination":{
      "pgfolios":{
       "section":"3",
       "value":"9b"
      }
     }
    },
    {
     "filename":"I1CZ47330059.tif",
     "pagination":{
      "pgfolios":{
       "section":"3",
       "value":"10a"
      }
     }
    },
    {
     "filename":"I1CZ47330060.tif",
     "pagination":{
      "pgfolios":{
       "section":"3",
       "value":"10b"
      }
     }
    },
    {
     "filename":"I1CZ47330061.tif",
     "pagination":{
      "pgfolios":{
       "section":"3",
       "value":"11a"
      }
     }
    },
    {
     "filename":"I1CZ47330062.tif",
     "pagination":{
      "pgfolios":{
       "section":"3",
       "value":"11b"
      }
     }
    },
    {
     "filename":"I1CZ47330063.tif",
     "pagination":{
      "pgfolios":{
       "section":"3",
       "value":"12a"
      }
     }
    },
    {
     "filename":"I1CZ47330064.tif",
     "pagination":{
      "pgfolios":{
       "section":"3",
       "value":"12b"
      }
     }
    },
    {
     "filename":"I1CZ47330065.tif",
     "pagination":{
      "pgfolios":{
       "section":"3",
       "value":"13a"
      }
     }
    },
    {
     "filename":"I1CZ47330066.tif",
     "pagination":{
      "pgfolios":{
       "section":"3",
       "value":"13b"
      }
     }
    },
    {
     "filename":"I1CZ47330067.tif",
     "pagination":{
      "pgfolios":{
       "section":"3",
       "value":"14a"
      }
     }
    },
    {
     "filename":"I1CZ47330068.tif",
     "pagination":{
      "pgfolios":{
       "section":"3",
       "value":"14b"
      }
     }
    },
    {
     "filename":"I1CZ47330069.tif",
     "pagination":{
      "pgfolios":{
       "section":"3",
       "value":"15a"
      }
     }
    },
    {
     "filename":"I1CZ47330070.tif",
     "pagination":{
      "pgfolios":{
       "section":"3",
       "value":"15b"
      }
     }
    },
    {
     "filename":"I1CZ47330071.tif",
     "pagination":{
      "pgfolios":{
       "section":"3",
       "value":"16a"
      }
     }
    },
    {
     "filename":"I1CZ47330072.tif",
     "pagination":{
      "pgfolios":{
       "section":"3",
       "value":"16b"
      }
     }
    },
    {
     "filename":"I1CZ47330073.tif",
     "pagination":{
      "pgfolios":{
       "section":"3",
       "value":"17a"
      }
     }
    },
    {
     "filename":"I1CZ47330074.tif",
     "pagination":{
      "pgfolios":{
       "section":"3",
       "value":"17b"
      }
     }
    },
    {
     "filename":"I1CZ47330075.tif",
     "pagination":{
      "pgfolios":{
       "section":"3",
       "value":"18a"
      }
     }
    },
    {
     "filename":"I1CZ47330076.tif",
     "pagination":{
      "pgfolios":{
       "section":"3",
       "value":"18b"
      }
     }
    },
    {
     "filename":"I1CZ47330077.tif",
     "pagination":{
      "pgfolios":{
       "section":"3",
       "value":"19a"
      }
     }
    },
    {
     "filename":"I1CZ47330078.tif",
     "pagination":{
      "pgfolios":{
       "section":"3",
       "value":"19b"
      }
     }
    },
    {
     "filename":"I1CZ47330079.tif",
     "pagination":{
      "pgfolios":{
       "section":"3",
       "value":"20a"
      }
     }
    },
    {
     "filename":"I1CZ47330080.tif",
     "pagination":{
      "pgfolios":{
       "section":"3",
       "value":"20b"
      }
     }
    },
    {
     "filename":"I1CZ47330081.tif",
     "pagination":{
      "pgfolios":{
       "section":"3",
       "value":"21a"
      }
     }
    },
    {
     "filename":"I1CZ47330082.tif",
     "pagination":{
      "pgfolios":{
       "section":"3",
       "value":"21b"
      }
     }
    },
    {
     "filename":"I1CZ47330083.tif",
     "pagination":{
      "pgfolios":{
       "section":"3",
       "value":"22a"
      }
     }
    },
    {
     "filename":"I1CZ47330084.tif",
     "pagination":{
      "pgfolios":{
       "section":"3",
       "value":"22b"
      }
     }
    },
    {
     "filename":"I1CZ47330085.tif",
     "pagination":{
      "pgfolios":{
       "section":"3",
       "value":"23a"
      }
     }
    },
    {
     "filename":"I1CZ47330086.tif",
     "pagination":{
      "pgfolios":{
       "section":"3",
       "value":"23b"
      }
     }
    },
    {
     "filename":"I1CZ47330087.tif",
     "pagination":{
      "pgfolios":{
       "section":"3",
       "value":"24a"
      }
     }
    },
    {
     "filename":"I1CZ47330088.tif",
     "pagination":{
      "pgfolios":{
       "section":"3",
       "value":"24b"
      }
     }
    },
    {
     "filename":"I1CZ47330089.tif",
     "pagination":{
      "pgfolios":{
       "section":"3",
       "value":"25a"
      }
     }
    },
    {
     "filename":"I1CZ47330090.tif",
     "pagination":{
      "pgfolios":{
       "section":"3",
       "value":"25b"
      }
     }
    },
    {
     "filename":"I1CZ47330091.tif",
     "pagination":{
      "pgfolios":{
       "section":"3",
       "value":"26a"
      }
     }
    },
    {
     "filename":"I1CZ47330092.tif",
     "pagination":{
      "pgfolios":{
       "section":"3",
       "value":"26b"
      }
     }
    },
    {
     "filename":"I1CZ47330093.tif",
     "pagination":{
      "pgfolios":{
       "section":"3",
       "value":"27a"
      }
     }
    },
    {
     "filename":"I1CZ47330094.tif",
     "pagination":{
      "pgfolios":{
       "section":"3",
       "value":"27b"
      }
     }
    },
    {
     "filename":"I1CZ47330095.tif",
     "pagination":{
      "pgfolios":{
       "section":"3",
       "value":"28a"
      }
     }
    },
    {
     "filename":"I1CZ47330096.tif",
     "pagination":{
      "pgfolios":{
       "section":"3",
       "value":"28b"
      }
     }
    },
    {
     "filename":"I1CZ47330097.tif",
     "pagination":{
      "pgfolios":{
       "section":"3",
       "value":"29a"
      }
     }
    },
    {
     "filename":"I1CZ47330098.tif",
     "pagination":{
      "pgfolios":{
       "section":"3",
       "value":"29b"
      }
     }
    },
    {
     "filename":"I1CZ47330099.tif",
     "pagination":{
      "pgfolios":{
       "section":"3",
       "value":"30a"
      }
     }
    },
    {
     "filename":"I1CZ47330100.tif",
     "pagination":{
      "pgfolios":{
       "section":"3",
       "value":"30b"
      }
     }
    },
    {
     "filename":"I1CZ47330101.tif",
     "pagination":{
      "pgfolios":{
       "section":"3",
       "value":"31a"
      }
     }
    },
    {
     "filename":"I1CZ47330102.tif",
     "pagination":{
      "pgfolios":{
       "section":"3",
       "value":"31b"
      }
     }
    },
    {
     "filename":"I1CZ47330103.tif",
     "pagination":{
      "pgfolios":{
       "section":"3",
       "value":"32a"
      }
     }
    },
    {
     "filename":"I1CZ47330104.tif",
     "pagination":{
      "pgfolios":{
       "section":"3",
       "value":"32b"
      }
     }
    },
    {
     "filename":"I1CZ47330105.tif",
     "pagination":{
      "pgfolios":{
       "section":"3",
       "value":"33a"
      }
     }
    },
    {
     "filename":"I1CZ47330106.tif",
     "pagination":{
      "pgfolios":{
       "section":"3",
       "value":"33b"
      }
     }
    },
    {
     "filename":"I1CZ47330107.tif",
     "pagination":{
      "pgfolios":{
       "section":"3",
       "value":"34a"
      }
     }
    },
    {
     "filename":"I1CZ47330108.tif",
     "pagination":{
      "pgfolios":{
       "section":"3",
       "value":"34b"
      }
     }
    },
    {
     "filename":"I1CZ47330109.tif",
     "pagination":{
      "pgfolios":{
       "section":"3",
       "value":"35a"
      }
     }
    },
    {
     "filename":"I1CZ47330110.tif",
     "pagination":{
      "pgfolios":{
       "section":"3",
       "value":"35b"
      }
     }
    },
    {
     "filename":"I1CZ47330111.tif",
     "pagination":{
      "pgfolios":{
       "section":"3",
       "value":"36a"
      }
     }
    },
    {
     "filename":"I1CZ47330112.tif",
     "pagination":{
      "pgfolios":{
       "section":"3",
       "value":"36b"
      }
     }
    },
    {
     "filename":"I1CZ47330113.tif",
     "pagination":{
      "pgfolios":{
       "section":"3",
       "value":"37a"
      }
     }
    },
    {
     "filename":"I1CZ47330114.tif",
     "pagination":{
      "pgfolios":{
       "section":"3",
       "value":"37b"
      }
     }
    },
    {
     "filename":"I1CZ47330115.tif",
     "pagination":{
      "pgfolios":{
       "section":"3",
       "value":"38a"
      }
     }
    },
    {
     "filename":"I1CZ47330116.tif",
     "pagination":{
      "pgfolios":{
       "section":"3",
       "value":"38b"
      }
     }
    },
    {
     "filename":"I1CZ47330117.tif",
     "pagination":{
      "pgfolios":{
       "section":"3",
       "value":"39a"
      }
     }
    },
    {
     "filename":"I1CZ47330118.tif",
     "pagination":{
      "pgfolios":{
       "section":"3",
       "value":"39b"
      }
     }
    },
    {
     "filename":"I1CZ47330119.tif",
     "pagination":{
      "pgfolios":{
       "section":"4",
       "value":"1a"
      }
     }
    },
    {
     "filename":"I1CZ47330120.tif",
     "pagination":{
      "pgfolios":{
       "section":"4",
       "value":"1b"
      }
     }
    },
    {
     "filename":"I1CZ47330121.tif",
     "pagination":{
      "pgfolios":{
       "section":"4",
       "value":"2a"
      }
     }
    },
    {
     "filename":"I1CZ47330122.tif",
     "pagination":{
      "pgfolios":{
       "section":"4",
       "value":"2b"
      }
     }
    },
    {
     "filename":"I1CZ47330123.tif",
     "pagination":{
      "pgfolios":{
       "section":"4",
       "value":"3a"
      }
     }
    },
    {
     "filename":"I1CZ47330124.tif",
     "pagination":{
      "pgfolios":{
       "section":"4",
       "value":"3b"
      }
     }
    },
    {
     "filename":"I1CZ47330125.tif",
     "pagination":{
      "pgfolios":{
       "section":"4",
       "value":"4a"
      }
     }
    },
    {
     "filename":"I1CZ47330126.tif",
     "pagination":{
      "pgfolios":{
       "section":"4",
       "value":"4b"
      }
     }
    },
    {
     "filename":"I1CZ47330127.tif",
     "pagination":{
      "pgfolios":{
       "section":"5",
       "value":"1a"
      }
     }
    },
    {
     "filename":"I1CZ47330128.tif",
     "pagination":{
      "pgfolios":{
       "section":"5",
       "value":"1b"
      }
     }
    },
    {
     "filename":"I1CZ47330129.tif",
     "pagination":{
      "pgfolios":{
       "section":"6",
       "value":"1a"
      }
     }
    },
    {
     "filename":"I1CZ47330130.tif",
     "pagination":{
      "pgfolios":{
       "section":"6",
       "value":"1b"
      }
     }
    },
    {
     "filename":"I1CZ47330131.tif",
     "pagination":{
      "pgfolios":{
       "section":"7",
       "value":"1a"
      }
     }
    },
    {
     "filename":"I1CZ47330132.tif",
     "pagination":{
      "pgfolios":{
       "section":"7",
       "value":"1b"
      }
     }
    },
    {
     "filename":"I1CZ47330133.tif",
     "pagination":{
      "pgfolios":{
       "section":"7",
       "value":"2a"
      }
     }
    },
    {
     "filename":"I1CZ47330134.tif",
     "pagination":{
      "pgfolios":{
       "section":"7",
       "value":"2b"
      }
     }
    },
    {
     "filename":"I1CZ47330135.tif",
     "pagination":{
      "pgfolios":{
       "section":"8",
       "value":"1a"
      }
     }
    },
    {
     "filename":"I1CZ47330136.tif",
     "pagination":{
      "pgfolios":{
       "section":"8",
       "value":"1b"
      }
     }
    },
    {
     "filename":"I1CZ47330137.tif",
     "pagination":{
      "pgfolios":{
       "section":"9",
       "value":"1a"
      }
     }
    },
    {
     "filename":"I1CZ47330138.tif",
     "pagination":{
      "pgfolios":{
       "section":"9",
       "value":"1b"
      }
     }
    },
    {
     "filename":"I1CZ47330139.tif",
     "pagination":{
      "pgfolios":{
       "section":"9",
       "value":"2a"
      }
     }
    },
    {
     "filename":"I1CZ47330140.tif",
     "pagination":{
      "pgfolios":{
       "section":"9",
       "value":"2b"
      }
     }
    },
    {
     "filename":"I1CZ47330141.tif",
     "pagination":{
      "pgfolios":{
       "section":"9",
       "value":"3a"
      }
     }
    },
    {
     "filename":"I1CZ47330142.tif",
     "pagination":{
      "pgfolios":{
       "section":"9",
       "value":"3b"
      }
     }
    },
    {
     "filename":"I1CZ47330143.tif",
     "pagination":{
      "pgfolios":{
       "section":"9",
       "value":"4a"
      }
     }
    },
    {
     "filename":"I1CZ47330144.tif",
     "pagination":{
      "pgfolios":{
       "section":"9",
       "value":"4b"
      }
     }
    },
    {
     "filename":"I1CZ47330145.tif",
     "pagination":{
      "pgfolios":{
       "section":"9",
       "value":"5a"
      }
     }
    },
    {
     "filename":"I1CZ47330146.tif",
     "pagination":{
      "pgfolios":{
       "section":"9",
       "value":"5b"
      }
     }
    },
    {
     "filename":"I1CZ47330147.tif",
     "pagination":{
      "pgfolios":{
       "section":"10",
       "value":"1a"
      }
     }
    },
    {
     "filename":"I1CZ47330148.tif",
     "pagination":{
      "pgfolios":{
       "section":"10",
       "value":"1b"
      }
     }
    },
    {
     "filename":"I1CZ47330149.tif",
     "pagination":{
      "pgfolios":{
       "section":"10",
       "value":"2a"
      }
     }
    },
    {
     "filename":"I1CZ47330150.tif",
     "pagination":{
      "pgfolios":{
       "section":"10",
       "value":"2b"
      }
     }
    },
    {
     "filename":"I1CZ47330151.tif",
     "pagination":{
      "pgfolios":{
       "section":"10",
       "value":"3a"
      }
     }
    },
    {
     "filename":"I1CZ47330152.tif",
     "pagination":{
      "pgfolios":{
       "section":"10",
       "value":"3b"
      }
     }
    },
    {
     "filename":"I1CZ47330153.tif",
     "pagination":{
      "pgfolios":{
       "section":"10",
       "value":"4a"
      }
     }
    },
    {
     "filename":"I1CZ47330154.tif",
     "pagination":{
      "pgfolios":{
       "section":"10",
       "value":"4b"
      }
     }
    },
    {
     "filename":"I1CZ47330155.tif",
     "pagination":{
      "pgfolios":{
       "section":"10",
       "value":"5a"
      }
     }
    },
    {
     "filename":"I1CZ47330156.tif",
     "pagination":{
      "pgfolios":{
       "section":"10",
       "value":"5b"
      }
     }
    },
    {
     "filename":"I1CZ47330157.tif",
     "pagination":{
      "pgfolios":{
       "section":"10",
       "value":"6a"
      }
     }
    },
    {
     "filename":"I1CZ47330158.tif",
     "pagination":{
      "pgfolios":{
       "section":"10",
       "value":"6b"
      }
     }
    },
    {
     "filename":"I1CZ47330159.tif",
     "pagination":{
      "pgfolios":{
       "section":"10",
       "value":"7a"
      }
     }
    },
    {
     "filename":"I1CZ47330160.tif",
     "pagination":{
      "pgfolios":{
       "section":"10",
       "value":"7b"
      }
     }
    },
    {
     "filename":"I1CZ47330161.tif",
     "pagination":{
      "pgfolios":{
       "section":"10",
       "value":"8a"
      }
     }
    },
    {
     "filename":"I1CZ47330162.tif",
     "pagination":{
      "pgfolios":{
       "section":"10",
       "value":"8b"
      }
     }
    },
    {
     "filename":"I1CZ47330163.tif",
     "pagination":{
      "pgfolios":{
       "section":"10",
       "value":"9a"
      }
     }
    },
    {
     "filename":"I1CZ47330164.tif",
     "pagination":{
      "pgfolios":{
       "section":"10",
       "value":"9b"
      }
     }
    },
    {
     "filename":"I1CZ47330165.tif",
     "pagination":{
      "pgfolios":{
       "section":"10",
       "value":"10a"
      }
     }
    },
    {
     "filename":"I1CZ47330166.tif",
     "pagination":{
      "pgfolios":{
       "section":"10",
       "value":"10b"
      }
     }
    },
    {
     "filename":"I1CZ47330167.tif",
     "pagination":{
      "pgfolios":{
       "section":"10",
       "value":"11a"
      }
     }
    },
    {
     "filename":"I1CZ47330168.tif",
     "pagination":{
      "pgfolios":{
       "section":"10",
       "value":"11b"
      }
     }
    },
    {
     "filename":"I1CZ47330169.tif",
     "pagination":{
      "pgfolios":{
       "section":"10",
       "value":"12a"
      }
     }
    },
    {
     "filename":"I1CZ47330170.tif",
     "pagination":{
      "pgfolios":{
       "section":"10",
       "value":"12b"
      }
     }
    },
    {
     "filename":"I1CZ47330171.tif",
     "pagination":{
      "pgfolios":{
       "section":"10",
       "value":"13a"
      }
     }
    },
    {
     "filename":"I1CZ47330172.tif",
     "pagination":{
      "pgfolios":{
       "section":"10",
       "value":"13b"
      }
     }
    },
    {
     "filename":"I1CZ47330173.tif",
     "pagination":{
      "pgfolios":{
       "section":"10",
       "value":"14a"
      }
     }
    },
    {
     "filename":"I1CZ47330174.tif",
     "pagination":{
      "pgfolios":{
       "section":"10",
       "value":"14b"
      }
     }
    },
    {
     "filename":"I1CZ47330175.tif",
     "pagination":{
      "pgfolios":{
       "section":"10",
       "value":"15a"
      }
     }
    },
    {
     "filename":"I1CZ47330176.tif",
     "pagination":{
      "pgfolios":{
       "section":"10",
       "value":"15b"
      }
     }
    },
    {
     "filename":"I1CZ47330177.tif",
     "pagination":{
      "pgfolios":{
       "section":"10",
       "value":"16a"
      }
     }
    },
    {
     "filename":"I1CZ47330178.tif",
     "pagination":{
      "pgfolios":{
       "section":"10",
       "value":"16b"
      }
     }
    },
    {
     "filename":"I1CZ47330179.tif",
     "pagination":{
      "pgfolios":{
       "section":"10",
       "value":"17a"
      }
     }
    },
    {
     "filename":"I1CZ47330180.tif",
     "pagination":{
      "pgfolios":{
       "section":"10",
       "value":"17b"
      }
     }
    },
    {
     "filename":"I1CZ47330181.tif",
     "pagination":{
      "pgfolios":{
       "section":"10",
       "value":"18a"
      }
     }
    },
    {
     "filename":"I1CZ47330182.tif",
     "pagination":{
      "pgfolios":{
       "section":"10",
       "value":"18b"
      }
     }
    },
    {
     "filename":"I1CZ47330183.tif",
     "pagination":{
      "pgfolios":{
       "section":"10",
       "value":"19a"
      }
     }
    },
    {
     "filename":"I1CZ47330184.tif",
     "pagination":{
      "pgfolios":{
       "section":"10",
       "value":"19b"
      }
     }
    },
    {
     "filename":"I1CZ47330185.tif",
     "pagination":{
      "pgfolios":{
       "section":"10",
       "value":"20a"
      }
     }
    },
    {
     "filename":"I1CZ47330186.tif",
     "pagination":{
      "pgfolios":{
       "section":"10",
       "value":"20b"
      }
     }
    },
    {
     "filename":"I1CZ47330187.tif",
     "pagination":{
      "pgfolios":{
       "section":"10",
       "value":"21a"
      }
     }
    },
    {
     "filename":"I1CZ47330188.tif",
     "pagination":{
      "pgfolios":{
       "section":"10",
       "value":"21b"
      }
     }
    },
    {
     "filename":"I1CZ47330189.tif",
     "pagination":{
      "pgfolios":{
       "section":"10",
       "value":"22a"
      }
     }
    },
    {
     "filename":"I1CZ47330190.tif",
     "pagination":{
      "pgfolios":{
       "section":"10",
       "value":"22b"
      }
     }
    },
    {
     "filename":"I1CZ47330191.tif",
     "pagination":{
      "pgfolios":{
       "section":"10",
       "value":"23a"
      }
     }
    },
    {
     "filename":"I1CZ47330192.tif",
     "pagination":{
      "pgfolios":{
       "section":"10",
       "value":"23b"
      }
     }
    },
    {
     "filename":"I1CZ47330193.tif",
     "pagination":{
      "pgfolios":{
       "section":"10",
       "value":"24a"
      }
     }
    },
    {
     "filename":"I1CZ47330194.tif",
     "pagination":{
      "pgfolios":{
       "section":"10",
       "value":"24b"
      }
     }
    },
    {
     "filename":"I1CZ47330195.tif",
     "pagination":{
      "pgfolios":{
       "section":"10",
       "value":"25a"
      }
     }
    },
    {
     "filename":"I1CZ47330196.tif",
     "pagination":{
      "pgfolios":{
       "section":"10",
       "value":"25b"
      }
     }
    },
    {
     "filename":"I1CZ47330197.tif",
     "pagination":{
      "pgfolios":{
       "section":"10",
       "value":"26a"
      }
     }
    },
    {
     "filename":"I1CZ47330198.tif",
     "pagination":{
      "pgfolios":{
       "section":"10",
       "value":"26b"
      }
     }
    },
    {
     "filename":"I1CZ47330199.tif",
     "pagination":{
      "pgfolios":{
       "section":"10",
       "value":"27a"
      }
     }
    },
    {
     "filename":"I1CZ47330200.tif",
     "pagination":{
      "pgfolios":{
       "section":"10",
       "value":"27b"
      }
     }
    },
    {
     "filename":"I1CZ47330201.tif",
     "pagination":{
      "pgfolios":{
       "section":"11",
       "value":"1a"
      }
     }
    },
    {
     "filename":"I1CZ47330202.tif",
     "pagination":{
      "pgfolios":{
       "section":"11",
       "value":"1b"
      }
     }
    },
    {
     "filename":"I1CZ47330203.tif",
     "pagination":{
      "pgfolios":{
       "section":"11",
       "value":"2a"
      }
     }
    },
    {
     "filename":"I1CZ47330204.tif",
     "pagination":{
      "pgfolios":{
       "section":"11",
       "value":"2b"
      }
     }
    },
    {
     "filename":"I1CZ47330205.tif",
     "pagination":{
      "pgfolios":{
       "section":"11",
       "value":"3a"
      }
     }
    },
    {
     "filename":"I1CZ47330206.tif",
     "pagination":{
      "pgfolios":{
       "section":"11",
       "value":"3b"
      }
     }
    },
    {
     "filename":"I1CZ47330207.tif",
     "pagination":{
      "pgfolios":{
       "section":"11",
       "value":"4a"
      }
     }
    },
    {
     "filename":"I1CZ47330208.tif",
     "pagination":{
      "pgfolios":{
       "section":"11",
       "value":"4b"
      }
     }
    },
    {
     "filename":"I1CZ47330209.tif",
     "pagination":{
      "pgfolios":{
       "section":"11",
       "value":"5a"
      }
     }
    },
    {
     "filename":"I1CZ47330210.tif",
     "pagination":{
      "pgfolios":{
       "section":"11",
       "value":"5b"
      }
     }
    },
    {
     "filename":"I1CZ47330211.tif",
     "pagination":{
      "pgfolios":{
       "section":"12",
       "value":"1a"
      }
     }
    },
    {
     "filename":"I1CZ47330212.tif",
     "pagination":{
      "pgfolios":{
       "section":"12",
       "value":"1b"
      }
     }
    },
    {
     "filename":"I1CZ47330213.tif",
     "pagination":{
      "pgfolios":{
       "section":"12",
       "value":"2a"
      }
     }
    },
    {
     "filename":"I1CZ47330214.tif",
     "pagination":{
      "pgfolios":{
       "section":"12",
       "value":"2b"
      }
     }
    },
    {
     "filename":"I1CZ47330215.tif",
     "pagination":{
      "pgfolios":{
       "section":"12",
       "value":"3a"
      }
     }
    },
    {
     "filename":"I1CZ47330216.tif",
     "pagination":{
      "pgfolios":{
       "section":"12",
       "value":"3b"
      }
     }
    },
    {
     "filename":"I1CZ47330217.tif",
     "pagination":{
      "pgfolios":{
       "section":"12",
       "value":"4a"
      }
     }
    },
    {
     "filename":"I1CZ47330218.tif",
     "pagination":{
      "pgfolios":{
       "section":"12",
       "value":"4b"
      }
     }
    },
    {
     "filename":"I1CZ47330219.tif",
     "pagination":{
      "pgfolios":{
       "section":"13",
       "value":"1a"
      }
     }
    },
    {
     "filename":"I1CZ47330220.tif",
     "pagination":{
      "pgfolios":{
       "section":"13",
       "value":"1b"
      }
     }
    },
    {
     "filename":"I1CZ47330221.tif",
     "pagination":{
      "pgfolios":{
       "section":"13",
       "value":"2a"
      }
     }
    },
    {
     "filename":"I1CZ47330222.tif",
     "pagination":{
      "pgfolios":{
       "section":"13",
       "value":"2b"
      }
     }
    },
    {
     "filename":"I1CZ47330223.tif",
     "pagination":{
      "pgfolios":{
       "section":"13",
       "value":"3a"
      }
     }
    },
    {
     "filename":"I1CZ47330224.tif",
     "pagination":{
      "pgfolios":{
       "section":"13",
       "value":"3b"
      }
     }
    },
    {
     "filename":"I1CZ47330225.tif",
     "pagination":{
      "pgfolios":{
       "section":"14",
       "value":"1a"
      }
     }
    },
    {
     "filename":"I1CZ47330226.tif",
     "pagination":{
      "pgfolios":{
       "section":"14",
       "value":"1b"
      }
     }
    },
    {
     "filename":"I1CZ47330227.tif",
     "pagination":{
      "pgfolios":{
       "section":"14",
       "value":"2a"
      }
     }
    },
    {
     "filename":"I1CZ47330228.tif",
     "pagination":{
      "pgfolios":{
       "section":"14",
       "value":"2b"
      }
     }
    },
    {
     "filename":"I1CZ47330229.tif",
     "pagination":{
      "pgfolios":{
       "section":"14",
       "value":"3a"
      }
     }
    },
    {
     "filename":"I1CZ47330230.tif",
     "pagination":{
      "pgfolios":{
       "section":"14",
       "value":"3b"
      }
     }
    },
    {
     "filename":"I1CZ47330231.tif",
     "pagination":{
      "pgfolios":{
       "section":"15",
       "value":"1a"
      }
     }
    },
    {
     "filename":"I1CZ47330232.tif",
     "pagination":{
      "pgfolios":{
       "section":"15",
       "value":"1b"
      }
     }
    },
    {
     "filename":"I1CZ47330233.tif",
     "pagination":{
      "pgfolios":{
       "section":"15",
       "value":"2a"
      }
     }
    },
    {
     "filename":"I1CZ47330234.tif",
     "pagination":{
      "pgfolios":{
       "section":"15",
       "value":"2b"
      }
     }
    },
    {
     "filename":"I1CZ47330235.tif",
     "pagination":{
      "pgfolios":{
       "section":"16",
       "value":"1a"
      }
     }
    },
    {
     "filename":"I1CZ47330236.tif",
     "pagination":{
      "pgfolios":{
       "section":"16",
       "value":"1b"
      }
     }
    },
    {
     "filename":"I1CZ47330237.tif",
     "pagination":{
      "pgfolios":{
       "section":"16",
       "value":"2a"
      }
     }
    },
    {
     "filename":"I1CZ47330238.tif",
     "pagination":{
      "pgfolios":{
       "section":"16",
       "value":"2b"
      }
     }
    },
    {
     "filename":"I1CZ47330239.tif",
     "pagination":{
      "pgfolios":{
       "section":"16",
       "value":"3a"
      }
     }
    },
    {
     "filename":"I1CZ47330240.tif",
     "pagination":{
      "pgfolios":{
       "section":"16",
       "value":"3b"
      }
     }
    },
    {
     "filename":"I1CZ47330241.tif",
     "pagination":{
      "pgfolios":{
       "section":"16",
       "value":"4a"
      }
     }
    },
    {
     "filename":"I1CZ47330242.tif",
     "pagination":{
      "pgfolios":{
       "section":"16",
       "value":"4b"
      }
     }
    },
    {
     "filename":"I1CZ47330243.tif",
     "pagination":{
      "pgfolios":{
       "section":"16",
       "value":"5a"
      }
     }
    },
    {
     "filename":"I1CZ47330244.tif",
     "pagination":{
      "pgfolios":{
       "section":"16",
       "value":"5b"
      }
     }
    },
    {
     "filename":"I1CZ47330245.tif",
     "pagination":{
      "pgfolios":{
       "section":"16",
       "value":"6a"
      }
     }
    },
    {
     "filename":"I1CZ47330246.tif",
     "pagination":{
      "pgfolios":{
       "section":"16",
       "value":"6b"
      }
     }
    },
    {
     "filename":"I1CZ47330247.tif",
     "pagination":{
      "pgfolios":{
       "section":"16",
       "value":"7a"
      }
     }
    },
    {
     "filename":"I1CZ47330248.tif",
     "pagination":{
      "pgfolios":{
       "section":"16",
       "value":"7b"
      }
     }
    },
    {
     "filename":"I1CZ47330249.tif",
     "pagination":{
      "pgfolios":{
       "section":"16",
       "value":"8a"
      }
     }
    },
    {
     "filename":"I1CZ47330250.tif",
     "pagination":{
      "pgfolios":{
       "section":"16",
       "value":"8b"
      }
     }
    },
    {
     "filename":"I1CZ47330251.tif",
     "pagination":{
      "pgfolios":{
       "section":"16",
       "value":"9a"
      }
     }
    },
    {
     "filename":"I1CZ47330252.tif",
     "pagination":{
      "pgfolios":{
       "section":"16",
       "value":"9b"
      }
     }
    },
    {
     "filename":"I1CZ47330253.tif",
     "pagination":{
      "pgfolios":{
       "section":"16",
       "value":"10a"
      }
     }
    },
    {
     "filename":"I1CZ47330254.tif",
     "pagination":{
      "pgfolios":{
       "section":"16",
       "value":"10b"
      }
     }
    },
    {
     "filename":"I1CZ47330255.tif",
     "pagination":{
      "pgfolios":{
       "section":"16",
       "value":"11a"
      }
     }
    },
    {
     "filename":"I1CZ47330256.tif",
     "pagination":{
      "pgfolios":{
       "section":"16",
       "value":"11b"
      }
     }
    },
    {
     "filename":"I1CZ47330257.tif",
     "pagination":{
      "pgfolios":{
       "section":"17",
       "value":"1a"
      }
     }
    },
    {
     "filename":"I1CZ47330258.tif",
     "pagination":{
      "pgfolios":{
       "section":"17",
       "value":"1b"
      }
     }
    },
    {
     "filename":"I1CZ47330259.tif",
     "pagination":{
      "pgfolios":{
       "section":"17",
       "value":"2a"
      }
     }
    },
    {
     "filename":"I1CZ47330260.tif",
     "pagination":{
      "pgfolios":{
       "section":"17",
       "value":"2b"
      }
     }
    },
    {
     "filename":"I1CZ47330261.tif",
     "pagination":{
      "pgfolios":{
       "section":"17",
       "value":"3a"
      }
     }
    },
    {
     "filename":"I1CZ47330262.tif",
     "pagination":{
      "pgfolios":{
       "section":"17",
       "value":"3b"
      }
     }
    },
    {
     "filename":"I1CZ47330263.tif",
     "pagination":{
      "pgfolios":{
       "section":"17",
       "value":"4a"
      }
     }
    },
    {
     "filename":"I1CZ47330264.tif",
     "pagination":{
      "pgfolios":{
       "section":"17",
       "value":"4b"
      }
     }
    },
    {
     "filename":"I1CZ47330265.tif",
     "pagination":{
      "pgfolios":{
       "section":"17",
       "value":"5a"
      }
     }
    },
    {
     "filename":"I1CZ47330266.tif",
     "pagination":{
      "pgfolios":{
       "section":"17",
       "value":"5b"
      }
     }
    },
    {
     "filename":"I1CZ47330267.tif",
     "pagination":{
      "pgfolios":{
       "section":"17",
       "value":"6a"
      }
     }
    },
    {
     "filename":"I1CZ47330268.tif",
     "pagination":{
      "pgfolios":{
       "section":"17",
       "value":"6b"
      }
     }
    },
    {
     "filename":"I1CZ47330269.tif",
     "pagination":{
      "pgfolios":{
       "section":"17",
       "value":"7a"
      }
     }
    },
    {
     "filename":"I1CZ47330270.tif",
     "pagination":{
      "pgfolios":{
       "section":"17",
       "value":"7b"
      }
     }
    },
    {
     "filename":"I1CZ47330271.tif",
     "pagination":{
      "pgfolios":{
       "section":"18",
       "value":"1a"
      }
     }
    },
    {
     "filename":"I1CZ47330272.tif",
     "pagination":{
      "pgfolios":{
       "section":"18",
       "value":"1b"
      }
     }
    },
    {
     "filename":"I1CZ47330273.tif",
     "pagination":{
      "pgfolios":{
       "section":"18",
       "value":"2a"
      }
     }
    },
    {
     "filename":"I1CZ47330274.tif",
     "pagination":{
      "pgfolios":{
       "section":"18",
       "value":"2b"
      }
     }
    },
    {
     "filename":"I1CZ47330275.tif",
     "pagination":{
      "pgfolios":{
       "section":"19",
       "value":"1a"
      }
     }
    },
    {
     "filename":"I1CZ47330276.tif",
     "pagination":{
      "pgfolios":{
       "section":"19",
       "value":"1b"
      }
     }
    },
    {
     "filename":"I1CZ47330277.tif",
     "pagination":{
      "pgfolios":{
       "section":"19",
       "value":"2a"
      }
     }
    },
    {
     "filename":"I1CZ47330278.tif",
     "pagination":{
      "pgfolios":{
       "section":"19",
       "value":"2b"
      }
     }
    },
    {
     "filename":"I1CZ47330279.tif",
     "pagination":{
      "pgfolios":{
       "section":"19",
       "value":"3a"
      }
     }
    },
    {
     "filename":"I1CZ47330280.tif",
     "pagination":{
      "pgfolios":{
       "section":"19",
       "value":"3b"
      }
     }
    },
    {
     "filename":"I1CZ47330281.tif",
     "pagination":{
      "pgfolios":{
       "section":"20",
       "value":"1a"
      }
     }
    },
    {
     "filename":"I1CZ47330282.tif",
     "pagination":{
      "pgfolios":{
       "section":"20",
       "value":"1b"
      }
     }
    },
    {
     "filename":"I1CZ47330283.tif",
     "pagination":{
      "pgfolios":{
       "section":"20",
       "value":"2a"
      }
     }
    },
    {
     "filename":"I1CZ47330284.tif",
     "pagination":{
      "pgfolios":{
       "section":"20",
       "value":"2b"
      }
     }
    },
    {
     "filename":"I1CZ47330285.tif",
     "pagination":{
      "pgfolios":{
       "section":"20",
       "value":"3a"
      }
     }
    },
    {
     "filename":"I1CZ47330286.tif",
     "pagination":{
      "pgfolios":{
       "section":"20",
       "value":"3b"
      }
     }
    },
    {
     "filename":"I1CZ47330287.tif",
     "pagination":{
      "pgfolios":{
       "section":"21",
       "value":"1a"
      }
     }
    },
    {
     "filename":"I1CZ47330288.tif",
     "pagination":{
      "pgfolios":{
       "section":"21",
       "value":"1b"
      }
     }
    },
    {
     "filename":"I1CZ47330289.tif",
     "pagination":{
      "pgfolios":{
       "section":"22",
       "value":"1a"
      }
     }
    },
    {
     "filename":"I1CZ47330290.tif",
     "pagination":{
      "pgfolios":{
       "section":"22",
       "value":"1b"
      }
     }
    },
    {
     "filename":"I1CZ47330291.tif",
     "pagination":{
      "pgfolios":{
       "section":"22",
       "value":"2a"
      }
     }
    },
    {
     "filename":"I1CZ47330292.tif",
     "pagination":{
      "pgfolios":{
       "section":"22",
       "value":"2b"
      }
     }
    },
    {
     "filename":"I1CZ47330293.tif",
     "pagination":{
      "pgfolios":{
       "section":"22",
       "value":"3a"
      }
     }
    },
    {
     "filename":"I1CZ47330294.tif",
     "pagination":{
      "pgfolios":{
       "section":"22",
       "value":"3b"
      }
     }
    },
    {
     "filename":"I1CZ47330295.tif",
     "pagination":{
      "pgfolios":{
       "section":"22",
       "value":"4a"
      }
     }
    },
    {
     "filename":"I1CZ47330296.tif",
     "pagination":{
      "pgfolios":{
       "section":"22",
       "value":"4b"
      }
     }
    },
    {
     "filename":"I1CZ47330297.tif",
     "pagination":{
      "pgfolios":{
       "section":"22",
       "value":"5a"
      }
     }
    },
    {
     "filename":"I1CZ47330298.tif",
     "pagination":{
      "pgfolios":{
       "section":"22",
       "value":"5b"
      }
     }
    },
    {
     "filename":"I1CZ47330299.tif",
     "pagination":{
      "pgfolios":{
       "section":"22",
       "value":"6a"
      }
     }
    },
    {
     "filename":"I1CZ47330300.tif",
     "pagination":{
      "pgfolios":{
       "section":"22",
       "value":"6b"
      }
     }
    },
    {
     "filename":"I1CZ47330301.tif",
     "pagination":{
      "pgfolios":{
       "section":"22",
       "value":"7a"
      }
     }
    },
    {
     "filename":"I1CZ47330302.tif",
     "pagination":{
      "pgfolios":{
       "section":"22",
       "value":"7b"
      }
     }
    },
    {
     "filename":"I1CZ47330303.tif",
     "pagination":{
      "pgfolios":{
       "section":"23",
       "value":"1a"
      }
     }
    },
    {
     "filename":"I1CZ47330304.tif",
     "pagination":{
      "pgfolios":{
       "section":"23",
       "value":"1b"
      }
     }
    },
    {
     "filename":"I1CZ47330305.tif",
     "pagination":{
      "pgfolios":{
       "section":"24",
       "value":"1a"
      }
     }
    },
    {
     "filename":"I1CZ47330306.tif",
     "pagination":{
      "pgfolios":{
       "section":"24",
       "value":"1b"
      }
     }
    },
    {
     "filename":"I1CZ47330307.tif",
     "pagination":{
      "pgfolios":{
       "section":"25",
       "value":"1a"
      }
     }
    },
    {
     "filename":"I1CZ47330308.tif",
     "pagination":{
      "pgfolios":{
       "section":"25",
       "value":"1b"
      }
     }
    },
    {
     "filename":"I1CZ47330309.tif",
     "pagination":{
      "pgfolios":{
       "section":"25",
       "value":"2a"
      }
     }
    },
    {
     "filename":"I1CZ47330310.tif",
     "pagination":{
      "pgfolios":{
       "section":"25",
       "value":"2b"
      }
     }
    },
    {
     "filename":"I1CZ47330311.tif",
     "pagination":{
      "pgfolios":{
       "section":"25",
       "value":"3a"
      }
     }
    },
    {
     "filename":"I1CZ47330312.tif",
     "pagination":{
      "pgfolios":{
       "section":"25",
       "value":"3b"
      }
     }
    },
    {
     "filename":"I1CZ47330313.tif",
     "pagination":{
      "pgfolios":{
       "section":"26",
       "value":"1a"
      }
     }
    },
    {
     "filename":"I1CZ47330314.tif",
     "pagination":{
      "pgfolios":{
       "section":"26",
       "value":"1b"
      }
     }
    },
    {
     "filename":"I1CZ47330315.tif",
     "pagination":{
      "pgfolios":{
       "section":"26",
       "value":"2a"
      }
     }
    },
    {
     "filename":"I1CZ47330316.tif",
     "pagination":{
      "pgfolios":{
       "section":"26",
       "value":"2b"
      }
     }
    },
    {
     "filename":"I1CZ47330317.tif",
     "pagination":{
      "pgfolios":{
       "section":"27",
       "value":"1a"
      }
     }
    },
    {
     "filename":"I1CZ47330318.tif",
     "pagination":{
      "pgfolios":{
       "section":"27",
       "value":"1b"
      }
     }
    },
    {
     "filename":"I1CZ47330319.tif",
     "pagination":{
      "pgfolios":{
       "section":"27",
       "value":"2a"
      }
     }
    },
    {
     "filename":"I1CZ47330320.tif",
     "pagination":{
      "pgfolios":{
       "section":"27",
       "value":"2b"
      }
     }
    },
    {
     "filename":"I1CZ47330321.tif",
     "pagination":{
      "pgfolios":{
       "section":"27",
       "value":"3a"
      }
     }
    },
    {
     "filename":"I1CZ47330322.tif",
     "pagination":{
      "pgfolios":{
       "section":"27",
       "value":"3b"
      }
     }
    },
    {
     "filename":"I1CZ47330323.tif",
     "pagination":{
      "pgfolios":{
       "section":"27",
       "value":"4a"
      }
     }
    },
    {
     "filename":"I1CZ47330324.tif",
     "pagination":{
      "pgfolios":{
       "section":"27",
       "value":"4b"
      }
     }
    },
    {
     "filename":"I1CZ47330325.tif",
     "pagination":{
      "pgfolios":{
       "section":"27",
       "value":"5a"
      }
     }
    },
    {
     "filename":"I1CZ47330326.tif",
     "pagination":{
      "pgfolios":{
       "section":"27",
       "value":"5b"
      }
     }
    },
    {
     "filename":"I1CZ47330327.tif",
     "pagination":{
      "pgfolios":{
       "section":"27",
       "value":"6a"
      }
     }
    },
    {
     "filename":"I1CZ47330328.tif",
     "pagination":{
      "pgfolios":{
       "section":"27",
       "value":"6b"
      }
     }
    },
    {
     "filename":"I1CZ47330329.tif",
     "pagination":{
      "pgfolios":{
       "section":"27",
       "value":"7a"
      }
     }
    },
    {
     "filename":"I1CZ47330330.tif",
     "pagination":{
      "pgfolios":{
       "section":"27",
       "value":"7b"
      }
     }
    },
    {
     "filename":"I1CZ47330331.tif",
     "pagination":{
      "pgfolios":{
       "section":"27",
       "value":"8a"
      }
     }
    },
    {
     "filename":"I1CZ47330332.tif",
     "pagination":{
      "pgfolios":{
       "section":"27",
       "value":"8b"
      }
     }
    },
    {
     "filename":"I1CZ47330333.tif",
     "pagination":{
      "pgfolios":{
       "section":"27",
       "value":"9a"
      }
     }
    },
    {
     "filename":"I1CZ47330334.tif",
     "pagination":{
      "pgfolios":{
       "section":"27",
       "value":"9b"
      }
     }
    },
    {
     "filename":"I1CZ47330335.tif",
     "pagination":{
      "pgfolios":{
       "section":"27",
       "value":"10a"
      }
     }
    },
    {
     "filename":"I1CZ47330336.tif",
     "pagination":{
      "pgfolios":{
       "section":"27",
       "value":"10b"
      }
     }
    },
    {
     "filename":"I1CZ47330337.tif",
     "pagination":{
      "pgfolios":{
       "section":"27",
       "value":"11a"
      }
     }
    },
    {
     "filename":"I1CZ47330338.tif",
     "pagination":{
      "pgfolios":{
       "section":"27",
       "value":"11b"
      }
     }
    },
    {
     "filename":"I1CZ47330339.tif",
     "pagination":{
      "pgfolios":{
       "section":"27",
       "value":"12a"
      }
     }
    },
    {
     "filename":"I1CZ47330340.tif",
     "pagination":{
      "pgfolios":{
       "section":"27",
       "value":"12b"
      }
     }
    },
    {
     "filename":"I1CZ47330341.tif",
     "pagination":{
      "pgfolios":{
       "section":"27",
       "value":"13a"
      }
     }
    },
    {
     "filename":"I1CZ47330342.tif",
     "pagination":{
      "pgfolios":{
       "section":"27",
       "value":"13b"
      }
     }
    },
    {
     "filename":"I1CZ47330343.tif",
     "pagination":{
      "pgfolios":{
       "section":"27",
       "value":"14a"
      }
     }
    },
    {
     "filename":"I1CZ47330344.tif",
     "pagination":{
      "pgfolios":{
       "section":"27",
       "value":"14b"
      }
     }
    },
    {
     "filename":"I1CZ47330345.tif",
     "pagination":{
      "pgfolios":{
       "section":"27",
       "value":"15a"
      }
     }
    },
    {
     "filename":"I1CZ47330346.tif",
     "pagination":{
      "pgfolios":{
       "section":"27",
       "value":"15b"
      }
     }
    },
    {
     "filename":"I1CZ47330347.tif",
     "pagination":{
      "pgfolios":{
       "section":"27",
       "value":"16a"
      }
     }
    },
    {
     "filename":"I1CZ47330348.tif",
     "pagination":{
      "pgfolios":{
       "section":"27",
       "value":"16b"
      }
     }
    },
    {
     "filename":"I1CZ47330349.tif",
     "pagination":{
      "pgfolios":{
       "section":"27",
       "value":"17a"
      }
     }
    },
    {
     "filename":"I1CZ47330350.tif",
     "pagination":{
      "pgfolios":{
       "section":"27",
       "value":"17b"
      }
     }
    },
    {
     "filename":"I1CZ47330351.tif",
     "pagination":{
      "pgfolios":{
       "section":"27",
       "value":"18a"
      }
     }
    },
    {
     "filename":"I1CZ47330352.tif",
     "pagination":{
      "pgfolios":{
       "section":"27",
       "value":"18b"
      }
     }
    },
    {
     "filename":"I1CZ47330353.tif",
     "pagination":{
      "pgfolios":{
       "section":"27",
       "value":"19a"
      }
     }
    },
    {
     "filename":"I1CZ47330354.tif",
     "pagination":{
      "pgfolios":{
       "section":"27",
       "value":"19b"
      }
     }
    },
    {
     "filename":"I1CZ47330355.tif",
     "pagination":{
      "pgfolios":{
       "section":"27",
       "value":"20a"
      }
     }
    },
    {
     "filename":"I1CZ47330356.tif",
     "pagination":{
      "pgfolios":{
       "section":"27",
       "value":"20b"
      }
     }
    },
    {
     "filename":"I1CZ47330357.tif",
     "pagination":{
      "pgfolios":{
       "section":"27",
       "value":"21a"
      }
     }
    },
    {
     "filename":"I1CZ47330358.tif",
     "pagination":{
      "pgfolios":{
       "section":"27",
       "value":"21b"
      }
     }
    }
   ]
  }
 },
 "viewing-direction":"top-to-bottom"
}