{
 "appData":{
  "bvmt":{
   "default-vol-string-lang":"bo",
   "metadata-for-bvmt-ver":"0.1.0"
  }
 },
 "attribution":[
  {
   "@language":"en",
   "@value":"Data provided by rKTs under the CC0 license"
  }
 ],
 "changes":[
  {
   "message":{
    "@language":"en",
    "@value":"migration from rKTs data"
   },
   "time":"2020-10-03T11:35:30Z",
   "user":"bdu:U1653882847"
  }
 ],
 "default-view":"view1",
 "imggroup":"bdr:I1CZ4817",
 "pagination":[
  {
   "id":"pgfolios",
   "type":"folios"
  }
 ],
 "sections":[
  {
   "id":"1",
   "name":{
    "@language":"bo-x-ewts",
    "@value":"1"
   }
  },
  {
   "id":"2",
   "name":{
    "@language":"bo-x-ewts",
    "@value":"2"
   }
  },
  {
   "id":"3",
   "name":{
    "@language":"bo-x-ewts",
    "@value":"3"
   }
  },
  {
   "id":"4",
   "name":{
    "@language":"bo-x-ewts",
    "@value":"4"
   }
  },
  {
   "id":"5",
   "name":{
    "@language":"bo-x-ewts",
    "@value":"5"
   }
  },
  {
   "id":"6",
   "name":{
    "@language":"bo-x-ewts",
    "@value":"6"
   }
  },
  {
   "id":"7",
   "name":{
    "@language":"bo-x-ewts",
    "@value":"7"
   }
  },
  {
   "id":"8",
   "name":{
    "@language":"bo-x-ewts",
    "@value":"8"
   }
  }
 ],
 "spec-version":"0.1.0",
 "status":"released",
 "view":{
  "view1":{
   "imagelist":[
    {
     "filename":"I1CZ48170001.tif",
     "hidden":true,
     "tags":[
      "T0005"
     ]
    },
    {
     "filename":"I1CZ48170002.tif",
     "hidden":true,
     "tags":[
      "T0005"
     ]
    },
    {
     "filename":"I1CZ48170003.tif",
     "pagination":{
      "pgfolios":{
       "section":"1",
       "value":"1a"
      }
     }
    },
    {
     "filename":"I1CZ48170004.tif",
     "pagination":{
      "pgfolios":{
       "section":"1",
       "value":"1b"
      }
     }
    },
    {
     "filename":"I1CZ48170005.tif",
     "pagination":{
      "pgfolios":{
       "section":"1",
       "value":"2a"
      }
     }
    },
    {
     "filename":"I1CZ48170006.tif",
     "pagination":{
      "pgfolios":{
       "section":"1",
       "value":"2b"
      }
     }
    },
    {
     "filename":"I1CZ48170007.tif",
     "pagination":{
      "pgfolios":{
       "section":"1",
       "value":"3a"
      }
     }
    },
    {
     "filename":"I1CZ48170008.tif",
     "pagination":{
      "pgfolios":{
       "section":"1",
       "value":"3b"
      }
     }
    },
    {
     "filename":"I1CZ48170009.tif",
     "pagination":{
      "pgfolios":{
       "section":"1",
       "value":"4a"
      }
     }
    },
    {
     "filename":"I1CZ48170010.tif",
     "pagination":{
      "pgfolios":{
       "section":"1",
       "value":"4b"
      }
     }
    },
    {
     "filename":"I1CZ48170011.tif",
     "pagination":{
      "pgfolios":{
       "section":"2",
       "value":"1a"
      }
     }
    },
    {
     "filename":"I1CZ48170012.tif",
     "pagination":{
      "pgfolios":{
       "section":"2",
       "value":"1b"
      }
     }
    },
    {
     "filename":"I1CZ48170013.tif",
     "pagination":{
      "pgfolios":{
       "section":"2",
       "value":"2a"
      }
     }
    },
    {
     "filename":"I1CZ48170014.tif",
     "pagination":{
      "pgfolios":{
       "section":"2",
       "value":"2b"
      }
     }
    },
    {
     "filename":"I1CZ48170015.tif",
     "pagination":{
      "pgfolios":{
       "section":"2",
       "value":"3a"
      }
     }
    },
    {
     "filename":"I1CZ48170016.tif",
     "pagination":{
      "pgfolios":{
       "section":"2",
       "value":"3b"
      }
     }
    },
    {
     "filename":"I1CZ48170017.tif",
     "pagination":{
      "pgfolios":{
       "section":"2",
       "value":"4a"
      }
     }
    },
    {
     "filename":"I1CZ48170018.tif",
     "pagination":{
      "pgfolios":{
       "section":"2",
       "value":"4b"
      }
     }
    },
    {
     "filename":"I1CZ48170019.tif",
     "pagination":{
      "pgfolios":{
       "section":"2",
       "value":"5a"
      }
     }
    },
    {
     "filename":"I1CZ48170020.tif",
     "pagination":{
      "pgfolios":{
       "section":"2",
       "value":"5b"
      }
     }
    },
    {
     "filename":"I1CZ48170021.tif",
     "pagination":{
      "pgfolios":{
       "section":"2",
       "value":"6a"
      }
     }
    },
    {
     "filename":"I1CZ48170022.tif",
     "pagination":{
      "pgfolios":{
       "section":"2",
       "value":"6b"
      }
     }
    },
    {
     "filename":"I1CZ48170023.tif",
     "pagination":{
      "pgfolios":{
       "section":"2",
       "value":"7a"
      }
     }
    },
    {
     "filename":"I1CZ48170024.tif",
     "pagination":{
      "pgfolios":{
       "section":"2",
       "value":"7b"
      }
     }
    },
    {
     "filename":"I1CZ48170025.tif",
     "pagination":{
      "pgfolios":{
       "section":"2",
       "value":"8a"
      }
     }
    },
    {
     "filename":"I1CZ48170026.tif",
     "pagination":{
      "pgfolios":{
       "section":"2",
       "value":"8b"
      }
     }
    },
    {
     "filename":"I1CZ48170027.tif",
     "pagination":{
      "pgfolios":{
       "section":"2",
       "value":"9a"
      }
     }
    },
    {
     "filename":"I1CZ48170028.tif",
     "pagination":{
      "pgfolios":{
       "section":"2",
       "value":"9b"
      }
     }
    },
    {
     "filename":"I1CZ48170029.tif",
     "pagination":{
      "pgfolios":{
       "section":"2",
       "value":"10a"
      }
     }
    },
    {
     "filename":"I1CZ48170030.tif",
     "pagination":{
      "pgfolios":{
       "section":"2",
       "value":"10b"
      }
     }
    },
    {
     "filename":"I1CZ48170031.tif",
     "pagination":{
      "pgfolios":{
       "section":"2",
       "value":"11a"
      }
     }
    },
    {
     "filename":"I1CZ48170032.tif",
     "pagination":{
      "pgfolios":{
       "section":"2",
       "value":"11b"
      }
     }
    },
    {
     "filename":"I1CZ48170033.tif",
     "pagination":{
      "pgfolios":{
       "section":"2",
       "value":"12a"
      }
     }
    },
    {
     "filename":"I1CZ48170034.tif",
     "pagination":{
      "pgfolios":{
       "section":"2",
       "value":"12b"
      }
     }
    },
    {
     "filename":"I1CZ48170035.tif",
     "pagination":{
      "pgfolios":{
       "section":"2",
       "value":"13a"
      }
     }
    },
    {
     "filename":"I1CZ48170036.tif",
     "pagination":{
      "pgfolios":{
       "section":"2",
       "value":"13b"
      }
     }
    },
    {
     "filename":"I1CZ48170037.tif",
     "pagination":{
      "pgfolios":{
       "section":"2",
       "value":"14a"
      }
     }
    },
    {
     "filename":"I1CZ48170038.tif",
     "pagination":{
      "pgfolios":{
       "section":"2",
       "value":"14b"
      }
     }
    },
    {
     "filename":"I1CZ48170039.tif",
     "pagination":{
      "pgfolios":{
       "section":"2",
       "value":"15a"
      }
     }
    },
    {
     "filename":"I1CZ48170040.tif",
     "pagination":{
      "pgfolios":{
       "section":"2",
       "value":"15b"
      }
     }
    },
    {
     "filename":"I1CZ48170041.tif",
     "pagination":{
      "pgfolios":{
       "section":"2",
       "value":"16a"
      }
     }
    },
    {
     "filename":"I1CZ48170042.tif",
     "pagination":{
      "pgfolios":{
       "section":"2",
       "value":"16b"
      }
     }
    },
    {
     "filename":"I1CZ48170043.tif",
     "pagination":{
      "pgfolios":{
       "section":"2",
       "value":"17a"
      }
     }
    },
    {
     "filename":"I1CZ48170044.tif",
     "pagination":{
      "pgfolios":{
       "section":"2",
       "value":"17b"
      }
     }
    },
    {
     "filename":"I1CZ48170045.tif",
     "pagination":{
      "pgfolios":{
       "section":"2",
       "value":"18a"
      }
     }
    },
    {
     "filename":"I1CZ48170046.tif",
     "pagination":{
      "pgfolios":{
       "section":"2",
       "value":"18b"
      }
     }
    },
    {
     "filename":"I1CZ48170047.tif",
     "pagination":{
      "pgfolios":{
       "section":"2",
       "value":"19a"
      }
     }
    },
    {
     "filename":"I1CZ48170048.tif",
     "pagination":{
      "pgfolios":{
       "section":"2",
       "value":"19b"
      }
     }
    },
    {
     "filename":"I1CZ48170049.tif",
     "pagination":{
      "pgfolios":{
       "section":"2",
       "value":"20a"
      }
     }
    },
    {
     "filename":"I1CZ48170050.tif",
     "pagination":{
      "pgfolios":{
       "section":"2",
       "value":"20b"
      }
     }
    },
    {
     "filename":"I1CZ48170051.tif",
     "pagination":{
      "pgfolios":{
       "section":"2",
       "value":"21a"
      }
     }
    },
    {
     "filename":"I1CZ48170052.tif",
     "pagination":{
      "pgfolios":{
       "section":"2",
       "value":"21b"
      }
     }
    },
    {
     "filename":"I1CZ48170053.tif",
     "pagination":{
      "pgfolios":{
       "section":"2",
       "value":"22a"
      }
     }
    },
    {
     "filename":"I1CZ48170054.tif",
     "pagination":{
      "pgfolios":{
       "section":"2",
       "value":"22b"
      }
     }
    },
    {
     "filename":"I1CZ48170055.tif",
     "pagination":{
      "pgfolios":{
       "section":"2",
       "value":"23a"
      }
     }
    },
    {
     "filename":"I1CZ48170056.tif",
     "pagination":{
      "pgfolios":{
       "section":"2",
       "value":"23b"
      }
     }
    },
    {
     "filename":"I1CZ48170057.tif",
     "pagination":{
      "pgfolios":{
       "section":"2",
       "value":"24a"
      }
     }
    },
    {
     "filename":"I1CZ48170058.tif",
     "pagination":{
      "pgfolios":{
       "section":"2",
       "value":"24b"
      }
     }
    },
    {
     "filename":"I1CZ48170059.tif",
     "pagination":{
      "pgfolios":{
       "section":"2",
       "value":"25a"
      }
     }
    },
    {
     "filename":"I1CZ48170060.tif",
     "pagination":{
      "pgfolios":{
       "section":"2",
       "value":"25b"
      }
     }
    },
    {
     "filename":"I1CZ48170061.tif",
     "pagination":{
      "pgfolios":{
       "section":"2",
       "value":"26a"
      }
     }
    },
    {
     "filename":"I1CZ48170062.tif",
     "pagination":{
      "pgfolios":{
       "section":"2",
       "value":"26b"
      }
     }
    },
    {
     "filename":"I1CZ48170063.tif",
     "pagination":{
      "pgfolios":{
       "section":"2",
       "value":"27a"
      }
     }
    },
    {
     "filename":"I1CZ48170064.tif",
     "pagination":{
      "pgfolios":{
       "section":"2",
       "value":"27b"
      }
     }
    },
    {
     "filename":"I1CZ48170065.tif",
     "pagination":{
      "pgfolios":{
       "section":"3",
       "value":"1a"
      }
     }
    },
    {
     "filename":"I1CZ48170066.tif",
     "pagination":{
      "pgfolios":{
       "section":"3",
       "value":"1b"
      }
     }
    },
    {
     "filename":"I1CZ48170067.tif",
     "pagination":{
      "pgfolios":{
       "section":"3",
       "value":"2a"
      }
     }
    },
    {
     "filename":"I1CZ48170068.tif",
     "pagination":{
      "pgfolios":{
       "section":"3",
       "value":"2b"
      }
     }
    },
    {
     "filename":"I1CZ48170069.tif",
     "pagination":{
      "pgfolios":{
       "section":"3",
       "value":"3a"
      }
     }
    },
    {
     "filename":"I1CZ48170070.tif",
     "pagination":{
      "pgfolios":{
       "section":"3",
       "value":"3b"
      }
     }
    },
    {
     "filename":"I1CZ48170071.tif",
     "pagination":{
      "pgfolios":{
       "section":"3",
       "value":"4a"
      }
     }
    },
    {
     "filename":"I1CZ48170072.tif",
     "pagination":{
      "pgfolios":{
       "section":"3",
       "value":"4b"
      }
     }
    },
    {
     "filename":"I1CZ48170073.tif",
     "pagination":{
      "pgfolios":{
       "section":"3",
       "value":"5a"
      }
     }
    },
    {
     "filename":"I1CZ48170074.tif",
     "pagination":{
      "pgfolios":{
       "section":"3",
       "value":"5b"
      }
     }
    },
    {
     "filename":"I1CZ48170075.tif",
     "pagination":{
      "pgfolios":{
       "section":"3",
       "value":"6a"
      }
     }
    },
    {
     "filename":"I1CZ48170076.tif",
     "pagination":{
      "pgfolios":{
       "section":"3",
       "value":"6b"
      }
     }
    },
    {
     "filename":"I1CZ48170077.tif",
     "pagination":{
      "pgfolios":{
       "section":"3",
       "value":"7a"
      }
     }
    },
    {
     "filename":"I1CZ48170078.tif",
     "pagination":{
      "pgfolios":{
       "section":"3",
       "value":"7b"
      }
     }
    },
    {
     "filename":"I1CZ48170079.tif",
     "pagination":{
      "pgfolios":{
       "section":"3",
       "value":"8a"
      }
     }
    },
    {
     "filename":"I1CZ48170080.tif",
     "pagination":{
      "pgfolios":{
       "section":"3",
       "value":"8b"
      }
     }
    },
    {
     "filename":"I1CZ48170081.tif",
     "pagination":{
      "pgfolios":{
       "section":"3",
       "value":"9a"
      }
     }
    },
    {
     "filename":"I1CZ48170082.tif",
     "pagination":{
      "pgfolios":{
       "section":"3",
       "value":"9b"
      }
     }
    },
    {
     "filename":"I1CZ48170083.tif",
     "pagination":{
      "pgfolios":{
       "section":"3",
       "value":"10a"
      }
     }
    },
    {
     "filename":"I1CZ48170084.tif",
     "pagination":{
      "pgfolios":{
       "section":"3",
       "value":"10b"
      }
     }
    },
    {
     "filename":"I1CZ48170085.tif",
     "pagination":{
      "pgfolios":{
       "section":"3",
       "value":"11a"
      }
     }
    },
    {
     "filename":"I1CZ48170086.tif",
     "pagination":{
      "pgfolios":{
       "section":"3",
       "value":"11b"
      }
     }
    },
    {
     "filename":"I1CZ48170087.tif",
     "pagination":{
      "pgfolios":{
       "section":"3",
       "value":"12a"
      }
     }
    },
    {
     "filename":"I1CZ48170088.tif",
     "pagination":{
      "pgfolios":{
       "section":"3",
       "value":"12b"
      }
     }
    },
    {
     "filename":"I1CZ48170089.tif",
     "pagination":{
      "pgfolios":{
       "section":"3",
       "value":"13a"
      }
     }
    },
    {
     "filename":"I1CZ48170090.tif",
     "pagination":{
      "pgfolios":{
       "section":"3",
       "value":"13b"
      }
     }
    },
    {
     "filename":"I1CZ48170091.tif",
     "pagination":{
      "pgfolios":{
       "section":"3",
       "value":"14a"
      }
     }
    },
    {
     "filename":"I1CZ48170092.tif",
     "pagination":{
      "pgfolios":{
       "section":"3",
       "value":"14b"
      }
     }
    },
    {
     "filename":"I1CZ48170093.tif",
     "pagination":{
      "pgfolios":{
       "section":"3",
       "value":"15a"
      }
     }
    },
    {
     "filename":"I1CZ48170094.tif",
     "pagination":{
      "pgfolios":{
       "section":"3",
       "value":"15b"
      }
     }
    },
    {
     "filename":"I1CZ48170095.tif",
     "pagination":{
      "pgfolios":{
       "section":"3",
       "value":"16a"
      }
     }
    },
    {
     "filename":"I1CZ48170096.tif",
     "pagination":{
      "pgfolios":{
       "section":"3",
       "value":"16b"
      }
     }
    },
    {
     "filename":"I1CZ48170097.tif",
     "pagination":{
      "pgfolios":{
       "section":"4",
       "value":"1a"
      }
     }
    },
    {
     "filename":"I1CZ48170098.tif",
     "pagination":{
      "pgfolios":{
       "section":"4",
       "value":"1b"
      }
     }
    },
    {
     "filename":"I1CZ48170099.tif",
     "pagination":{
      "pgfolios":{
       "section":"4",
       "value":"2a"
      }
     }
    },
    {
     "filename":"I1CZ48170100.tif",
     "pagination":{
      "pgfolios":{
       "section":"4",
       "value":"2b"
      }
     }
    },
    {
     "filename":"I1CZ48170101.tif",
     "pagination":{
      "pgfolios":{
       "section":"4",
       "value":"3a"
      }
     }
    },
    {
     "filename":"I1CZ48170102.tif",
     "pagination":{
      "pgfolios":{
       "section":"4",
       "value":"3b"
      }
     }
    },
    {
     "filename":"I1CZ48170103.tif",
     "pagination":{
      "pgfolios":{
       "section":"4",
       "value":"4a"
      }
     }
    },
    {
     "filename":"I1CZ48170104.tif",
     "pagination":{
      "pgfolios":{
       "section":"4",
       "value":"4b"
      }
     }
    },
    {
     "filename":"I1CZ48170105.tif",
     "pagination":{
      "pgfolios":{
       "section":"4",
       "value":"5a"
      }
     }
    },
    {
     "filename":"I1CZ48170106.tif",
     "pagination":{
      "pgfolios":{
       "section":"4",
       "value":"5b"
      }
     }
    },
    {
     "filename":"I1CZ48170107.tif",
     "pagination":{
      "pgfolios":{
       "section":"4",
       "value":"6a"
      }
     }
    },
    {
     "filename":"I1CZ48170108.tif",
     "pagination":{
      "pgfolios":{
       "section":"4",
       "value":"6b"
      }
     }
    },
    {
     "filename":"I1CZ48170109.tif",
     "pagination":{
      "pgfolios":{
       "section":"4",
       "value":"7a"
      }
     }
    },
    {
     "filename":"I1CZ48170110.tif",
     "pagination":{
      "pgfolios":{
       "section":"4",
       "value":"7b"
      }
     }
    },
    {
     "filename":"I1CZ48170111.tif",
     "pagination":{
      "pgfolios":{
       "section":"4",
       "value":"8a"
      }
     }
    },
    {
     "filename":"I1CZ48170112.tif",
     "pagination":{
      "pgfolios":{
       "section":"4",
       "value":"8b"
      }
     }
    },
    {
     "filename":"I1CZ48170113.tif",
     "pagination":{
      "pgfolios":{
       "section":"4",
       "value":"9a"
      }
     }
    },
    {
     "filename":"I1CZ48170114.tif",
     "pagination":{
      "pgfolios":{
       "section":"4",
       "value":"9b"
      }
     }
    },
    {
     "filename":"I1CZ48170115.tif",
     "pagination":{
      "pgfolios":{
       "section":"4",
       "value":"10a"
      }
     }
    },
    {
     "filename":"I1CZ48170116.tif",
     "pagination":{
      "pgfolios":{
       "section":"4",
       "value":"10b"
      }
     }
    },
    {
     "filename":"I1CZ48170117.tif",
     "pagination":{
      "pgfolios":{
       "section":"4",
       "value":"11a"
      }
     }
    },
    {
     "filename":"I1CZ48170118.tif",
     "pagination":{
      "pgfolios":{
       "section":"4",
       "value":"11b"
      }
     }
    },
    {
     "filename":"I1CZ48170119.tif",
     "pagination":{
      "pgfolios":{
       "section":"5",
       "value":"1a"
      }
     }
    },
    {
     "filename":"I1CZ48170120.tif",
     "pagination":{
      "pgfolios":{
       "section":"5",
       "value":"1b"
      }
     }
    },
    {
     "filename":"I1CZ48170121.tif",
     "pagination":{
      "pgfolios":{
       "section":"5",
       "value":"2a"
      }
     }
    },
    {
     "filename":"I1CZ48170122.tif",
     "pagination":{
      "pgfolios":{
       "section":"5",
       "value":"2b"
      }
     }
    },
    {
     "filename":"I1CZ48170123.tif",
     "pagination":{
      "pgfolios":{
       "section":"5",
       "value":"3a"
      }
     }
    },
    {
     "filename":"I1CZ48170124.tif",
     "pagination":{
      "pgfolios":{
       "section":"5",
       "value":"3b"
      }
     }
    },
    {
     "filename":"I1CZ48170125.tif",
     "pagination":{
      "pgfolios":{
       "section":"5",
       "value":"4a"
      }
     }
    },
    {
     "filename":"I1CZ48170126.tif",
     "pagination":{
      "pgfolios":{
       "section":"5",
       "value":"4b"
      }
     }
    },
    {
     "filename":"I1CZ48170127.tif",
     "pagination":{
      "pgfolios":{
       "section":"5",
       "value":"5a"
      }
     }
    },
    {
     "filename":"I1CZ48170128.tif",
     "pagination":{
      "pgfolios":{
       "section":"5",
       "value":"5b"
      }
     }
    },
    {
     "filename":"I1CZ48170129.tif",
     "pagination":{
      "pgfolios":{
       "section":"5",
       "value":"6a"
      }
     }
    },
    {
     "filename":"I1CZ48170130.tif",
     "pagination":{
      "pgfolios":{
       "section":"5",
       "value":"6b"
      }
     }
    },
    {
     "filename":"I1CZ48170131.tif",
     "pagination":{
      "pgfolios":{
       "section":"5",
       "value":"7a"
      }
     }
    },
    {
     "filename":"I1CZ48170132.tif",
     "pagination":{
      "pgfolios":{
       "section":"5",
       "value":"7b"
      }
     }
    },
    {
     "filename":"I1CZ48170133.tif",
     "pagination":{
      "pgfolios":{
       "section":"5",
       "value":"8a"
      }
     }
    },
    {
     "filename":"I1CZ48170134.tif",
     "pagination":{
      "pgfolios":{
       "section":"5",
       "value":"8b"
      }
     }
    },
    {
     "filename":"I1CZ48170135.tif",
     "pagination":{
      "pgfolios":{
       "section":"5",
       "value":"9a"
      }
     }
    },
    {
     "filename":"I1CZ48170136.tif",
     "pagination":{
      "pgfolios":{
       "section":"5",
       "value":"9b"
      }
     }
    },
    {
     "filename":"I1CZ48170137.tif",
     "pagination":{
      "pgfolios":{
       "section":"5",
       "value":"10a"
      }
     }
    },
    {
     "filename":"I1CZ48170138.tif",
     "pagination":{
      "pgfolios":{
       "section":"5",
       "value":"10b"
      }
     }
    },
    {
     "filename":"I1CZ48170139.tif",
     "pagination":{
      "pgfolios":{
       "section":"5",
       "value":"11a"
      }
     }
    },
    {
     "filename":"I1CZ48170140.tif",
     "pagination":{
      "pgfolios":{
       "section":"5",
       "value":"11b"
      }
     }
    },
    {
     "filename":"I1CZ48170141.tif",
     "pagination":{
      "pgfolios":{
       "section":"5",
       "value":"12a"
      }
     }
    },
    {
     "filename":"I1CZ48170142.tif",
     "pagination":{
      "pgfolios":{
       "section":"5",
       "value":"12b"
      }
     }
    },
    {
     "filename":"I1CZ48170143.tif",
     "pagination":{
      "pgfolios":{
       "section":"5",
       "value":"13a"
      }
     }
    },
    {
     "filename":"I1CZ48170144.tif",
     "pagination":{
      "pgfolios":{
       "section":"5",
       "value":"13b"
      }
     }
    },
    {
     "filename":"I1CZ48170145.tif",
     "pagination":{
      "pgfolios":{
       "section":"5",
       "value":"14a"
      }
     }
    },
    {
     "filename":"I1CZ48170146.tif",
     "pagination":{
      "pgfolios":{
       "section":"5",
       "value":"14b"
      }
     }
    },
    {
     "filename":"I1CZ48170147.tif",
     "pagination":{
      "pgfolios":{
       "section":"5",
       "value":"15a"
      }
     }
    },
    {
     "filename":"I1CZ48170148.tif",
     "pagination":{
      "pgfolios":{
       "section":"5",
       "value":"15b"
      }
     }
    },
    {
     "filename":"I1CZ48170149.tif",
     "pagination":{
      "pgfolios":{
       "section":"5",
       "value":"16a"
      }
     }
    },
    {
     "filename":"I1CZ48170150.tif",
     "pagination":{
      "pgfolios":{
       "section":"5",
       "value":"16b"
      }
     }
    },
    {
     "filename":"I1CZ48170151.tif",
     "pagination":{
      "pgfolios":{
       "section":"5",
       "value":"17a"
      }
     }
    },
    {
     "filename":"I1CZ48170152.tif",
     "pagination":{
      "pgfolios":{
       "section":"5",
       "value":"17b"
      }
     }
    },
    {
     "filename":"I1CZ48170153.tif",
     "pagination":{
      "pgfolios":{
       "section":"5",
       "value":"18a"
      }
     }
    },
    {
     "filename":"I1CZ48170154.tif",
     "pagination":{
      "pgfolios":{
       "section":"5",
       "value":"18b"
      }
     }
    },
    {
     "filename":"I1CZ48170155.tif",
     "pagination":{
      "pgfolios":{
       "section":"5",
       "value":"19a"
      }
     }
    },
    {
     "filename":"I1CZ48170156.tif",
     "pagination":{
      "pgfolios":{
       "section":"5",
       "value":"19b"
      }
     }
    },
    {
     "filename":"I1CZ48170157.tif",
     "pagination":{
      "pgfolios":{
       "section":"5",
       "value":"20a"
      }
     }
    },
    {
     "filename":"I1CZ48170158.tif",
     "pagination":{
      "pgfolios":{
       "section":"5",
       "value":"20b"
      }
     }
    },
    {
     "filename":"I1CZ48170159.tif",
     "pagination":{
      "pgfolios":{
       "section":"5",
       "value":"21a"
      }
     }
    },
    {
     "filename":"I1CZ48170160.tif",
     "pagination":{
      "pgfolios":{
       "section":"5",
       "value":"21b"
      }
     }
    },
    {
     "filename":"I1CZ48170161.tif",
     "pagination":{
      "pgfolios":{
       "section":"5",
       "value":"22a"
      }
     }
    },
    {
     "filename":"I1CZ48170162.tif",
     "pagination":{
      "pgfolios":{
       "section":"5",
       "value":"22b"
      }
     }
    },
    {
     "filename":"I1CZ48170163.tif",
     "pagination":{
      "pgfolios":{
       "section":"5",
       "value":"23a"
      }
     }
    },
    {
     "filename":"I1CZ48170164.tif",
     "pagination":{
      "pgfolios":{
       "section":"5",
       "value":"23b"
      }
     }
    },
    {
     "filename":"I1CZ48170165.tif",
     "pagination":{
      "pgfolios":{
       "section":"5",
       "value":"24a"
      }
     }
    },
    {
     "filename":"I1CZ48170166.tif",
     "pagination":{
      "pgfolios":{
       "section":"5",
       "value":"24b"
      }
     }
    },
    {
     "filename":"I1CZ48170167.tif",
     "pagination":{
      "pgfolios":{
       "section":"5",
       "value":"25a"
      }
     }
    },
    {
     "filename":"I1CZ48170168.tif",
     "pagination":{
      "pgfolios":{
       "section":"5",
       "value":"25b"
      }
     }
    },
    {
     "filename":"I1CZ48170169.tif",
     "pagination":{
      "pgfolios":{
       "section":"5",
       "value":"26a"
      }
     }
    },
    {
     "filename":"I1CZ48170170.tif",
     "pagination":{
      "pgfolios":{
       "section":"5",
       "value":"26b"
      }
     }
    },
    {
     "filename":"I1CZ48170171.tif",
     "pagination":{
      "pgfolios":{
       "section":"5",
       "value":"27a"
      }
     }
    },
    {
     "filename":"I1CZ48170172.tif",
     "pagination":{
      "pgfolios":{
       "section":"5",
       "value":"27b"
      }
     }
    },
    {
     "filename":"I1CZ48170173.tif",
     "pagination":{
      "pgfolios":{
       "section":"5",
       "value":"28a"
      }
     }
    },
    {
     "filename":"I1CZ48170174.tif",
     "pagination":{
      "pgfolios":{
       "section":"5",
       "value":"28b"
      }
     }
    },
    {
     "filename":"I1CZ48170175.tif",
     "pagination":{
      "pgfolios":{
       "section":"5",
       "value":"29a"
      }
     }
    },
    {
     "filename":"I1CZ48170176.tif",
     "pagination":{
      "pgfolios":{
       "section":"5",
       "value":"29b"
      }
     }
    },
    {
     "filename":"I1CZ48170177.tif",
     "pagination":{
      "pgfolios":{
       "section":"5",
       "value":"30a"
      }
     }
    },
    {
     "filename":"I1CZ48170178.tif",
     "pagination":{
      "pgfolios":{
       "section":"5",
       "value":"30b"
      }
     }
    },
    {
     "filename":"I1CZ48170179.tif",
     "pagination":{
      "pgfolios":{
       "section":"5",
       "value":"31a"
      }
     }
    },
    {
     "filename":"I1CZ48170180.tif",
     "pagination":{
      "pgfolios":{
       "section":"5",
       "value":"31b"
      }
     }
    },
    {
     "filename":"I1CZ48170181.tif",
     "pagination":{
      "pgfolios":{
       "section":"5",
       "value":"32a"
      }
     }
    },
    {
     "filename":"I1CZ48170182.tif",
     "pagination":{
      "pgfolios":{
       "section":"5",
       "value":"32b"
      }
     }
    },
    {
     "filename":"I1CZ48170183.tif",
     "pagination":{
      "pgfolios":{
       "section":"5",
       "value":"33a"
      }
     }
    },
    {
     "filename":"I1CZ48170184.tif",
     "pagination":{
      "pgfolios":{
       "section":"5",
       "value":"33b"
      }
     }
    },
    {
     "filename":"I1CZ48170185.tif",
     "pagination":{
      "pgfolios":{
       "section":"6",
       "value":"1a"
      }
     }
    },
    {
     "filename":"I1CZ48170186.tif",
     "pagination":{
      "pgfolios":{
       "section":"6",
       "value":"1b"
      }
     }
    },
    {
     "filename":"I1CZ48170187.tif",
     "pagination":{
      "pgfolios":{
       "section":"6",
       "value":"2a"
      }
     }
    },
    {
     "filename":"I1CZ48170188.tif",
     "pagination":{
      "pgfolios":{
       "section":"6",
       "value":"2b"
      }
     }
    },
    {
     "filename":"I1CZ48170189.tif",
     "pagination":{
      "pgfolios":{
       "section":"6",
       "value":"3a"
      }
     }
    },
    {
     "filename":"I1CZ48170190.tif",
     "pagination":{
      "pgfolios":{
       "section":"6",
       "value":"3b"
      }
     }
    },
    {
     "filename":"I1CZ48170191.tif",
     "pagination":{
      "pgfolios":{
       "section":"6",
       "value":"4a"
      }
     }
    },
    {
     "filename":"I1CZ48170192.tif",
     "pagination":{
      "pgfolios":{
       "section":"6",
       "value":"4b"
      }
     }
    },
    {
     "filename":"I1CZ48170193.tif",
     "pagination":{
      "pgfolios":{
       "section":"6",
       "value":"5a"
      }
     }
    },
    {
     "filename":"I1CZ48170194.tif",
     "pagination":{
      "pgfolios":{
       "section":"6",
       "value":"5b"
      }
     }
    },
    {
     "filename":"I1CZ48170195.tif",
     "pagination":{
      "pgfolios":{
       "section":"6",
       "value":"6a"
      }
     }
    },
    {
     "filename":"I1CZ48170196.tif",
     "pagination":{
      "pgfolios":{
       "section":"6",
       "value":"6b"
      }
     }
    },
    {
     "filename":"I1CZ48170197.tif",
     "pagination":{
      "pgfolios":{
       "section":"6",
       "value":"7a"
      }
     }
    },
    {
     "filename":"I1CZ48170198.tif",
     "pagination":{
      "pgfolios":{
       "section":"6",
       "value":"7b"
      }
     }
    },
    {
     "filename":"I1CZ48170199.tif",
     "pagination":{
      "pgfolios":{
       "section":"6",
       "value":"8a"
      }
     }
    },
    {
     "filename":"I1CZ48170200.tif",
     "pagination":{
      "pgfolios":{
       "section":"6",
       "value":"8b"
      }
     }
    },
    {
     "filename":"I1CZ48170201.tif",
     "pagination":{
      "pgfolios":{
       "section":"6",
       "value":"9a"
      }
     }
    },
    {
     "filename":"I1CZ48170202.tif",
     "pagination":{
      "pgfolios":{
       "section":"6",
       "value":"9b"
      }
     }
    },
    {
     "filename":"I1CZ48170203.tif",
     "pagination":{
      "pgfolios":{
       "section":"6",
       "value":"10a"
      }
     }
    },
    {
     "filename":"I1CZ48170204.tif",
     "pagination":{
      "pgfolios":{
       "section":"6",
       "value":"10b"
      }
     }
    },
    {
     "filename":"I1CZ48170205.tif",
     "pagination":{
      "pgfolios":{
       "section":"6",
       "value":"11a"
      }
     }
    },
    {
     "filename":"I1CZ48170206.tif",
     "pagination":{
      "pgfolios":{
       "section":"6",
       "value":"11b"
      }
     }
    },
    {
     "filename":"I1CZ48170207.tif",
     "pagination":{
      "pgfolios":{
       "section":"6",
       "value":"12a"
      }
     }
    },
    {
     "filename":"I1CZ48170208.tif",
     "pagination":{
      "pgfolios":{
       "section":"6",
       "value":"12b"
      }
     }
    },
    {
     "filename":"I1CZ48170209.tif",
     "pagination":{
      "pgfolios":{
       "section":"6",
       "value":"13a"
      }
     }
    },
    {
     "filename":"I1CZ48170210.tif",
     "pagination":{
      "pgfolios":{
       "section":"6",
       "value":"13b"
      }
     }
    },
    {
     "filename":"I1CZ48170211.tif",
     "pagination":{
      "pgfolios":{
       "section":"6",
       "value":"14a"
      }
     }
    },
    {
     "filename":"I1CZ48170212.tif",
     "pagination":{
      "pgfolios":{
       "section":"6",
       "value":"14b"
      }
     }
    },
    {
     "filename":"I1CZ48170213.tif",
     "pagination":{
      "pgfolios":{
       "section":"6",
       "value":"15a"
      }
     }
    },
    {
     "filename":"I1CZ48170214.tif",
     "pagination":{
      "pgfolios":{
       "section":"6",
       "value":"15b"
      }
     }
    },
    {
     "filename":"I1CZ48170215.tif",
     "pagination":{
      "pgfolios":{
       "section":"6",
       "value":"16a"
      }
     }
    },
    {
     "filename":"I1CZ48170216.tif",
     "pagination":{
      "pgfolios":{
       "section":"6",
       "value":"16b"
      }
     }
    },
    {
     "filename":"I1CZ48170217.tif",
     "pagination":{
      "pgfolios":{
       "section":"6",
       "value":"17a"
      }
     }
    },
    {
     "filename":"I1CZ48170218.tif",
     "pagination":{
      "pgfolios":{
       "section":"6",
       "value":"17b"
      }
     }
    },
    {
     "filename":"I1CZ48170219.tif",
     "pagination":{
      "pgfolios":{
       "section":"6",
       "value":"18a"
      }
     }
    },
    {
     "filename":"I1CZ48170220.tif",
     "pagination":{
      "pgfolios":{
       "section":"6",
       "value":"18b"
      }
     }
    },
    {
     "filename":"I1CZ48170221.tif",
     "pagination":{
      "pgfolios":{
       "section":"6",
       "value":"19a"
      }
     }
    },
    {
     "filename":"I1CZ48170222.tif",
     "pagination":{
      "pgfolios":{
       "section":"6",
       "value":"19b"
      }
     }
    },
    {
     "filename":"I1CZ48170223.tif",
     "pagination":{
      "pgfolios":{
       "section":"6",
       "value":"20a"
      }
     }
    },
    {
     "filename":"I1CZ48170224.tif",
     "pagination":{
      "pgfolios":{
       "section":"6",
       "value":"20b"
      }
     }
    },
    {
     "filename":"I1CZ48170225.tif",
     "pagination":{
      "pgfolios":{
       "section":"6",
       "value":"21a"
      }
     }
    },
    {
     "filename":"I1CZ48170226.tif",
     "pagination":{
      "pgfolios":{
       "section":"6",
       "value":"21b"
      }
     }
    },
    {
     "filename":"I1CZ48170227.tif",
     "pagination":{
      "pgfolios":{
       "section":"6",
       "value":"22a"
      }
     }
    },
    {
     "filename":"I1CZ48170228.tif",
     "pagination":{
      "pgfolios":{
       "section":"6",
       "value":"22b"
      }
     }
    },
    {
     "filename":"I1CZ48170229.tif",
     "pagination":{
      "pgfolios":{
       "section":"6",
       "value":"23a"
      }
     }
    },
    {
     "filename":"I1CZ48170230.tif",
     "pagination":{
      "pgfolios":{
       "section":"6",
       "value":"23b"
      }
     }
    },
    {
     "filename":"I1CZ48170231.tif",
     "pagination":{
      "pgfolios":{
       "section":"6",
       "value":"24a"
      }
     }
    },
    {
     "filename":"I1CZ48170232.tif",
     "pagination":{
      "pgfolios":{
       "section":"6",
       "value":"24b"
      }
     }
    },
    {
     "filename":"I1CZ48170233.tif",
     "pagination":{
      "pgfolios":{
       "section":"6",
       "value":"25a"
      }
     }
    },
    {
     "filename":"I1CZ48170234.tif",
     "pagination":{
      "pgfolios":{
       "section":"6",
       "value":"25b"
      }
     }
    },
    {
     "filename":"I1CZ48170235.tif",
     "pagination":{
      "pgfolios":{
       "section":"6",
       "value":"26a"
      }
     }
    },
    {
     "filename":"I1CZ48170236.tif",
     "pagination":{
      "pgfolios":{
       "section":"6",
       "value":"26b"
      }
     }
    },
    {
     "filename":"I1CZ48170237.tif",
     "pagination":{
      "pgfolios":{
       "section":"6",
       "value":"27a"
      }
     }
    },
    {
     "filename":"I1CZ48170238.tif",
     "pagination":{
      "pgfolios":{
       "section":"6",
       "value":"27b"
      }
     }
    },
    {
     "filename":"I1CZ48170239.tif",
     "pagination":{
      "pgfolios":{
       "section":"6",
       "value":"28a"
      }
     }
    },
    {
     "filename":"I1CZ48170240.tif",
     "pagination":{
      "pgfolios":{
       "section":"6",
       "value":"28b"
      }
     }
    },
    {
     "filename":"I1CZ48170241.tif",
     "pagination":{
      "pgfolios":{
       "section":"6",
       "value":"29a"
      }
     }
    },
    {
     "filename":"I1CZ48170242.tif",
     "pagination":{
      "pgfolios":{
       "section":"6",
       "value":"29b"
      }
     }
    },
    {
     "filename":"I1CZ48170243.tif",
     "pagination":{
      "pgfolios":{
       "section":"6",
       "value":"30a"
      }
     }
    },
    {
     "filename":"I1CZ48170244.tif",
     "pagination":{
      "pgfolios":{
       "section":"6",
       "value":"30b"
      }
     }
    },
    {
     "filename":"I1CZ48170245.tif",
     "pagination":{
      "pgfolios":{
       "section":"6",
       "value":"31a"
      }
     }
    },
    {
     "filename":"I1CZ48170246.tif",
     "pagination":{
      "pgfolios":{
       "section":"6",
       "value":"31b"
      }
     }
    },
    {
     "filename":"I1CZ48170247.tif",
     "pagination":{
      "pgfolios":{
       "section":"6",
       "value":"32a"
      }
     }
    },
    {
     "filename":"I1CZ48170248.tif",
     "pagination":{
      "pgfolios":{
       "section":"6",
       "value":"32b"
      }
     }
    },
    {
     "filename":"I1CZ48170249.tif",
     "pagination":{
      "pgfolios":{
       "section":"6",
       "value":"33a"
      }
     }
    },
    {
     "filename":"I1CZ48170250.tif",
     "pagination":{
      "pgfolios":{
       "section":"6",
       "value":"33b"
      }
     }
    },
    {
     "filename":"I1CZ48170251.tif",
     "pagination":{
      "pgfolios":{
       "section":"6",
       "value":"34a"
      }
     }
    },
    {
     "filename":"I1CZ48170252.tif",
     "pagination":{
      "pgfolios":{
       "section":"6",
       "value":"34b"
      }
     }
    },
    {
     "filename":"I1CZ48170253.tif",
     "pagination":{
      "pgfolios":{
       "section":"6",
       "value":"35a"
      }
     }
    },
    {
     "filename":"I1CZ48170254.tif",
     "pagination":{
      "pgfolios":{
       "section":"6",
       "value":"35b"
      }
     }
    },
    {
     "filename":"I1CZ48170255.tif",
     "pagination":{
      "pgfolios":{
       "section":"6",
       "value":"36a"
      }
     }
    },
    {
     "filename":"I1CZ48170256.tif",
     "pagination":{
      "pgfolios":{
       "section":"6",
       "value":"36b"
      }
     }
    },
    {
     "filename":"I1CZ48170257.tif",
     "pagination":{
      "pgfolios":{
       "section":"6",
       "value":"37a"
      }
     }
    },
    {
     "filename":"I1CZ48170258.tif",
     "pagination":{
      "pgfolios":{
       "section":"6",
       "value":"37b"
      }
     }
    },
    {
     "filename":"I1CZ48170259.tif",
     "pagination":{
      "pgfolios":{
       "section":"6",
       "value":"38a"
      }
     }
    },
    {
     "filename":"I1CZ48170260.tif",
     "pagination":{
      "pgfolios":{
       "section":"6",
       "value":"38b"
      }
     }
    },
    {
     "filename":"I1CZ48170261.tif",
     "pagination":{
      "pgfolios":{
       "section":"6",
       "value":"39a"
      }
     }
    },
    {
     "filename":"I1CZ48170262.tif",
     "pagination":{
      "pgfolios":{
       "section":"6",
       "value":"39b"
      }
     }
    },
    {
     "filename":"I1CZ48170263.tif",
     "pagination":{
      "pgfolios":{
       "section":"6",
       "value":"40a"
      }
     }
    },
    {
     "filename":"I1CZ48170264.tif",
     "pagination":{
      "pgfolios":{
       "section":"6",
       "value":"40b"
      }
     }
    },
    {
     "filename":"I1CZ48170265.tif",
     "pagination":{
      "pgfolios":{
       "section":"6",
       "value":"41a"
      }
     }
    },
    {
     "filename":"I1CZ48170266.tif",
     "pagination":{
      "pgfolios":{
       "section":"6",
       "value":"41b"
      }
     }
    },
    {
     "filename":"I1CZ48170267.tif",
     "pagination":{
      "pgfolios":{
       "section":"6",
       "value":"42a"
      }
     }
    },
    {
     "filename":"I1CZ48170268.tif",
     "pagination":{
      "pgfolios":{
       "section":"6",
       "value":"42b"
      }
     }
    },
    {
     "filename":"I1CZ48170269.tif",
     "pagination":{
      "pgfolios":{
       "section":"6",
       "value":"43a"
      }
     }
    },
    {
     "filename":"I1CZ48170270.tif",
     "pagination":{
      "pgfolios":{
       "section":"6",
       "value":"43b"
      }
     }
    },
    {
     "filename":"I1CZ48170271.tif",
     "pagination":{
      "pgfolios":{
       "section":"6",
       "value":"44a"
      }
     }
    },
    {
     "filename":"I1CZ48170272.tif",
     "pagination":{
      "pgfolios":{
       "section":"6",
       "value":"44b"
      }
     }
    },
    {
     "filename":"I1CZ48170273.tif",
     "pagination":{
      "pgfolios":{
       "section":"6",
       "value":"45a"
      }
     }
    },
    {
     "filename":"I1CZ48170274.tif",
     "pagination":{
      "pgfolios":{
       "section":"6",
       "value":"45b"
      }
     }
    },
    {
     "filename":"I1CZ48170275.tif",
     "pagination":{
      "pgfolios":{
       "section":"6",
       "value":"46a"
      }
     }
    },
    {
     "filename":"I1CZ48170276.tif",
     "pagination":{
      "pgfolios":{
       "section":"6",
       "value":"46b"
      }
     }
    },
    {
     "filename":"I1CZ48170277.tif",
     "pagination":{
      "pgfolios":{
       "section":"6",
       "value":"47a"
      }
     }
    },
    {
     "filename":"I1CZ48170278.tif",
     "pagination":{
      "pgfolios":{
       "section":"6",
       "value":"47b"
      }
     }
    },
    {
     "filename":"I1CZ48170279.tif",
     "pagination":{
      "pgfolios":{
       "section":"6",
       "value":"48a"
      }
     }
    },
    {
     "filename":"I1CZ48170280.tif",
     "pagination":{
      "pgfolios":{
       "section":"6",
       "value":"48b"
      }
     }
    },
    {
     "filename":"I1CZ48170281.tif",
     "pagination":{
      "pgfolios":{
       "section":"6",
       "value":"49a"
      }
     }
    },
    {
     "filename":"I1CZ48170282.tif",
     "pagination":{
      "pgfolios":{
       "section":"6",
       "value":"49b"
      }
     }
    },
    {
     "filename":"I1CZ48170283.tif",
     "pagination":{
      "pgfolios":{
       "section":"6",
       "value":"50a"
      }
     }
    },
    {
     "filename":"I1CZ48170284.tif",
     "pagination":{
      "pgfolios":{
       "section":"6",
       "value":"50b"
      }
     }
    },
    {
     "filename":"I1CZ48170285.tif",
     "pagination":{
      "pgfolios":{
       "section":"6",
       "value":"51a"
      }
     }
    },
    {
     "filename":"I1CZ48170286.tif",
     "pagination":{
      "pgfolios":{
       "section":"6",
       "value":"51b"
      }
     }
    },
    {
     "filename":"I1CZ48170287.tif",
     "pagination":{
      "pgfolios":{
       "section":"6",
       "value":"52a"
      }
     }
    },
    {
     "filename":"I1CZ48170288.tif",
     "pagination":{
      "pgfolios":{
       "section":"6",
       "value":"52b"
      }
     }
    },
    {
     "filename":"I1CZ48170289.tif",
     "pagination":{
      "pgfolios":{
       "section":"6",
       "value":"53a"
      }
     }
    },
    {
     "filename":"I1CZ48170290.tif",
     "pagination":{
      "pgfolios":{
       "section":"6",
       "value":"53b"
      }
     }
    },
    {
     "filename":"I1CZ48170291.tif",
     "pagination":{
      "pgfolios":{
       "section":"6",
       "value":"54a"
      }
     }
    },
    {
     "filename":"I1CZ48170292.tif",
     "pagination":{
      "pgfolios":{
       "section":"6",
       "value":"54b"
      }
     }
    },
    {
     "filename":"I1CZ48170293.tif",
     "pagination":{
      "pgfolios":{
       "section":"6",
       "value":"55a"
      }
     }
    },
    {
     "filename":"I1CZ48170294.tif",
     "pagination":{
      "pgfolios":{
       "section":"6",
       "value":"55b"
      }
     }
    },
    {
     "filename":"I1CZ48170295.tif",
     "pagination":{
      "pgfolios":{
       "section":"6",
       "value":"56a"
      }
     }
    },
    {
     "filename":"I1CZ48170296.tif",
     "pagination":{
      "pgfolios":{
       "section":"6",
       "value":"56b"
      }
     }
    },
    {
     "filename":"I1CZ48170297.tif",
     "pagination":{
      "pgfolios":{
       "section":"6",
       "value":"57a"
      }
     }
    },
    {
     "filename":"I1CZ48170298.tif",
     "pagination":{
      "pgfolios":{
       "section":"6",
       "value":"57b"
      }
     }
    },
    {
     "filename":"I1CZ48170299.tif",
     "pagination":{
      "pgfolios":{
       "section":"6",
       "value":"58a"
      }
     }
    },
    {
     "filename":"I1CZ48170300.tif",
     "pagination":{
      "pgfolios":{
       "section":"6",
       "value":"58b"
      }
     }
    },
    {
     "filename":"I1CZ48170301.tif",
     "pagination":{
      "pgfolios":{
       "section":"6",
       "value":"59a"
      }
     }
    },
    {
     "filename":"I1CZ48170302.tif",
     "pagination":{
      "pgfolios":{
       "section":"6",
       "value":"59b"
      }
     }
    },
    {
     "filename":"I1CZ48170303.tif",
     "pagination":{
      "pgfolios":{
       "section":"6",
       "value":"60a"
      }
     }
    },
    {
     "filename":"I1CZ48170304.tif",
     "pagination":{
      "pgfolios":{
       "section":"6",
       "value":"60b"
      }
     }
    },
    {
     "filename":"I1CZ48170305.tif",
     "pagination":{
      "pgfolios":{
       "section":"6",
       "value":"61a"
      }
     }
    },
    {
     "filename":"I1CZ48170306.tif",
     "pagination":{
      "pgfolios":{
       "section":"6",
       "value":"61b"
      }
     }
    },
    {
     "filename":"I1CZ48170307.tif",
     "pagination":{
      "pgfolios":{
       "section":"6",
       "value":"62a"
      }
     }
    },
    {
     "filename":"I1CZ48170308.tif",
     "pagination":{
      "pgfolios":{
       "section":"6",
       "value":"62b"
      }
     }
    },
    {
     "filename":"I1CZ48170309.tif",
     "pagination":{
      "pgfolios":{
       "section":"6",
       "value":"63a"
      }
     }
    },
    {
     "filename":"I1CZ48170310.tif",
     "pagination":{
      "pgfolios":{
       "section":"6",
       "value":"63b"
      }
     }
    },
    {
     "filename":"I1CZ48170311.tif",
     "pagination":{
      "pgfolios":{
       "section":"6",
       "value":"64a"
      }
     }
    },
    {
     "filename":"I1CZ48170312.tif",
     "pagination":{
      "pgfolios":{
       "section":"6",
       "value":"64b"
      }
     }
    },
    {
     "filename":"I1CZ48170313.tif",
     "pagination":{
      "pgfolios":{
       "section":"6",
       "value":"65a"
      }
     }
    },
    {
     "filename":"I1CZ48170314.tif",
     "pagination":{
      "pgfolios":{
       "section":"6",
       "value":"65b"
      }
     }
    },
    {
     "filename":"I1CZ48170315.tif",
     "pagination":{
      "pgfolios":{
       "section":"6",
       "value":"66a"
      }
     }
    },
    {
     "filename":"I1CZ48170316.tif",
     "pagination":{
      "pgfolios":{
       "section":"6",
       "value":"66b"
      }
     }
    },
    {
     "filename":"I1CZ48170317.tif",
     "pagination":{
      "pgfolios":{
       "section":"6",
       "value":"67a"
      }
     }
    },
    {
     "filename":"I1CZ48170318.tif",
     "pagination":{
      "pgfolios":{
       "section":"6",
       "value":"67b"
      }
     }
    },
    {
     "filename":"I1CZ48170319.tif",
     "pagination":{
      "pgfolios":{
       "section":"6",
       "value":"68a"
      }
     }
    },
    {
     "filename":"I1CZ48170320.tif",
     "pagination":{
      "pgfolios":{
       "section":"6",
       "value":"68b"
      }
     }
    },
    {
     "filename":"I1CZ48170321.tif",
     "pagination":{
      "pgfolios":{
       "section":"6",
       "value":"69a"
      }
     }
    },
    {
     "filename":"I1CZ48170322.tif",
     "pagination":{
      "pgfolios":{
       "section":"6",
       "value":"69b"
      }
     }
    },
    {
     "filename":"I1CZ48170323.tif",
     "pagination":{
      "pgfolios":{
       "section":"6",
       "value":"70a"
      }
     }
    },
    {
     "filename":"I1CZ48170324.tif",
     "pagination":{
      "pgfolios":{
       "section":"6",
       "value":"70b"
      }
     }
    },
    {
     "filename":"I1CZ48170325.tif",
     "pagination":{
      "pgfolios":{
       "section":"6",
       "value":"71a"
      }
     }
    },
    {
     "filename":"I1CZ48170326.tif",
     "pagination":{
      "pgfolios":{
       "section":"6",
       "value":"71b"
      }
     }
    },
    {
     "filename":"I1CZ48170327.tif",
     "pagination":{
      "pgfolios":{
       "section":"6",
       "value":"72a"
      }
     }
    },
    {
     "filename":"I1CZ48170328.tif",
     "pagination":{
      "pgfolios":{
       "section":"6",
       "value":"72b"
      }
     }
    },
    {
     "filename":"I1CZ48170329.tif",
     "pagination":{
      "pgfolios":{
       "section":"6",
       "value":"73a"
      }
     }
    },
    {
     "filename":"I1CZ48170330.tif",
     "pagination":{
      "pgfolios":{
       "section":"6",
       "value":"73b"
      }
     }
    },
    {
     "filename":"I1CZ48170331.tif",
     "pagination":{
      "pgfolios":{
       "section":"6",
       "value":"74a"
      }
     }
    },
    {
     "filename":"I1CZ48170332.tif",
     "pagination":{
      "pgfolios":{
       "section":"6",
       "value":"74b"
      }
     }
    },
    {
     "filename":"I1CZ48170333.tif",
     "pagination":{
      "pgfolios":{
       "section":"6",
       "value":"75a"
      }
     }
    },
    {
     "filename":"I1CZ48170334.tif",
     "pagination":{
      "pgfolios":{
       "section":"6",
       "value":"75b"
      }
     }
    },
    {
     "filename":"I1CZ48170335.tif",
     "pagination":{
      "pgfolios":{
       "section":"6",
       "value":"76a"
      }
     }
    },
    {
     "filename":"I1CZ48170336.tif",
     "pagination":{
      "pgfolios":{
       "section":"6",
       "value":"76b"
      }
     }
    },
    {
     "filename":"I1CZ48170337.tif",
     "pagination":{
      "pgfolios":{
       "section":"6",
       "value":"77a"
      }
     }
    },
    {
     "filename":"I1CZ48170338.tif",
     "pagination":{
      "pgfolios":{
       "section":"6",
       "value":"77b"
      }
     }
    },
    {
     "filename":"I1CZ48170339.tif",
     "pagination":{
      "pgfolios":{
       "section":"6",
       "value":"78a"
      }
     }
    },
    {
     "filename":"I1CZ48170340.tif",
     "pagination":{
      "pgfolios":{
       "section":"6",
       "value":"78b"
      }
     }
    },
    {
     "filename":"I1CZ48170341.tif",
     "pagination":{
      "pgfolios":{
       "section":"7",
       "value":"1a"
      }
     }
    },
    {
     "filename":"I1CZ48170342.tif",
     "pagination":{
      "pgfolios":{
       "section":"7",
       "value":"1b"
      }
     }
    },
    {
     "filename":"I1CZ48170343.tif",
     "pagination":{
      "pgfolios":{
       "section":"7",
       "value":"2a"
      }
     }
    },
    {
     "filename":"I1CZ48170344.tif",
     "pagination":{
      "pgfolios":{
       "section":"7",
       "value":"2b"
      }
     }
    },
    {
     "filename":"I1CZ48170345.tif",
     "pagination":{
      "pgfolios":{
       "section":"7",
       "value":"3a"
      }
     }
    },
    {
     "filename":"I1CZ48170346.tif",
     "pagination":{
      "pgfolios":{
       "section":"7",
       "value":"3b"
      }
     }
    },
    {
     "filename":"I1CZ48170347.tif",
     "pagination":{
      "pgfolios":{
       "section":"7",
       "value":"4a"
      }
     }
    },
    {
     "filename":"I1CZ48170348.tif",
     "pagination":{
      "pgfolios":{
       "section":"7",
       "value":"4b"
      }
     }
    },
    {
     "filename":"I1CZ48170349.tif",
     "pagination":{
      "pgfolios":{
       "section":"7",
       "value":"5a"
      }
     }
    },
    {
     "filename":"I1CZ48170350.tif",
     "pagination":{
      "pgfolios":{
       "section":"7",
       "value":"5b"
      }
     }
    },
    {
     "filename":"I1CZ48170351.tif",
     "pagination":{
      "pgfolios":{
       "section":"7",
       "value":"6a"
      }
     }
    },
    {
     "filename":"I1CZ48170352.tif",
     "pagination":{
      "pgfolios":{
       "section":"7",
       "value":"6b"
      }
     }
    },
    {
     "filename":"I1CZ48170353.tif",
     "pagination":{
      "pgfolios":{
       "section":"7",
       "value":"7a"
      }
     }
    },
    {
     "filename":"I1CZ48170354.tif",
     "pagination":{
      "pgfolios":{
       "section":"7",
       "value":"7b"
      }
     }
    },
    {
     "filename":"I1CZ48170355.tif",
     "pagination":{
      "pgfolios":{
       "section":"7",
       "value":"8a"
      }
     }
    },
    {
     "filename":"I1CZ48170356.tif",
     "pagination":{
      "pgfolios":{
       "section":"7",
       "value":"8b"
      }
     }
    },
    {
     "filename":"I1CZ48170357.tif",
     "pagination":{
      "pgfolios":{
       "section":"7",
       "value":"9a"
      }
     }
    },
    {
     "filename":"I1CZ48170358.tif",
     "pagination":{
      "pgfolios":{
       "section":"7",
       "value":"9b"
      }
     }
    },
    {
     "filename":"I1CZ48170359.tif",
     "pagination":{
      "pgfolios":{
       "section":"7",
       "value":"10a"
      }
     }
    },
    {
     "filename":"I1CZ48170360.tif",
     "pagination":{
      "pgfolios":{
       "section":"7",
       "value":"10b"
      }
     }
    },
    {
     "filename":"I1CZ48170361.tif",
     "pagination":{
      "pgfolios":{
       "section":"8",
       "value":"1a"
      }
     }
    },
    {
     "filename":"I1CZ48170362.tif",
     "pagination":{
      "pgfolios":{
       "section":"8",
       "value":"1b"
      }
     }
    },
    {
     "filename":"I1CZ48170363.tif",
     "pagination":{
      "pgfolios":{
       "section":"8",
       "value":"2a"
      }
     }
    },
    {
     "filename":"I1CZ48170364.tif",
     "pagination":{
      "pgfolios":{
       "section":"8",
       "value":"2b"
      }
     }
    },
    {
     "filename":"I1CZ48170365.tif",
     "pagination":{
      "pgfolios":{
       "section":"8",
       "value":"3a"
      }
     }
    },
    {
     "filename":"I1CZ48170366.tif",
     "pagination":{
      "pgfolios":{
       "section":"8",
       "value":"3b"
      }
     }
    },
    {
     "filename":"I1CZ48170367.tif",
     "pagination":{
      "pgfolios":{
       "section":"8",
       "value":"4a"
      }
     }
    },
    {
     "filename":"I1CZ48170368.tif",
     "pagination":{
      "pgfolios":{
       "section":"8",
       "value":"4b"
      }
     }
    },
    {
     "filename":"I1CZ48170369.tif",
     "pagination":{
      "pgfolios":{
       "section":"8",
       "value":"5a"
      }
     }
    },
    {
     "filename":"I1CZ48170370.tif",
     "pagination":{
      "pgfolios":{
       "section":"8",
       "value":"5b"
      }
     }
    },
    {
     "filename":"I1CZ48170371.tif",
     "pagination":{
      "pgfolios":{
       "section":"8",
       "value":"6a"
      }
     }
    },
    {
     "filename":"I1CZ48170372.tif",
     "pagination":{
      "pgfolios":{
       "section":"8",
       "value":"6b"
      }
     }
    },
    {
     "filename":"I1CZ48170373.tif",
     "pagination":{
      "pgfolios":{
       "section":"8",
       "value":"7a"
      }
     }
    },
    {
     "filename":"I1CZ48170374.tif",
     "pagination":{
      "pgfolios":{
       "section":"8",
       "value":"7b"
      }
     }
    },
    {
     "filename":"I1CZ48170375.tif",
     "pagination":{
      "pgfolios":{
       "section":"8",
       "value":"8a"
      }
     }
    },
    {
     "filename":"I1CZ48170376.tif",
     "pagination":{
      "pgfolios":{
       "section":"8",
       "value":"8b"
      }
     }
    },
    {
     "filename":"I1CZ48170377.tif",
     "pagination":{
      "pgfolios":{
       "section":"8",
       "value":"9a"
      }
     }
    },
    {
     "filename":"I1CZ48170378.tif",
     "pagination":{
      "pgfolios":{
       "section":"8",
       "value":"9b"
      }
     }
    }
   ]
  }
 },
 "viewing-direction":"top-to-bottom"
}