{
 "appData":{
  "bvmt":{
   "default-vol-string-lang":"bo",
   "metadata-for-bvmt-ver":"0.1.0"
  }
 },
 "attribution":[
  {
   "@language":"en",
   "@value":"Data provided by rKTs under the CC0 license"
  }
 ],
 "changes":[
  {
   "message":{
    "@language":"en",
    "@value":"migration from rKTs data"
   },
   "time":"2020-10-03T11:35:30Z",
   "user":"bdu:U1653882847"
  }
 ],
 "default-view":"view1",
 "imggroup":"bdr:I1CZ4892",
 "pagination":[
  {
   "id":"pgfolios",
   "type":"folios"
  }
 ],
 "sections":[
  {
   "id":"1",
   "name":{
    "@language":"bo-x-ewts",
    "@value":"1"
   }
  },
  {
   "id":"2",
   "name":{
    "@language":"bo-x-ewts",
    "@value":"2"
   }
  },
  {
   "id":"3",
   "name":{
    "@language":"bo-x-ewts",
    "@value":"3"
   }
  },
  {
   "id":"4",
   "name":{
    "@language":"bo-x-ewts",
    "@value":"4"
   }
  },
  {
   "id":"5",
   "name":{
    "@language":"bo-x-ewts",
    "@value":"5"
   }
  },
  {
   "id":"6",
   "name":{
    "@language":"bo-x-ewts",
    "@value":"6"
   }
  },
  {
   "id":"7",
   "name":{
    "@language":"bo-x-ewts",
    "@value":"7"
   }
  },
  {
   "id":"8",
   "name":{
    "@language":"bo-x-ewts",
    "@value":"8"
   }
  },
  {
   "id":"9",
   "name":{
    "@language":"bo-x-ewts",
    "@value":"9"
   }
  },
  {
   "id":"10",
   "name":{
    "@language":"bo-x-ewts",
    "@value":"10"
   }
  },
  {
   "id":"11",
   "name":{
    "@language":"bo-x-ewts",
    "@value":"11"
   }
  },
  {
   "id":"12",
   "name":{
    "@language":"bo-x-ewts",
    "@value":"12"
   }
  },
  {
   "id":"13",
   "name":{
    "@language":"bo-x-ewts",
    "@value":"13"
   }
  },
  {
   "id":"14",
   "name":{
    "@language":"bo-x-ewts",
    "@value":"14"
   }
  },
  {
   "id":"15",
   "name":{
    "@language":"bo-x-ewts",
    "@value":"15"
   }
  },
  {
   "id":"16",
   "name":{
    "@language":"bo-x-ewts",
    "@value":"16"
   }
  },
  {
   "id":"17",
   "name":{
    "@language":"bo-x-ewts",
    "@value":"17"
   }
  },
  {
   "id":"18",
   "name":{
    "@language":"bo-x-ewts",
    "@value":"18"
   }
  },
  {
   "id":"19",
   "name":{
    "@language":"bo-x-ewts",
    "@value":"19"
   }
  },
  {
   "id":"20",
   "name":{
    "@language":"bo-x-ewts",
    "@value":"20"
   }
  },
  {
   "id":"21",
   "name":{
    "@language":"bo-x-ewts",
    "@value":"21"
   }
  },
  {
   "id":"22",
   "name":{
    "@language":"bo-x-ewts",
    "@value":"22"
   }
  },
  {
   "id":"23",
   "name":{
    "@language":"bo-x-ewts",
    "@value":"23"
   }
  },
  {
   "id":"24",
   "name":{
    "@language":"bo-x-ewts",
    "@value":"24"
   }
  }
 ],
 "spec-version":"0.1.0",
 "status":"released",
 "view":{
  "view1":{
   "imagelist":[
    {
     "filename":"I1CZ48920001.tif",
     "hidden":true,
     "tags":[
      "T0005"
     ]
    },
    {
     "filename":"I1CZ48920002.tif",
     "hidden":true,
     "tags":[
      "T0005"
     ]
    },
    {
     "filename":"I1CZ48920003.tif",
     "pagination":{
      "pgfolios":{
       "section":"1",
       "value":"1a"
      }
     }
    },
    {
     "filename":"I1CZ48920004.tif",
     "pagination":{
      "pgfolios":{
       "section":"1",
       "value":"1b"
      }
     }
    },
    {
     "filename":"I1CZ48920005.tif",
     "pagination":{
      "pgfolios":{
       "section":"2",
       "value":"1a"
      }
     }
    },
    {
     "filename":"I1CZ48920006.tif",
     "pagination":{
      "pgfolios":{
       "section":"2",
       "value":"1b"
      }
     }
    },
    {
     "filename":"I1CZ48920007.tif",
     "pagination":{
      "pgfolios":{
       "section":"2",
       "value":"2a"
      }
     }
    },
    {
     "filename":"I1CZ48920008.tif",
     "pagination":{
      "pgfolios":{
       "section":"2",
       "value":"2b"
      }
     }
    },
    {
     "filename":"I1CZ48920009.tif",
     "pagination":{
      "pgfolios":{
       "section":"2",
       "value":"3a"
      }
     }
    },
    {
     "filename":"I1CZ48920010.tif",
     "pagination":{
      "pgfolios":{
       "section":"2",
       "value":"3b"
      }
     }
    },
    {
     "filename":"I1CZ48920011.tif",
     "pagination":{
      "pgfolios":{
       "section":"3",
       "value":"1a"
      }
     }
    },
    {
     "filename":"I1CZ48920012.tif",
     "pagination":{
      "pgfolios":{
       "section":"3",
       "value":"1b"
      }
     }
    },
    {
     "filename":"I1CZ48920013.tif",
     "pagination":{
      "pgfolios":{
       "section":"3",
       "value":"2a"
      }
     }
    },
    {
     "filename":"I1CZ48920014.tif",
     "pagination":{
      "pgfolios":{
       "section":"3",
       "value":"2b"
      }
     }
    },
    {
     "filename":"I1CZ48920015.tif",
     "pagination":{
      "pgfolios":{
       "section":"4",
       "value":"1a"
      }
     }
    },
    {
     "filename":"I1CZ48920016.tif",
     "pagination":{
      "pgfolios":{
       "section":"4",
       "value":"1b"
      }
     }
    },
    {
     "filename":"I1CZ48920017.tif",
     "pagination":{
      "pgfolios":{
       "section":"5",
       "value":"1a"
      }
     }
    },
    {
     "filename":"I1CZ48920018.tif",
     "pagination":{
      "pgfolios":{
       "section":"5",
       "value":"1b"
      }
     }
    },
    {
     "filename":"I1CZ48920019.tif",
     "pagination":{
      "pgfolios":{
       "section":"5",
       "value":"2a"
      }
     }
    },
    {
     "filename":"I1CZ48920020.tif",
     "pagination":{
      "pgfolios":{
       "section":"5",
       "value":"2b"
      }
     }
    },
    {
     "filename":"I1CZ48920021.tif",
     "pagination":{
      "pgfolios":{
       "section":"5",
       "value":"3a"
      }
     }
    },
    {
     "filename":"I1CZ48920022.tif",
     "pagination":{
      "pgfolios":{
       "section":"5",
       "value":"3b"
      }
     }
    },
    {
     "filename":"I1CZ48920023.tif",
     "pagination":{
      "pgfolios":{
       "section":"5",
       "value":"4a"
      }
     }
    },
    {
     "filename":"I1CZ48920024.tif",
     "pagination":{
      "pgfolios":{
       "section":"5",
       "value":"4b"
      }
     }
    },
    {
     "filename":"I1CZ48920025.tif",
     "pagination":{
      "pgfolios":{
       "section":"5",
       "value":"5a"
      }
     }
    },
    {
     "filename":"I1CZ48920026.tif",
     "pagination":{
      "pgfolios":{
       "section":"5",
       "value":"5b"
      }
     }
    },
    {
     "filename":"I1CZ48920027.tif",
     "pagination":{
      "pgfolios":{
       "section":"5",
       "value":"6a"
      }
     }
    },
    {
     "filename":"I1CZ48920028.tif",
     "pagination":{
      "pgfolios":{
       "section":"5",
       "value":"6b"
      }
     }
    },
    {
     "filename":"I1CZ48920029.tif",
     "pagination":{
      "pgfolios":{
       "section":"5",
       "value":"7a"
      }
     }
    },
    {
     "filename":"I1CZ48920030.tif",
     "pagination":{
      "pgfolios":{
       "section":"5",
       "value":"7b"
      }
     }
    },
    {
     "filename":"I1CZ48920031.tif",
     "pagination":{
      "pgfolios":{
       "section":"5",
       "value":"8a"
      }
     }
    },
    {
     "filename":"I1CZ48920032.tif",
     "pagination":{
      "pgfolios":{
       "section":"5",
       "value":"8b"
      }
     }
    },
    {
     "filename":"I1CZ48920033.tif",
     "pagination":{
      "pgfolios":{
       "section":"5",
       "value":"9a"
      }
     }
    },
    {
     "filename":"I1CZ48920034.tif",
     "pagination":{
      "pgfolios":{
       "section":"5",
       "value":"9b"
      }
     }
    },
    {
     "filename":"I1CZ48920035.tif",
     "pagination":{
      "pgfolios":{
       "section":"5",
       "value":"10a"
      }
     }
    },
    {
     "filename":"I1CZ48920036.tif",
     "pagination":{
      "pgfolios":{
       "section":"5",
       "value":"10b"
      }
     }
    },
    {
     "filename":"I1CZ48920037.tif",
     "pagination":{
      "pgfolios":{
       "section":"5",
       "value":"11a"
      }
     }
    },
    {
     "filename":"I1CZ48920038.tif",
     "pagination":{
      "pgfolios":{
       "section":"5",
       "value":"11b"
      }
     }
    },
    {
     "filename":"I1CZ48920039.tif",
     "pagination":{
      "pgfolios":{
       "section":"5",
       "value":"12a"
      }
     }
    },
    {
     "filename":"I1CZ48920040.tif",
     "pagination":{
      "pgfolios":{
       "section":"5",
       "value":"12b"
      }
     }
    },
    {
     "filename":"I1CZ48920041.tif",
     "pagination":{
      "pgfolios":{
       "section":"5",
       "value":"13a"
      }
     }
    },
    {
     "filename":"I1CZ48920042.tif",
     "pagination":{
      "pgfolios":{
       "section":"5",
       "value":"13b"
      }
     }
    },
    {
     "filename":"I1CZ48920043.tif",
     "pagination":{
      "pgfolios":{
       "section":"5",
       "value":"14a"
      }
     }
    },
    {
     "filename":"I1CZ48920044.tif",
     "pagination":{
      "pgfolios":{
       "section":"5",
       "value":"14b"
      }
     }
    },
    {
     "filename":"I1CZ48920045.tif",
     "pagination":{
      "pgfolios":{
       "section":"5",
       "value":"15a"
      }
     }
    },
    {
     "filename":"I1CZ48920046.tif",
     "pagination":{
      "pgfolios":{
       "section":"5",
       "value":"15b"
      }
     }
    },
    {
     "filename":"I1CZ48920047.tif",
     "pagination":{
      "pgfolios":{
       "section":"5",
       "value":"16a"
      }
     }
    },
    {
     "filename":"I1CZ48920048.tif",
     "pagination":{
      "pgfolios":{
       "section":"5",
       "value":"16b"
      }
     }
    },
    {
     "filename":"I1CZ48920049.tif",
     "pagination":{
      "pgfolios":{
       "section":"5",
       "value":"17a"
      }
     }
    },
    {
     "filename":"I1CZ48920050.tif",
     "pagination":{
      "pgfolios":{
       "section":"5",
       "value":"17b"
      }
     }
    },
    {
     "filename":"I1CZ48920051.tif",
     "pagination":{
      "pgfolios":{
       "section":"5",
       "value":"18a"
      }
     }
    },
    {
     "filename":"I1CZ48920052.tif",
     "pagination":{
      "pgfolios":{
       "section":"5",
       "value":"18b"
      }
     }
    },
    {
     "filename":"I1CZ48920053.tif",
     "pagination":{
      "pgfolios":{
       "section":"5",
       "value":"19a"
      }
     }
    },
    {
     "filename":"I1CZ48920054.tif",
     "pagination":{
      "pgfolios":{
       "section":"5",
       "value":"19b"
      }
     }
    },
    {
     "filename":"I1CZ48920055.tif",
     "pagination":{
      "pgfolios":{
       "section":"5",
       "value":"20a"
      }
     }
    },
    {
     "filename":"I1CZ48920056.tif",
     "pagination":{
      "pgfolios":{
       "section":"5",
       "value":"20b"
      }
     }
    },
    {
     "filename":"I1CZ48920057.tif",
     "pagination":{
      "pgfolios":{
       "section":"5",
       "value":"21a"
      }
     }
    },
    {
     "filename":"I1CZ48920058.tif",
     "pagination":{
      "pgfolios":{
       "section":"5",
       "value":"21b"
      }
     }
    },
    {
     "filename":"I1CZ48920059.tif",
     "pagination":{
      "pgfolios":{
       "section":"5",
       "value":"22a"
      }
     }
    },
    {
     "filename":"I1CZ48920060.tif",
     "pagination":{
      "pgfolios":{
       "section":"5",
       "value":"22b"
      }
     }
    },
    {
     "filename":"I1CZ48920061.tif",
     "pagination":{
      "pgfolios":{
       "section":"5",
       "value":"23a"
      }
     }
    },
    {
     "filename":"I1CZ48920062.tif",
     "pagination":{
      "pgfolios":{
       "section":"5",
       "value":"23b"
      }
     }
    },
    {
     "filename":"I1CZ48920063.tif",
     "pagination":{
      "pgfolios":{
       "section":"5",
       "value":"24a"
      }
     }
    },
    {
     "filename":"I1CZ48920064.tif",
     "pagination":{
      "pgfolios":{
       "section":"5",
       "value":"24b"
      }
     }
    },
    {
     "filename":"I1CZ48920065.tif",
     "pagination":{
      "pgfolios":{
       "section":"5",
       "value":"25a"
      }
     }
    },
    {
     "filename":"I1CZ48920066.tif",
     "pagination":{
      "pgfolios":{
       "section":"5",
       "value":"25b"
      }
     }
    },
    {
     "filename":"I1CZ48920067.tif",
     "pagination":{
      "pgfolios":{
       "section":"5",
       "value":"26a"
      }
     }
    },
    {
     "filename":"I1CZ48920068.tif",
     "pagination":{
      "pgfolios":{
       "section":"5",
       "value":"26b"
      }
     }
    },
    {
     "filename":"I1CZ48920069.tif",
     "pagination":{
      "pgfolios":{
       "section":"5",
       "value":"27a"
      }
     }
    },
    {
     "filename":"I1CZ48920070.tif",
     "pagination":{
      "pgfolios":{
       "section":"5",
       "value":"27b"
      }
     }
    },
    {
     "filename":"I1CZ48920071.tif",
     "pagination":{
      "pgfolios":{
       "section":"5",
       "value":"28a"
      }
     }
    },
    {
     "filename":"I1CZ48920072.tif",
     "pagination":{
      "pgfolios":{
       "section":"5",
       "value":"28b"
      }
     }
    },
    {
     "filename":"I1CZ48920073.tif",
     "pagination":{
      "pgfolios":{
       "section":"5",
       "value":"29a"
      }
     }
    },
    {
     "filename":"I1CZ48920074.tif",
     "pagination":{
      "pgfolios":{
       "section":"5",
       "value":"29b"
      }
     }
    },
    {
     "filename":"I1CZ48920075.tif",
     "pagination":{
      "pgfolios":{
       "section":"5",
       "value":"30a"
      }
     }
    },
    {
     "filename":"I1CZ48920076.tif",
     "pagination":{
      "pgfolios":{
       "section":"5",
       "value":"30b"
      }
     }
    },
    {
     "filename":"I1CZ48920077.tif",
     "pagination":{
      "pgfolios":{
       "section":"5",
       "value":"31a"
      }
     }
    },
    {
     "filename":"I1CZ48920078.tif",
     "pagination":{
      "pgfolios":{
       "section":"5",
       "value":"31b"
      }
     }
    },
    {
     "filename":"I1CZ48920079.tif",
     "pagination":{
      "pgfolios":{
       "section":"5",
       "value":"32a"
      }
     }
    },
    {
     "filename":"I1CZ48920080.tif",
     "pagination":{
      "pgfolios":{
       "section":"5",
       "value":"32b"
      }
     }
    },
    {
     "filename":"I1CZ48920081.tif",
     "pagination":{
      "pgfolios":{
       "section":"5",
       "value":"33a"
      }
     }
    },
    {
     "filename":"I1CZ48920082.tif",
     "pagination":{
      "pgfolios":{
       "section":"5",
       "value":"33b"
      }
     }
    },
    {
     "filename":"I1CZ48920083.tif",
     "pagination":{
      "pgfolios":{
       "section":"5",
       "value":"34a"
      }
     }
    },
    {
     "filename":"I1CZ48920084.tif",
     "pagination":{
      "pgfolios":{
       "section":"5",
       "value":"34b"
      }
     }
    },
    {
     "filename":"I1CZ48920085.tif",
     "pagination":{
      "pgfolios":{
       "section":"5",
       "value":"35a"
      }
     }
    },
    {
     "filename":"I1CZ48920086.tif",
     "pagination":{
      "pgfolios":{
       "section":"5",
       "value":"35b"
      }
     }
    },
    {
     "filename":"I1CZ48920087.tif",
     "pagination":{
      "pgfolios":{
       "section":"5",
       "value":"36a"
      }
     }
    },
    {
     "filename":"I1CZ48920088.tif",
     "pagination":{
      "pgfolios":{
       "section":"5",
       "value":"36b"
      }
     }
    },
    {
     "filename":"I1CZ48920089.tif",
     "pagination":{
      "pgfolios":{
       "section":"5",
       "value":"37a"
      }
     }
    },
    {
     "filename":"I1CZ48920090.tif",
     "pagination":{
      "pgfolios":{
       "section":"5",
       "value":"37b"
      }
     }
    },
    {
     "filename":"I1CZ48920091.tif",
     "pagination":{
      "pgfolios":{
       "section":"5",
       "value":"38a"
      }
     }
    },
    {
     "filename":"I1CZ48920092.tif",
     "pagination":{
      "pgfolios":{
       "section":"5",
       "value":"38b"
      }
     }
    },
    {
     "filename":"I1CZ48920093.tif",
     "pagination":{
      "pgfolios":{
       "section":"5",
       "value":"39a"
      }
     }
    },
    {
     "filename":"I1CZ48920094.tif",
     "pagination":{
      "pgfolios":{
       "section":"5",
       "value":"39b"
      }
     }
    },
    {
     "filename":"I1CZ48920095.tif",
     "pagination":{
      "pgfolios":{
       "section":"5",
       "value":"40a"
      }
     }
    },
    {
     "filename":"I1CZ48920096.tif",
     "pagination":{
      "pgfolios":{
       "section":"5",
       "value":"40b"
      }
     }
    },
    {
     "filename":"I1CZ48920097.tif",
     "pagination":{
      "pgfolios":{
       "section":"5",
       "value":"41a"
      }
     }
    },
    {
     "filename":"I1CZ48920098.tif",
     "pagination":{
      "pgfolios":{
       "section":"5",
       "value":"41b"
      }
     }
    },
    {
     "filename":"I1CZ48920099.tif",
     "pagination":{
      "pgfolios":{
       "section":"5",
       "value":"42a"
      }
     }
    },
    {
     "filename":"I1CZ48920100.tif",
     "pagination":{
      "pgfolios":{
       "section":"5",
       "value":"42b"
      }
     }
    },
    {
     "filename":"I1CZ48920101.tif",
     "pagination":{
      "pgfolios":{
       "section":"5",
       "value":"43a"
      }
     }
    },
    {
     "filename":"I1CZ48920102.tif",
     "pagination":{
      "pgfolios":{
       "section":"5",
       "value":"43b"
      }
     }
    },
    {
     "filename":"I1CZ48920103.tif",
     "pagination":{
      "pgfolios":{
       "section":"5",
       "value":"44a"
      }
     }
    },
    {
     "filename":"I1CZ48920104.tif",
     "pagination":{
      "pgfolios":{
       "section":"5",
       "value":"44b"
      }
     }
    },
    {
     "filename":"I1CZ48920105.tif",
     "pagination":{
      "pgfolios":{
       "section":"5",
       "value":"45a"
      }
     }
    },
    {
     "filename":"I1CZ48920106.tif",
     "pagination":{
      "pgfolios":{
       "section":"5",
       "value":"45b"
      }
     }
    },
    {
     "filename":"I1CZ48920107.tif",
     "pagination":{
      "pgfolios":{
       "section":"5",
       "value":"46a"
      }
     }
    },
    {
     "filename":"I1CZ48920108.tif",
     "pagination":{
      "pgfolios":{
       "section":"5",
       "value":"46b"
      }
     }
    },
    {
     "filename":"I1CZ48920109.tif",
     "pagination":{
      "pgfolios":{
       "section":"5",
       "value":"47a"
      }
     }
    },
    {
     "filename":"I1CZ48920110.tif",
     "pagination":{
      "pgfolios":{
       "section":"5",
       "value":"47b"
      }
     }
    },
    {
     "filename":"I1CZ48920111.tif",
     "pagination":{
      "pgfolios":{
       "section":"5",
       "value":"48a"
      }
     }
    },
    {
     "filename":"I1CZ48920112.tif",
     "pagination":{
      "pgfolios":{
       "section":"5",
       "value":"48b"
      }
     }
    },
    {
     "filename":"I1CZ48920113.tif",
     "pagination":{
      "pgfolios":{
       "section":"5",
       "value":"49a"
      }
     }
    },
    {
     "filename":"I1CZ48920114.tif",
     "pagination":{
      "pgfolios":{
       "section":"5",
       "value":"49b"
      }
     }
    },
    {
     "filename":"I1CZ48920115.tif",
     "pagination":{
      "pgfolios":{
       "section":"5",
       "value":"50a"
      }
     }
    },
    {
     "filename":"I1CZ48920116.tif",
     "pagination":{
      "pgfolios":{
       "section":"5",
       "value":"50b"
      }
     }
    },
    {
     "filename":"I1CZ48920117.tif",
     "pagination":{
      "pgfolios":{
       "section":"5",
       "value":"51a"
      }
     }
    },
    {
     "filename":"I1CZ48920118.tif",
     "pagination":{
      "pgfolios":{
       "section":"5",
       "value":"51b"
      }
     }
    },
    {
     "filename":"I1CZ48920119.tif",
     "pagination":{
      "pgfolios":{
       "section":"5",
       "value":"52a"
      }
     }
    },
    {
     "filename":"I1CZ48920120.tif",
     "pagination":{
      "pgfolios":{
       "section":"5",
       "value":"52b"
      }
     }
    },
    {
     "filename":"I1CZ48920121.tif",
     "pagination":{
      "pgfolios":{
       "section":"5",
       "value":"53a"
      }
     }
    },
    {
     "filename":"I1CZ48920122.tif",
     "pagination":{
      "pgfolios":{
       "section":"5",
       "value":"53b"
      }
     }
    },
    {
     "filename":"I1CZ48920123.tif",
     "pagination":{
      "pgfolios":{
       "section":"5",
       "value":"54a"
      }
     }
    },
    {
     "filename":"I1CZ48920124.tif",
     "pagination":{
      "pgfolios":{
       "section":"5",
       "value":"54b"
      }
     }
    },
    {
     "filename":"I1CZ48920125.tif",
     "pagination":{
      "pgfolios":{
       "section":"5",
       "value":"55a"
      }
     }
    },
    {
     "filename":"I1CZ48920126.tif",
     "pagination":{
      "pgfolios":{
       "section":"5",
       "value":"55b"
      }
     }
    },
    {
     "filename":"I1CZ48920127.tif",
     "pagination":{
      "pgfolios":{
       "section":"5",
       "value":"56a"
      }
     }
    },
    {
     "filename":"I1CZ48920128.tif",
     "pagination":{
      "pgfolios":{
       "section":"5",
       "value":"56b"
      }
     }
    },
    {
     "filename":"I1CZ48920129.tif",
     "pagination":{
      "pgfolios":{
       "section":"5",
       "value":"57a"
      }
     }
    },
    {
     "filename":"I1CZ48920130.tif",
     "pagination":{
      "pgfolios":{
       "section":"5",
       "value":"57b"
      }
     }
    },
    {
     "filename":"I1CZ48920131.tif",
     "pagination":{
      "pgfolios":{
       "section":"5",
       "value":"58a"
      }
     }
    },
    {
     "filename":"I1CZ48920132.tif",
     "pagination":{
      "pgfolios":{
       "section":"5",
       "value":"58b"
      }
     }
    },
    {
     "filename":"I1CZ48920133.tif",
     "pagination":{
      "pgfolios":{
       "section":"6",
       "value":"1a"
      }
     }
    },
    {
     "filename":"I1CZ48920134.tif",
     "pagination":{
      "pgfolios":{
       "section":"6",
       "value":"1b"
      }
     }
    },
    {
     "filename":"I1CZ48920135.tif",
     "pagination":{
      "pgfolios":{
       "section":"6",
       "value":"2a"
      }
     }
    },
    {
     "filename":"I1CZ48920136.tif",
     "pagination":{
      "pgfolios":{
       "section":"6",
       "value":"2b"
      }
     }
    },
    {
     "filename":"I1CZ48920137.tif",
     "pagination":{
      "pgfolios":{
       "section":"6",
       "value":"3a"
      }
     }
    },
    {
     "filename":"I1CZ48920138.tif",
     "pagination":{
      "pgfolios":{
       "section":"6",
       "value":"3b"
      }
     }
    },
    {
     "filename":"I1CZ48920139.tif",
     "pagination":{
      "pgfolios":{
       "section":"6",
       "value":"4a"
      }
     }
    },
    {
     "filename":"I1CZ48920140.tif",
     "pagination":{
      "pgfolios":{
       "section":"6",
       "value":"4b"
      }
     }
    },
    {
     "filename":"I1CZ48920141.tif",
     "pagination":{
      "pgfolios":{
       "section":"6",
       "value":"5a"
      }
     }
    },
    {
     "filename":"I1CZ48920142.tif",
     "pagination":{
      "pgfolios":{
       "section":"6",
       "value":"5b"
      }
     }
    },
    {
     "filename":"I1CZ48920143.tif",
     "pagination":{
      "pgfolios":{
       "section":"6",
       "value":"6a"
      }
     }
    },
    {
     "filename":"I1CZ48920144.tif",
     "pagination":{
      "pgfolios":{
       "section":"6",
       "value":"6b"
      }
     }
    },
    {
     "filename":"I1CZ48920145.tif",
     "pagination":{
      "pgfolios":{
       "section":"6",
       "value":"7a"
      }
     }
    },
    {
     "filename":"I1CZ48920146.tif",
     "pagination":{
      "pgfolios":{
       "section":"6",
       "value":"7b"
      }
     }
    },
    {
     "filename":"I1CZ48920147.tif",
     "pagination":{
      "pgfolios":{
       "section":"6",
       "value":"8a"
      }
     }
    },
    {
     "filename":"I1CZ48920148.tif",
     "pagination":{
      "pgfolios":{
       "section":"6",
       "value":"8b"
      }
     }
    },
    {
     "filename":"I1CZ48920149.tif",
     "pagination":{
      "pgfolios":{
       "section":"6",
       "value":"9a"
      }
     }
    },
    {
     "filename":"I1CZ48920150.tif",
     "pagination":{
      "pgfolios":{
       "section":"6",
       "value":"9b"
      }
     }
    },
    {
     "filename":"I1CZ48920151.tif",
     "pagination":{
      "pgfolios":{
       "section":"6",
       "value":"10a"
      }
     }
    },
    {
     "filename":"I1CZ48920152.tif",
     "pagination":{
      "pgfolios":{
       "section":"6",
       "value":"10b"
      }
     }
    },
    {
     "filename":"I1CZ48920153.tif",
     "pagination":{
      "pgfolios":{
       "section":"7",
       "value":"1a"
      }
     }
    },
    {
     "filename":"I1CZ48920154.tif",
     "pagination":{
      "pgfolios":{
       "section":"7",
       "value":"1b"
      }
     }
    },
    {
     "filename":"I1CZ48920155.tif",
     "pagination":{
      "pgfolios":{
       "section":"7",
       "value":"2a"
      }
     }
    },
    {
     "filename":"I1CZ48920156.tif",
     "pagination":{
      "pgfolios":{
       "section":"7",
       "value":"2b"
      }
     }
    },
    {
     "filename":"I1CZ48920157.tif",
     "pagination":{
      "pgfolios":{
       "section":"7",
       "value":"3a"
      }
     }
    },
    {
     "filename":"I1CZ48920158.tif",
     "pagination":{
      "pgfolios":{
       "section":"7",
       "value":"3b"
      }
     }
    },
    {
     "filename":"I1CZ48920159.tif",
     "pagination":{
      "pgfolios":{
       "section":"7",
       "value":"4a"
      }
     }
    },
    {
     "filename":"I1CZ48920160.tif",
     "pagination":{
      "pgfolios":{
       "section":"7",
       "value":"4b"
      }
     }
    },
    {
     "filename":"I1CZ48920161.tif",
     "pagination":{
      "pgfolios":{
       "section":"7",
       "value":"5a"
      }
     }
    },
    {
     "filename":"I1CZ48920162.tif",
     "pagination":{
      "pgfolios":{
       "section":"7",
       "value":"5b"
      }
     }
    },
    {
     "filename":"I1CZ48920163.tif",
     "pagination":{
      "pgfolios":{
       "section":"7",
       "value":"6a"
      }
     }
    },
    {
     "filename":"I1CZ48920164.tif",
     "pagination":{
      "pgfolios":{
       "section":"7",
       "value":"6b"
      }
     }
    },
    {
     "filename":"I1CZ48920165.tif",
     "pagination":{
      "pgfolios":{
       "section":"7",
       "value":"7a"
      }
     }
    },
    {
     "filename":"I1CZ48920166.tif",
     "pagination":{
      "pgfolios":{
       "section":"7",
       "value":"7b"
      }
     }
    },
    {
     "filename":"I1CZ48920167.tif",
     "pagination":{
      "pgfolios":{
       "section":"7",
       "value":"8a"
      }
     }
    },
    {
     "filename":"I1CZ48920168.tif",
     "pagination":{
      "pgfolios":{
       "section":"7",
       "value":"8b"
      }
     }
    },
    {
     "filename":"I1CZ48920169.tif",
     "pagination":{
      "pgfolios":{
       "section":"7",
       "value":"9a"
      }
     }
    },
    {
     "filename":"I1CZ48920170.tif",
     "pagination":{
      "pgfolios":{
       "section":"7",
       "value":"9b"
      }
     }
    },
    {
     "filename":"I1CZ48920171.tif",
     "pagination":{
      "pgfolios":{
       "section":"7",
       "value":"10a"
      }
     }
    },
    {
     "filename":"I1CZ48920172.tif",
     "pagination":{
      "pgfolios":{
       "section":"7",
       "value":"10b"
      }
     }
    },
    {
     "filename":"I1CZ48920173.tif",
     "pagination":{
      "pgfolios":{
       "section":"7",
       "value":"11a"
      }
     }
    },
    {
     "filename":"I1CZ48920174.tif",
     "pagination":{
      "pgfolios":{
       "section":"7",
       "value":"11b"
      }
     }
    },
    {
     "filename":"I1CZ48920175.tif",
     "pagination":{
      "pgfolios":{
       "section":"7",
       "value":"12a"
      }
     }
    },
    {
     "filename":"I1CZ48920176.tif",
     "pagination":{
      "pgfolios":{
       "section":"7",
       "value":"12b"
      }
     }
    },
    {
     "filename":"I1CZ48920177.tif",
     "pagination":{
      "pgfolios":{
       "section":"7",
       "value":"13a"
      }
     }
    },
    {
     "filename":"I1CZ48920178.tif",
     "pagination":{
      "pgfolios":{
       "section":"7",
       "value":"13b"
      }
     }
    },
    {
     "filename":"I1CZ48920179.tif",
     "pagination":{
      "pgfolios":{
       "section":"7",
       "value":"14a"
      }
     }
    },
    {
     "filename":"I1CZ48920180.tif",
     "pagination":{
      "pgfolios":{
       "section":"7",
       "value":"14b"
      }
     }
    },
    {
     "filename":"I1CZ48920181.tif",
     "pagination":{
      "pgfolios":{
       "section":"8",
       "value":"1a"
      }
     }
    },
    {
     "filename":"I1CZ48920182.tif",
     "pagination":{
      "pgfolios":{
       "section":"8",
       "value":"1b"
      }
     }
    },
    {
     "filename":"I1CZ48920183.tif",
     "pagination":{
      "pgfolios":{
       "section":"9",
       "value":"1a"
      }
     }
    },
    {
     "filename":"I1CZ48920184.tif",
     "pagination":{
      "pgfolios":{
       "section":"9",
       "value":"1b"
      }
     }
    },
    {
     "filename":"I1CZ48920185.tif",
     "pagination":{
      "pgfolios":{
       "section":"9",
       "value":"2a"
      }
     }
    },
    {
     "filename":"I1CZ48920186.tif",
     "pagination":{
      "pgfolios":{
       "section":"9",
       "value":"2b"
      }
     }
    },
    {
     "filename":"I1CZ48920187.tif",
     "pagination":{
      "pgfolios":{
       "section":"9",
       "value":"3a"
      }
     }
    },
    {
     "filename":"I1CZ48920188.tif",
     "pagination":{
      "pgfolios":{
       "section":"9",
       "value":"3b"
      }
     }
    },
    {
     "filename":"I1CZ48920189.tif",
     "pagination":{
      "pgfolios":{
       "section":"9",
       "value":"4a"
      }
     }
    },
    {
     "filename":"I1CZ48920190.tif",
     "pagination":{
      "pgfolios":{
       "section":"9",
       "value":"4b"
      }
     }
    },
    {
     "filename":"I1CZ48920191.tif",
     "pagination":{
      "pgfolios":{
       "section":"9",
       "value":"5a"
      }
     }
    },
    {
     "filename":"I1CZ48920192.tif",
     "pagination":{
      "pgfolios":{
       "section":"9",
       "value":"5b"
      }
     }
    },
    {
     "filename":"I1CZ48920193.tif",
     "pagination":{
      "pgfolios":{
       "section":"9",
       "value":"6a"
      }
     }
    },
    {
     "filename":"I1CZ48920194.tif",
     "pagination":{
      "pgfolios":{
       "section":"9",
       "value":"6b"
      }
     }
    },
    {
     "filename":"I1CZ48920195.tif",
     "pagination":{
      "pgfolios":{
       "section":"10",
       "value":"1a"
      }
     }
    },
    {
     "filename":"I1CZ48920196.tif",
     "pagination":{
      "pgfolios":{
       "section":"10",
       "value":"1b"
      }
     }
    },
    {
     "filename":"I1CZ48920197.tif",
     "pagination":{
      "pgfolios":{
       "section":"10",
       "value":"2a"
      }
     }
    },
    {
     "filename":"I1CZ48920198.tif",
     "pagination":{
      "pgfolios":{
       "section":"10",
       "value":"2b"
      }
     }
    },
    {
     "filename":"I1CZ48920199.tif",
     "pagination":{
      "pgfolios":{
       "section":"10",
       "value":"3a"
      }
     }
    },
    {
     "filename":"I1CZ48920200.tif",
     "pagination":{
      "pgfolios":{
       "section":"10",
       "value":"3b"
      }
     }
    },
    {
     "filename":"I1CZ48920201.tif",
     "pagination":{
      "pgfolios":{
       "section":"10",
       "value":"4a"
      }
     }
    },
    {
     "filename":"I1CZ48920202.tif",
     "pagination":{
      "pgfolios":{
       "section":"10",
       "value":"4b"
      }
     }
    },
    {
     "filename":"I1CZ48920203.tif",
     "pagination":{
      "pgfolios":{
       "section":"10",
       "value":"5a"
      }
     }
    },
    {
     "filename":"I1CZ48920204.tif",
     "pagination":{
      "pgfolios":{
       "section":"10",
       "value":"5b"
      }
     }
    },
    {
     "filename":"I1CZ48920205.tif",
     "pagination":{
      "pgfolios":{
       "section":"10",
       "value":"6a"
      }
     }
    },
    {
     "filename":"I1CZ48920206.tif",
     "pagination":{
      "pgfolios":{
       "section":"10",
       "value":"6b"
      }
     }
    },
    {
     "filename":"I1CZ48920207.tif",
     "pagination":{
      "pgfolios":{
       "section":"10",
       "value":"7a"
      }
     }
    },
    {
     "filename":"I1CZ48920208.tif",
     "pagination":{
      "pgfolios":{
       "section":"10",
       "value":"7b"
      }
     }
    },
    {
     "filename":"I1CZ48920209.tif",
     "pagination":{
      "pgfolios":{
       "section":"10",
       "value":"8a"
      }
     }
    },
    {
     "filename":"I1CZ48920210.tif",
     "pagination":{
      "pgfolios":{
       "section":"10",
       "value":"8b"
      }
     }
    },
    {
     "filename":"I1CZ48920211.tif",
     "pagination":{
      "pgfolios":{
       "section":"11",
       "value":"1a"
      }
     }
    },
    {
     "filename":"I1CZ48920212.tif",
     "pagination":{
      "pgfolios":{
       "section":"11",
       "value":"1b"
      }
     }
    },
    {
     "filename":"I1CZ48920213.tif",
     "pagination":{
      "pgfolios":{
       "section":"11",
       "value":"2a"
      }
     }
    },
    {
     "filename":"I1CZ48920214.tif",
     "pagination":{
      "pgfolios":{
       "section":"11",
       "value":"2b"
      }
     }
    },
    {
     "filename":"I1CZ48920215.tif",
     "pagination":{
      "pgfolios":{
       "section":"12",
       "value":"1a"
      }
     }
    },
    {
     "filename":"I1CZ48920216.tif",
     "pagination":{
      "pgfolios":{
       "section":"12",
       "value":"1b"
      }
     }
    },
    {
     "filename":"I1CZ48920217.tif",
     "pagination":{
      "pgfolios":{
       "section":"12",
       "value":"2a"
      }
     }
    },
    {
     "filename":"I1CZ48920218.tif",
     "pagination":{
      "pgfolios":{
       "section":"12",
       "value":"2b"
      }
     }
    },
    {
     "filename":"I1CZ48920219.tif",
     "pagination":{
      "pgfolios":{
       "section":"13",
       "value":"1a"
      }
     }
    },
    {
     "filename":"I1CZ48920220.tif",
     "pagination":{
      "pgfolios":{
       "section":"13",
       "value":"1b"
      }
     }
    },
    {
     "filename":"I1CZ48920221.tif",
     "pagination":{
      "pgfolios":{
       "section":"13",
       "value":"2a"
      }
     }
    },
    {
     "filename":"I1CZ48920222.tif",
     "pagination":{
      "pgfolios":{
       "section":"13",
       "value":"2b"
      }
     }
    },
    {
     "filename":"I1CZ48920223.tif",
     "pagination":{
      "pgfolios":{
       "section":"13",
       "value":"3a"
      }
     }
    },
    {
     "filename":"I1CZ48920224.tif",
     "pagination":{
      "pgfolios":{
       "section":"13",
       "value":"3b"
      }
     }
    },
    {
     "filename":"I1CZ48920225.tif",
     "pagination":{
      "pgfolios":{
       "section":"14",
       "value":"1a"
      }
     }
    },
    {
     "filename":"I1CZ48920226.tif",
     "pagination":{
      "pgfolios":{
       "section":"14",
       "value":"1b"
      }
     }
    },
    {
     "filename":"I1CZ48920227.tif",
     "pagination":{
      "pgfolios":{
       "section":"14",
       "value":"2a"
      }
     }
    },
    {
     "filename":"I1CZ48920228.tif",
     "pagination":{
      "pgfolios":{
       "section":"14",
       "value":"2b"
      }
     }
    },
    {
     "filename":"I1CZ48920229.tif",
     "pagination":{
      "pgfolios":{
       "section":"14",
       "value":"3a"
      }
     }
    },
    {
     "filename":"I1CZ48920230.tif",
     "pagination":{
      "pgfolios":{
       "section":"14",
       "value":"3b"
      }
     }
    },
    {
     "filename":"I1CZ48920231.tif",
     "pagination":{
      "pgfolios":{
       "section":"14",
       "value":"4a"
      }
     }
    },
    {
     "filename":"I1CZ48920232.tif",
     "pagination":{
      "pgfolios":{
       "section":"14",
       "value":"4b"
      }
     }
    },
    {
     "filename":"I1CZ48920233.tif",
     "pagination":{
      "pgfolios":{
       "section":"14",
       "value":"5a"
      }
     }
    },
    {
     "filename":"I1CZ48920234.tif",
     "pagination":{
      "pgfolios":{
       "section":"14",
       "value":"5b"
      }
     }
    },
    {
     "filename":"I1CZ48920235.tif",
     "pagination":{
      "pgfolios":{
       "section":"14",
       "value":"6a"
      }
     }
    },
    {
     "filename":"I1CZ48920236.tif",
     "pagination":{
      "pgfolios":{
       "section":"14",
       "value":"6b"
      }
     }
    },
    {
     "filename":"I1CZ48920237.tif",
     "pagination":{
      "pgfolios":{
       "section":"14",
       "value":"7a"
      }
     }
    },
    {
     "filename":"I1CZ48920238.tif",
     "pagination":{
      "pgfolios":{
       "section":"14",
       "value":"7b"
      }
     }
    },
    {
     "filename":"I1CZ48920239.tif",
     "pagination":{
      "pgfolios":{
       "section":"14",
       "value":"8a"
      }
     }
    },
    {
     "filename":"I1CZ48920240.tif",
     "pagination":{
      "pgfolios":{
       "section":"14",
       "value":"8b"
      }
     }
    },
    {
     "filename":"I1CZ48920241.tif",
     "pagination":{
      "pgfolios":{
       "section":"14",
       "value":"9a"
      }
     }
    },
    {
     "filename":"I1CZ48920242.tif",
     "pagination":{
      "pgfolios":{
       "section":"14",
       "value":"9b"
      }
     }
    },
    {
     "filename":"I1CZ48920243.tif",
     "pagination":{
      "pgfolios":{
       "section":"14",
       "value":"10a"
      }
     }
    },
    {
     "filename":"I1CZ48920244.tif",
     "pagination":{
      "pgfolios":{
       "section":"14",
       "value":"10b"
      }
     }
    },
    {
     "filename":"I1CZ48920245.tif",
     "pagination":{
      "pgfolios":{
       "section":"15",
       "value":"1a"
      }
     }
    },
    {
     "filename":"I1CZ48920246.tif",
     "pagination":{
      "pgfolios":{
       "section":"15",
       "value":"1b"
      }
     }
    },
    {
     "filename":"I1CZ48920247.tif",
     "pagination":{
      "pgfolios":{
       "section":"15",
       "value":"2a"
      }
     }
    },
    {
     "filename":"I1CZ48920248.tif",
     "pagination":{
      "pgfolios":{
       "section":"15",
       "value":"2b"
      }
     }
    },
    {
     "filename":"I1CZ48920249.tif",
     "pagination":{
      "pgfolios":{
       "section":"15",
       "value":"3a"
      }
     }
    },
    {
     "filename":"I1CZ48920250.tif",
     "pagination":{
      "pgfolios":{
       "section":"15",
       "value":"3b"
      }
     }
    },
    {
     "filename":"I1CZ48920251.tif",
     "pagination":{
      "pgfolios":{
       "section":"15",
       "value":"4a"
      }
     }
    },
    {
     "filename":"I1CZ48920252.tif",
     "pagination":{
      "pgfolios":{
       "section":"15",
       "value":"4b"
      }
     }
    },
    {
     "filename":"I1CZ48920253.tif",
     "pagination":{
      "pgfolios":{
       "section":"15",
       "value":"5a"
      }
     }
    },
    {
     "filename":"I1CZ48920254.tif",
     "pagination":{
      "pgfolios":{
       "section":"15",
       "value":"5b"
      }
     }
    },
    {
     "filename":"I1CZ48920255.tif",
     "pagination":{
      "pgfolios":{
       "section":"15",
       "value":"6a"
      }
     }
    },
    {
     "filename":"I1CZ48920256.tif",
     "pagination":{
      "pgfolios":{
       "section":"15",
       "value":"6b"
      }
     }
    },
    {
     "filename":"I1CZ48920257.tif",
     "pagination":{
      "pgfolios":{
       "section":"15",
       "value":"7a"
      }
     }
    },
    {
     "filename":"I1CZ48920258.tif",
     "pagination":{
      "pgfolios":{
       "section":"15",
       "value":"7b"
      }
     }
    },
    {
     "filename":"I1CZ48920259.tif",
     "pagination":{
      "pgfolios":{
       "section":"15",
       "value":"8a"
      }
     }
    },
    {
     "filename":"I1CZ48920260.tif",
     "pagination":{
      "pgfolios":{
       "section":"15",
       "value":"8b"
      }
     }
    },
    {
     "filename":"I1CZ48920261.tif",
     "pagination":{
      "pgfolios":{
       "section":"15",
       "value":"9a"
      }
     }
    },
    {
     "filename":"I1CZ48920262.tif",
     "pagination":{
      "pgfolios":{
       "section":"15",
       "value":"9b"
      }
     }
    },
    {
     "filename":"I1CZ48920263.tif",
     "pagination":{
      "pgfolios":{
       "section":"15",
       "value":"10a"
      }
     }
    },
    {
     "filename":"I1CZ48920264.tif",
     "pagination":{
      "pgfolios":{
       "section":"15",
       "value":"10b"
      }
     }
    },
    {
     "filename":"I1CZ48920265.tif",
     "pagination":{
      "pgfolios":{
       "section":"15",
       "value":"11a"
      }
     }
    },
    {
     "filename":"I1CZ48920266.tif",
     "pagination":{
      "pgfolios":{
       "section":"15",
       "value":"11b"
      }
     }
    },
    {
     "filename":"I1CZ48920267.tif",
     "pagination":{
      "pgfolios":{
       "section":"16",
       "value":"1a"
      }
     }
    },
    {
     "filename":"I1CZ48920268.tif",
     "pagination":{
      "pgfolios":{
       "section":"16",
       "value":"1b"
      }
     }
    },
    {
     "filename":"I1CZ48920269.tif",
     "pagination":{
      "pgfolios":{
       "section":"16",
       "value":"2a"
      }
     }
    },
    {
     "filename":"I1CZ48920270.tif",
     "pagination":{
      "pgfolios":{
       "section":"16",
       "value":"2b"
      }
     }
    },
    {
     "filename":"I1CZ48920271.tif",
     "pagination":{
      "pgfolios":{
       "section":"16",
       "value":"3a"
      }
     }
    },
    {
     "filename":"I1CZ48920272.tif",
     "pagination":{
      "pgfolios":{
       "section":"16",
       "value":"3b"
      }
     }
    },
    {
     "filename":"I1CZ48920273.tif",
     "pagination":{
      "pgfolios":{
       "section":"17",
       "value":"1a"
      }
     }
    },
    {
     "filename":"I1CZ48920274.tif",
     "pagination":{
      "pgfolios":{
       "section":"17",
       "value":"1b"
      }
     }
    },
    {
     "filename":"I1CZ48920275.tif",
     "pagination":{
      "pgfolios":{
       "section":"17",
       "value":"2a"
      }
     }
    },
    {
     "filename":"I1CZ48920276.tif",
     "pagination":{
      "pgfolios":{
       "section":"17",
       "value":"2b"
      }
     }
    },
    {
     "filename":"I1CZ48920277.tif",
     "pagination":{
      "pgfolios":{
       "section":"17",
       "value":"3a"
      }
     }
    },
    {
     "filename":"I1CZ48920278.tif",
     "pagination":{
      "pgfolios":{
       "section":"17",
       "value":"3b"
      }
     }
    },
    {
     "filename":"I1CZ48920279.tif",
     "pagination":{
      "pgfolios":{
       "section":"17",
       "value":"4a"
      }
     }
    },
    {
     "filename":"I1CZ48920280.tif",
     "pagination":{
      "pgfolios":{
       "section":"17",
       "value":"4b"
      }
     }
    },
    {
     "filename":"I1CZ48920281.tif",
     "pagination":{
      "pgfolios":{
       "section":"17",
       "value":"5a"
      }
     }
    },
    {
     "filename":"I1CZ48920282.tif",
     "pagination":{
      "pgfolios":{
       "section":"17",
       "value":"5b"
      }
     }
    },
    {
     "filename":"I1CZ48920283.tif",
     "pagination":{
      "pgfolios":{
       "section":"17",
       "value":"6a"
      }
     }
    },
    {
     "filename":"I1CZ48920284.tif",
     "pagination":{
      "pgfolios":{
       "section":"17",
       "value":"6b"
      }
     }
    },
    {
     "filename":"I1CZ48920285.tif",
     "pagination":{
      "pgfolios":{
       "section":"17",
       "value":"7a"
      }
     }
    },
    {
     "filename":"I1CZ48920286.tif",
     "pagination":{
      "pgfolios":{
       "section":"17",
       "value":"7b"
      }
     }
    },
    {
     "filename":"I1CZ48920287.tif",
     "pagination":{
      "pgfolios":{
       "section":"17",
       "value":"8a"
      }
     }
    },
    {
     "filename":"I1CZ48920288.tif",
     "pagination":{
      "pgfolios":{
       "section":"17",
       "value":"8b"
      }
     }
    },
    {
     "filename":"I1CZ48920289.tif",
     "pagination":{
      "pgfolios":{
       "section":"17",
       "value":"9a"
      }
     }
    },
    {
     "filename":"I1CZ48920290.tif",
     "pagination":{
      "pgfolios":{
       "section":"17",
       "value":"9b"
      }
     }
    },
    {
     "filename":"I1CZ48920291.tif",
     "pagination":{
      "pgfolios":{
       "section":"18",
       "value":"1a"
      }
     }
    },
    {
     "filename":"I1CZ48920292.tif",
     "pagination":{
      "pgfolios":{
       "section":"18",
       "value":"1b"
      }
     }
    },
    {
     "filename":"I1CZ48920293.tif",
     "pagination":{
      "pgfolios":{
       "section":"18",
       "value":"2a"
      }
     }
    },
    {
     "filename":"I1CZ48920294.tif",
     "pagination":{
      "pgfolios":{
       "section":"18",
       "value":"2b"
      }
     }
    },
    {
     "filename":"I1CZ48920295.tif",
     "pagination":{
      "pgfolios":{
       "section":"18",
       "value":"3a"
      }
     }
    },
    {
     "filename":"I1CZ48920296.tif",
     "pagination":{
      "pgfolios":{
       "section":"18",
       "value":"3b"
      }
     }
    },
    {
     "filename":"I1CZ48920297.tif",
     "pagination":{
      "pgfolios":{
       "section":"18",
       "value":"4a"
      }
     }
    },
    {
     "filename":"I1CZ48920298.tif",
     "pagination":{
      "pgfolios":{
       "section":"18",
       "value":"4b"
      }
     }
    },
    {
     "filename":"I1CZ48920299.tif",
     "pagination":{
      "pgfolios":{
       "section":"18",
       "value":"5a"
      }
     }
    },
    {
     "filename":"I1CZ48920300.tif",
     "pagination":{
      "pgfolios":{
       "section":"18",
       "value":"5b"
      }
     }
    },
    {
     "filename":"I1CZ48920301.tif",
     "pagination":{
      "pgfolios":{
       "section":"18",
       "value":"6a"
      }
     }
    },
    {
     "filename":"I1CZ48920302.tif",
     "pagination":{
      "pgfolios":{
       "section":"18",
       "value":"6b"
      }
     }
    },
    {
     "filename":"I1CZ48920303.tif",
     "pagination":{
      "pgfolios":{
       "section":"18",
       "value":"7a"
      }
     }
    },
    {
     "filename":"I1CZ48920304.tif",
     "pagination":{
      "pgfolios":{
       "section":"18",
       "value":"7b"
      }
     }
    },
    {
     "filename":"I1CZ48920305.tif",
     "pagination":{
      "pgfolios":{
       "section":"18",
       "value":"8a"
      }
     }
    },
    {
     "filename":"I1CZ48920306.tif",
     "pagination":{
      "pgfolios":{
       "section":"18",
       "value":"8b"
      }
     }
    },
    {
     "filename":"I1CZ48920307.tif",
     "pagination":{
      "pgfolios":{
       "section":"19",
       "value":"1a"
      }
     }
    },
    {
     "filename":"I1CZ48920308.tif",
     "pagination":{
      "pgfolios":{
       "section":"19",
       "value":"1b"
      }
     }
    },
    {
     "filename":"I1CZ48920309.tif",
     "pagination":{
      "pgfolios":{
       "section":"19",
       "value":"2a"
      }
     }
    },
    {
     "filename":"I1CZ48920310.tif",
     "pagination":{
      "pgfolios":{
       "section":"19",
       "value":"2b"
      }
     }
    },
    {
     "filename":"I1CZ48920311.tif",
     "pagination":{
      "pgfolios":{
       "section":"19",
       "value":"3a"
      }
     }
    },
    {
     "filename":"I1CZ48920312.tif",
     "pagination":{
      "pgfolios":{
       "section":"19",
       "value":"3b"
      }
     }
    },
    {
     "filename":"I1CZ48920313.tif",
     "pagination":{
      "pgfolios":{
       "section":"19",
       "value":"4a"
      }
     }
    },
    {
     "filename":"I1CZ48920314.tif",
     "pagination":{
      "pgfolios":{
       "section":"19",
       "value":"4b"
      }
     }
    },
    {
     "filename":"I1CZ48920315.tif",
     "pagination":{
      "pgfolios":{
       "section":"19",
       "value":"5a"
      }
     }
    },
    {
     "filename":"I1CZ48920316.tif",
     "pagination":{
      "pgfolios":{
       "section":"19",
       "value":"5b"
      }
     }
    },
    {
     "filename":"I1CZ48920317.tif",
     "pagination":{
      "pgfolios":{
       "section":"19",
       "value":"6a"
      }
     }
    },
    {
     "filename":"I1CZ48920318.tif",
     "pagination":{
      "pgfolios":{
       "section":"19",
       "value":"6b"
      }
     }
    },
    {
     "filename":"I1CZ48920319.tif",
     "pagination":{
      "pgfolios":{
       "section":"20",
       "value":"1a"
      }
     }
    },
    {
     "filename":"I1CZ48920320.tif",
     "pagination":{
      "pgfolios":{
       "section":"20",
       "value":"1b"
      }
     }
    },
    {
     "filename":"I1CZ48920321.tif",
     "pagination":{
      "pgfolios":{
       "section":"21",
       "value":"1a"
      }
     }
    },
    {
     "filename":"I1CZ48920322.tif",
     "pagination":{
      "pgfolios":{
       "section":"21",
       "value":"1b"
      }
     }
    },
    {
     "filename":"I1CZ48920323.tif",
     "pagination":{
      "pgfolios":{
       "section":"21",
       "value":"2a"
      }
     }
    },
    {
     "filename":"I1CZ48920324.tif",
     "pagination":{
      "pgfolios":{
       "section":"21",
       "value":"2b"
      }
     }
    },
    {
     "filename":"I1CZ48920325.tif",
     "pagination":{
      "pgfolios":{
       "section":"21",
       "value":"3a"
      }
     }
    },
    {
     "filename":"I1CZ48920326.tif",
     "pagination":{
      "pgfolios":{
       "section":"21",
       "value":"3b"
      }
     }
    },
    {
     "filename":"I1CZ48920327.tif",
     "pagination":{
      "pgfolios":{
       "section":"21",
       "value":"4a"
      }
     }
    },
    {
     "filename":"I1CZ48920328.tif",
     "pagination":{
      "pgfolios":{
       "section":"21",
       "value":"4b"
      }
     }
    },
    {
     "filename":"I1CZ48920329.tif",
     "pagination":{
      "pgfolios":{
       "section":"22",
       "value":"1a"
      }
     }
    },
    {
     "filename":"I1CZ48920330.tif",
     "pagination":{
      "pgfolios":{
       "section":"22",
       "value":"1b"
      }
     }
    },
    {
     "filename":"I1CZ48920331.tif",
     "pagination":{
      "pgfolios":{
       "section":"23",
       "value":"1a"
      }
     }
    },
    {
     "filename":"I1CZ48920332.tif",
     "pagination":{
      "pgfolios":{
       "section":"23",
       "value":"1b"
      }
     }
    },
    {
     "filename":"I1CZ48920333.tif",
     "pagination":{
      "pgfolios":{
       "section":"23",
       "value":"2a"
      }
     }
    },
    {
     "filename":"I1CZ48920334.tif",
     "pagination":{
      "pgfolios":{
       "section":"23",
       "value":"2b"
      }
     }
    },
    {
     "filename":"I1CZ48920335.tif",
     "pagination":{
      "pgfolios":{
       "section":"24",
       "value":"1a"
      }
     }
    },
    {
     "filename":"I1CZ48920336.tif",
     "pagination":{
      "pgfolios":{
       "section":"24",
       "value":"1b"
      }
     }
    },
    {
     "filename":"I1CZ48920337.tif",
     "pagination":{
      "pgfolios":{
       "section":"24",
       "value":"2a"
      }
     }
    },
    {
     "filename":"I1CZ48920338.tif",
     "pagination":{
      "pgfolios":{
       "section":"24",
       "value":"2b"
      }
     }
    },
    {
     "filename":"I1CZ48920339.tif",
     "pagination":{
      "pgfolios":{
       "section":"24",
       "value":"3a"
      }
     }
    },
    {
     "filename":"I1CZ48920340.tif",
     "pagination":{
      "pgfolios":{
       "section":"24",
       "value":"3b"
      }
     }
    },
    {
     "filename":"I1CZ48920341.tif",
     "pagination":{
      "pgfolios":{
       "section":"24",
       "value":"4a"
      }
     }
    },
    {
     "filename":"I1CZ48920342.tif",
     "pagination":{
      "pgfolios":{
       "section":"24",
       "value":"4b"
      }
     }
    },
    {
     "filename":"I1CZ48920343.tif",
     "pagination":{
      "pgfolios":{
       "section":"24",
       "value":"5a"
      }
     }
    },
    {
     "filename":"I1CZ48920344.tif",
     "pagination":{
      "pgfolios":{
       "section":"24",
       "value":"5b"
      }
     }
    },
    {
     "filename":"I1CZ48920345.tif",
     "pagination":{
      "pgfolios":{
       "section":"24",
       "value":"6a"
      }
     }
    },
    {
     "filename":"I1CZ48920346.tif",
     "pagination":{
      "pgfolios":{
       "section":"24",
       "value":"6b"
      }
     }
    }
   ]
  }
 },
 "viewing-direction":"top-to-bottom"
}