{
 "appData":{
  "bvmt":{
   "default-vol-string-lang":"bo",
   "metadata-for-bvmt-ver":"0.1.0"
  }
 },
 "attribution":[
  {
   "@language":"en",
   "@value":"Data provided by rKTs under the CC0 license"
  }
 ],
 "changes":[
  {
   "message":{
    "@language":"en",
    "@value":"migration from rKTs data"
   },
   "time":"2020-10-03T11:35:30Z",
   "user":"bdu:U1653882847"
  }
 ],
 "default-view":"view1",
 "imggroup":"bdr:I1CZ4906",
 "pagination":[
  {
   "id":"pgfolios",
   "type":"folios"
  }
 ],
 "sections":[
  {
   "id":"1",
   "name":{
    "@language":"bo-x-ewts",
    "@value":"1"
   }
  },
  {
   "id":"2",
   "name":{
    "@language":"bo-x-ewts",
    "@value":"2"
   }
  },
  {
   "id":"3",
   "name":{
    "@language":"bo-x-ewts",
    "@value":"3"
   }
  },
  {
   "id":"4",
   "name":{
    "@language":"bo-x-ewts",
    "@value":"4"
   }
  },
  {
   "id":"5",
   "name":{
    "@language":"bo-x-ewts",
    "@value":"5"
   }
  },
  {
   "id":"6",
   "name":{
    "@language":"bo-x-ewts",
    "@value":"6"
   }
  },
  {
   "id":"7",
   "name":{
    "@language":"bo-x-ewts",
    "@value":"7"
   }
  },
  {
   "id":"8",
   "name":{
    "@language":"bo-x-ewts",
    "@value":"8"
   }
  },
  {
   "id":"9",
   "name":{
    "@language":"bo-x-ewts",
    "@value":"9"
   }
  },
  {
   "id":"10",
   "name":{
    "@language":"bo-x-ewts",
    "@value":"10"
   }
  },
  {
   "id":"11",
   "name":{
    "@language":"bo-x-ewts",
    "@value":"11"
   }
  },
  {
   "id":"12",
   "name":{
    "@language":"bo-x-ewts",
    "@value":"12"
   }
  },
  {
   "id":"13",
   "name":{
    "@language":"bo-x-ewts",
    "@value":"13"
   }
  },
  {
   "id":"14",
   "name":{
    "@language":"bo-x-ewts",
    "@value":"14"
   }
  },
  {
   "id":"15",
   "name":{
    "@language":"bo-x-ewts",
    "@value":"15"
   }
  },
  {
   "id":"16",
   "name":{
    "@language":"bo-x-ewts",
    "@value":"16"
   }
  },
  {
   "id":"17",
   "name":{
    "@language":"bo-x-ewts",
    "@value":"17"
   }
  },
  {
   "id":"18",
   "name":{
    "@language":"bo-x-ewts",
    "@value":"18"
   }
  },
  {
   "id":"19",
   "name":{
    "@language":"bo-x-ewts",
    "@value":"19"
   }
  },
  {
   "id":"20",
   "name":{
    "@language":"bo-x-ewts",
    "@value":"20"
   }
  },
  {
   "id":"21",
   "name":{
    "@language":"bo-x-ewts",
    "@value":"21"
   }
  },
  {
   "id":"22",
   "name":{
    "@language":"bo-x-ewts",
    "@value":"22"
   }
  },
  {
   "id":"23",
   "name":{
    "@language":"bo-x-ewts",
    "@value":"23"
   }
  },
  {
   "id":"24",
   "name":{
    "@language":"bo-x-ewts",
    "@value":"24"
   }
  },
  {
   "id":"25",
   "name":{
    "@language":"bo-x-ewts",
    "@value":"25"
   }
  }
 ],
 "spec-version":"0.1.0",
 "status":"released",
 "view":{
  "view1":{
   "imagelist":[
    {
     "filename":"I1CZ49060001.tif",
     "hidden":true,
     "tags":[
      "T0005"
     ]
    },
    {
     "filename":"I1CZ49060002.tif",
     "hidden":true,
     "tags":[
      "T0005"
     ]
    },
    {
     "filename":"I1CZ49060003.tif",
     "pagination":{
      "pgfolios":{
       "section":"1",
       "value":"1a"
      }
     }
    },
    {
     "filename":"I1CZ49060004.tif",
     "pagination":{
      "pgfolios":{
       "section":"1",
       "value":"1b"
      }
     }
    },
    {
     "filename":"I1CZ49060005.tif",
     "pagination":{
      "pgfolios":{
       "section":"1",
       "value":"2a"
      }
     }
    },
    {
     "filename":"I1CZ49060006.tif",
     "pagination":{
      "pgfolios":{
       "section":"1",
       "value":"2b"
      }
     }
    },
    {
     "filename":"I1CZ49060007.tif",
     "pagination":{
      "pgfolios":{
       "section":"1",
       "value":"3a"
      }
     }
    },
    {
     "filename":"I1CZ49060008.tif",
     "pagination":{
      "pgfolios":{
       "section":"1",
       "value":"3b"
      }
     }
    },
    {
     "filename":"I1CZ49060009.tif",
     "pagination":{
      "pgfolios":{
       "section":"1",
       "value":"4a"
      }
     }
    },
    {
     "filename":"I1CZ49060010.tif",
     "pagination":{
      "pgfolios":{
       "section":"1",
       "value":"4b"
      }
     }
    },
    {
     "filename":"I1CZ49060011.tif",
     "pagination":{
      "pgfolios":{
       "section":"1",
       "value":"5a"
      }
     }
    },
    {
     "filename":"I1CZ49060012.tif",
     "pagination":{
      "pgfolios":{
       "section":"1",
       "value":"5b"
      }
     }
    },
    {
     "filename":"I1CZ49060013.tif",
     "pagination":{
      "pgfolios":{
       "section":"1",
       "value":"6a"
      }
     }
    },
    {
     "filename":"I1CZ49060014.tif",
     "pagination":{
      "pgfolios":{
       "section":"1",
       "value":"6b"
      }
     }
    },
    {
     "filename":"I1CZ49060015.tif",
     "pagination":{
      "pgfolios":{
       "section":"1",
       "value":"7a"
      }
     }
    },
    {
     "filename":"I1CZ49060016.tif",
     "pagination":{
      "pgfolios":{
       "section":"1",
       "value":"7b"
      }
     }
    },
    {
     "filename":"I1CZ49060017.tif",
     "pagination":{
      "pgfolios":{
       "section":"1",
       "value":"8a"
      }
     }
    },
    {
     "filename":"I1CZ49060018.tif",
     "pagination":{
      "pgfolios":{
       "section":"1",
       "value":"8b"
      }
     }
    },
    {
     "filename":"I1CZ49060019.tif",
     "pagination":{
      "pgfolios":{
       "section":"1",
       "value":"9a"
      }
     }
    },
    {
     "filename":"I1CZ49060020.tif",
     "pagination":{
      "pgfolios":{
       "section":"1",
       "value":"9b"
      }
     }
    },
    {
     "filename":"I1CZ49060021.tif",
     "pagination":{
      "pgfolios":{
       "section":"1",
       "value":"10a"
      }
     }
    },
    {
     "filename":"I1CZ49060022.tif",
     "pagination":{
      "pgfolios":{
       "section":"1",
       "value":"10b"
      }
     }
    },
    {
     "filename":"I1CZ49060023.tif",
     "pagination":{
      "pgfolios":{
       "section":"1",
       "value":"11a"
      }
     }
    },
    {
     "filename":"I1CZ49060024.tif",
     "pagination":{
      "pgfolios":{
       "section":"1",
       "value":"11b"
      }
     }
    },
    {
     "filename":"I1CZ49060025.tif",
     "pagination":{
      "pgfolios":{
       "section":"1",
       "value":"12a"
      }
     }
    },
    {
     "filename":"I1CZ49060026.tif",
     "pagination":{
      "pgfolios":{
       "section":"1",
       "value":"12b"
      }
     }
    },
    {
     "filename":"I1CZ49060027.tif",
     "pagination":{
      "pgfolios":{
       "section":"1",
       "value":"13a"
      }
     }
    },
    {
     "filename":"I1CZ49060028.tif",
     "pagination":{
      "pgfolios":{
       "section":"1",
       "value":"13b"
      }
     }
    },
    {
     "filename":"I1CZ49060029.tif",
     "pagination":{
      "pgfolios":{
       "section":"1",
       "value":"14a"
      }
     }
    },
    {
     "filename":"I1CZ49060030.tif",
     "pagination":{
      "pgfolios":{
       "section":"1",
       "value":"14b"
      }
     }
    },
    {
     "filename":"I1CZ49060031.tif",
     "pagination":{
      "pgfolios":{
       "section":"2",
       "value":"1a"
      }
     }
    },
    {
     "filename":"I1CZ49060032.tif",
     "pagination":{
      "pgfolios":{
       "section":"2",
       "value":"1b"
      }
     }
    },
    {
     "filename":"I1CZ49060033.tif",
     "pagination":{
      "pgfolios":{
       "section":"3",
       "value":"1a"
      }
     }
    },
    {
     "filename":"I1CZ49060034.tif",
     "pagination":{
      "pgfolios":{
       "section":"3",
       "value":"1b"
      }
     }
    },
    {
     "filename":"I1CZ49060035.tif",
     "pagination":{
      "pgfolios":{
       "section":"3",
       "value":"2a"
      }
     }
    },
    {
     "filename":"I1CZ49060036.tif",
     "pagination":{
      "pgfolios":{
       "section":"3",
       "value":"2b"
      }
     }
    },
    {
     "filename":"I1CZ49060037.tif",
     "pagination":{
      "pgfolios":{
       "section":"3",
       "value":"3a"
      }
     }
    },
    {
     "filename":"I1CZ49060038.tif",
     "pagination":{
      "pgfolios":{
       "section":"3",
       "value":"3b"
      }
     }
    },
    {
     "filename":"I1CZ49060039.tif",
     "pagination":{
      "pgfolios":{
       "section":"4",
       "value":"1a"
      }
     }
    },
    {
     "filename":"I1CZ49060040.tif",
     "pagination":{
      "pgfolios":{
       "section":"4",
       "value":"1b"
      }
     }
    },
    {
     "filename":"I1CZ49060041.tif",
     "pagination":{
      "pgfolios":{
       "section":"4",
       "value":"2a"
      }
     }
    },
    {
     "filename":"I1CZ49060042.tif",
     "pagination":{
      "pgfolios":{
       "section":"4",
       "value":"2b"
      }
     }
    },
    {
     "filename":"I1CZ49060043.tif",
     "pagination":{
      "pgfolios":{
       "section":"4",
       "value":"3a"
      }
     }
    },
    {
     "filename":"I1CZ49060044.tif",
     "pagination":{
      "pgfolios":{
       "section":"4",
       "value":"3b"
      }
     }
    },
    {
     "filename":"I1CZ49060045.tif",
     "pagination":{
      "pgfolios":{
       "section":"4",
       "value":"4a"
      }
     }
    },
    {
     "filename":"I1CZ49060046.tif",
     "pagination":{
      "pgfolios":{
       "section":"4",
       "value":"4b"
      }
     }
    },
    {
     "filename":"I1CZ49060047.tif",
     "pagination":{
      "pgfolios":{
       "section":"4",
       "value":"5a"
      }
     }
    },
    {
     "filename":"I1CZ49060048.tif",
     "pagination":{
      "pgfolios":{
       "section":"4",
       "value":"5b"
      }
     }
    },
    {
     "filename":"I1CZ49060049.tif",
     "pagination":{
      "pgfolios":{
       "section":"4",
       "value":"6a"
      }
     }
    },
    {
     "filename":"I1CZ49060050.tif",
     "pagination":{
      "pgfolios":{
       "section":"4",
       "value":"6b"
      }
     }
    },
    {
     "filename":"I1CZ49060051.tif",
     "pagination":{
      "pgfolios":{
       "section":"4",
       "value":"7a"
      }
     }
    },
    {
     "filename":"I1CZ49060052.tif",
     "pagination":{
      "pgfolios":{
       "section":"4",
       "value":"7b"
      }
     }
    },
    {
     "filename":"I1CZ49060053.tif",
     "pagination":{
      "pgfolios":{
       "section":"4",
       "value":"8a"
      }
     }
    },
    {
     "filename":"I1CZ49060054.tif",
     "pagination":{
      "pgfolios":{
       "section":"4",
       "value":"8b"
      }
     }
    },
    {
     "filename":"I1CZ49060055.tif",
     "pagination":{
      "pgfolios":{
       "section":"5",
       "value":"1a"
      }
     }
    },
    {
     "filename":"I1CZ49060056.tif",
     "pagination":{
      "pgfolios":{
       "section":"5",
       "value":"1b"
      }
     }
    },
    {
     "filename":"I1CZ49060057.tif",
     "pagination":{
      "pgfolios":{
       "section":"5",
       "value":"2a"
      }
     }
    },
    {
     "filename":"I1CZ49060058.tif",
     "pagination":{
      "pgfolios":{
       "section":"5",
       "value":"2b"
      }
     }
    },
    {
     "filename":"I1CZ49060059.tif",
     "pagination":{
      "pgfolios":{
       "section":"6",
       "value":"1a"
      }
     }
    },
    {
     "filename":"I1CZ49060060.tif",
     "pagination":{
      "pgfolios":{
       "section":"6",
       "value":"1b"
      }
     }
    },
    {
     "filename":"I1CZ49060061.tif",
     "pagination":{
      "pgfolios":{
       "section":"6",
       "value":"2a"
      }
     }
    },
    {
     "filename":"I1CZ49060062.tif",
     "pagination":{
      "pgfolios":{
       "section":"6",
       "value":"2b"
      }
     }
    },
    {
     "filename":"I1CZ49060063.tif",
     "pagination":{
      "pgfolios":{
       "section":"6",
       "value":"3a"
      }
     }
    },
    {
     "filename":"I1CZ49060064.tif",
     "pagination":{
      "pgfolios":{
       "section":"6",
       "value":"3b"
      }
     }
    },
    {
     "filename":"I1CZ49060065.tif",
     "pagination":{
      "pgfolios":{
       "section":"6",
       "value":"4a"
      }
     }
    },
    {
     "filename":"I1CZ49060066.tif",
     "pagination":{
      "pgfolios":{
       "section":"6",
       "value":"4b"
      }
     }
    },
    {
     "filename":"I1CZ49060067.tif",
     "pagination":{
      "pgfolios":{
       "section":"6",
       "value":"5a"
      }
     }
    },
    {
     "filename":"I1CZ49060068.tif",
     "pagination":{
      "pgfolios":{
       "section":"6",
       "value":"5b"
      }
     }
    },
    {
     "filename":"I1CZ49060069.tif",
     "pagination":{
      "pgfolios":{
       "section":"6",
       "value":"6a"
      }
     }
    },
    {
     "filename":"I1CZ49060070.tif",
     "pagination":{
      "pgfolios":{
       "section":"6",
       "value":"6b"
      }
     }
    },
    {
     "filename":"I1CZ49060071.tif",
     "pagination":{
      "pgfolios":{
       "section":"6",
       "value":"7a"
      }
     }
    },
    {
     "filename":"I1CZ49060072.tif",
     "pagination":{
      "pgfolios":{
       "section":"6",
       "value":"7b"
      }
     }
    },
    {
     "filename":"I1CZ49060073.tif",
     "pagination":{
      "pgfolios":{
       "section":"6",
       "value":"8a"
      }
     }
    },
    {
     "filename":"I1CZ49060074.tif",
     "pagination":{
      "pgfolios":{
       "section":"6",
       "value":"8b"
      }
     }
    },
    {
     "filename":"I1CZ49060075.tif",
     "pagination":{
      "pgfolios":{
       "section":"7",
       "value":"1a"
      }
     }
    },
    {
     "filename":"I1CZ49060076.tif",
     "pagination":{
      "pgfolios":{
       "section":"7",
       "value":"1b"
      }
     }
    },
    {
     "filename":"I1CZ49060077.tif",
     "pagination":{
      "pgfolios":{
       "section":"7",
       "value":"2a"
      }
     }
    },
    {
     "filename":"I1CZ49060078.tif",
     "pagination":{
      "pgfolios":{
       "section":"7",
       "value":"2b"
      }
     }
    },
    {
     "filename":"I1CZ49060079.tif",
     "pagination":{
      "pgfolios":{
       "section":"7",
       "value":"3a"
      }
     }
    },
    {
     "filename":"I1CZ49060080.tif",
     "pagination":{
      "pgfolios":{
       "section":"7",
       "value":"3b"
      }
     }
    },
    {
     "filename":"I1CZ49060081.tif",
     "pagination":{
      "pgfolios":{
       "section":"7",
       "value":"4a"
      }
     }
    },
    {
     "filename":"I1CZ49060082.tif",
     "pagination":{
      "pgfolios":{
       "section":"7",
       "value":"4b"
      }
     }
    },
    {
     "filename":"I1CZ49060083.tif",
     "pagination":{
      "pgfolios":{
       "section":"7",
       "value":"5a"
      }
     }
    },
    {
     "filename":"I1CZ49060084.tif",
     "pagination":{
      "pgfolios":{
       "section":"7",
       "value":"5b"
      }
     }
    },
    {
     "filename":"I1CZ49060085.tif",
     "pagination":{
      "pgfolios":{
       "section":"8",
       "value":"1a"
      }
     }
    },
    {
     "filename":"I1CZ49060086.tif",
     "pagination":{
      "pgfolios":{
       "section":"8",
       "value":"1b"
      }
     }
    },
    {
     "filename":"I1CZ49060087.tif",
     "pagination":{
      "pgfolios":{
       "section":"8",
       "value":"2a"
      }
     }
    },
    {
     "filename":"I1CZ49060088.tif",
     "pagination":{
      "pgfolios":{
       "section":"8",
       "value":"2b"
      }
     }
    },
    {
     "filename":"I1CZ49060089.tif",
     "pagination":{
      "pgfolios":{
       "section":"8",
       "value":"3a"
      }
     }
    },
    {
     "filename":"I1CZ49060090.tif",
     "pagination":{
      "pgfolios":{
       "section":"8",
       "value":"3b"
      }
     }
    },
    {
     "filename":"I1CZ49060091.tif",
     "pagination":{
      "pgfolios":{
       "section":"8",
       "value":"4a"
      }
     }
    },
    {
     "filename":"I1CZ49060092.tif",
     "pagination":{
      "pgfolios":{
       "section":"8",
       "value":"4b"
      }
     }
    },
    {
     "filename":"I1CZ49060093.tif",
     "pagination":{
      "pgfolios":{
       "section":"8",
       "value":"5a"
      }
     }
    },
    {
     "filename":"I1CZ49060094.tif",
     "pagination":{
      "pgfolios":{
       "section":"8",
       "value":"5b"
      }
     }
    },
    {
     "filename":"I1CZ49060095.tif",
     "pagination":{
      "pgfolios":{
       "section":"9",
       "value":"1a"
      }
     }
    },
    {
     "filename":"I1CZ49060096.tif",
     "pagination":{
      "pgfolios":{
       "section":"9",
       "value":"1b"
      }
     }
    },
    {
     "filename":"I1CZ49060097.tif",
     "pagination":{
      "pgfolios":{
       "section":"9",
       "value":"2a"
      }
     }
    },
    {
     "filename":"I1CZ49060098.tif",
     "pagination":{
      "pgfolios":{
       "section":"9",
       "value":"2b"
      }
     }
    },
    {
     "filename":"I1CZ49060099.tif",
     "pagination":{
      "pgfolios":{
       "section":"9",
       "value":"3a"
      }
     }
    },
    {
     "filename":"I1CZ49060100.tif",
     "pagination":{
      "pgfolios":{
       "section":"9",
       "value":"3b"
      }
     }
    },
    {
     "filename":"I1CZ49060101.tif",
     "pagination":{
      "pgfolios":{
       "section":"9",
       "value":"4a"
      }
     }
    },
    {
     "filename":"I1CZ49060102.tif",
     "pagination":{
      "pgfolios":{
       "section":"9",
       "value":"4b"
      }
     }
    },
    {
     "filename":"I1CZ49060103.tif",
     "pagination":{
      "pgfolios":{
       "section":"9",
       "value":"5a"
      }
     }
    },
    {
     "filename":"I1CZ49060104.tif",
     "pagination":{
      "pgfolios":{
       "section":"9",
       "value":"5b"
      }
     }
    },
    {
     "filename":"I1CZ49060105.tif",
     "pagination":{
      "pgfolios":{
       "section":"9",
       "value":"6a"
      }
     }
    },
    {
     "filename":"I1CZ49060106.tif",
     "pagination":{
      "pgfolios":{
       "section":"9",
       "value":"6b"
      }
     }
    },
    {
     "filename":"I1CZ49060107.tif",
     "pagination":{
      "pgfolios":{
       "section":"9",
       "value":"7a"
      }
     }
    },
    {
     "filename":"I1CZ49060108.tif",
     "pagination":{
      "pgfolios":{
       "section":"9",
       "value":"7b"
      }
     }
    },
    {
     "filename":"I1CZ49060109.tif",
     "pagination":{
      "pgfolios":{
       "section":"9",
       "value":"8a"
      }
     }
    },
    {
     "filename":"I1CZ49060110.tif",
     "pagination":{
      "pgfolios":{
       "section":"9",
       "value":"8b"
      }
     }
    },
    {
     "filename":"I1CZ49060111.tif",
     "pagination":{
      "pgfolios":{
       "section":"10",
       "value":"1a"
      }
     }
    },
    {
     "filename":"I1CZ49060112.tif",
     "pagination":{
      "pgfolios":{
       "section":"10",
       "value":"1b"
      }
     }
    },
    {
     "filename":"I1CZ49060113.tif",
     "pagination":{
      "pgfolios":{
       "section":"10",
       "value":"2a"
      }
     }
    },
    {
     "filename":"I1CZ49060114.tif",
     "pagination":{
      "pgfolios":{
       "section":"10",
       "value":"2b"
      }
     }
    },
    {
     "filename":"I1CZ49060115.tif",
     "pagination":{
      "pgfolios":{
       "section":"10",
       "value":"3a"
      }
     }
    },
    {
     "filename":"I1CZ49060116.tif",
     "pagination":{
      "pgfolios":{
       "section":"10",
       "value":"3b"
      }
     }
    },
    {
     "filename":"I1CZ49060117.tif",
     "pagination":{
      "pgfolios":{
       "section":"10",
       "value":"4a"
      }
     }
    },
    {
     "filename":"I1CZ49060118.tif",
     "pagination":{
      "pgfolios":{
       "section":"10",
       "value":"4b"
      }
     }
    },
    {
     "filename":"I1CZ49060119.tif",
     "pagination":{
      "pgfolios":{
       "section":"10",
       "value":"5a"
      }
     }
    },
    {
     "filename":"I1CZ49060120.tif",
     "pagination":{
      "pgfolios":{
       "section":"10",
       "value":"5b"
      }
     }
    },
    {
     "filename":"I1CZ49060121.tif",
     "pagination":{
      "pgfolios":{
       "section":"10",
       "value":"6a"
      }
     }
    },
    {
     "filename":"I1CZ49060122.tif",
     "pagination":{
      "pgfolios":{
       "section":"10",
       "value":"6b"
      }
     }
    },
    {
     "filename":"I1CZ49060123.tif",
     "pagination":{
      "pgfolios":{
       "section":"10",
       "value":"7a"
      }
     }
    },
    {
     "filename":"I1CZ49060124.tif",
     "pagination":{
      "pgfolios":{
       "section":"10",
       "value":"7b"
      }
     }
    },
    {
     "filename":"I1CZ49060125.tif",
     "pagination":{
      "pgfolios":{
       "section":"10",
       "value":"8a"
      }
     }
    },
    {
     "filename":"I1CZ49060126.tif",
     "pagination":{
      "pgfolios":{
       "section":"10",
       "value":"8b"
      }
     }
    },
    {
     "filename":"I1CZ49060127.tif",
     "pagination":{
      "pgfolios":{
       "section":"10",
       "value":"9a"
      }
     }
    },
    {
     "filename":"I1CZ49060128.tif",
     "pagination":{
      "pgfolios":{
       "section":"10",
       "value":"9b"
      }
     }
    },
    {
     "filename":"I1CZ49060129.tif",
     "pagination":{
      "pgfolios":{
       "section":"10",
       "value":"10a"
      }
     }
    },
    {
     "filename":"I1CZ49060130.tif",
     "pagination":{
      "pgfolios":{
       "section":"10",
       "value":"10b"
      }
     }
    },
    {
     "filename":"I1CZ49060131.tif",
     "pagination":{
      "pgfolios":{
       "section":"10",
       "value":"11a"
      }
     }
    },
    {
     "filename":"I1CZ49060132.tif",
     "pagination":{
      "pgfolios":{
       "section":"10",
       "value":"11b"
      }
     }
    },
    {
     "filename":"I1CZ49060133.tif",
     "pagination":{
      "pgfolios":{
       "section":"10",
       "value":"12a"
      }
     }
    },
    {
     "filename":"I1CZ49060134.tif",
     "pagination":{
      "pgfolios":{
       "section":"10",
       "value":"12b"
      }
     }
    },
    {
     "filename":"I1CZ49060135.tif",
     "pagination":{
      "pgfolios":{
       "section":"10",
       "value":"13a"
      }
     }
    },
    {
     "filename":"I1CZ49060136.tif",
     "pagination":{
      "pgfolios":{
       "section":"10",
       "value":"13b"
      }
     }
    },
    {
     "filename":"I1CZ49060137.tif",
     "pagination":{
      "pgfolios":{
       "section":"10",
       "value":"14a"
      }
     }
    },
    {
     "filename":"I1CZ49060138.tif",
     "pagination":{
      "pgfolios":{
       "section":"10",
       "value":"14b"
      }
     }
    },
    {
     "filename":"I1CZ49060139.tif",
     "pagination":{
      "pgfolios":{
       "section":"10",
       "value":"15a"
      }
     }
    },
    {
     "filename":"I1CZ49060140.tif",
     "pagination":{
      "pgfolios":{
       "section":"10",
       "value":"15b"
      }
     }
    },
    {
     "filename":"I1CZ49060141.tif",
     "pagination":{
      "pgfolios":{
       "section":"10",
       "value":"16a"
      }
     }
    },
    {
     "filename":"I1CZ49060142.tif",
     "pagination":{
      "pgfolios":{
       "section":"10",
       "value":"16b"
      }
     }
    },
    {
     "filename":"I1CZ49060143.tif",
     "pagination":{
      "pgfolios":{
       "section":"10",
       "value":"17a"
      }
     }
    },
    {
     "filename":"I1CZ49060144.tif",
     "pagination":{
      "pgfolios":{
       "section":"10",
       "value":"17b"
      }
     }
    },
    {
     "filename":"I1CZ49060145.tif",
     "pagination":{
      "pgfolios":{
       "section":"10",
       "value":"18a"
      }
     }
    },
    {
     "filename":"I1CZ49060146.tif",
     "pagination":{
      "pgfolios":{
       "section":"10",
       "value":"18b"
      }
     }
    },
    {
     "filename":"I1CZ49060147.tif",
     "pagination":{
      "pgfolios":{
       "section":"10",
       "value":"19a"
      }
     }
    },
    {
     "filename":"I1CZ49060148.tif",
     "pagination":{
      "pgfolios":{
       "section":"10",
       "value":"19b"
      }
     }
    },
    {
     "filename":"I1CZ49060149.tif",
     "pagination":{
      "pgfolios":{
       "section":"10",
       "value":"20a"
      }
     }
    },
    {
     "filename":"I1CZ49060150.tif",
     "pagination":{
      "pgfolios":{
       "section":"10",
       "value":"20b"
      }
     }
    },
    {
     "filename":"I1CZ49060151.tif",
     "pagination":{
      "pgfolios":{
       "section":"10",
       "value":"21a"
      }
     }
    },
    {
     "filename":"I1CZ49060152.tif",
     "pagination":{
      "pgfolios":{
       "section":"10",
       "value":"21b"
      }
     }
    },
    {
     "filename":"I1CZ49060153.tif",
     "pagination":{
      "pgfolios":{
       "section":"10",
       "value":"22a"
      }
     }
    },
    {
     "filename":"I1CZ49060154.tif",
     "pagination":{
      "pgfolios":{
       "section":"10",
       "value":"22b"
      }
     }
    },
    {
     "filename":"I1CZ49060155.tif",
     "pagination":{
      "pgfolios":{
       "section":"10",
       "value":"23a"
      }
     }
    },
    {
     "filename":"I1CZ49060156.tif",
     "pagination":{
      "pgfolios":{
       "section":"10",
       "value":"23b"
      }
     }
    },
    {
     "filename":"I1CZ49060157.tif",
     "pagination":{
      "pgfolios":{
       "section":"10",
       "value":"24a"
      }
     }
    },
    {
     "filename":"I1CZ49060158.tif",
     "pagination":{
      "pgfolios":{
       "section":"10",
       "value":"24b"
      }
     }
    },
    {
     "filename":"I1CZ49060159.tif",
     "pagination":{
      "pgfolios":{
       "section":"10",
       "value":"25a"
      }
     }
    },
    {
     "filename":"I1CZ49060160.tif",
     "pagination":{
      "pgfolios":{
       "section":"10",
       "value":"25b"
      }
     }
    },
    {
     "filename":"I1CZ49060161.tif",
     "pagination":{
      "pgfolios":{
       "section":"11",
       "value":"1a"
      }
     }
    },
    {
     "filename":"I1CZ49060162.tif",
     "pagination":{
      "pgfolios":{
       "section":"11",
       "value":"1b"
      }
     }
    },
    {
     "filename":"I1CZ49060163.tif",
     "pagination":{
      "pgfolios":{
       "section":"11",
       "value":"2a"
      }
     }
    },
    {
     "filename":"I1CZ49060164.tif",
     "pagination":{
      "pgfolios":{
       "section":"11",
       "value":"2b"
      }
     }
    },
    {
     "filename":"I1CZ49060165.tif",
     "pagination":{
      "pgfolios":{
       "section":"11",
       "value":"3a"
      }
     }
    },
    {
     "filename":"I1CZ49060166.tif",
     "pagination":{
      "pgfolios":{
       "section":"11",
       "value":"3b"
      }
     }
    },
    {
     "filename":"I1CZ49060167.tif",
     "pagination":{
      "pgfolios":{
       "section":"11",
       "value":"4a"
      }
     }
    },
    {
     "filename":"I1CZ49060168.tif",
     "pagination":{
      "pgfolios":{
       "section":"11",
       "value":"4b"
      }
     }
    },
    {
     "filename":"I1CZ49060169.tif",
     "pagination":{
      "pgfolios":{
       "section":"12",
       "value":"1a"
      }
     }
    },
    {
     "filename":"I1CZ49060170.tif",
     "pagination":{
      "pgfolios":{
       "section":"12",
       "value":"1b"
      }
     }
    },
    {
     "filename":"I1CZ49060171.tif",
     "pagination":{
      "pgfolios":{
       "section":"12",
       "value":"2a"
      }
     }
    },
    {
     "filename":"I1CZ49060172.tif",
     "pagination":{
      "pgfolios":{
       "section":"12",
       "value":"2b"
      }
     }
    },
    {
     "filename":"I1CZ49060173.tif",
     "pagination":{
      "pgfolios":{
       "section":"12",
       "value":"3a"
      }
     }
    },
    {
     "filename":"I1CZ49060174.tif",
     "pagination":{
      "pgfolios":{
       "section":"12",
       "value":"3b"
      }
     }
    },
    {
     "filename":"I1CZ49060175.tif",
     "pagination":{
      "pgfolios":{
       "section":"12",
       "value":"4a"
      }
     }
    },
    {
     "filename":"I1CZ49060176.tif",
     "pagination":{
      "pgfolios":{
       "section":"12",
       "value":"4b"
      }
     }
    },
    {
     "filename":"I1CZ49060177.tif",
     "pagination":{
      "pgfolios":{
       "section":"12",
       "value":"5a"
      }
     }
    },
    {
     "filename":"I1CZ49060178.tif",
     "pagination":{
      "pgfolios":{
       "section":"12",
       "value":"5b"
      }
     }
    },
    {
     "filename":"I1CZ49060179.tif",
     "pagination":{
      "pgfolios":{
       "section":"12",
       "value":"6a"
      }
     }
    },
    {
     "filename":"I1CZ49060180.tif",
     "pagination":{
      "pgfolios":{
       "section":"12",
       "value":"6b"
      }
     }
    },
    {
     "filename":"I1CZ49060181.tif",
     "pagination":{
      "pgfolios":{
       "section":"12",
       "value":"7a"
      }
     }
    },
    {
     "filename":"I1CZ49060182.tif",
     "pagination":{
      "pgfolios":{
       "section":"12",
       "value":"7b"
      }
     }
    },
    {
     "filename":"I1CZ49060183.tif",
     "pagination":{
      "pgfolios":{
       "section":"12",
       "value":"8a"
      }
     }
    },
    {
     "filename":"I1CZ49060184.tif",
     "pagination":{
      "pgfolios":{
       "section":"12",
       "value":"8b"
      }
     }
    },
    {
     "filename":"I1CZ49060185.tif",
     "pagination":{
      "pgfolios":{
       "section":"12",
       "value":"9a"
      }
     }
    },
    {
     "filename":"I1CZ49060186.tif",
     "pagination":{
      "pgfolios":{
       "section":"12",
       "value":"9b"
      }
     }
    },
    {
     "filename":"I1CZ49060187.tif",
     "pagination":{
      "pgfolios":{
       "section":"13",
       "value":"1a"
      }
     }
    },
    {
     "filename":"I1CZ49060188.tif",
     "pagination":{
      "pgfolios":{
       "section":"13",
       "value":"1b"
      }
     }
    },
    {
     "filename":"I1CZ49060189.tif",
     "pagination":{
      "pgfolios":{
       "section":"13",
       "value":"2a"
      }
     }
    },
    {
     "filename":"I1CZ49060190.tif",
     "pagination":{
      "pgfolios":{
       "section":"13",
       "value":"2b"
      }
     }
    },
    {
     "filename":"I1CZ49060191.tif",
     "pagination":{
      "pgfolios":{
       "section":"13",
       "value":"3a"
      }
     }
    },
    {
     "filename":"I1CZ49060192.tif",
     "pagination":{
      "pgfolios":{
       "section":"13",
       "value":"3b"
      }
     }
    },
    {
     "filename":"I1CZ49060193.tif",
     "pagination":{
      "pgfolios":{
       "section":"13",
       "value":"4a"
      }
     }
    },
    {
     "filename":"I1CZ49060194.tif",
     "pagination":{
      "pgfolios":{
       "section":"13",
       "value":"4b"
      }
     }
    },
    {
     "filename":"I1CZ49060195.tif",
     "pagination":{
      "pgfolios":{
       "section":"13",
       "value":"5a"
      }
     }
    },
    {
     "filename":"I1CZ49060196.tif",
     "pagination":{
      "pgfolios":{
       "section":"13",
       "value":"5b"
      }
     }
    },
    {
     "filename":"I1CZ49060197.tif",
     "pagination":{
      "pgfolios":{
       "section":"13",
       "value":"6a"
      }
     }
    },
    {
     "filename":"I1CZ49060198.tif",
     "pagination":{
      "pgfolios":{
       "section":"13",
       "value":"6b"
      }
     }
    },
    {
     "filename":"I1CZ49060199.tif",
     "pagination":{
      "pgfolios":{
       "section":"13",
       "value":"7a"
      }
     }
    },
    {
     "filename":"I1CZ49060200.tif",
     "pagination":{
      "pgfolios":{
       "section":"13",
       "value":"7b"
      }
     }
    },
    {
     "filename":"I1CZ49060201.tif",
     "pagination":{
      "pgfolios":{
       "section":"13",
       "value":"8a"
      }
     }
    },
    {
     "filename":"I1CZ49060202.tif",
     "pagination":{
      "pgfolios":{
       "section":"13",
       "value":"8b"
      }
     }
    },
    {
     "filename":"I1CZ49060203.tif",
     "pagination":{
      "pgfolios":{
       "section":"13",
       "value":"9a"
      }
     }
    },
    {
     "filename":"I1CZ49060204.tif",
     "pagination":{
      "pgfolios":{
       "section":"13",
       "value":"9b"
      }
     }
    },
    {
     "filename":"I1CZ49060205.tif",
     "pagination":{
      "pgfolios":{
       "section":"13",
       "value":"10a"
      }
     }
    },
    {
     "filename":"I1CZ49060206.tif",
     "pagination":{
      "pgfolios":{
       "section":"13",
       "value":"10b"
      }
     }
    },
    {
     "filename":"I1CZ49060207.tif",
     "pagination":{
      "pgfolios":{
       "section":"13",
       "value":"11a"
      }
     }
    },
    {
     "filename":"I1CZ49060208.tif",
     "pagination":{
      "pgfolios":{
       "section":"13",
       "value":"11b"
      }
     }
    },
    {
     "filename":"I1CZ49060209.tif",
     "pagination":{
      "pgfolios":{
       "section":"13",
       "value":"12a"
      }
     }
    },
    {
     "filename":"I1CZ49060210.tif",
     "pagination":{
      "pgfolios":{
       "section":"13",
       "value":"12b"
      }
     }
    },
    {
     "filename":"I1CZ49060211.tif",
     "pagination":{
      "pgfolios":{
       "section":"13",
       "value":"13a"
      }
     }
    },
    {
     "filename":"I1CZ49060212.tif",
     "pagination":{
      "pgfolios":{
       "section":"13",
       "value":"13b"
      }
     }
    },
    {
     "filename":"I1CZ49060213.tif",
     "pagination":{
      "pgfolios":{
       "section":"13",
       "value":"14a"
      }
     }
    },
    {
     "filename":"I1CZ49060214.tif",
     "pagination":{
      "pgfolios":{
       "section":"13",
       "value":"14b"
      }
     }
    },
    {
     "filename":"I1CZ49060215.tif",
     "pagination":{
      "pgfolios":{
       "section":"13",
       "value":"15a"
      }
     }
    },
    {
     "filename":"I1CZ49060216.tif",
     "pagination":{
      "pgfolios":{
       "section":"13",
       "value":"15b"
      }
     }
    },
    {
     "filename":"I1CZ49060217.tif",
     "pagination":{
      "pgfolios":{
       "section":"13",
       "value":"16a"
      }
     }
    },
    {
     "filename":"I1CZ49060218.tif",
     "pagination":{
      "pgfolios":{
       "section":"13",
       "value":"16b"
      }
     }
    },
    {
     "filename":"I1CZ49060219.tif",
     "pagination":{
      "pgfolios":{
       "section":"13",
       "value":"17a"
      }
     }
    },
    {
     "filename":"I1CZ49060220.tif",
     "pagination":{
      "pgfolios":{
       "section":"13",
       "value":"17b"
      }
     }
    },
    {
     "filename":"I1CZ49060221.tif",
     "pagination":{
      "pgfolios":{
       "section":"13",
       "value":"18a"
      }
     }
    },
    {
     "filename":"I1CZ49060222.tif",
     "pagination":{
      "pgfolios":{
       "section":"13",
       "value":"18b"
      }
     }
    },
    {
     "filename":"I1CZ49060223.tif",
     "pagination":{
      "pgfolios":{
       "section":"13",
       "value":"19a"
      }
     }
    },
    {
     "filename":"I1CZ49060224.tif",
     "pagination":{
      "pgfolios":{
       "section":"13",
       "value":"19b"
      }
     }
    },
    {
     "filename":"I1CZ49060225.tif",
     "pagination":{
      "pgfolios":{
       "section":"13",
       "value":"20a"
      }
     }
    },
    {
     "filename":"I1CZ49060226.tif",
     "pagination":{
      "pgfolios":{
       "section":"13",
       "value":"20b"
      }
     }
    },
    {
     "filename":"I1CZ49060227.tif",
     "pagination":{
      "pgfolios":{
       "section":"13",
       "value":"21a"
      }
     }
    },
    {
     "filename":"I1CZ49060228.tif",
     "pagination":{
      "pgfolios":{
       "section":"13",
       "value":"21b"
      }
     }
    },
    {
     "filename":"I1CZ49060229.tif",
     "pagination":{
      "pgfolios":{
       "section":"13",
       "value":"22a"
      }
     }
    },
    {
     "filename":"I1CZ49060230.tif",
     "pagination":{
      "pgfolios":{
       "section":"13",
       "value":"22b"
      }
     }
    },
    {
     "filename":"I1CZ49060231.tif",
     "pagination":{
      "pgfolios":{
       "section":"14",
       "value":"1a"
      }
     }
    },
    {
     "filename":"I1CZ49060232.tif",
     "pagination":{
      "pgfolios":{
       "section":"14",
       "value":"1b"
      }
     }
    },
    {
     "filename":"I1CZ49060233.tif",
     "pagination":{
      "pgfolios":{
       "section":"14",
       "value":"2a"
      }
     }
    },
    {
     "filename":"I1CZ49060234.tif",
     "pagination":{
      "pgfolios":{
       "section":"14",
       "value":"2b"
      }
     }
    },
    {
     "filename":"I1CZ49060235.tif",
     "pagination":{
      "pgfolios":{
       "section":"14",
       "value":"3a"
      }
     }
    },
    {
     "filename":"I1CZ49060236.tif",
     "pagination":{
      "pgfolios":{
       "section":"14",
       "value":"3b"
      }
     }
    },
    {
     "filename":"I1CZ49060237.tif",
     "pagination":{
      "pgfolios":{
       "section":"14",
       "value":"4a"
      }
     }
    },
    {
     "filename":"I1CZ49060238.tif",
     "pagination":{
      "pgfolios":{
       "section":"14",
       "value":"4b"
      }
     }
    },
    {
     "filename":"I1CZ49060239.tif",
     "pagination":{
      "pgfolios":{
       "section":"14",
       "value":"5a"
      }
     }
    },
    {
     "filename":"I1CZ49060240.tif",
     "pagination":{
      "pgfolios":{
       "section":"14",
       "value":"5b"
      }
     }
    },
    {
     "filename":"I1CZ49060241.tif",
     "pagination":{
      "pgfolios":{
       "section":"14",
       "value":"6a"
      }
     }
    },
    {
     "filename":"I1CZ49060242.tif",
     "pagination":{
      "pgfolios":{
       "section":"14",
       "value":"6b"
      }
     }
    },
    {
     "filename":"I1CZ49060243.tif",
     "pagination":{
      "pgfolios":{
       "section":"14",
       "value":"7a"
      }
     }
    },
    {
     "filename":"I1CZ49060244.tif",
     "pagination":{
      "pgfolios":{
       "section":"14",
       "value":"7b"
      }
     }
    },
    {
     "filename":"I1CZ49060245.tif",
     "pagination":{
      "pgfolios":{
       "section":"14",
       "value":"8a"
      }
     }
    },
    {
     "filename":"I1CZ49060246.tif",
     "pagination":{
      "pgfolios":{
       "section":"14",
       "value":"8b"
      }
     }
    },
    {
     "filename":"I1CZ49060247.tif",
     "pagination":{
      "pgfolios":{
       "section":"14",
       "value":"9a"
      }
     }
    },
    {
     "filename":"I1CZ49060248.tif",
     "pagination":{
      "pgfolios":{
       "section":"14",
       "value":"9b"
      }
     }
    },
    {
     "filename":"I1CZ49060249.tif",
     "pagination":{
      "pgfolios":{
       "section":"14",
       "value":"10a"
      }
     }
    },
    {
     "filename":"I1CZ49060250.tif",
     "pagination":{
      "pgfolios":{
       "section":"14",
       "value":"10b"
      }
     }
    },
    {
     "filename":"I1CZ49060251.tif",
     "pagination":{
      "pgfolios":{
       "section":"15",
       "value":"1a"
      }
     }
    },
    {
     "filename":"I1CZ49060252.tif",
     "pagination":{
      "pgfolios":{
       "section":"15",
       "value":"1b"
      }
     }
    },
    {
     "filename":"I1CZ49060253.tif",
     "pagination":{
      "pgfolios":{
       "section":"15",
       "value":"2a"
      }
     }
    },
    {
     "filename":"I1CZ49060254.tif",
     "pagination":{
      "pgfolios":{
       "section":"15",
       "value":"2b"
      }
     }
    },
    {
     "filename":"I1CZ49060255.tif",
     "pagination":{
      "pgfolios":{
       "section":"16",
       "value":"1a"
      }
     }
    },
    {
     "filename":"I1CZ49060256.tif",
     "pagination":{
      "pgfolios":{
       "section":"16",
       "value":"1b"
      }
     }
    },
    {
     "filename":"I1CZ49060257.tif",
     "pagination":{
      "pgfolios":{
       "section":"17",
       "value":"1a"
      }
     }
    },
    {
     "filename":"I1CZ49060258.tif",
     "pagination":{
      "pgfolios":{
       "section":"17",
       "value":"1b"
      }
     }
    },
    {
     "filename":"I1CZ49060259.tif",
     "pagination":{
      "pgfolios":{
       "section":"17",
       "value":"2a"
      }
     }
    },
    {
     "filename":"I1CZ49060260.tif",
     "pagination":{
      "pgfolios":{
       "section":"17",
       "value":"2b"
      }
     }
    },
    {
     "filename":"I1CZ49060261.tif",
     "pagination":{
      "pgfolios":{
       "section":"17",
       "value":"3a"
      }
     }
    },
    {
     "filename":"I1CZ49060262.tif",
     "pagination":{
      "pgfolios":{
       "section":"17",
       "value":"3b"
      }
     }
    },
    {
     "filename":"I1CZ49060263.tif",
     "pagination":{
      "pgfolios":{
       "section":"17",
       "value":"4a"
      }
     }
    },
    {
     "filename":"I1CZ49060264.tif",
     "pagination":{
      "pgfolios":{
       "section":"17",
       "value":"4b"
      }
     }
    },
    {
     "filename":"I1CZ49060265.tif",
     "pagination":{
      "pgfolios":{
       "section":"18",
       "value":"1a"
      }
     }
    },
    {
     "filename":"I1CZ49060266.tif",
     "pagination":{
      "pgfolios":{
       "section":"18",
       "value":"1b"
      }
     }
    },
    {
     "filename":"I1CZ49060267.tif",
     "pagination":{
      "pgfolios":{
       "section":"18",
       "value":"2a"
      }
     }
    },
    {
     "filename":"I1CZ49060268.tif",
     "pagination":{
      "pgfolios":{
       "section":"18",
       "value":"2b"
      }
     }
    },
    {
     "filename":"I1CZ49060269.tif",
     "pagination":{
      "pgfolios":{
       "section":"18",
       "value":"3a"
      }
     }
    },
    {
     "filename":"I1CZ49060270.tif",
     "pagination":{
      "pgfolios":{
       "section":"18",
       "value":"3b"
      }
     }
    },
    {
     "filename":"I1CZ49060271.tif",
     "pagination":{
      "pgfolios":{
       "section":"18",
       "value":"4a"
      }
     }
    },
    {
     "filename":"I1CZ49060272.tif",
     "pagination":{
      "pgfolios":{
       "section":"18",
       "value":"4b"
      }
     }
    },
    {
     "filename":"I1CZ49060273.tif",
     "pagination":{
      "pgfolios":{
       "section":"18",
       "value":"5a"
      }
     }
    },
    {
     "filename":"I1CZ49060274.tif",
     "pagination":{
      "pgfolios":{
       "section":"18",
       "value":"5b"
      }
     }
    },
    {
     "filename":"I1CZ49060275.tif",
     "pagination":{
      "pgfolios":{
       "section":"18",
       "value":"6a"
      }
     }
    },
    {
     "filename":"I1CZ49060276.tif",
     "pagination":{
      "pgfolios":{
       "section":"18",
       "value":"6b"
      }
     }
    },
    {
     "filename":"I1CZ49060277.tif",
     "pagination":{
      "pgfolios":{
       "section":"18",
       "value":"7a"
      }
     }
    },
    {
     "filename":"I1CZ49060278.tif",
     "pagination":{
      "pgfolios":{
       "section":"18",
       "value":"7b"
      }
     }
    },
    {
     "filename":"I1CZ49060279.tif",
     "pagination":{
      "pgfolios":{
       "section":"18",
       "value":"8a"
      }
     }
    },
    {
     "filename":"I1CZ49060280.tif",
     "pagination":{
      "pgfolios":{
       "section":"18",
       "value":"8b"
      }
     }
    },
    {
     "filename":"I1CZ49060281.tif",
     "pagination":{
      "pgfolios":{
       "section":"18",
       "value":"9a"
      }
     }
    },
    {
     "filename":"I1CZ49060282.tif",
     "pagination":{
      "pgfolios":{
       "section":"18",
       "value":"9b"
      }
     }
    },
    {
     "filename":"I1CZ49060283.tif",
     "pagination":{
      "pgfolios":{
       "section":"18",
       "value":"10a"
      }
     }
    },
    {
     "filename":"I1CZ49060284.tif",
     "pagination":{
      "pgfolios":{
       "section":"18",
       "value":"10b"
      }
     }
    },
    {
     "filename":"I1CZ49060285.tif",
     "pagination":{
      "pgfolios":{
       "section":"18",
       "value":"11a"
      }
     }
    },
    {
     "filename":"I1CZ49060286.tif",
     "pagination":{
      "pgfolios":{
       "section":"18",
       "value":"11b"
      }
     }
    },
    {
     "filename":"I1CZ49060287.tif",
     "pagination":{
      "pgfolios":{
       "section":"18",
       "value":"12a"
      }
     }
    },
    {
     "filename":"I1CZ49060288.tif",
     "pagination":{
      "pgfolios":{
       "section":"18",
       "value":"12b"
      }
     }
    },
    {
     "filename":"I1CZ49060289.tif",
     "pagination":{
      "pgfolios":{
       "section":"18",
       "value":"13a"
      }
     }
    },
    {
     "filename":"I1CZ49060290.tif",
     "pagination":{
      "pgfolios":{
       "section":"18",
       "value":"13b"
      }
     }
    },
    {
     "filename":"I1CZ49060291.tif",
     "pagination":{
      "pgfolios":{
       "section":"18",
       "value":"14a"
      }
     }
    },
    {
     "filename":"I1CZ49060292.tif",
     "pagination":{
      "pgfolios":{
       "section":"18",
       "value":"14b"
      }
     }
    },
    {
     "filename":"I1CZ49060293.tif",
     "pagination":{
      "pgfolios":{
       "section":"18",
       "value":"15a"
      }
     }
    },
    {
     "filename":"I1CZ49060294.tif",
     "pagination":{
      "pgfolios":{
       "section":"18",
       "value":"15b"
      }
     }
    },
    {
     "filename":"I1CZ49060295.tif",
     "pagination":{
      "pgfolios":{
       "section":"18",
       "value":"16a"
      }
     }
    },
    {
     "filename":"I1CZ49060296.tif",
     "pagination":{
      "pgfolios":{
       "section":"18",
       "value":"16b"
      }
     }
    },
    {
     "filename":"I1CZ49060297.tif",
     "pagination":{
      "pgfolios":{
       "section":"18",
       "value":"17a"
      }
     }
    },
    {
     "filename":"I1CZ49060298.tif",
     "pagination":{
      "pgfolios":{
       "section":"18",
       "value":"17b"
      }
     }
    },
    {
     "filename":"I1CZ49060299.tif",
     "pagination":{
      "pgfolios":{
       "section":"18",
       "value":"18a"
      }
     }
    },
    {
     "filename":"I1CZ49060300.tif",
     "pagination":{
      "pgfolios":{
       "section":"18",
       "value":"18b"
      }
     }
    },
    {
     "filename":"I1CZ49060301.tif",
     "pagination":{
      "pgfolios":{
       "section":"18",
       "value":"19a"
      }
     }
    },
    {
     "filename":"I1CZ49060302.tif",
     "pagination":{
      "pgfolios":{
       "section":"18",
       "value":"19b"
      }
     }
    },
    {
     "filename":"I1CZ49060303.tif",
     "pagination":{
      "pgfolios":{
       "section":"18",
       "value":"20a"
      }
     }
    },
    {
     "filename":"I1CZ49060304.tif",
     "pagination":{
      "pgfolios":{
       "section":"18",
       "value":"20b"
      }
     }
    },
    {
     "filename":"I1CZ49060305.tif",
     "pagination":{
      "pgfolios":{
       "section":"18",
       "value":"21a"
      }
     }
    },
    {
     "filename":"I1CZ49060306.tif",
     "pagination":{
      "pgfolios":{
       "section":"18",
       "value":"21b"
      }
     }
    },
    {
     "filename":"I1CZ49060307.tif",
     "pagination":{
      "pgfolios":{
       "section":"18",
       "value":"22a"
      }
     }
    },
    {
     "filename":"I1CZ49060308.tif",
     "pagination":{
      "pgfolios":{
       "section":"18",
       "value":"22b"
      }
     }
    },
    {
     "filename":"I1CZ49060309.tif",
     "pagination":{
      "pgfolios":{
       "section":"18",
       "value":"23a"
      }
     }
    },
    {
     "filename":"I1CZ49060310.tif",
     "pagination":{
      "pgfolios":{
       "section":"18",
       "value":"23b"
      }
     }
    },
    {
     "filename":"I1CZ49060311.tif",
     "pagination":{
      "pgfolios":{
       "section":"18",
       "value":"24a"
      }
     }
    },
    {
     "filename":"I1CZ49060312.tif",
     "pagination":{
      "pgfolios":{
       "section":"18",
       "value":"24b"
      }
     }
    },
    {
     "filename":"I1CZ49060313.tif",
     "pagination":{
      "pgfolios":{
       "section":"18",
       "value":"25a"
      }
     }
    },
    {
     "filename":"I1CZ49060314.tif",
     "pagination":{
      "pgfolios":{
       "section":"18",
       "value":"25b"
      }
     }
    },
    {
     "filename":"I1CZ49060315.tif",
     "pagination":{
      "pgfolios":{
       "section":"18",
       "value":"26a"
      }
     }
    },
    {
     "filename":"I1CZ49060316.tif",
     "pagination":{
      "pgfolios":{
       "section":"18",
       "value":"26b"
      }
     }
    },
    {
     "filename":"I1CZ49060317.tif",
     "pagination":{
      "pgfolios":{
       "section":"18",
       "value":"27a"
      }
     }
    },
    {
     "filename":"I1CZ49060318.tif",
     "pagination":{
      "pgfolios":{
       "section":"18",
       "value":"27b"
      }
     }
    },
    {
     "filename":"I1CZ49060319.tif",
     "pagination":{
      "pgfolios":{
       "section":"18",
       "value":"28a"
      }
     }
    },
    {
     "filename":"I1CZ49060320.tif",
     "pagination":{
      "pgfolios":{
       "section":"18",
       "value":"28b"
      }
     }
    },
    {
     "filename":"I1CZ49060321.tif",
     "pagination":{
      "pgfolios":{
       "section":"18",
       "value":"29a"
      }
     }
    },
    {
     "filename":"I1CZ49060322.tif",
     "pagination":{
      "pgfolios":{
       "section":"18",
       "value":"29b"
      }
     }
    },
    {
     "filename":"I1CZ49060323.tif",
     "pagination":{
      "pgfolios":{
       "section":"18",
       "value":"30a"
      }
     }
    },
    {
     "filename":"I1CZ49060324.tif",
     "pagination":{
      "pgfolios":{
       "section":"18",
       "value":"30b"
      }
     }
    },
    {
     "filename":"I1CZ49060325.tif",
     "pagination":{
      "pgfolios":{
       "section":"18",
       "value":"31a"
      }
     }
    },
    {
     "filename":"I1CZ49060326.tif",
     "pagination":{
      "pgfolios":{
       "section":"18",
       "value":"31b"
      }
     }
    },
    {
     "filename":"I1CZ49060327.tif",
     "pagination":{
      "pgfolios":{
       "section":"18",
       "value":"32a"
      }
     }
    },
    {
     "filename":"I1CZ49060328.tif",
     "pagination":{
      "pgfolios":{
       "section":"18",
       "value":"32b"
      }
     }
    },
    {
     "filename":"I1CZ49060329.tif",
     "pagination":{
      "pgfolios":{
       "section":"18",
       "value":"33a"
      }
     }
    },
    {
     "filename":"I1CZ49060330.tif",
     "pagination":{
      "pgfolios":{
       "section":"18",
       "value":"33b"
      }
     }
    },
    {
     "filename":"I1CZ49060331.tif",
     "pagination":{
      "pgfolios":{
       "section":"18",
       "value":"34a"
      }
     }
    },
    {
     "filename":"I1CZ49060332.tif",
     "pagination":{
      "pgfolios":{
       "section":"18",
       "value":"34b"
      }
     }
    },
    {
     "filename":"I1CZ49060333.tif",
     "pagination":{
      "pgfolios":{
       "section":"18",
       "value":"35a"
      }
     }
    },
    {
     "filename":"I1CZ49060334.tif",
     "pagination":{
      "pgfolios":{
       "section":"18",
       "value":"35b"
      }
     }
    },
    {
     "filename":"I1CZ49060335.tif",
     "pagination":{
      "pgfolios":{
       "section":"18",
       "value":"36a"
      }
     }
    },
    {
     "filename":"I1CZ49060336.tif",
     "pagination":{
      "pgfolios":{
       "section":"18",
       "value":"36b"
      }
     }
    },
    {
     "filename":"I1CZ49060337.tif",
     "pagination":{
      "pgfolios":{
       "section":"18",
       "value":"37a"
      }
     }
    },
    {
     "filename":"I1CZ49060338.tif",
     "pagination":{
      "pgfolios":{
       "section":"18",
       "value":"37b"
      }
     }
    },
    {
     "filename":"I1CZ49060339.tif",
     "pagination":{
      "pgfolios":{
       "section":"18",
       "value":"38a"
      }
     }
    },
    {
     "filename":"I1CZ49060340.tif",
     "pagination":{
      "pgfolios":{
       "section":"18",
       "value":"38b"
      }
     }
    },
    {
     "filename":"I1CZ49060341.tif",
     "pagination":{
      "pgfolios":{
       "section":"18",
       "value":"39a"
      }
     }
    },
    {
     "filename":"I1CZ49060342.tif",
     "pagination":{
      "pgfolios":{
       "section":"18",
       "value":"39b"
      }
     }
    },
    {
     "filename":"I1CZ49060343.tif",
     "pagination":{
      "pgfolios":{
       "section":"18",
       "value":"40a"
      }
     }
    },
    {
     "filename":"I1CZ49060344.tif",
     "pagination":{
      "pgfolios":{
       "section":"18",
       "value":"40b"
      }
     }
    },
    {
     "filename":"I1CZ49060345.tif",
     "pagination":{
      "pgfolios":{
       "section":"18",
       "value":"41a"
      }
     }
    },
    {
     "filename":"I1CZ49060346.tif",
     "pagination":{
      "pgfolios":{
       "section":"18",
       "value":"41b"
      }
     }
    },
    {
     "filename":"I1CZ49060347.tif",
     "pagination":{
      "pgfolios":{
       "section":"18",
       "value":"42a"
      }
     }
    },
    {
     "filename":"I1CZ49060348.tif",
     "pagination":{
      "pgfolios":{
       "section":"18",
       "value":"42b"
      }
     }
    },
    {
     "filename":"I1CZ49060349.tif",
     "pagination":{
      "pgfolios":{
       "section":"18",
       "value":"43a"
      }
     }
    },
    {
     "filename":"I1CZ49060350.tif",
     "pagination":{
      "pgfolios":{
       "section":"18",
       "value":"43b"
      }
     }
    },
    {
     "filename":"I1CZ49060351.tif",
     "pagination":{
      "pgfolios":{
       "section":"18",
       "value":"44a"
      }
     }
    },
    {
     "filename":"I1CZ49060352.tif",
     "pagination":{
      "pgfolios":{
       "section":"18",
       "value":"44b"
      }
     }
    },
    {
     "filename":"I1CZ49060353.tif",
     "pagination":{
      "pgfolios":{
       "section":"18",
       "value":"45a"
      }
     }
    },
    {
     "filename":"I1CZ49060354.tif",
     "pagination":{
      "pgfolios":{
       "section":"18",
       "value":"45b"
      }
     }
    },
    {
     "filename":"I1CZ49060355.tif",
     "pagination":{
      "pgfolios":{
       "section":"18",
       "value":"46a"
      }
     }
    },
    {
     "filename":"I1CZ49060356.tif",
     "pagination":{
      "pgfolios":{
       "section":"18",
       "value":"46b"
      }
     }
    },
    {
     "filename":"I1CZ49060357.tif",
     "pagination":{
      "pgfolios":{
       "section":"18",
       "value":"47a"
      }
     }
    },
    {
     "filename":"I1CZ49060358.tif",
     "pagination":{
      "pgfolios":{
       "section":"18",
       "value":"47b"
      }
     }
    },
    {
     "filename":"I1CZ49060359.tif",
     "pagination":{
      "pgfolios":{
       "section":"18",
       "value":"48a"
      }
     }
    },
    {
     "filename":"I1CZ49060360.tif",
     "pagination":{
      "pgfolios":{
       "section":"18",
       "value":"48b"
      }
     }
    },
    {
     "filename":"I1CZ49060361.tif",
     "pagination":{
      "pgfolios":{
       "section":"18",
       "value":"49a"
      }
     }
    },
    {
     "filename":"I1CZ49060362.tif",
     "pagination":{
      "pgfolios":{
       "section":"18",
       "value":"49b"
      }
     }
    },
    {
     "filename":"I1CZ49060363.tif",
     "pagination":{
      "pgfolios":{
       "section":"18",
       "value":"50a"
      }
     }
    },
    {
     "filename":"I1CZ49060364.tif",
     "pagination":{
      "pgfolios":{
       "section":"18",
       "value":"50b"
      }
     }
    },
    {
     "filename":"I1CZ49060365.tif",
     "pagination":{
      "pgfolios":{
       "section":"19",
       "value":"1a"
      }
     }
    },
    {
     "filename":"I1CZ49060366.tif",
     "pagination":{
      "pgfolios":{
       "section":"19",
       "value":"1b"
      }
     }
    },
    {
     "filename":"I1CZ49060367.tif",
     "pagination":{
      "pgfolios":{
       "section":"19",
       "value":"2a"
      }
     }
    },
    {
     "filename":"I1CZ49060368.tif",
     "pagination":{
      "pgfolios":{
       "section":"19",
       "value":"2b"
      }
     }
    },
    {
     "filename":"I1CZ49060369.tif",
     "pagination":{
      "pgfolios":{
       "section":"19",
       "value":"3a"
      }
     }
    },
    {
     "filename":"I1CZ49060370.tif",
     "pagination":{
      "pgfolios":{
       "section":"19",
       "value":"3b"
      }
     }
    },
    {
     "filename":"I1CZ49060371.tif",
     "pagination":{
      "pgfolios":{
       "section":"19",
       "value":"4a"
      }
     }
    },
    {
     "filename":"I1CZ49060372.tif",
     "pagination":{
      "pgfolios":{
       "section":"19",
       "value":"4b"
      }
     }
    },
    {
     "filename":"I1CZ49060373.tif",
     "pagination":{
      "pgfolios":{
       "section":"19",
       "value":"5a"
      }
     }
    },
    {
     "filename":"I1CZ49060374.tif",
     "pagination":{
      "pgfolios":{
       "section":"19",
       "value":"5b"
      }
     }
    },
    {
     "filename":"I1CZ49060375.tif",
     "pagination":{
      "pgfolios":{
       "section":"19",
       "value":"6a"
      }
     }
    },
    {
     "filename":"I1CZ49060376.tif",
     "pagination":{
      "pgfolios":{
       "section":"19",
       "value":"6b"
      }
     }
    },
    {
     "filename":"I1CZ49060377.tif",
     "pagination":{
      "pgfolios":{
       "section":"19",
       "value":"7a"
      }
     }
    },
    {
     "filename":"I1CZ49060378.tif",
     "pagination":{
      "pgfolios":{
       "section":"19",
       "value":"7b"
      }
     }
    },
    {
     "filename":"I1CZ49060379.tif",
     "pagination":{
      "pgfolios":{
       "section":"19",
       "value":"8a"
      }
     }
    },
    {
     "filename":"I1CZ49060380.tif",
     "pagination":{
      "pgfolios":{
       "section":"19",
       "value":"8b"
      }
     }
    },
    {
     "filename":"I1CZ49060381.tif",
     "pagination":{
      "pgfolios":{
       "section":"20",
       "value":"1a"
      }
     }
    },
    {
     "filename":"I1CZ49060382.tif",
     "pagination":{
      "pgfolios":{
       "section":"20",
       "value":"1b"
      }
     }
    },
    {
     "filename":"I1CZ49060383.tif",
     "pagination":{
      "pgfolios":{
       "section":"20",
       "value":"2a"
      }
     }
    },
    {
     "filename":"I1CZ49060384.tif",
     "pagination":{
      "pgfolios":{
       "section":"20",
       "value":"2b"
      }
     }
    },
    {
     "filename":"I1CZ49060385.tif",
     "pagination":{
      "pgfolios":{
       "section":"20",
       "value":"3a"
      }
     }
    },
    {
     "filename":"I1CZ49060386.tif",
     "pagination":{
      "pgfolios":{
       "section":"20",
       "value":"3b"
      }
     }
    },
    {
     "filename":"I1CZ49060387.tif",
     "pagination":{
      "pgfolios":{
       "section":"20",
       "value":"4a"
      }
     }
    },
    {
     "filename":"I1CZ49060388.tif",
     "pagination":{
      "pgfolios":{
       "section":"20",
       "value":"4b"
      }
     }
    },
    {
     "filename":"I1CZ49060389.tif",
     "pagination":{
      "pgfolios":{
       "section":"21",
       "value":"1a"
      }
     }
    },
    {
     "filename":"I1CZ49060390.tif",
     "pagination":{
      "pgfolios":{
       "section":"21",
       "value":"1b"
      }
     }
    },
    {
     "filename":"I1CZ49060391.tif",
     "pagination":{
      "pgfolios":{
       "section":"21",
       "value":"2a"
      }
     }
    },
    {
     "filename":"I1CZ49060392.tif",
     "pagination":{
      "pgfolios":{
       "section":"21",
       "value":"2b"
      }
     }
    },
    {
     "filename":"I1CZ49060393.tif",
     "pagination":{
      "pgfolios":{
       "section":"21",
       "value":"3a"
      }
     }
    },
    {
     "filename":"I1CZ49060394.tif",
     "pagination":{
      "pgfolios":{
       "section":"21",
       "value":"3b"
      }
     }
    },
    {
     "filename":"I1CZ49060395.tif",
     "pagination":{
      "pgfolios":{
       "section":"22",
       "value":"1a"
      }
     }
    },
    {
     "filename":"I1CZ49060396.tif",
     "pagination":{
      "pgfolios":{
       "section":"22",
       "value":"1b"
      }
     }
    },
    {
     "filename":"I1CZ49060397.tif",
     "pagination":{
      "pgfolios":{
       "section":"22",
       "value":"2a"
      }
     }
    },
    {
     "filename":"I1CZ49060398.tif",
     "pagination":{
      "pgfolios":{
       "section":"22",
       "value":"2b"
      }
     }
    },
    {
     "filename":"I1CZ49060399.tif",
     "pagination":{
      "pgfolios":{
       "section":"22",
       "value":"3a"
      }
     }
    },
    {
     "filename":"I1CZ49060400.tif",
     "pagination":{
      "pgfolios":{
       "section":"22",
       "value":"3b"
      }
     }
    },
    {
     "filename":"I1CZ49060401.tif",
     "pagination":{
      "pgfolios":{
       "section":"22",
       "value":"4a"
      }
     }
    },
    {
     "filename":"I1CZ49060402.tif",
     "pagination":{
      "pgfolios":{
       "section":"22",
       "value":"4b"
      }
     }
    },
    {
     "filename":"I1CZ49060403.tif",
     "pagination":{
      "pgfolios":{
       "section":"22",
       "value":"5a"
      }
     }
    },
    {
     "filename":"I1CZ49060404.tif",
     "pagination":{
      "pgfolios":{
       "section":"22",
       "value":"5b"
      }
     }
    },
    {
     "filename":"I1CZ49060405.tif",
     "pagination":{
      "pgfolios":{
       "section":"22",
       "value":"6a"
      }
     }
    },
    {
     "filename":"I1CZ49060406.tif",
     "pagination":{
      "pgfolios":{
       "section":"22",
       "value":"6b"
      }
     }
    },
    {
     "filename":"I1CZ49060407.tif",
     "pagination":{
      "pgfolios":{
       "section":"22",
       "value":"7a"
      }
     }
    },
    {
     "filename":"I1CZ49060408.tif",
     "pagination":{
      "pgfolios":{
       "section":"22",
       "value":"7b"
      }
     }
    },
    {
     "filename":"I1CZ49060409.tif",
     "pagination":{
      "pgfolios":{
       "section":"22",
       "value":"8a"
      }
     }
    },
    {
     "filename":"I1CZ49060410.tif",
     "pagination":{
      "pgfolios":{
       "section":"22",
       "value":"8b"
      }
     }
    },
    {
     "filename":"I1CZ49060411.tif",
     "pagination":{
      "pgfolios":{
       "section":"23",
       "value":"1a"
      }
     }
    },
    {
     "filename":"I1CZ49060412.tif",
     "pagination":{
      "pgfolios":{
       "section":"23",
       "value":"1b"
      }
     }
    },
    {
     "filename":"I1CZ49060413.tif",
     "pagination":{
      "pgfolios":{
       "section":"23",
       "value":"2a"
      }
     }
    },
    {
     "filename":"I1CZ49060414.tif",
     "pagination":{
      "pgfolios":{
       "section":"23",
       "value":"2b"
      }
     }
    },
    {
     "filename":"I1CZ49060415.tif",
     "pagination":{
      "pgfolios":{
       "section":"23",
       "value":"3a"
      }
     }
    },
    {
     "filename":"I1CZ49060416.tif",
     "pagination":{
      "pgfolios":{
       "section":"23",
       "value":"3b"
      }
     }
    },
    {
     "filename":"I1CZ49060417.tif",
     "pagination":{
      "pgfolios":{
       "section":"23",
       "value":"4a"
      }
     }
    },
    {
     "filename":"I1CZ49060418.tif",
     "pagination":{
      "pgfolios":{
       "section":"23",
       "value":"4b"
      }
     }
    },
    {
     "filename":"I1CZ49060419.tif",
     "pagination":{
      "pgfolios":{
       "section":"23",
       "value":"5a"
      }
     }
    },
    {
     "filename":"I1CZ49060420.tif",
     "pagination":{
      "pgfolios":{
       "section":"23",
       "value":"5b"
      }
     }
    },
    {
     "filename":"I1CZ49060421.tif",
     "pagination":{
      "pgfolios":{
       "section":"23",
       "value":"6a"
      }
     }
    },
    {
     "filename":"I1CZ49060422.tif",
     "pagination":{
      "pgfolios":{
       "section":"23",
       "value":"6b"
      }
     }
    },
    {
     "filename":"I1CZ49060423.tif",
     "pagination":{
      "pgfolios":{
       "section":"23",
       "value":"7a"
      }
     }
    },
    {
     "filename":"I1CZ49060424.tif",
     "pagination":{
      "pgfolios":{
       "section":"23",
       "value":"7b"
      }
     }
    },
    {
     "filename":"I1CZ49060425.tif",
     "pagination":{
      "pgfolios":{
       "section":"24",
       "value":"1a"
      }
     }
    },
    {
     "filename":"I1CZ49060426.tif",
     "pagination":{
      "pgfolios":{
       "section":"24",
       "value":"1b"
      }
     }
    },
    {
     "filename":"I1CZ49060427.tif",
     "pagination":{
      "pgfolios":{
       "section":"25",
       "value":"1a"
      }
     }
    },
    {
     "filename":"I1CZ49060428.tif",
     "pagination":{
      "pgfolios":{
       "section":"25",
       "value":"1b"
      }
     }
    },
    {
     "filename":"I1CZ49060429.tif",
     "pagination":{
      "pgfolios":{
       "section":"25",
       "value":"2a"
      }
     }
    },
    {
     "filename":"I1CZ49060430.tif",
     "pagination":{
      "pgfolios":{
       "section":"25",
       "value":"2b"
      }
     }
    },
    {
     "filename":"I1CZ49060431.tif",
     "pagination":{
      "pgfolios":{
       "section":"25",
       "value":"3a"
      }
     }
    },
    {
     "filename":"I1CZ49060432.tif",
     "pagination":{
      "pgfolios":{
       "section":"25",
       "value":"3b"
      }
     }
    }
   ]
  }
 },
 "viewing-direction":"top-to-bottom"
}