{
 "appData":{
  "bvmt":{
   "default-vol-string-lang":"bo",
   "metadata-for-bvmt-ver":"0.1.0"
  }
 },
 "attribution":[
  {
   "@language":"en",
   "@value":"Data provided by Esukhia under the CC0 license"
  }
 ],
 "changes":[
  {
   "message":{
    "@language":"en",
    "@value":"migration from rKTs data"
   },
   "time":"2020-10-03T11:35:30Z",
   "user":"bdu:U1653882847"
  }
 ],
 "default-view":"view1",
 "imggroup":"bdr:I2KG210170",
 "pagination":[
  {
   "id":"pgfolios",
   "type":"folios"
  }
 ],
 "spec-version":"0.1.0",
 "status":"released",
 "view":{
  "view1":{
   "imagelist":[
    {
     "filename":"I2KG2101700001.tif",
     "hidden":true,
     "tags":[
      "T0005"
     ]
    },
    {
     "filename":"I2KG2101700002.tif",
     "hidden":true,
     "tags":[
      "T0005"
     ]
    },
    {
     "filename":"I2KG2101700003.jpg",
     "hidden":true,
     "tags":[
      "T0005"
     ]
    },
    {
     "filename":"I2KG2101700004.jpg",
     "pagination":{
      "pgfolios":{
       "value":"1b"
      }
     }
    },
    {
     "filename":"I2KG2101700005.jpg",
     "pagination":{
      "pgfolios":{
       "value":"2a"
      }
     }
    },
    {
     "filename":"I2KG2101700006.jpg",
     "pagination":{
      "pgfolios":{
       "value":"2b"
      }
     }
    },
    {
     "filename":"I2KG2101700007.jpg",
     "pagination":{
      "pgfolios":{
       "value":"3a"
      }
     }
    },
    {
     "filename":"I2KG2101700008.jpg",
     "pagination":{
      "pgfolios":{
       "value":"3b"
      }
     }
    },
    {
     "filename":"I2KG2101700009.jpg",
     "pagination":{
      "pgfolios":{
       "value":"4a"
      }
     }
    },
    {
     "filename":"I2KG2101700010.jpg",
     "pagination":{
      "pgfolios":{
       "value":"4b"
      }
     }
    },
    {
     "filename":"I2KG2101700011.jpg",
     "pagination":{
      "pgfolios":{
       "value":"5a"
      }
     }
    },
    {
     "filename":"I2KG2101700012.jpg",
     "pagination":{
      "pgfolios":{
       "value":"5b"
      }
     }
    },
    {
     "filename":"I2KG2101700013.jpg",
     "pagination":{
      "pgfolios":{
       "value":"6a"
      }
     }
    },
    {
     "filename":"I2KG2101700014.jpg",
     "pagination":{
      "pgfolios":{
       "value":"6b"
      }
     }
    },
    {
     "filename":"I2KG2101700015.jpg",
     "pagination":{
      "pgfolios":{
       "value":"7a"
      }
     }
    },
    {
     "filename":"I2KG2101700016.jpg",
     "pagination":{
      "pgfolios":{
       "value":"7b"
      }
     }
    },
    {
     "filename":"I2KG2101700017.jpg",
     "pagination":{
      "pgfolios":{
       "value":"8a"
      }
     }
    },
    {
     "filename":"I2KG2101700018.jpg",
     "pagination":{
      "pgfolios":{
       "value":"8b"
      }
     }
    },
    {
     "filename":"I2KG2101700019.jpg",
     "pagination":{
      "pgfolios":{
       "value":"9a"
      }
     }
    },
    {
     "filename":"I2KG2101700020.jpg",
     "pagination":{
      "pgfolios":{
       "value":"9b"
      }
     }
    },
    {
     "filename":"I2KG2101700021.jpg",
     "pagination":{
      "pgfolios":{
       "value":"10a"
      }
     }
    },
    {
     "filename":"I2KG2101700022.jpg",
     "pagination":{
      "pgfolios":{
       "value":"10b"
      }
     }
    },
    {
     "filename":"I2KG2101700023.jpg",
     "pagination":{
      "pgfolios":{
       "value":"11a"
      }
     }
    },
    {
     "filename":"I2KG2101700024.jpg",
     "pagination":{
      "pgfolios":{
       "value":"11b"
      }
     }
    },
    {
     "filename":"I2KG2101700025.jpg",
     "pagination":{
      "pgfolios":{
       "value":"12a"
      }
     }
    },
    {
     "filename":"I2KG2101700026.jpg",
     "pagination":{
      "pgfolios":{
       "value":"12b"
      }
     }
    },
    {
     "filename":"I2KG2101700027.jpg",
     "pagination":{
      "pgfolios":{
       "value":"13a"
      }
     }
    },
    {
     "filename":"I2KG2101700028.jpg",
     "pagination":{
      "pgfolios":{
       "value":"13b"
      }
     }
    },
    {
     "filename":"I2KG2101700029.jpg",
     "pagination":{
      "pgfolios":{
       "value":"14a"
      }
     }
    },
    {
     "filename":"I2KG2101700030.jpg",
     "pagination":{
      "pgfolios":{
       "value":"14b"
      }
     }
    },
    {
     "filename":"I2KG2101700031.jpg",
     "pagination":{
      "pgfolios":{
       "value":"15a"
      }
     }
    },
    {
     "filename":"I2KG2101700032.jpg",
     "pagination":{
      "pgfolios":{
       "value":"15b"
      }
     }
    },
    {
     "filename":"I2KG2101700033.jpg",
     "pagination":{
      "pgfolios":{
       "value":"16a"
      }
     }
    },
    {
     "filename":"I2KG2101700034.jpg",
     "pagination":{
      "pgfolios":{
       "value":"16b"
      }
     }
    },
    {
     "filename":"I2KG2101700035.jpg",
     "pagination":{
      "pgfolios":{
       "value":"17a"
      }
     }
    },
    {
     "filename":"I2KG2101700036.jpg",
     "pagination":{
      "pgfolios":{
       "value":"17b"
      }
     }
    },
    {
     "filename":"I2KG2101700037.jpg",
     "pagination":{
      "pgfolios":{
       "value":"18a"
      }
     }
    },
    {
     "filename":"I2KG2101700038.jpg",
     "pagination":{
      "pgfolios":{
       "value":"18b"
      }
     }
    },
    {
     "filename":"I2KG2101700039.jpg",
     "pagination":{
      "pgfolios":{
       "value":"19a"
      }
     }
    },
    {
     "filename":"I2KG2101700040.jpg",
     "pagination":{
      "pgfolios":{
       "value":"19b"
      }
     }
    },
    {
     "filename":"I2KG2101700041.jpg",
     "pagination":{
      "pgfolios":{
       "value":"20a"
      }
     }
    },
    {
     "filename":"I2KG2101700042.jpg",
     "pagination":{
      "pgfolios":{
       "value":"20b"
      }
     }
    },
    {
     "filename":"I2KG2101700043.jpg",
     "pagination":{
      "pgfolios":{
       "value":"21a"
      }
     }
    },
    {
     "filename":"I2KG2101700044.jpg",
     "pagination":{
      "pgfolios":{
       "value":"21b"
      }
     }
    },
    {
     "filename":"I2KG2101700045.jpg",
     "pagination":{
      "pgfolios":{
       "value":"22a"
      }
     }
    },
    {
     "filename":"I2KG2101700046.jpg",
     "pagination":{
      "pgfolios":{
       "value":"22b"
      }
     }
    },
    {
     "filename":"I2KG2101700047.jpg",
     "pagination":{
      "pgfolios":{
       "value":"23a"
      }
     }
    },
    {
     "filename":"I2KG2101700048.jpg",
     "pagination":{
      "pgfolios":{
       "value":"23b"
      }
     }
    },
    {
     "filename":"I2KG2101700049.jpg",
     "pagination":{
      "pgfolios":{
       "value":"24a"
      }
     }
    },
    {
     "filename":"I2KG2101700050.jpg",
     "pagination":{
      "pgfolios":{
       "value":"24b"
      }
     }
    },
    {
     "filename":"I2KG2101700051.jpg",
     "pagination":{
      "pgfolios":{
       "value":"25a"
      }
     }
    },
    {
     "filename":"I2KG2101700052.jpg",
     "pagination":{
      "pgfolios":{
       "value":"25b"
      }
     }
    },
    {
     "filename":"I2KG2101700053.jpg",
     "pagination":{
      "pgfolios":{
       "value":"26a"
      }
     }
    },
    {
     "filename":"I2KG2101700054.jpg",
     "pagination":{
      "pgfolios":{
       "value":"26b"
      }
     }
    },
    {
     "filename":"I2KG2101700055.jpg",
     "pagination":{
      "pgfolios":{
       "value":"27a"
      }
     }
    },
    {
     "filename":"I2KG2101700056.jpg",
     "pagination":{
      "pgfolios":{
       "value":"27b"
      }
     }
    },
    {
     "filename":"I2KG2101700057.jpg",
     "pagination":{
      "pgfolios":{
       "value":"28a"
      }
     }
    },
    {
     "filename":"I2KG2101700058.jpg",
     "pagination":{
      "pgfolios":{
       "value":"28b"
      }
     }
    },
    {
     "filename":"I2KG2101700059.jpg",
     "pagination":{
      "pgfolios":{
       "value":"29a"
      }
     }
    },
    {
     "filename":"I2KG2101700060.jpg",
     "pagination":{
      "pgfolios":{
       "value":"29b"
      }
     }
    },
    {
     "filename":"I2KG2101700061.jpg",
     "pagination":{
      "pgfolios":{
       "value":"30a"
      }
     }
    },
    {
     "filename":"I2KG2101700062.jpg",
     "pagination":{
      "pgfolios":{
       "value":"30b"
      }
     }
    },
    {
     "filename":"I2KG2101700063.jpg",
     "pagination":{
      "pgfolios":{
       "value":"31a"
      }
     }
    },
    {
     "filename":"I2KG2101700064.jpg",
     "pagination":{
      "pgfolios":{
       "value":"31b"
      }
     }
    },
    {
     "filename":"I2KG2101700065.jpg",
     "pagination":{
      "pgfolios":{
       "value":"32a"
      }
     }
    },
    {
     "filename":"I2KG2101700066.jpg",
     "pagination":{
      "pgfolios":{
       "value":"32b"
      }
     }
    },
    {
     "filename":"I2KG2101700067.jpg",
     "pagination":{
      "pgfolios":{
       "value":"33a"
      }
     }
    },
    {
     "filename":"I2KG2101700068.jpg",
     "pagination":{
      "pgfolios":{
       "value":"33b"
      }
     }
    },
    {
     "filename":"I2KG2101700069.jpg",
     "pagination":{
      "pgfolios":{
       "value":"34a"
      }
     }
    },
    {
     "filename":"I2KG2101700070.jpg",
     "pagination":{
      "pgfolios":{
       "value":"34b"
      }
     }
    },
    {
     "filename":"I2KG2101700071.jpg",
     "pagination":{
      "pgfolios":{
       "value":"35a"
      }
     }
    },
    {
     "filename":"I2KG2101700072.jpg",
     "pagination":{
      "pgfolios":{
       "value":"35b"
      }
     }
    },
    {
     "filename":"I2KG2101700073.jpg",
     "pagination":{
      "pgfolios":{
       "value":"36a"
      }
     }
    },
    {
     "filename":"I2KG2101700074.jpg",
     "pagination":{
      "pgfolios":{
       "value":"36b"
      }
     }
    },
    {
     "filename":"I2KG2101700075.jpg",
     "pagination":{
      "pgfolios":{
       "value":"37a"
      }
     }
    },
    {
     "filename":"I2KG2101700076.jpg",
     "pagination":{
      "pgfolios":{
       "value":"37b"
      }
     }
    },
    {
     "filename":"I2KG2101700077.jpg",
     "pagination":{
      "pgfolios":{
       "value":"38a"
      }
     }
    },
    {
     "filename":"I2KG2101700078.jpg",
     "pagination":{
      "pgfolios":{
       "value":"38b"
      }
     }
    },
    {
     "filename":"I2KG2101700079.jpg",
     "pagination":{
      "pgfolios":{
       "value":"39a"
      }
     }
    },
    {
     "filename":"I2KG2101700080.jpg",
     "pagination":{
      "pgfolios":{
       "value":"39b"
      }
     }
    },
    {
     "filename":"I2KG2101700081.jpg",
     "pagination":{
      "pgfolios":{
       "value":"40a"
      }
     }
    },
    {
     "filename":"I2KG2101700082.jpg",
     "pagination":{
      "pgfolios":{
       "value":"40b"
      }
     }
    },
    {
     "filename":"I2KG2101700083.jpg",
     "pagination":{
      "pgfolios":{
       "value":"41a"
      }
     }
    },
    {
     "filename":"I2KG2101700084.jpg",
     "pagination":{
      "pgfolios":{
       "value":"41b"
      }
     }
    },
    {
     "filename":"I2KG2101700085.jpg",
     "pagination":{
      "pgfolios":{
       "value":"42a"
      }
     }
    },
    {
     "filename":"I2KG2101700086.jpg",
     "pagination":{
      "pgfolios":{
       "value":"42b"
      }
     }
    },
    {
     "filename":"I2KG2101700087.jpg",
     "pagination":{
      "pgfolios":{
       "value":"43a"
      }
     }
    },
    {
     "filename":"I2KG2101700088.jpg",
     "pagination":{
      "pgfolios":{
       "value":"43b"
      }
     }
    },
    {
     "filename":"I2KG2101700089.jpg",
     "pagination":{
      "pgfolios":{
       "value":"44a"
      }
     }
    },
    {
     "filename":"I2KG2101700090.jpg",
     "pagination":{
      "pgfolios":{
       "value":"44b"
      }
     }
    },
    {
     "filename":"I2KG2101700091.jpg",
     "pagination":{
      "pgfolios":{
       "value":"45a"
      }
     }
    },
    {
     "filename":"I2KG2101700092.jpg",
     "pagination":{
      "pgfolios":{
       "value":"45b"
      }
     }
    },
    {
     "filename":"I2KG2101700093.jpg",
     "pagination":{
      "pgfolios":{
       "value":"46a"
      }
     }
    },
    {
     "filename":"I2KG2101700094.jpg",
     "pagination":{
      "pgfolios":{
       "value":"46b"
      }
     }
    },
    {
     "filename":"I2KG2101700095.jpg",
     "pagination":{
      "pgfolios":{
       "value":"47a"
      }
     }
    },
    {
     "filename":"I2KG2101700096.jpg",
     "pagination":{
      "pgfolios":{
       "value":"47b"
      }
     }
    },
    {
     "filename":"I2KG2101700097.jpg",
     "pagination":{
      "pgfolios":{
       "value":"48a"
      }
     }
    },
    {
     "filename":"I2KG2101700098.jpg",
     "pagination":{
      "pgfolios":{
       "value":"48b"
      }
     }
    },
    {
     "filename":"I2KG2101700099.jpg",
     "pagination":{
      "pgfolios":{
       "value":"49a"
      }
     }
    },
    {
     "filename":"I2KG2101700100.jpg",
     "pagination":{
      "pgfolios":{
       "value":"49b"
      }
     }
    },
    {
     "filename":"I2KG2101700101.jpg",
     "pagination":{
      "pgfolios":{
       "value":"50a"
      }
     }
    },
    {
     "filename":"I2KG2101700102.jpg",
     "pagination":{
      "pgfolios":{
       "value":"50b"
      }
     }
    },
    {
     "filename":"I2KG2101700103.jpg",
     "pagination":{
      "pgfolios":{
       "value":"51a"
      }
     }
    },
    {
     "filename":"I2KG2101700104.jpg",
     "pagination":{
      "pgfolios":{
       "value":"51b"
      }
     }
    },
    {
     "filename":"I2KG2101700105.jpg",
     "pagination":{
      "pgfolios":{
       "value":"52a"
      }
     }
    },
    {
     "filename":"I2KG2101700106.jpg",
     "pagination":{
      "pgfolios":{
       "value":"52b"
      }
     }
    },
    {
     "filename":"I2KG2101700107.jpg",
     "pagination":{
      "pgfolios":{
       "value":"53a"
      }
     }
    },
    {
     "filename":"I2KG2101700108.jpg",
     "pagination":{
      "pgfolios":{
       "value":"53b"
      }
     }
    },
    {
     "filename":"I2KG2101700109.jpg",
     "pagination":{
      "pgfolios":{
       "value":"54a"
      }
     }
    },
    {
     "filename":"I2KG2101700110.jpg",
     "pagination":{
      "pgfolios":{
       "value":"54b"
      }
     }
    },
    {
     "filename":"I2KG2101700111.jpg",
     "pagination":{
      "pgfolios":{
       "value":"55a"
      }
     }
    },
    {
     "filename":"I2KG2101700112.jpg",
     "pagination":{
      "pgfolios":{
       "value":"55b"
      }
     }
    },
    {
     "filename":"I2KG2101700113.jpg",
     "pagination":{
      "pgfolios":{
       "value":"56a"
      }
     }
    },
    {
     "filename":"I2KG2101700114.jpg",
     "pagination":{
      "pgfolios":{
       "value":"56b"
      }
     }
    },
    {
     "filename":"I2KG2101700115.jpg",
     "pagination":{
      "pgfolios":{
       "value":"57a"
      }
     }
    },
    {
     "filename":"I2KG2101700116.jpg",
     "pagination":{
      "pgfolios":{
       "value":"57b"
      }
     }
    },
    {
     "filename":"I2KG2101700117.jpg",
     "pagination":{
      "pgfolios":{
       "value":"58a"
      }
     }
    },
    {
     "filename":"I2KG2101700118.jpg",
     "pagination":{
      "pgfolios":{
       "value":"58b"
      }
     }
    },
    {
     "filename":"I2KG2101700119.jpg",
     "pagination":{
      "pgfolios":{
       "value":"59a"
      }
     }
    },
    {
     "filename":"I2KG2101700120.jpg",
     "pagination":{
      "pgfolios":{
       "value":"59b"
      }
     }
    },
    {
     "filename":"I2KG2101700121.jpg",
     "pagination":{
      "pgfolios":{
       "value":"60a"
      }
     }
    },
    {
     "filename":"I2KG2101700122.jpg",
     "pagination":{
      "pgfolios":{
       "value":"60b"
      }
     }
    },
    {
     "filename":"I2KG2101700123.jpg",
     "pagination":{
      "pgfolios":{
       "value":"61a"
      }
     }
    },
    {
     "filename":"I2KG2101700124.jpg",
     "pagination":{
      "pgfolios":{
       "value":"61b"
      }
     }
    },
    {
     "filename":"I2KG2101700125.jpg",
     "pagination":{
      "pgfolios":{
       "value":"62a"
      }
     }
    },
    {
     "filename":"I2KG2101700126.jpg",
     "pagination":{
      "pgfolios":{
       "value":"62b"
      }
     }
    },
    {
     "filename":"I2KG2101700127.jpg",
     "pagination":{
      "pgfolios":{
       "value":"63a"
      }
     }
    },
    {
     "filename":"I2KG2101700128.jpg",
     "pagination":{
      "pgfolios":{
       "value":"63b"
      }
     }
    },
    {
     "filename":"I2KG2101700129.jpg",
     "pagination":{
      "pgfolios":{
       "value":"64a"
      }
     }
    },
    {
     "filename":"I2KG2101700130.jpg",
     "pagination":{
      "pgfolios":{
       "value":"64b"
      }
     }
    },
    {
     "filename":"I2KG2101700131.jpg",
     "pagination":{
      "pgfolios":{
       "value":"65a"
      }
     }
    },
    {
     "filename":"I2KG2101700132.jpg",
     "pagination":{
      "pgfolios":{
       "value":"65b"
      }
     }
    },
    {
     "filename":"I2KG2101700133.jpg",
     "pagination":{
      "pgfolios":{
       "value":"66a"
      }
     }
    },
    {
     "filename":"I2KG2101700134.jpg",
     "pagination":{
      "pgfolios":{
       "value":"66b"
      }
     }
    },
    {
     "filename":"I2KG2101700135.jpg",
     "pagination":{
      "pgfolios":{
       "value":"67a"
      }
     }
    },
    {
     "filename":"I2KG2101700136.jpg",
     "pagination":{
      "pgfolios":{
       "value":"67b"
      }
     }
    },
    {
     "filename":"I2KG2101700137.jpg",
     "pagination":{
      "pgfolios":{
       "value":"68a"
      }
     }
    },
    {
     "filename":"I2KG2101700138.jpg",
     "pagination":{
      "pgfolios":{
       "value":"68b"
      }
     }
    },
    {
     "filename":"I2KG2101700139.jpg",
     "pagination":{
      "pgfolios":{
       "value":"69a"
      }
     }
    },
    {
     "filename":"I2KG2101700140.jpg",
     "pagination":{
      "pgfolios":{
       "value":"69b"
      }
     }
    },
    {
     "filename":"I2KG2101700141.jpg",
     "pagination":{
      "pgfolios":{
       "value":"70a"
      }
     }
    },
    {
     "filename":"I2KG2101700142.jpg",
     "pagination":{
      "pgfolios":{
       "value":"70b"
      }
     }
    },
    {
     "filename":"I2KG2101700143.jpg",
     "pagination":{
      "pgfolios":{
       "value":"71a"
      }
     }
    },
    {
     "filename":"I2KG2101700144.jpg",
     "pagination":{
      "pgfolios":{
       "value":"71b"
      }
     }
    },
    {
     "filename":"I2KG2101700145.jpg",
     "pagination":{
      "pgfolios":{
       "value":"72a"
      }
     }
    },
    {
     "filename":"I2KG2101700146.jpg",
     "pagination":{
      "pgfolios":{
       "value":"72b"
      }
     }
    },
    {
     "filename":"I2KG2101700147.jpg",
     "pagination":{
      "pgfolios":{
       "value":"73a"
      }
     }
    },
    {
     "filename":"I2KG2101700148.jpg",
     "pagination":{
      "pgfolios":{
       "value":"73b"
      }
     }
    },
    {
     "filename":"I2KG2101700149.jpg",
     "pagination":{
      "pgfolios":{
       "value":"74a"
      }
     }
    },
    {
     "filename":"I2KG2101700150.jpg",
     "pagination":{
      "pgfolios":{
       "value":"74b"
      }
     }
    },
    {
     "filename":"I2KG2101700151.jpg",
     "pagination":{
      "pgfolios":{
       "value":"75a"
      }
     }
    },
    {
     "filename":"I2KG2101700152.jpg",
     "pagination":{
      "pgfolios":{
       "value":"75b"
      }
     }
    },
    {
     "filename":"I2KG2101700153.jpg",
     "pagination":{
      "pgfolios":{
       "value":"76a"
      }
     }
    },
    {
     "filename":"I2KG2101700154.jpg",
     "pagination":{
      "pgfolios":{
       "value":"76b"
      }
     }
    },
    {
     "filename":"I2KG2101700155.jpg",
     "pagination":{
      "pgfolios":{
       "value":"77a"
      }
     }
    },
    {
     "filename":"I2KG2101700156.jpg",
     "pagination":{
      "pgfolios":{
       "value":"77b"
      }
     }
    },
    {
     "filename":"I2KG2101700157.jpg",
     "pagination":{
      "pgfolios":{
       "value":"78a"
      }
     }
    },
    {
     "filename":"I2KG2101700158.jpg",
     "pagination":{
      "pgfolios":{
       "value":"78b"
      }
     }
    },
    {
     "filename":"I2KG2101700159.jpg",
     "pagination":{
      "pgfolios":{
       "value":"79a"
      }
     }
    },
    {
     "filename":"I2KG2101700160.jpg",
     "pagination":{
      "pgfolios":{
       "value":"79b"
      }
     }
    },
    {
     "filename":"I2KG2101700161.jpg",
     "pagination":{
      "pgfolios":{
       "value":"80a"
      }
     }
    },
    {
     "filename":"I2KG2101700162.jpg",
     "pagination":{
      "pgfolios":{
       "value":"80b"
      }
     }
    },
    {
     "filename":"I2KG2101700163.jpg",
     "pagination":{
      "pgfolios":{
       "value":"81a"
      }
     }
    },
    {
     "filename":"I2KG2101700164.jpg",
     "pagination":{
      "pgfolios":{
       "value":"81b"
      }
     }
    },
    {
     "filename":"I2KG2101700165.jpg",
     "pagination":{
      "pgfolios":{
       "value":"82a"
      }
     }
    },
    {
     "filename":"I2KG2101700166.jpg",
     "pagination":{
      "pgfolios":{
       "value":"82b"
      }
     }
    },
    {
     "filename":"I2KG2101700167.jpg",
     "pagination":{
      "pgfolios":{
       "value":"83a"
      }
     }
    },
    {
     "filename":"I2KG2101700168.jpg",
     "pagination":{
      "pgfolios":{
       "value":"83b"
      }
     }
    },
    {
     "filename":"I2KG2101700169.jpg",
     "pagination":{
      "pgfolios":{
       "value":"84a"
      }
     }
    },
    {
     "filename":"I2KG2101700170.jpg",
     "pagination":{
      "pgfolios":{
       "value":"84b"
      }
     }
    },
    {
     "filename":"I2KG2101700171.jpg",
     "pagination":{
      "pgfolios":{
       "value":"85a"
      }
     }
    },
    {
     "filename":"I2KG2101700172.jpg",
     "pagination":{
      "pgfolios":{
       "value":"85b"
      }
     }
    },
    {
     "filename":"I2KG2101700173.jpg",
     "pagination":{
      "pgfolios":{
       "value":"86a"
      }
     }
    },
    {
     "filename":"I2KG2101700174.jpg",
     "pagination":{
      "pgfolios":{
       "value":"86b"
      }
     }
    },
    {
     "filename":"I2KG2101700175.jpg",
     "pagination":{
      "pgfolios":{
       "value":"87a"
      }
     }
    },
    {
     "filename":"I2KG2101700176.jpg",
     "pagination":{
      "pgfolios":{
       "value":"87b"
      }
     }
    },
    {
     "filename":"I2KG2101700177.jpg",
     "pagination":{
      "pgfolios":{
       "value":"88a"
      }
     }
    },
    {
     "filename":"I2KG2101700178.jpg",
     "pagination":{
      "pgfolios":{
       "value":"88b"
      }
     }
    },
    {
     "filename":"I2KG2101700179.jpg",
     "pagination":{
      "pgfolios":{
       "value":"89a"
      }
     }
    },
    {
     "filename":"I2KG2101700180.jpg",
     "pagination":{
      "pgfolios":{
       "value":"89b"
      }
     }
    },
    {
     "filename":"I2KG2101700181.jpg",
     "pagination":{
      "pgfolios":{
       "value":"90a"
      }
     }
    },
    {
     "filename":"I2KG2101700182.jpg",
     "pagination":{
      "pgfolios":{
       "value":"90b"
      }
     }
    },
    {
     "filename":"I2KG2101700183.jpg",
     "pagination":{
      "pgfolios":{
       "value":"91a"
      }
     }
    },
    {
     "filename":"I2KG2101700184.jpg",
     "pagination":{
      "pgfolios":{
       "value":"91b"
      }
     }
    },
    {
     "filename":"I2KG2101700185.jpg",
     "pagination":{
      "pgfolios":{
       "value":"92a"
      }
     }
    },
    {
     "filename":"I2KG2101700186.jpg",
     "pagination":{
      "pgfolios":{
       "value":"92b"
      }
     }
    },
    {
     "filename":"I2KG2101700187.jpg",
     "pagination":{
      "pgfolios":{
       "value":"93a"
      }
     }
    },
    {
     "filename":"I2KG2101700188.jpg",
     "pagination":{
      "pgfolios":{
       "value":"93b"
      }
     }
    },
    {
     "filename":"I2KG2101700189.jpg",
     "pagination":{
      "pgfolios":{
       "value":"94a"
      }
     }
    },
    {
     "filename":"I2KG2101700190.jpg",
     "pagination":{
      "pgfolios":{
       "value":"94b"
      }
     }
    },
    {
     "filename":"I2KG2101700191.jpg",
     "pagination":{
      "pgfolios":{
       "value":"95a"
      }
     }
    },
    {
     "filename":"I2KG2101700192.jpg",
     "pagination":{
      "pgfolios":{
       "value":"95b"
      }
     }
    },
    {
     "filename":"I2KG2101700193.jpg",
     "pagination":{
      "pgfolios":{
       "value":"96a"
      }
     }
    },
    {
     "filename":"I2KG2101700194.jpg",
     "pagination":{
      "pgfolios":{
       "value":"96b"
      }
     }
    },
    {
     "filename":"I2KG2101700195.jpg",
     "pagination":{
      "pgfolios":{
       "value":"97a"
      }
     }
    },
    {
     "filename":"I2KG2101700196.jpg",
     "pagination":{
      "pgfolios":{
       "value":"97b"
      }
     }
    },
    {
     "filename":"I2KG2101700197.jpg",
     "pagination":{
      "pgfolios":{
       "value":"98a"
      }
     }
    },
    {
     "filename":"I2KG2101700198.jpg",
     "pagination":{
      "pgfolios":{
       "value":"98b"
      }
     }
    },
    {
     "filename":"I2KG2101700199.jpg",
     "pagination":{
      "pgfolios":{
       "value":"99a"
      }
     }
    },
    {
     "filename":"I2KG2101700200.jpg",
     "pagination":{
      "pgfolios":{
       "value":"99b"
      }
     }
    },
    {
     "filename":"I2KG2101700201.jpg",
     "pagination":{
      "pgfolios":{
       "value":"100a"
      }
     }
    },
    {
     "filename":"I2KG2101700202.jpg",
     "pagination":{
      "pgfolios":{
       "value":"100b"
      }
     }
    },
    {
     "filename":"I2KG2101700203.jpg",
     "pagination":{
      "pgfolios":{
       "value":"101a"
      }
     }
    },
    {
     "filename":"I2KG2101700204.jpg",
     "pagination":{
      "pgfolios":{
       "value":"101b"
      }
     }
    },
    {
     "filename":"I2KG2101700205.jpg",
     "pagination":{
      "pgfolios":{
       "value":"102a"
      }
     }
    },
    {
     "filename":"I2KG2101700206.jpg",
     "pagination":{
      "pgfolios":{
       "value":"102b"
      }
     }
    },
    {
     "filename":"I2KG2101700207.jpg",
     "pagination":{
      "pgfolios":{
       "value":"103a"
      }
     }
    },
    {
     "filename":"I2KG2101700208.jpg",
     "pagination":{
      "pgfolios":{
       "value":"103b"
      }
     }
    },
    {
     "filename":"I2KG2101700209.jpg",
     "pagination":{
      "pgfolios":{
       "value":"104a"
      }
     }
    },
    {
     "filename":"I2KG2101700210.jpg",
     "pagination":{
      "pgfolios":{
       "value":"104b"
      }
     }
    },
    {
     "filename":"I2KG2101700211.jpg",
     "pagination":{
      "pgfolios":{
       "value":"105a"
      }
     }
    },
    {
     "filename":"I2KG2101700212.jpg",
     "pagination":{
      "pgfolios":{
       "value":"105b"
      }
     }
    },
    {
     "filename":"I2KG2101700213.jpg",
     "pagination":{
      "pgfolios":{
       "value":"106a"
      }
     }
    },
    {
     "filename":"I2KG2101700214.jpg",
     "pagination":{
      "pgfolios":{
       "value":"106b"
      }
     }
    },
    {
     "filename":"I2KG2101700215.jpg",
     "pagination":{
      "pgfolios":{
       "value":"107a"
      }
     }
    },
    {
     "filename":"I2KG2101700216.jpg",
     "pagination":{
      "pgfolios":{
       "value":"107b"
      }
     }
    },
    {
     "filename":"I2KG2101700217.jpg",
     "pagination":{
      "pgfolios":{
       "value":"108a"
      }
     }
    },
    {
     "filename":"I2KG2101700218.jpg",
     "pagination":{
      "pgfolios":{
       "value":"108b"
      }
     }
    },
    {
     "filename":"I2KG2101700219.jpg",
     "pagination":{
      "pgfolios":{
       "value":"109a"
      }
     }
    },
    {
     "filename":"I2KG2101700220.jpg",
     "pagination":{
      "pgfolios":{
       "value":"109b"
      }
     }
    },
    {
     "filename":"I2KG2101700221.jpg",
     "pagination":{
      "pgfolios":{
       "value":"110a"
      }
     }
    },
    {
     "filename":"I2KG2101700222.jpg",
     "pagination":{
      "pgfolios":{
       "value":"110b"
      }
     }
    },
    {
     "filename":"I2KG2101700223.jpg",
     "pagination":{
      "pgfolios":{
       "value":"111a"
      }
     }
    },
    {
     "filename":"I2KG2101700224.jpg",
     "pagination":{
      "pgfolios":{
       "value":"111b"
      }
     }
    },
    {
     "filename":"I2KG2101700225.jpg",
     "pagination":{
      "pgfolios":{
       "value":"112a"
      }
     }
    },
    {
     "filename":"I2KG2101700226.jpg",
     "pagination":{
      "pgfolios":{
       "value":"112b"
      }
     }
    },
    {
     "filename":"I2KG2101700227.jpg",
     "pagination":{
      "pgfolios":{
       "value":"113a"
      }
     }
    },
    {
     "filename":"I2KG2101700228.jpg",
     "pagination":{
      "pgfolios":{
       "value":"113b"
      }
     }
    },
    {
     "filename":"I2KG2101700229.jpg",
     "pagination":{
      "pgfolios":{
       "value":"114a"
      }
     }
    },
    {
     "filename":"I2KG2101700230.jpg",
     "pagination":{
      "pgfolios":{
       "value":"114b"
      }
     }
    },
    {
     "filename":"I2KG2101700231.jpg",
     "pagination":{
      "pgfolios":{
       "value":"115a"
      }
     }
    },
    {
     "filename":"I2KG2101700232.jpg",
     "pagination":{
      "pgfolios":{
       "value":"115b"
      }
     }
    },
    {
     "filename":"I2KG2101700233.jpg",
     "pagination":{
      "pgfolios":{
       "value":"116a"
      }
     }
    },
    {
     "filename":"I2KG2101700234.jpg",
     "pagination":{
      "pgfolios":{
       "value":"116b"
      }
     }
    },
    {
     "filename":"I2KG2101700235.jpg",
     "pagination":{
      "pgfolios":{
       "value":"117a"
      }
     }
    },
    {
     "filename":"I2KG2101700236.jpg",
     "pagination":{
      "pgfolios":{
       "value":"117b"
      }
     }
    },
    {
     "filename":"I2KG2101700237.jpg",
     "pagination":{
      "pgfolios":{
       "value":"118a"
      }
     }
    },
    {
     "filename":"I2KG2101700238.jpg",
     "pagination":{
      "pgfolios":{
       "value":"118b"
      }
     }
    },
    {
     "filename":"I2KG2101700239.jpg",
     "pagination":{
      "pgfolios":{
       "value":"119a"
      }
     }
    },
    {
     "filename":"I2KG2101700240.jpg",
     "pagination":{
      "pgfolios":{
       "value":"119b"
      }
     }
    },
    {
     "filename":"I2KG2101700241.jpg",
     "pagination":{
      "pgfolios":{
       "value":"120a"
      }
     }
    },
    {
     "filename":"I2KG2101700242.jpg",
     "pagination":{
      "pgfolios":{
       "value":"120b"
      }
     }
    },
    {
     "filename":"I2KG2101700243.jpg",
     "pagination":{
      "pgfolios":{
       "value":"121a"
      }
     }
    },
    {
     "filename":"I2KG2101700244.jpg",
     "pagination":{
      "pgfolios":{
       "value":"121b"
      }
     }
    },
    {
     "filename":"I2KG2101700245.jpg",
     "pagination":{
      "pgfolios":{
       "value":"122a"
      }
     }
    },
    {
     "filename":"I2KG2101700246.jpg",
     "pagination":{
      "pgfolios":{
       "value":"122b"
      }
     }
    },
    {
     "filename":"I2KG2101700247.jpg",
     "pagination":{
      "pgfolios":{
       "value":"123a"
      }
     }
    },
    {
     "filename":"I2KG2101700248.jpg",
     "pagination":{
      "pgfolios":{
       "value":"123b"
      }
     }
    },
    {
     "filename":"I2KG2101700249.jpg",
     "pagination":{
      "pgfolios":{
       "value":"124a"
      }
     }
    },
    {
     "filename":"I2KG2101700250.jpg",
     "pagination":{
      "pgfolios":{
       "value":"124b"
      }
     }
    },
    {
     "filename":"I2KG2101700251.jpg",
     "pagination":{
      "pgfolios":{
       "value":"125a"
      }
     }
    },
    {
     "filename":"I2KG2101700252.jpg",
     "pagination":{
      "pgfolios":{
       "value":"125b"
      }
     }
    },
    {
     "filename":"I2KG2101700253.jpg",
     "pagination":{
      "pgfolios":{
       "value":"126a"
      }
     }
    },
    {
     "filename":"I2KG2101700254.jpg",
     "pagination":{
      "pgfolios":{
       "value":"126b"
      }
     }
    },
    {
     "filename":"I2KG2101700255.jpg",
     "pagination":{
      "pgfolios":{
       "value":"127a"
      }
     }
    },
    {
     "filename":"I2KG2101700256.jpg",
     "pagination":{
      "pgfolios":{
       "value":"127b"
      }
     }
    },
    {
     "filename":"I2KG2101700257.jpg",
     "pagination":{
      "pgfolios":{
       "value":"128a"
      }
     }
    },
    {
     "filename":"I2KG2101700258.jpg",
     "pagination":{
      "pgfolios":{
       "value":"128b"
      }
     }
    },
    {
     "filename":"I2KG2101700259.jpg",
     "pagination":{
      "pgfolios":{
       "value":"129a"
      }
     }
    },
    {
     "filename":"I2KG2101700260.jpg",
     "pagination":{
      "pgfolios":{
       "value":"129b"
      }
     }
    },
    {
     "filename":"I2KG2101700261.jpg",
     "pagination":{
      "pgfolios":{
       "value":"130a"
      }
     }
    },
    {
     "filename":"I2KG2101700262.jpg",
     "pagination":{
      "pgfolios":{
       "value":"130b"
      }
     }
    },
    {
     "filename":"I2KG2101700263.jpg",
     "pagination":{
      "pgfolios":{
       "value":"131a"
      }
     }
    },
    {
     "filename":"I2KG2101700264.jpg",
     "pagination":{
      "pgfolios":{
       "value":"131b"
      }
     }
    },
    {
     "filename":"I2KG2101700265.jpg",
     "pagination":{
      "pgfolios":{
       "value":"132a"
      }
     }
    },
    {
     "filename":"I2KG2101700266.jpg",
     "pagination":{
      "pgfolios":{
       "value":"132b"
      }
     }
    },
    {
     "filename":"I2KG2101700267.jpg",
     "pagination":{
      "pgfolios":{
       "value":"133a"
      }
     }
    },
    {
     "filename":"I2KG2101700268.jpg",
     "pagination":{
      "pgfolios":{
       "value":"133b"
      }
     }
    },
    {
     "filename":"I2KG2101700269.jpg",
     "pagination":{
      "pgfolios":{
       "value":"134a"
      }
     }
    },
    {
     "filename":"I2KG2101700270.jpg",
     "pagination":{
      "pgfolios":{
       "value":"134b"
      }
     }
    },
    {
     "filename":"I2KG2101700271.jpg",
     "pagination":{
      "pgfolios":{
       "value":"135a"
      }
     }
    },
    {
     "filename":"I2KG2101700272.jpg",
     "pagination":{
      "pgfolios":{
       "value":"135b"
      }
     }
    },
    {
     "filename":"I2KG2101700273.jpg",
     "pagination":{
      "pgfolios":{
       "value":"136a"
      }
     }
    },
    {
     "filename":"I2KG2101700274.jpg",
     "pagination":{
      "pgfolios":{
       "value":"136b"
      }
     }
    },
    {
     "filename":"I2KG2101700275.jpg",
     "pagination":{
      "pgfolios":{
       "value":"137a"
      }
     }
    },
    {
     "filename":"I2KG2101700276.jpg",
     "pagination":{
      "pgfolios":{
       "value":"137b"
      }
     }
    },
    {
     "filename":"I2KG2101700277.jpg",
     "pagination":{
      "pgfolios":{
       "value":"138a"
      }
     }
    },
    {
     "filename":"I2KG2101700278.jpg",
     "pagination":{
      "pgfolios":{
       "value":"138b"
      }
     }
    },
    {
     "filename":"I2KG2101700279.jpg",
     "pagination":{
      "pgfolios":{
       "value":"139a"
      }
     }
    },
    {
     "filename":"I2KG2101700280.jpg",
     "pagination":{
      "pgfolios":{
       "value":"139b"
      }
     }
    },
    {
     "filename":"I2KG2101700281.jpg",
     "pagination":{
      "pgfolios":{
       "value":"140a"
      }
     }
    },
    {
     "filename":"I2KG2101700282.jpg",
     "pagination":{
      "pgfolios":{
       "value":"140b"
      }
     }
    },
    {
     "filename":"I2KG2101700283.jpg",
     "pagination":{
      "pgfolios":{
       "value":"141a"
      }
     }
    },
    {
     "filename":"I2KG2101700284.jpg",
     "pagination":{
      "pgfolios":{
       "value":"141b"
      }
     }
    },
    {
     "filename":"I2KG2101700285.jpg",
     "pagination":{
      "pgfolios":{
       "value":"142a"
      }
     }
    },
    {
     "filename":"I2KG2101700286.jpg",
     "pagination":{
      "pgfolios":{
       "value":"142b"
      }
     }
    },
    {
     "filename":"I2KG2101700287.jpg",
     "pagination":{
      "pgfolios":{
       "value":"143a"
      }
     }
    },
    {
     "filename":"I2KG2101700288.jpg",
     "pagination":{
      "pgfolios":{
       "value":"143b"
      }
     }
    },
    {
     "filename":"I2KG2101700289.jpg",
     "pagination":{
      "pgfolios":{
       "value":"144a"
      }
     }
    },
    {
     "filename":"I2KG2101700290.jpg",
     "pagination":{
      "pgfolios":{
       "value":"144b"
      }
     }
    },
    {
     "filename":"I2KG2101700291.jpg",
     "pagination":{
      "pgfolios":{
       "value":"145a"
      }
     }
    },
    {
     "filename":"I2KG2101700292.jpg",
     "pagination":{
      "pgfolios":{
       "value":"145b"
      }
     }
    },
    {
     "filename":"I2KG2101700293.jpg",
     "pagination":{
      "pgfolios":{
       "value":"146a"
      }
     }
    },
    {
     "filename":"I2KG2101700294.jpg",
     "pagination":{
      "pgfolios":{
       "value":"146b"
      }
     }
    },
    {
     "filename":"I2KG2101700295.jpg",
     "pagination":{
      "pgfolios":{
       "value":"147a"
      }
     }
    },
    {
     "filename":"I2KG2101700296.jpg",
     "pagination":{
      "pgfolios":{
       "value":"147b"
      }
     }
    },
    {
     "filename":"I2KG2101700297.jpg",
     "pagination":{
      "pgfolios":{
       "value":"148a"
      }
     }
    },
    {
     "filename":"I2KG2101700298.jpg",
     "pagination":{
      "pgfolios":{
       "value":"148b"
      }
     }
    },
    {
     "filename":"I2KG2101700299.jpg",
     "pagination":{
      "pgfolios":{
       "value":"149a"
      }
     }
    },
    {
     "filename":"I2KG2101700300.jpg",
     "pagination":{
      "pgfolios":{
       "value":"149b"
      }
     }
    },
    {
     "filename":"I2KG2101700301.jpg",
     "pagination":{
      "pgfolios":{
       "value":"150a"
      }
     }
    },
    {
     "filename":"I2KG2101700302.jpg",
     "pagination":{
      "pgfolios":{
       "value":"150b"
      }
     }
    },
    {
     "filename":"I2KG2101700303.jpg",
     "pagination":{
      "pgfolios":{
       "value":"151a"
      }
     }
    },
    {
     "filename":"I2KG2101700304.jpg",
     "pagination":{
      "pgfolios":{
       "value":"151b"
      }
     }
    },
    {
     "filename":"I2KG2101700305.jpg",
     "pagination":{
      "pgfolios":{
       "value":"152a"
      }
     }
    },
    {
     "filename":"I2KG2101700306.jpg",
     "pagination":{
      "pgfolios":{
       "value":"152b"
      }
     }
    },
    {
     "filename":"I2KG2101700307.jpg",
     "pagination":{
      "pgfolios":{
       "value":"153a"
      }
     }
    },
    {
     "filename":"I2KG2101700308.jpg",
     "pagination":{
      "pgfolios":{
       "value":"153b"
      }
     }
    },
    {
     "filename":"I2KG2101700309.jpg",
     "pagination":{
      "pgfolios":{
       "value":"154a"
      }
     }
    },
    {
     "filename":"I2KG2101700310.jpg",
     "pagination":{
      "pgfolios":{
       "value":"154b"
      }
     }
    },
    {
     "filename":"I2KG2101700311.jpg",
     "pagination":{
      "pgfolios":{
       "value":"155a"
      }
     }
    },
    {
     "filename":"I2KG2101700312.jpg",
     "pagination":{
      "pgfolios":{
       "value":"155b"
      }
     }
    },
    {
     "filename":"I2KG2101700313.jpg",
     "pagination":{
      "pgfolios":{
       "value":"156a"
      }
     }
    },
    {
     "filename":"I2KG2101700314.jpg",
     "pagination":{
      "pgfolios":{
       "value":"156b"
      }
     }
    },
    {
     "filename":"I2KG2101700315.jpg",
     "pagination":{
      "pgfolios":{
       "value":"157a"
      }
     }
    },
    {
     "filename":"I2KG2101700316.jpg",
     "pagination":{
      "pgfolios":{
       "value":"157b"
      }
     }
    },
    {
     "filename":"I2KG2101700317.jpg",
     "pagination":{
      "pgfolios":{
       "value":"158a"
      }
     }
    },
    {
     "filename":"I2KG2101700318.jpg",
     "pagination":{
      "pgfolios":{
       "value":"158b"
      }
     }
    },
    {
     "filename":"I2KG2101700319.jpg",
     "pagination":{
      "pgfolios":{
       "value":"159a"
      }
     }
    },
    {
     "filename":"I2KG2101700320.jpg",
     "pagination":{
      "pgfolios":{
       "value":"159b"
      }
     }
    },
    {
     "filename":"I2KG2101700321.jpg",
     "pagination":{
      "pgfolios":{
       "value":"160a"
      }
     }
    },
    {
     "filename":"I2KG2101700322.jpg",
     "pagination":{
      "pgfolios":{
       "value":"160b"
      }
     }
    },
    {
     "filename":"I2KG2101700323.jpg",
     "pagination":{
      "pgfolios":{
       "value":"161a"
      }
     }
    },
    {
     "filename":"I2KG2101700324.jpg",
     "pagination":{
      "pgfolios":{
       "value":"161b"
      }
     }
    },
    {
     "filename":"I2KG2101700325.jpg",
     "pagination":{
      "pgfolios":{
       "value":"162a"
      }
     }
    },
    {
     "filename":"I2KG2101700326.jpg",
     "pagination":{
      "pgfolios":{
       "value":"162b"
      }
     }
    },
    {
     "filename":"I2KG2101700327.jpg",
     "pagination":{
      "pgfolios":{
       "value":"163a"
      }
     }
    },
    {
     "filename":"I2KG2101700328.jpg",
     "pagination":{
      "pgfolios":{
       "value":"163b"
      }
     }
    },
    {
     "filename":"I2KG2101700329.jpg",
     "pagination":{
      "pgfolios":{
       "value":"164a"
      }
     }
    },
    {
     "filename":"I2KG2101700330.jpg",
     "pagination":{
      "pgfolios":{
       "value":"164b"
      }
     }
    },
    {
     "filename":"I2KG2101700331.jpg",
     "pagination":{
      "pgfolios":{
       "value":"165a"
      }
     }
    },
    {
     "filename":"I2KG2101700332.jpg",
     "pagination":{
      "pgfolios":{
       "value":"165b"
      }
     }
    },
    {
     "filename":"I2KG2101700333.jpg",
     "pagination":{
      "pgfolios":{
       "value":"166a"
      }
     }
    },
    {
     "filename":"I2KG2101700334.jpg",
     "pagination":{
      "pgfolios":{
       "value":"166b"
      }
     }
    },
    {
     "filename":"I2KG2101700335.jpg",
     "pagination":{
      "pgfolios":{
       "value":"167a"
      }
     }
    },
    {
     "filename":"I2KG2101700336.jpg",
     "pagination":{
      "pgfolios":{
       "value":"167b"
      }
     }
    },
    {
     "filename":"I2KG2101700337.jpg",
     "pagination":{
      "pgfolios":{
       "value":"168a"
      }
     }
    },
    {
     "filename":"I2KG2101700338.jpg",
     "pagination":{
      "pgfolios":{
       "value":"168b"
      }
     }
    },
    {
     "filename":"I2KG2101700339.jpg",
     "pagination":{
      "pgfolios":{
       "value":"169a"
      }
     }
    },
    {
     "filename":"I2KG2101700340.jpg",
     "pagination":{
      "pgfolios":{
       "value":"169b"
      }
     }
    },
    {
     "filename":"I2KG2101700341.jpg",
     "pagination":{
      "pgfolios":{
       "value":"170a"
      }
     }
    },
    {
     "filename":"I2KG2101700342.jpg",
     "pagination":{
      "pgfolios":{
       "value":"170b"
      }
     }
    },
    {
     "filename":"I2KG2101700343.jpg",
     "pagination":{
      "pgfolios":{
       "value":"171a"
      }
     }
    },
    {
     "filename":"I2KG2101700344.jpg",
     "pagination":{
      "pgfolios":{
       "value":"171b"
      }
     }
    },
    {
     "filename":"I2KG2101700345.jpg",
     "pagination":{
      "pgfolios":{
       "value":"172a"
      }
     }
    },
    {
     "filename":"I2KG2101700346.jpg",
     "pagination":{
      "pgfolios":{
       "value":"172b"
      }
     }
    },
    {
     "filename":"I2KG2101700347.jpg",
     "pagination":{
      "pgfolios":{
       "value":"173a"
      }
     }
    },
    {
     "filename":"I2KG2101700348.jpg",
     "pagination":{
      "pgfolios":{
       "value":"173b"
      }
     }
    },
    {
     "filename":"I2KG2101700349.jpg",
     "pagination":{
      "pgfolios":{
       "value":"174a"
      }
     }
    },
    {
     "filename":"I2KG2101700350.jpg",
     "pagination":{
      "pgfolios":{
       "value":"174b"
      }
     }
    },
    {
     "filename":"I2KG2101700351.jpg",
     "pagination":{
      "pgfolios":{
       "value":"175a"
      }
     }
    },
    {
     "filename":"I2KG2101700352.jpg",
     "pagination":{
      "pgfolios":{
       "value":"175b"
      }
     }
    },
    {
     "filename":"I2KG2101700353.jpg",
     "pagination":{
      "pgfolios":{
       "value":"176a"
      }
     }
    },
    {
     "filename":"I2KG2101700354.jpg",
     "pagination":{
      "pgfolios":{
       "value":"176b"
      }
     }
    },
    {
     "filename":"I2KG2101700355.jpg",
     "pagination":{
      "pgfolios":{
       "value":"177a"
      }
     }
    },
    {
     "filename":"I2KG2101700356.jpg",
     "pagination":{
      "pgfolios":{
       "value":"177b"
      }
     }
    },
    {
     "filename":"I2KG2101700357.jpg",
     "pagination":{
      "pgfolios":{
       "value":"178a"
      }
     }
    },
    {
     "filename":"I2KG2101700358.jpg",
     "pagination":{
      "pgfolios":{
       "value":"178b"
      }
     }
    },
    {
     "filename":"I2KG2101700359.jpg",
     "pagination":{
      "pgfolios":{
       "value":"179a"
      }
     }
    },
    {
     "filename":"I2KG2101700360.jpg",
     "pagination":{
      "pgfolios":{
       "value":"179b"
      }
     }
    },
    {
     "filename":"I2KG2101700361.jpg",
     "pagination":{
      "pgfolios":{
       "value":"180a"
      }
     }
    },
    {
     "filename":"I2KG2101700362.jpg",
     "pagination":{
      "pgfolios":{
       "value":"180b"
      }
     }
    },
    {
     "filename":"I2KG2101700363.jpg",
     "pagination":{
      "pgfolios":{
       "value":"181a"
      }
     }
    },
    {
     "filename":"I2KG2101700364.jpg",
     "pagination":{
      "pgfolios":{
       "value":"181b"
      }
     }
    },
    {
     "filename":"I2KG2101700365.jpg",
     "pagination":{
      "pgfolios":{
       "value":"182a"
      }
     }
    },
    {
     "filename":"I2KG2101700366.jpg",
     "pagination":{
      "pgfolios":{
       "value":"182b"
      }
     }
    },
    {
     "filename":"I2KG2101700367.jpg",
     "pagination":{
      "pgfolios":{
       "value":"183a"
      }
     }
    },
    {
     "filename":"I2KG2101700368.jpg",
     "pagination":{
      "pgfolios":{
       "value":"183b"
      }
     }
    },
    {
     "filename":"I2KG2101700369.jpg",
     "pagination":{
      "pgfolios":{
       "value":"184a"
      }
     }
    },
    {
     "filename":"I2KG2101700370.jpg",
     "pagination":{
      "pgfolios":{
       "value":"184b"
      }
     }
    },
    {
     "filename":"I2KG2101700371.jpg",
     "pagination":{
      "pgfolios":{
       "value":"185a"
      }
     }
    },
    {
     "filename":"I2KG2101700372.jpg",
     "pagination":{
      "pgfolios":{
       "value":"185b"
      }
     }
    },
    {
     "filename":"I2KG2101700373.jpg",
     "pagination":{
      "pgfolios":{
       "value":"186a"
      }
     }
    },
    {
     "filename":"I2KG2101700374.jpg",
     "pagination":{
      "pgfolios":{
       "value":"186b"
      }
     }
    },
    {
     "filename":"I2KG2101700375.jpg",
     "pagination":{
      "pgfolios":{
       "value":"187a"
      }
     }
    },
    {
     "filename":"I2KG2101700376.jpg",
     "pagination":{
      "pgfolios":{
       "value":"187b"
      }
     }
    },
    {
     "filename":"I2KG2101700377.jpg",
     "pagination":{
      "pgfolios":{
       "value":"188a"
      }
     }
    },
    {
     "filename":"I2KG2101700378.jpg",
     "pagination":{
      "pgfolios":{
       "value":"188b"
      }
     }
    },
    {
     "filename":"I2KG2101700379.jpg",
     "pagination":{
      "pgfolios":{
       "value":"189a"
      }
     }
    },
    {
     "filename":"I2KG2101700380.jpg",
     "pagination":{
      "pgfolios":{
       "value":"189b"
      }
     }
    },
    {
     "filename":"I2KG2101700381.jpg",
     "pagination":{
      "pgfolios":{
       "value":"190a"
      }
     }
    },
    {
     "filename":"I2KG2101700382.jpg",
     "pagination":{
      "pgfolios":{
       "value":"190b"
      }
     }
    },
    {
     "filename":"I2KG2101700383.jpg",
     "pagination":{
      "pgfolios":{
       "value":"191a"
      }
     }
    },
    {
     "filename":"I2KG2101700384.jpg",
     "pagination":{
      "pgfolios":{
       "value":"191b"
      }
     }
    },
    {
     "filename":"I2KG2101700385.jpg",
     "pagination":{
      "pgfolios":{
       "value":"192a"
      }
     }
    },
    {
     "filename":"I2KG2101700386.jpg",
     "pagination":{
      "pgfolios":{
       "value":"192b"
      }
     }
    },
    {
     "filename":"I2KG2101700387.jpg",
     "pagination":{
      "pgfolios":{
       "value":"193a"
      }
     }
    },
    {
     "filename":"I2KG2101700388.jpg",
     "pagination":{
      "pgfolios":{
       "value":"193b"
      }
     }
    },
    {
     "filename":"I2KG2101700389.jpg",
     "pagination":{
      "pgfolios":{
       "value":"194a"
      }
     }
    },
    {
     "filename":"I2KG2101700390.jpg",
     "pagination":{
      "pgfolios":{
       "value":"194b"
      }
     }
    },
    {
     "filename":"I2KG2101700391.jpg",
     "pagination":{
      "pgfolios":{
       "value":"195a"
      }
     }
    },
    {
     "filename":"I2KG2101700392.jpg",
     "pagination":{
      "pgfolios":{
       "value":"195b"
      }
     }
    },
    {
     "filename":"I2KG2101700393.jpg",
     "pagination":{
      "pgfolios":{
       "value":"196a"
      }
     }
    },
    {
     "filename":"I2KG2101700394.jpg",
     "pagination":{
      "pgfolios":{
       "value":"196b"
      }
     }
    },
    {
     "filename":"I2KG2101700395.jpg",
     "pagination":{
      "pgfolios":{
       "value":"197a"
      }
     }
    },
    {
     "filename":"I2KG2101700396.jpg",
     "pagination":{
      "pgfolios":{
       "value":"197b"
      }
     }
    },
    {
     "filename":"I2KG2101700397.jpg",
     "pagination":{
      "pgfolios":{
       "value":"198a"
      }
     }
    },
    {
     "filename":"I2KG2101700398.jpg",
     "pagination":{
      "pgfolios":{
       "value":"198b"
      }
     }
    },
    {
     "filename":"I2KG2101700399.jpg",
     "pagination":{
      "pgfolios":{
       "value":"199a"
      }
     }
    },
    {
     "filename":"I2KG2101700400.jpg",
     "pagination":{
      "pgfolios":{
       "value":"199b"
      }
     }
    },
    {
     "filename":"I2KG2101700401.jpg",
     "pagination":{
      "pgfolios":{
       "value":"200a"
      }
     }
    },
    {
     "filename":"I2KG2101700402.jpg",
     "pagination":{
      "pgfolios":{
       "value":"200b"
      }
     }
    },
    {
     "filename":"I2KG2101700403.jpg",
     "pagination":{
      "pgfolios":{
       "value":"201a"
      }
     }
    },
    {
     "filename":"I2KG2101700404.jpg",
     "pagination":{
      "pgfolios":{
       "value":"201b"
      }
     }
    },
    {
     "filename":"I2KG2101700405.jpg",
     "pagination":{
      "pgfolios":{
       "value":"202a"
      }
     }
    },
    {
     "filename":"I2KG2101700406.jpg",
     "pagination":{
      "pgfolios":{
       "value":"202b"
      }
     }
    },
    {
     "filename":"I2KG2101700407.jpg",
     "pagination":{
      "pgfolios":{
       "value":"203a"
      }
     }
    },
    {
     "filename":"I2KG2101700408.jpg",
     "pagination":{
      "pgfolios":{
       "value":"203b"
      }
     }
    },
    {
     "filename":"I2KG2101700409.jpg",
     "pagination":{
      "pgfolios":{
       "value":"204a"
      }
     }
    },
    {
     "filename":"I2KG2101700410.jpg",
     "pagination":{
      "pgfolios":{
       "value":"204b"
      }
     }
    },
    {
     "filename":"I2KG2101700411.jpg",
     "pagination":{
      "pgfolios":{
       "value":"205a"
      }
     }
    },
    {
     "filename":"I2KG2101700412.jpg",
     "pagination":{
      "pgfolios":{
       "value":"205b"
      }
     }
    },
    {
     "filename":"I2KG2101700413.jpg",
     "pagination":{
      "pgfolios":{
       "value":"206a"
      }
     }
    },
    {
     "filename":"I2KG2101700414.jpg",
     "pagination":{
      "pgfolios":{
       "value":"206b"
      }
     }
    },
    {
     "filename":"I2KG2101700415.jpg",
     "pagination":{
      "pgfolios":{
       "value":"207a"
      }
     }
    },
    {
     "filename":"I2KG2101700416.jpg",
     "pagination":{
      "pgfolios":{
       "value":"207b"
      }
     }
    },
    {
     "filename":"I2KG2101700417.jpg",
     "pagination":{
      "pgfolios":{
       "value":"208a"
      }
     }
    },
    {
     "filename":"I2KG2101700418.jpg",
     "pagination":{
      "pgfolios":{
       "value":"208b"
      }
     }
    },
    {
     "filename":"I2KG2101700419.jpg",
     "pagination":{
      "pgfolios":{
       "value":"209a"
      }
     }
    },
    {
     "filename":"I2KG2101700420.jpg",
     "pagination":{
      "pgfolios":{
       "value":"209b"
      }
     }
    },
    {
     "filename":"I2KG2101700421.jpg",
     "pagination":{
      "pgfolios":{
       "value":"210a"
      }
     }
    },
    {
     "filename":"I2KG2101700422.jpg",
     "pagination":{
      "pgfolios":{
       "value":"210b"
      }
     }
    },
    {
     "filename":"I2KG2101700423.jpg",
     "pagination":{
      "pgfolios":{
       "value":"211a"
      }
     }
    },
    {
     "filename":"I2KG2101700424.jpg",
     "pagination":{
      "pgfolios":{
       "value":"211b"
      }
     }
    },
    {
     "filename":"I2KG2101700425.jpg",
     "pagination":{
      "pgfolios":{
       "value":"212a"
      }
     }
    },
    {
     "filename":"I2KG2101700426.jpg",
     "pagination":{
      "pgfolios":{
       "value":"212b"
      }
     }
    },
    {
     "filename":"I2KG2101700427.jpg",
     "pagination":{
      "pgfolios":{
       "value":"213a"
      }
     }
    },
    {
     "filename":"I2KG2101700428.jpg",
     "pagination":{
      "pgfolios":{
       "value":"213b"
      }
     }
    },
    {
     "filename":"I2KG2101700429.jpg",
     "pagination":{
      "pgfolios":{
       "value":"214a"
      }
     }
    },
    {
     "filename":"I2KG2101700430.jpg",
     "pagination":{
      "pgfolios":{
       "value":"214b"
      }
     }
    },
    {
     "filename":"I2KG2101700431.jpg",
     "pagination":{
      "pgfolios":{
       "value":"215a"
      }
     }
    },
    {
     "filename":"I2KG2101700432.jpg",
     "pagination":{
      "pgfolios":{
       "value":"215b"
      }
     }
    },
    {
     "filename":"I2KG2101700433.jpg",
     "pagination":{
      "pgfolios":{
       "value":"216a"
      }
     }
    },
    {
     "filename":"I2KG2101700434.jpg",
     "pagination":{
      "pgfolios":{
       "value":"216b"
      }
     }
    },
    {
     "filename":"I2KG2101700435.jpg",
     "pagination":{
      "pgfolios":{
       "value":"217a"
      }
     }
    },
    {
     "filename":"I2KG2101700436.jpg",
     "pagination":{
      "pgfolios":{
       "value":"217b"
      }
     }
    },
    {
     "filename":"I2KG2101700437.jpg",
     "pagination":{
      "pgfolios":{
       "value":"218a"
      }
     }
    },
    {
     "filename":"I2KG2101700438.jpg",
     "pagination":{
      "pgfolios":{
       "value":"218b"
      }
     }
    },
    {
     "filename":"I2KG2101700439.jpg",
     "pagination":{
      "pgfolios":{
       "value":"219a"
      }
     }
    },
    {
     "filename":"I2KG2101700440.jpg",
     "pagination":{
      "pgfolios":{
       "value":"219b"
      }
     }
    },
    {
     "filename":"I2KG2101700441.jpg",
     "pagination":{
      "pgfolios":{
       "value":"220a"
      }
     }
    },
    {
     "filename":"I2KG2101700442.jpg",
     "pagination":{
      "pgfolios":{
       "value":"220b"
      }
     }
    },
    {
     "filename":"I2KG2101700443.jpg",
     "pagination":{
      "pgfolios":{
       "value":"221a"
      }
     }
    },
    {
     "filename":"I2KG2101700444.jpg",
     "pagination":{
      "pgfolios":{
       "value":"221b"
      }
     }
    },
    {
     "filename":"I2KG2101700445.jpg",
     "pagination":{
      "pgfolios":{
       "value":"222a"
      }
     }
    },
    {
     "filename":"I2KG2101700446.jpg",
     "pagination":{
      "pgfolios":{
       "value":"222b"
      }
     }
    },
    {
     "filename":"I2KG2101700447.jpg",
     "pagination":{
      "pgfolios":{
       "value":"223a"
      }
     }
    },
    {
     "filename":"I2KG2101700448.jpg",
     "pagination":{
      "pgfolios":{
       "value":"223b"
      }
     }
    },
    {
     "filename":"I2KG2101700449.jpg",
     "pagination":{
      "pgfolios":{
       "value":"224a"
      }
     }
    },
    {
     "filename":"I2KG2101700450.jpg",
     "pagination":{
      "pgfolios":{
       "value":"224b"
      }
     }
    },
    {
     "filename":"I2KG2101700451.jpg",
     "pagination":{
      "pgfolios":{
       "value":"225a"
      }
     }
    },
    {
     "filename":"I2KG2101700452.jpg",
     "pagination":{
      "pgfolios":{
       "value":"225b"
      }
     }
    },
    {
     "filename":"I2KG2101700453.jpg",
     "pagination":{
      "pgfolios":{
       "value":"226a"
      }
     }
    },
    {
     "filename":"I2KG2101700454.jpg",
     "pagination":{
      "pgfolios":{
       "value":"226b"
      }
     }
    },
    {
     "filename":"I2KG2101700455.jpg",
     "pagination":{
      "pgfolios":{
       "value":"227a"
      }
     }
    },
    {
     "filename":"I2KG2101700456.jpg",
     "pagination":{
      "pgfolios":{
       "value":"227b"
      }
     }
    },
    {
     "filename":"I2KG2101700457.jpg",
     "pagination":{
      "pgfolios":{
       "value":"228a"
      }
     }
    },
    {
     "filename":"I2KG2101700458.jpg",
     "pagination":{
      "pgfolios":{
       "value":"228b"
      }
     }
    },
    {
     "filename":"I2KG2101700459.jpg",
     "pagination":{
      "pgfolios":{
       "value":"229a"
      }
     }
    },
    {
     "filename":"I2KG2101700460.jpg",
     "pagination":{
      "pgfolios":{
       "value":"229b"
      }
     }
    },
    {
     "filename":"I2KG2101700461.jpg",
     "pagination":{
      "pgfolios":{
       "value":"230a"
      }
     }
    },
    {
     "filename":"I2KG2101700462.jpg",
     "pagination":{
      "pgfolios":{
       "value":"230b"
      }
     }
    },
    {
     "filename":"I2KG2101700463.jpg",
     "pagination":{
      "pgfolios":{
       "value":"231a"
      }
     }
    },
    {
     "filename":"I2KG2101700464.jpg",
     "pagination":{
      "pgfolios":{
       "value":"231b"
      }
     }
    },
    {
     "filename":"I2KG2101700465.jpg",
     "pagination":{
      "pgfolios":{
       "value":"232a"
      }
     }
    },
    {
     "filename":"I2KG2101700466.jpg",
     "pagination":{
      "pgfolios":{
       "value":"232b"
      }
     }
    },
    {
     "filename":"I2KG2101700467.jpg",
     "pagination":{
      "pgfolios":{
       "value":"233a"
      }
     }
    },
    {
     "filename":"I2KG2101700468.jpg",
     "pagination":{
      "pgfolios":{
       "value":"233b"
      }
     }
    },
    {
     "filename":"I2KG2101700469.jpg",
     "pagination":{
      "pgfolios":{
       "value":"234a"
      }
     }
    },
    {
     "filename":"I2KG2101700470.jpg",
     "pagination":{
      "pgfolios":{
       "value":"234b"
      }
     }
    },
    {
     "filename":"I2KG2101700471.jpg",
     "pagination":{
      "pgfolios":{
       "value":"235a"
      }
     }
    },
    {
     "filename":"I2KG2101700472.jpg",
     "pagination":{
      "pgfolios":{
       "value":"235b"
      }
     }
    },
    {
     "filename":"I2KG2101700473.jpg",
     "pagination":{
      "pgfolios":{
       "value":"236a"
      }
     }
    },
    {
     "filename":"I2KG2101700474.jpg",
     "pagination":{
      "pgfolios":{
       "value":"236b"
      }
     }
    },
    {
     "filename":"I2KG2101700475.jpg",
     "pagination":{
      "pgfolios":{
       "value":"237a"
      }
     }
    },
    {
     "filename":"I2KG2101700476.jpg",
     "pagination":{
      "pgfolios":{
       "value":"237b"
      }
     }
    },
    {
     "filename":"I2KG2101700477.jpg",
     "pagination":{
      "pgfolios":{
       "value":"238a"
      }
     }
    },
    {
     "filename":"I2KG2101700478.jpg",
     "pagination":{
      "pgfolios":{
       "value":"238b"
      }
     }
    },
    {
     "filename":"I2KG2101700479.jpg",
     "pagination":{
      "pgfolios":{
       "value":"239a"
      }
     }
    },
    {
     "filename":"I2KG2101700480.jpg",
     "pagination":{
      "pgfolios":{
       "value":"239b"
      }
     }
    },
    {
     "filename":"I2KG2101700481.jpg",
     "pagination":{
      "pgfolios":{
       "value":"240a"
      }
     }
    },
    {
     "filename":"I2KG2101700482.jpg",
     "pagination":{
      "pgfolios":{
       "value":"240b"
      }
     }
    },
    {
     "filename":"I2KG2101700483.jpg",
     "pagination":{
      "pgfolios":{
       "value":"241a"
      }
     }
    },
    {
     "filename":"I2KG2101700484.jpg",
     "pagination":{
      "pgfolios":{
       "value":"241b"
      }
     }
    },
    {
     "filename":"I2KG2101700485.jpg",
     "pagination":{
      "pgfolios":{
       "value":"242a"
      }
     }
    },
    {
     "filename":"I2KG2101700486.jpg",
     "pagination":{
      "pgfolios":{
       "value":"242b"
      }
     }
    },
    {
     "filename":"I2KG2101700487.jpg",
     "pagination":{
      "pgfolios":{
       "value":"243a"
      }
     }
    },
    {
     "filename":"I2KG2101700488.jpg",
     "pagination":{
      "pgfolios":{
       "value":"243b"
      }
     }
    },
    {
     "filename":"I2KG2101700489.jpg",
     "pagination":{
      "pgfolios":{
       "value":"244a"
      }
     }
    },
    {
     "filename":"I2KG2101700490.jpg",
     "pagination":{
      "pgfolios":{
       "value":"244b"
      }
     }
    },
    {
     "filename":"I2KG2101700491.jpg",
     "pagination":{
      "pgfolios":{
       "value":"245a"
      }
     }
    },
    {
     "filename":"I2KG2101700492.jpg",
     "pagination":{
      "pgfolios":{
       "value":"245b"
      }
     }
    },
    {
     "filename":"I2KG2101700493.jpg",
     "pagination":{
      "pgfolios":{
       "value":"246a"
      }
     }
    },
    {
     "filename":"I2KG2101700494.jpg",
     "pagination":{
      "pgfolios":{
       "value":"246b"
      }
     }
    },
    {
     "filename":"I2KG2101700495.jpg",
     "pagination":{
      "pgfolios":{
       "value":"247a"
      }
     }
    },
    {
     "filename":"I2KG2101700496.jpg",
     "pagination":{
      "pgfolios":{
       "value":"247b"
      }
     }
    },
    {
     "filename":"I2KG2101700497.jpg",
     "pagination":{
      "pgfolios":{
       "value":"248a"
      }
     }
    },
    {
     "filename":"I2KG2101700498.jpg",
     "pagination":{
      "pgfolios":{
       "value":"248b"
      }
     }
    },
    {
     "filename":"I2KG2101700499.jpg",
     "pagination":{
      "pgfolios":{
       "value":"249a"
      }
     }
    },
    {
     "filename":"I2KG2101700500.jpg",
     "pagination":{
      "pgfolios":{
       "value":"249b"
      }
     }
    },
    {
     "filename":"I2KG2101700501.jpg",
     "pagination":{
      "pgfolios":{
       "value":"250a"
      }
     }
    },
    {
     "filename":"I2KG2101700502.jpg",
     "pagination":{
      "pgfolios":{
       "value":"250b"
      }
     }
    },
    {
     "filename":"I2KG2101700503.jpg",
     "pagination":{
      "pgfolios":{
       "value":"251a"
      }
     }
    },
    {
     "filename":"I2KG2101700504.jpg",
     "pagination":{
      "pgfolios":{
       "value":"251b"
      }
     }
    },
    {
     "filename":"I2KG2101700505.jpg",
     "pagination":{
      "pgfolios":{
       "value":"252a"
      }
     }
    },
    {
     "filename":"I2KG2101700506.jpg",
     "pagination":{
      "pgfolios":{
       "value":"252b"
      }
     }
    },
    {
     "filename":"I2KG2101700507.jpg",
     "pagination":{
      "pgfolios":{
       "value":"253a"
      }
     }
    },
    {
     "filename":"I2KG2101700508.jpg",
     "pagination":{
      "pgfolios":{
       "value":"253b"
      }
     }
    },
    {
     "filename":"I2KG2101700509.jpg",
     "pagination":{
      "pgfolios":{
       "value":"254a"
      }
     }
    },
    {
     "filename":"I2KG2101700510.jpg",
     "pagination":{
      "pgfolios":{
       "value":"254b"
      }
     }
    },
    {
     "filename":"I2KG2101700511.jpg",
     "pagination":{
      "pgfolios":{
       "value":"255a"
      }
     }
    },
    {
     "filename":"I2KG2101700512.jpg",
     "pagination":{
      "pgfolios":{
       "value":"255b"
      }
     }
    },
    {
     "filename":"I2KG2101700513.jpg",
     "pagination":{
      "pgfolios":{
       "value":"256a"
      }
     }
    },
    {
     "filename":"I2KG2101700514.jpg",
     "pagination":{
      "pgfolios":{
       "value":"256b"
      }
     }
    },
    {
     "filename":"I2KG2101700515.jpg",
     "pagination":{
      "pgfolios":{
       "value":"257a"
      }
     }
    },
    {
     "filename":"I2KG2101700516.jpg",
     "pagination":{
      "pgfolios":{
       "value":"257b"
      }
     }
    },
    {
     "filename":"I2KG2101700517.jpg",
     "pagination":{
      "pgfolios":{
       "value":"258a"
      }
     }
    },
    {
     "filename":"I2KG2101700518.jpg",
     "pagination":{
      "pgfolios":{
       "value":"258b"
      }
     }
    },
    {
     "filename":"I2KG2101700519.jpg",
     "pagination":{
      "pgfolios":{
       "value":"259a"
      }
     }
    },
    {
     "filename":"I2KG2101700520.jpg",
     "pagination":{
      "pgfolios":{
       "value":"259b"
      }
     }
    },
    {
     "filename":"I2KG2101700521.jpg",
     "pagination":{
      "pgfolios":{
       "value":"260a"
      }
     }
    },
    {
     "filename":"I2KG2101700522.jpg",
     "pagination":{
      "pgfolios":{
       "value":"260b"
      }
     }
    },
    {
     "filename":"I2KG2101700523.jpg",
     "pagination":{
      "pgfolios":{
       "value":"261a"
      }
     }
    },
    {
     "filename":"I2KG2101700524.jpg",
     "pagination":{
      "pgfolios":{
       "value":"261b"
      }
     }
    },
    {
     "filename":"I2KG2101700525.jpg",
     "pagination":{
      "pgfolios":{
       "value":"262a"
      }
     }
    },
    {
     "filename":"I2KG2101700526.jpg",
     "pagination":{
      "pgfolios":{
       "value":"262b"
      }
     }
    },
    {
     "filename":"I2KG2101700527.jpg",
     "pagination":{
      "pgfolios":{
       "value":"263a"
      }
     }
    },
    {
     "filename":"I2KG2101700528.jpg",
     "pagination":{
      "pgfolios":{
       "value":"263b"
      }
     }
    },
    {
     "filename":"I2KG2101700529.jpg",
     "pagination":{
      "pgfolios":{
       "value":"264a"
      }
     }
    },
    {
     "filename":"I2KG2101700530.jpg",
     "pagination":{
      "pgfolios":{
       "value":"264b"
      }
     }
    },
    {
     "filename":"I2KG2101700531.jpg",
     "pagination":{
      "pgfolios":{
       "value":"265a"
      }
     }
    },
    {
     "filename":"I2KG2101700532.jpg",
     "pagination":{
      "pgfolios":{
       "value":"265b"
      }
     }
    },
    {
     "filename":"I2KG2101700533.jpg",
     "pagination":{
      "pgfolios":{
       "value":"266a"
      }
     }
    },
    {
     "filename":"I2KG2101700534.jpg",
     "pagination":{
      "pgfolios":{
       "value":"266b"
      }
     }
    },
    {
     "filename":"I2KG2101700535.jpg",
     "pagination":{
      "pgfolios":{
       "value":"267a"
      }
     }
    },
    {
     "filename":"I2KG2101700536.jpg",
     "pagination":{
      "pgfolios":{
       "value":"267b"
      }
     }
    },
    {
     "filename":"I2KG2101700537.jpg",
     "pagination":{
      "pgfolios":{
       "value":"268a"
      }
     }
    },
    {
     "filename":"I2KG2101700538.jpg",
     "pagination":{
      "pgfolios":{
       "value":"268b"
      }
     }
    },
    {
     "filename":"I2KG2101700539.jpg",
     "pagination":{
      "pgfolios":{
       "value":"269a"
      }
     }
    },
    {
     "filename":"I2KG2101700540.jpg",
     "pagination":{
      "pgfolios":{
       "value":"269b"
      }
     }
    },
    {
     "filename":"I2KG2101700541.jpg",
     "pagination":{
      "pgfolios":{
       "value":"270a"
      }
     }
    },
    {
     "filename":"I2KG2101700542.jpg",
     "pagination":{
      "pgfolios":{
       "value":"270b"
      }
     }
    },
    {
     "filename":"I2KG2101700543.jpg",
     "pagination":{
      "pgfolios":{
       "value":"271a"
      }
     }
    },
    {
     "filename":"I2KG2101700544.jpg",
     "pagination":{
      "pgfolios":{
       "value":"271b"
      }
     }
    },
    {
     "filename":"I2KG2101700545.jpg",
     "pagination":{
      "pgfolios":{
       "value":"272a"
      }
     }
    },
    {
     "filename":"I2KG2101700546.jpg",
     "pagination":{
      "pgfolios":{
       "value":"272b"
      }
     }
    }
   ]
  }
 },
 "viewing-direction":"top-to-bottom"
}