{
 "appData":{
  "bvmt":{
   "default-vol-string-lang":"bo",
   "metadata-for-bvmt-ver":"0.1.0"
  }
 },
 "attribution":[
  {
   "@language":"en",
   "@value":"Data provided by rKTs under the CC0 license"
  }
 ],
 "changes":[
  {
   "message":{
    "@language":"en",
    "@value":"migration from rKTs data"
   },
   "time":"2020-10-03T11:35:30Z",
   "user":"bdu:U1653882847"
  }
 ],
 "default-view":"view1",
 "imggroup":"bdr:I4CZ75112",
 "pagination":[
  {
   "id":"pgfolios",
   "type":"folios"
  }
 ],
 "sections":[
  {
   "id":"1",
   "name":{
    "@language":"bo-x-ewts",
    "@value":"1"
   }
  },
  {
   "id":"2",
   "name":{
    "@language":"bo-x-ewts",
    "@value":"2"
   }
  }
 ],
 "spec-version":"0.1.0",
 "status":"released",
 "view":{
  "view1":{
   "imagelist":[
    {
     "filename":"I4CZ751120001.tif",
     "hidden":true,
     "tags":[
      "T0005"
     ]
    },
    {
     "filename":"I4CZ751120002.tif",
     "hidden":true,
     "tags":[
      "T0005"
     ]
    },
    {
     "filename":"I4CZ751120003.jpg",
     "hidden":true,
     "tags":[
      "T0005"
     ]
    },
    {
     "filename":"I4CZ751120004.jpg"
    },
    {
     "filename":"I4CZ751120005.jpg"
    },
    {
     "filename":"I4CZ751120006.jpg"
    },
    {
     "filename":"I4CZ751120007.jpg",
     "pagination":{
      "pgfolios":{
       "section":"1",
       "value":"1a"
      }
     }
    },
    {
     "filename":"I4CZ751120008.jpg",
     "pagination":{
      "pgfolios":{
       "section":"1",
       "value":"1b"
      }
     }
    },
    {
     "pagination":{
      "pgfolios":{
       "section":"1",
       "value":"2a"
      }
     },
     "tags":[
      "T0020"
     ]
    },
    {
     "pagination":{
      "pgfolios":{
       "section":"1",
       "value":"2b"
      }
     },
     "tags":[
      "T0020"
     ]
    },
    {
     "filename":"I4CZ751120009.jpg",
     "pagination":{
      "pgfolios":{
       "section":"1",
       "value":"3a"
      }
     }
    },
    {
     "filename":"I4CZ751120010.jpg",
     "pagination":{
      "pgfolios":{
       "section":"1",
       "value":"3b"
      }
     }
    },
    {
     "filename":"I4CZ751120011.jpg",
     "pagination":{
      "pgfolios":{
       "section":"1",
       "value":"4a"
      }
     }
    },
    {
     "filename":"I4CZ751120012.jpg",
     "pagination":{
      "pgfolios":{
       "section":"1",
       "value":"4b"
      }
     }
    },
    {
     "filename":"I4CZ751120013.jpg",
     "pagination":{
      "pgfolios":{
       "section":"1",
       "value":"5a"
      }
     }
    },
    {
     "filename":"I4CZ751120014.jpg",
     "pagination":{
      "pgfolios":{
       "section":"1",
       "value":"5b"
      }
     }
    },
    {
     "filename":"I4CZ751120015.jpg",
     "pagination":{
      "pgfolios":{
       "section":"1",
       "value":"6a"
      }
     }
    },
    {
     "filename":"I4CZ751120016.jpg",
     "pagination":{
      "pgfolios":{
       "section":"1",
       "value":"6b"
      }
     }
    },
    {
     "filename":"I4CZ751120017.jpg",
     "pagination":{
      "pgfolios":{
       "section":"1",
       "value":"7a"
      }
     }
    },
    {
     "filename":"I4CZ751120018.jpg",
     "pagination":{
      "pgfolios":{
       "section":"1",
       "value":"7b"
      }
     }
    },
    {
     "filename":"I4CZ751120019.jpg",
     "pagination":{
      "pgfolios":{
       "section":"1",
       "value":"8a"
      }
     }
    },
    {
     "filename":"I4CZ751120020.jpg",
     "pagination":{
      "pgfolios":{
       "section":"1",
       "value":"8b"
      }
     }
    },
    {
     "filename":"I4CZ751120021.jpg",
     "pagination":{
      "pgfolios":{
       "section":"1",
       "value":"9a"
      }
     }
    },
    {
     "filename":"I4CZ751120022.jpg",
     "pagination":{
      "pgfolios":{
       "section":"1",
       "value":"9b"
      }
     }
    },
    {
     "filename":"I4CZ751120023.jpg",
     "pagination":{
      "pgfolios":{
       "section":"1",
       "value":"10a"
      }
     }
    },
    {
     "filename":"I4CZ751120024.jpg",
     "pagination":{
      "pgfolios":{
       "section":"1",
       "value":"10b"
      }
     }
    },
    {
     "filename":"I4CZ751120025.jpg",
     "pagination":{
      "pgfolios":{
       "section":"1",
       "value":"11a"
      }
     }
    },
    {
     "filename":"I4CZ751120026.jpg",
     "pagination":{
      "pgfolios":{
       "section":"1",
       "value":"11b"
      }
     }
    },
    {
     "filename":"I4CZ751120027.jpg",
     "pagination":{
      "pgfolios":{
       "section":"1",
       "value":"12a"
      }
     }
    },
    {
     "filename":"I4CZ751120028.jpg",
     "pagination":{
      "pgfolios":{
       "section":"1",
       "value":"12b"
      }
     }
    },
    {
     "filename":"I4CZ751120029.jpg",
     "pagination":{
      "pgfolios":{
       "section":"1",
       "value":"13a"
      }
     }
    },
    {
     "filename":"I4CZ751120030.jpg",
     "pagination":{
      "pgfolios":{
       "section":"1",
       "value":"13b"
      }
     }
    },
    {
     "filename":"I4CZ751120031.jpg",
     "pagination":{
      "pgfolios":{
       "section":"1",
       "value":"14a"
      }
     }
    },
    {
     "filename":"I4CZ751120032.jpg",
     "pagination":{
      "pgfolios":{
       "section":"1",
       "value":"14b"
      }
     }
    },
    {
     "filename":"I4CZ751120033.jpg",
     "pagination":{
      "pgfolios":{
       "section":"1",
       "value":"15a"
      }
     }
    },
    {
     "filename":"I4CZ751120034.jpg",
     "pagination":{
      "pgfolios":{
       "section":"1",
       "value":"15b"
      }
     }
    },
    {
     "filename":"I4CZ751120035.jpg",
     "pagination":{
      "pgfolios":{
       "section":"1",
       "value":"16a"
      }
     }
    },
    {
     "filename":"I4CZ751120036.jpg",
     "pagination":{
      "pgfolios":{
       "section":"1",
       "value":"16b"
      }
     }
    },
    {
     "filename":"I4CZ751120037.jpg",
     "pagination":{
      "pgfolios":{
       "section":"1",
       "value":"17a"
      }
     }
    },
    {
     "filename":"I4CZ751120038.jpg",
     "pagination":{
      "pgfolios":{
       "section":"1",
       "value":"17b"
      }
     }
    },
    {
     "filename":"I4CZ751120039.jpg",
     "pagination":{
      "pgfolios":{
       "section":"1",
       "value":"18a"
      }
     }
    },
    {
     "filename":"I4CZ751120040.jpg",
     "pagination":{
      "pgfolios":{
       "section":"1",
       "value":"18b"
      }
     }
    },
    {
     "filename":"I4CZ751120041.jpg",
     "pagination":{
      "pgfolios":{
       "section":"1",
       "value":"19a"
      }
     }
    },
    {
     "filename":"I4CZ751120042.jpg",
     "pagination":{
      "pgfolios":{
       "section":"1",
       "value":"19b"
      }
     }
    },
    {
     "filename":"I4CZ751120043.jpg",
     "pagination":{
      "pgfolios":{
       "section":"1",
       "value":"20a"
      }
     }
    },
    {
     "filename":"I4CZ751120044.jpg",
     "pagination":{
      "pgfolios":{
       "section":"1",
       "value":"20b"
      }
     }
    },
    {
     "filename":"I4CZ751120045.jpg",
     "pagination":{
      "pgfolios":{
       "section":"1",
       "value":"21a"
      }
     }
    },
    {
     "filename":"I4CZ751120046.jpg",
     "pagination":{
      "pgfolios":{
       "section":"1",
       "value":"21b"
      }
     }
    },
    {
     "filename":"I4CZ751120047.jpg",
     "pagination":{
      "pgfolios":{
       "section":"1",
       "value":"22a"
      }
     }
    },
    {
     "filename":"I4CZ751120048.jpg",
     "pagination":{
      "pgfolios":{
       "section":"1",
       "value":"22b"
      }
     }
    },
    {
     "filename":"I4CZ751120049.jpg",
     "pagination":{
      "pgfolios":{
       "section":"1",
       "value":"23a"
      }
     }
    },
    {
     "filename":"I4CZ751120050.jpg",
     "pagination":{
      "pgfolios":{
       "section":"1",
       "value":"23b"
      }
     }
    },
    {
     "filename":"I4CZ751120051.jpg",
     "pagination":{
      "pgfolios":{
       "section":"1",
       "value":"24a"
      }
     }
    },
    {
     "filename":"I4CZ751120052.jpg",
     "pagination":{
      "pgfolios":{
       "section":"1",
       "value":"24b"
      }
     }
    },
    {
     "filename":"I4CZ751120053.jpg",
     "pagination":{
      "pgfolios":{
       "section":"1",
       "value":"25a"
      }
     }
    },
    {
     "filename":"I4CZ751120054.jpg",
     "pagination":{
      "pgfolios":{
       "section":"1",
       "value":"25b"
      }
     }
    },
    {
     "filename":"I4CZ751120055.jpg",
     "pagination":{
      "pgfolios":{
       "section":"1",
       "value":"26a"
      }
     }
    },
    {
     "filename":"I4CZ751120056.jpg",
     "pagination":{
      "pgfolios":{
       "section":"1",
       "value":"26b"
      }
     }
    },
    {
     "filename":"I4CZ751120057.jpg",
     "pagination":{
      "pgfolios":{
       "section":"1",
       "value":"27a"
      }
     }
    },
    {
     "filename":"I4CZ751120058.jpg",
     "pagination":{
      "pgfolios":{
       "section":"1",
       "value":"27b"
      }
     }
    },
    {
     "filename":"I4CZ751120059.jpg",
     "pagination":{
      "pgfolios":{
       "section":"1",
       "value":"28a"
      }
     }
    },
    {
     "filename":"I4CZ751120060.jpg",
     "pagination":{
      "pgfolios":{
       "section":"1",
       "value":"28b"
      }
     }
    },
    {
     "filename":"I4CZ751120061.jpg",
     "pagination":{
      "pgfolios":{
       "section":"1",
       "value":"29a"
      }
     }
    },
    {
     "filename":"I4CZ751120062.jpg",
     "pagination":{
      "pgfolios":{
       "section":"1",
       "value":"29b"
      }
     }
    },
    {
     "filename":"I4CZ751120063.jpg",
     "pagination":{
      "pgfolios":{
       "section":"1",
       "value":"30a"
      }
     }
    },
    {
     "filename":"I4CZ751120064.jpg",
     "pagination":{
      "pgfolios":{
       "section":"1",
       "value":"30b"
      }
     }
    },
    {
     "filename":"I4CZ751120065.jpg",
     "pagination":{
      "pgfolios":{
       "section":"1",
       "value":"31a"
      }
     }
    },
    {
     "filename":"I4CZ751120066.jpg",
     "pagination":{
      "pgfolios":{
       "section":"1",
       "value":"31b"
      }
     }
    },
    {
     "filename":"I4CZ751120067.jpg",
     "pagination":{
      "pgfolios":{
       "section":"1",
       "value":"32a"
      }
     }
    },
    {
     "filename":"I4CZ751120068.jpg",
     "pagination":{
      "pgfolios":{
       "section":"1",
       "value":"32b"
      }
     }
    },
    {
     "filename":"I4CZ751120069.jpg",
     "pagination":{
      "pgfolios":{
       "section":"1",
       "value":"33a"
      }
     }
    },
    {
     "filename":"I4CZ751120070.jpg",
     "pagination":{
      "pgfolios":{
       "section":"1",
       "value":"33b"
      }
     }
    },
    {
     "filename":"I4CZ751120071.jpg",
     "pagination":{
      "pgfolios":{
       "section":"1",
       "value":"34a"
      }
     }
    },
    {
     "filename":"I4CZ751120072.jpg",
     "pagination":{
      "pgfolios":{
       "section":"1",
       "value":"34b"
      }
     }
    },
    {
     "filename":"I4CZ751120073.jpg",
     "pagination":{
      "pgfolios":{
       "section":"1",
       "value":"35a"
      }
     }
    },
    {
     "filename":"I4CZ751120074.jpg",
     "pagination":{
      "pgfolios":{
       "section":"1",
       "value":"35b"
      }
     }
    },
    {
     "filename":"I4CZ751120075.jpg",
     "pagination":{
      "pgfolios":{
       "section":"1",
       "value":"36a"
      }
     }
    },
    {
     "filename":"I4CZ751120076.jpg",
     "pagination":{
      "pgfolios":{
       "section":"1",
       "value":"36b"
      }
     }
    },
    {
     "filename":"I4CZ751120077.jpg",
     "pagination":{
      "pgfolios":{
       "section":"1",
       "value":"37a"
      }
     }
    },
    {
     "filename":"I4CZ751120078.jpg",
     "pagination":{
      "pgfolios":{
       "section":"1",
       "value":"37b"
      }
     }
    },
    {
     "filename":"I4CZ751120079.jpg",
     "pagination":{
      "pgfolios":{
       "section":"1",
       "value":"38a"
      }
     }
    },
    {
     "filename":"I4CZ751120080.jpg",
     "pagination":{
      "pgfolios":{
       "section":"1",
       "value":"38b"
      }
     }
    },
    {
     "filename":"I4CZ751120081.jpg",
     "pagination":{
      "pgfolios":{
       "section":"1",
       "value":"39a"
      }
     }
    },
    {
     "filename":"I4CZ751120082.jpg",
     "pagination":{
      "pgfolios":{
       "section":"1",
       "value":"39b"
      }
     }
    },
    {
     "pagination":{
      "pgfolios":{
       "section":"1",
       "value":"40a"
      }
     },
     "tags":[
      "T0020"
     ]
    },
    {
     "pagination":{
      "pgfolios":{
       "section":"1",
       "value":"40b"
      }
     },
     "tags":[
      "T0020"
     ]
    },
    {
     "filename":"I4CZ751120083.jpg",
     "pagination":{
      "pgfolios":{
       "section":"1",
       "value":"41a"
      }
     }
    },
    {
     "filename":"I4CZ751120084.jpg",
     "pagination":{
      "pgfolios":{
       "section":"1",
       "value":"41b"
      }
     }
    },
    {
     "filename":"I4CZ751120085.jpg",
     "pagination":{
      "pgfolios":{
       "section":"1",
       "value":"42a"
      }
     }
    },
    {
     "filename":"I4CZ751120086.jpg",
     "pagination":{
      "pgfolios":{
       "section":"1",
       "value":"42b"
      }
     }
    },
    {
     "filename":"I4CZ751120087.jpg",
     "pagination":{
      "pgfolios":{
       "section":"1",
       "value":"43a"
      }
     }
    },
    {
     "filename":"I4CZ751120088.jpg",
     "pagination":{
      "pgfolios":{
       "section":"1",
       "value":"43b"
      }
     }
    },
    {
     "filename":"I4CZ751120089.jpg",
     "pagination":{
      "pgfolios":{
       "section":"1",
       "value":"44a"
      }
     }
    },
    {
     "filename":"I4CZ751120090.jpg",
     "pagination":{
      "pgfolios":{
       "section":"1",
       "value":"44b"
      }
     }
    },
    {
     "filename":"I4CZ751120091.jpg",
     "pagination":{
      "pgfolios":{
       "section":"1",
       "value":"45a"
      }
     }
    },
    {
     "filename":"I4CZ751120092.jpg",
     "pagination":{
      "pgfolios":{
       "section":"1",
       "value":"45b"
      }
     }
    },
    {
     "filename":"I4CZ751120093.jpg",
     "pagination":{
      "pgfolios":{
       "section":"1",
       "value":"46a"
      }
     }
    },
    {
     "filename":"I4CZ751120094.jpg",
     "pagination":{
      "pgfolios":{
       "section":"1",
       "value":"46b"
      }
     }
    },
    {
     "filename":"I4CZ751120095.jpg",
     "pagination":{
      "pgfolios":{
       "section":"1",
       "value":"47a"
      }
     }
    },
    {
     "filename":"I4CZ751120096.jpg",
     "pagination":{
      "pgfolios":{
       "section":"1",
       "value":"47b"
      }
     }
    },
    {
     "filename":"I4CZ751120097.jpg",
     "pagination":{
      "pgfolios":{
       "section":"1",
       "value":"48a"
      }
     }
    },
    {
     "filename":"I4CZ751120098.jpg",
     "pagination":{
      "pgfolios":{
       "section":"1",
       "value":"48b"
      }
     }
    },
    {
     "filename":"I4CZ751120099.jpg",
     "pagination":{
      "pgfolios":{
       "section":"1",
       "value":"49a"
      }
     }
    },
    {
     "filename":"I4CZ751120100.jpg",
     "pagination":{
      "pgfolios":{
       "section":"1",
       "value":"49b"
      }
     }
    },
    {
     "pagination":{
      "pgfolios":{
       "section":"1",
       "value":"50a"
      }
     },
     "tags":[
      "T0020"
     ]
    },
    {
     "pagination":{
      "pgfolios":{
       "section":"1",
       "value":"50b"
      }
     },
     "tags":[
      "T0020"
     ]
    },
    {
     "filename":"I4CZ751120101.jpg",
     "pagination":{
      "pgfolios":{
       "section":"1",
       "value":"51a"
      }
     }
    },
    {
     "filename":"I4CZ751120102.jpg",
     "pagination":{
      "pgfolios":{
       "section":"1",
       "value":"51b"
      }
     }
    },
    {
     "filename":"I4CZ751120103.jpg",
     "pagination":{
      "pgfolios":{
       "section":"1",
       "value":"52a"
      }
     }
    },
    {
     "filename":"I4CZ751120104.jpg",
     "pagination":{
      "pgfolios":{
       "section":"1",
       "value":"52b"
      }
     }
    },
    {
     "filename":"I4CZ751120105.jpg",
     "pagination":{
      "pgfolios":{
       "section":"1",
       "value":"53a"
      }
     }
    },
    {
     "filename":"I4CZ751120106.jpg",
     "pagination":{
      "pgfolios":{
       "section":"1",
       "value":"53b"
      }
     }
    },
    {
     "filename":"I4CZ751120107.jpg",
     "pagination":{
      "pgfolios":{
       "section":"1",
       "value":"54a"
      }
     }
    },
    {
     "filename":"I4CZ751120108.jpg",
     "pagination":{
      "pgfolios":{
       "section":"1",
       "value":"54b"
      }
     }
    },
    {
     "filename":"I4CZ751120109.jpg",
     "pagination":{
      "pgfolios":{
       "section":"1",
       "value":"55a"
      }
     }
    },
    {
     "filename":"I4CZ751120110.jpg",
     "pagination":{
      "pgfolios":{
       "section":"1",
       "value":"55b"
      }
     }
    },
    {
     "filename":"I4CZ751120111.jpg",
     "pagination":{
      "pgfolios":{
       "section":"1",
       "value":"56a"
      }
     }
    },
    {
     "filename":"I4CZ751120112.jpg",
     "pagination":{
      "pgfolios":{
       "section":"1",
       "value":"56b"
      }
     }
    },
    {
     "filename":"I4CZ751120113.jpg",
     "pagination":{
      "pgfolios":{
       "section":"1",
       "value":"57a"
      }
     }
    },
    {
     "filename":"I4CZ751120114.jpg",
     "pagination":{
      "pgfolios":{
       "section":"1",
       "value":"57b"
      }
     }
    },
    {
     "filename":"I4CZ751120115.jpg",
     "pagination":{
      "pgfolios":{
       "section":"1",
       "value":"58a"
      }
     }
    },
    {
     "filename":"I4CZ751120116.jpg",
     "pagination":{
      "pgfolios":{
       "section":"1",
       "value":"58b"
      }
     }
    },
    {
     "filename":"I4CZ751120117.jpg",
     "pagination":{
      "pgfolios":{
       "section":"1",
       "value":"59a"
      }
     }
    },
    {
     "filename":"I4CZ751120118.jpg",
     "pagination":{
      "pgfolios":{
       "section":"1",
       "value":"59b"
      }
     }
    },
    {
     "filename":"I4CZ751120119.jpg",
     "pagination":{
      "pgfolios":{
       "section":"1",
       "value":"60a"
      }
     }
    },
    {
     "filename":"I4CZ751120120.jpg",
     "pagination":{
      "pgfolios":{
       "section":"1",
       "value":"60b"
      }
     }
    },
    {
     "filename":"I4CZ751120121.jpg",
     "pagination":{
      "pgfolios":{
       "section":"1",
       "value":"61a"
      }
     }
    },
    {
     "filename":"I4CZ751120122.jpg",
     "pagination":{
      "pgfolios":{
       "section":"1",
       "value":"61b"
      }
     }
    },
    {
     "filename":"I4CZ751120123.jpg",
     "pagination":{
      "pgfolios":{
       "section":"1",
       "value":"62a"
      }
     }
    },
    {
     "filename":"I4CZ751120124.jpg",
     "pagination":{
      "pgfolios":{
       "section":"1",
       "value":"62b"
      }
     }
    },
    {
     "filename":"I4CZ751120125.jpg",
     "pagination":{
      "pgfolios":{
       "section":"2",
       "value":"1a"
      }
     }
    },
    {
     "filename":"I4CZ751120126.jpg",
     "pagination":{
      "pgfolios":{
       "section":"2",
       "value":"1b"
      }
     }
    },
    {
     "filename":"I4CZ751120127.jpg",
     "pagination":{
      "pgfolios":{
       "section":"2",
       "value":"2a"
      }
     }
    },
    {
     "filename":"I4CZ751120128.jpg",
     "pagination":{
      "pgfolios":{
       "section":"2",
       "value":"2b"
      }
     }
    },
    {
     "filename":"I4CZ751120129.jpg",
     "pagination":{
      "pgfolios":{
       "section":"2",
       "value":"3a"
      }
     }
    },
    {
     "filename":"I4CZ751120130.jpg",
     "pagination":{
      "pgfolios":{
       "section":"2",
       "value":"3b"
      }
     }
    },
    {
     "filename":"I4CZ751120131.jpg",
     "pagination":{
      "pgfolios":{
       "section":"2",
       "value":"4a"
      }
     }
    },
    {
     "filename":"I4CZ751120132.jpg",
     "pagination":{
      "pgfolios":{
       "section":"2",
       "value":"4b"
      }
     }
    },
    {
     "filename":"I4CZ751120133.jpg",
     "pagination":{
      "pgfolios":{
       "section":"2",
       "value":"5a"
      }
     }
    },
    {
     "filename":"I4CZ751120134.jpg",
     "pagination":{
      "pgfolios":{
       "section":"2",
       "value":"5b"
      }
     }
    },
    {
     "filename":"I4CZ751120135.jpg",
     "pagination":{
      "pgfolios":{
       "section":"2",
       "value":"6a"
      }
     }
    },
    {
     "filename":"I4CZ751120136.jpg",
     "pagination":{
      "pgfolios":{
       "section":"2",
       "value":"6b"
      }
     }
    },
    {
     "filename":"I4CZ751120137.jpg",
     "pagination":{
      "pgfolios":{
       "section":"2",
       "value":"7a"
      }
     }
    },
    {
     "filename":"I4CZ751120138.jpg",
     "pagination":{
      "pgfolios":{
       "section":"2",
       "value":"7b"
      }
     }
    },
    {
     "filename":"I4CZ751120139.jpg",
     "pagination":{
      "pgfolios":{
       "section":"2",
       "value":"8a"
      }
     }
    },
    {
     "filename":"I4CZ751120140.jpg",
     "pagination":{
      "pgfolios":{
       "section":"2",
       "value":"8b"
      }
     }
    },
    {
     "filename":"I4CZ751120141.jpg",
     "pagination":{
      "pgfolios":{
       "section":"2",
       "value":"9a"
      }
     }
    },
    {
     "filename":"I4CZ751120142.jpg",
     "pagination":{
      "pgfolios":{
       "section":"2",
       "value":"9b"
      }
     }
    },
    {
     "filename":"I4CZ751120143.jpg",
     "pagination":{
      "pgfolios":{
       "section":"2",
       "value":"10a"
      }
     }
    },
    {
     "filename":"I4CZ751120144.jpg",
     "pagination":{
      "pgfolios":{
       "section":"2",
       "value":"10b"
      }
     }
    },
    {
     "filename":"I4CZ751120145.jpg",
     "pagination":{
      "pgfolios":{
       "section":"2",
       "value":"11a"
      }
     }
    },
    {
     "filename":"I4CZ751120146.jpg",
     "pagination":{
      "pgfolios":{
       "section":"2",
       "value":"11b"
      }
     }
    },
    {
     "filename":"I4CZ751120147.jpg",
     "pagination":{
      "pgfolios":{
       "section":"2",
       "value":"12a"
      }
     }
    },
    {
     "filename":"I4CZ751120148.jpg",
     "pagination":{
      "pgfolios":{
       "section":"2",
       "value":"12b"
      }
     }
    },
    {
     "filename":"I4CZ751120149.jpg",
     "pagination":{
      "pgfolios":{
       "section":"2",
       "value":"13a"
      }
     }
    },
    {
     "filename":"I4CZ751120150.jpg",
     "pagination":{
      "pgfolios":{
       "section":"2",
       "value":"13b"
      }
     }
    },
    {
     "filename":"I4CZ751120151.jpg",
     "pagination":{
      "pgfolios":{
       "section":"2",
       "value":"14a"
      }
     }
    },
    {
     "filename":"I4CZ751120152.jpg",
     "pagination":{
      "pgfolios":{
       "section":"2",
       "value":"14b"
      }
     }
    },
    {
     "filename":"I4CZ751120153.jpg",
     "pagination":{
      "pgfolios":{
       "section":"2",
       "value":"15a"
      }
     }
    },
    {
     "filename":"I4CZ751120154.jpg",
     "pagination":{
      "pgfolios":{
       "section":"2",
       "value":"15b"
      }
     }
    },
    {
     "filename":"I4CZ751120155.jpg",
     "pagination":{
      "pgfolios":{
       "section":"2",
       "value":"16a"
      }
     }
    },
    {
     "filename":"I4CZ751120156.jpg",
     "pagination":{
      "pgfolios":{
       "section":"2",
       "value":"16b"
      }
     }
    },
    {
     "filename":"I4CZ751120157.jpg",
     "pagination":{
      "pgfolios":{
       "section":"2",
       "value":"17a"
      }
     }
    },
    {
     "filename":"I4CZ751120158.jpg",
     "pagination":{
      "pgfolios":{
       "section":"2",
       "value":"17b"
      }
     }
    },
    {
     "filename":"I4CZ751120159.jpg",
     "pagination":{
      "pgfolios":{
       "section":"2",
       "value":"18a"
      }
     }
    },
    {
     "filename":"I4CZ751120160.jpg",
     "pagination":{
      "pgfolios":{
       "section":"2",
       "value":"18b"
      }
     }
    },
    {
     "filename":"I4CZ751120161.jpg",
     "pagination":{
      "pgfolios":{
       "section":"2",
       "value":"19a"
      }
     }
    },
    {
     "filename":"I4CZ751120162.jpg",
     "pagination":{
      "pgfolios":{
       "section":"2",
       "value":"19b"
      }
     }
    },
    {
     "filename":"I4CZ751120163.jpg",
     "pagination":{
      "pgfolios":{
       "section":"2",
       "value":"20a"
      }
     }
    },
    {
     "filename":"I4CZ751120164.jpg",
     "pagination":{
      "pgfolios":{
       "section":"2",
       "value":"20b"
      }
     }
    },
    {
     "filename":"I4CZ751120165.jpg",
     "pagination":{
      "pgfolios":{
       "section":"2",
       "value":"21a"
      }
     }
    },
    {
     "filename":"I4CZ751120166.jpg",
     "pagination":{
      "pgfolios":{
       "section":"2",
       "value":"21b"
      }
     }
    },
    {
     "filename":"I4CZ751120167.jpg",
     "pagination":{
      "pgfolios":{
       "section":"2",
       "value":"22a"
      }
     }
    },
    {
     "filename":"I4CZ751120168.jpg",
     "pagination":{
      "pgfolios":{
       "section":"2",
       "value":"22b"
      }
     }
    },
    {
     "filename":"I4CZ751120169.jpg",
     "pagination":{
      "pgfolios":{
       "section":"2",
       "value":"23a"
      }
     }
    },
    {
     "filename":"I4CZ751120170.jpg",
     "pagination":{
      "pgfolios":{
       "section":"2",
       "value":"23b"
      }
     }
    },
    {
     "filename":"I4CZ751120171.jpg",
     "pagination":{
      "pgfolios":{
       "section":"2",
       "value":"24a"
      }
     }
    },
    {
     "filename":"I4CZ751120172.jpg",
     "pagination":{
      "pgfolios":{
       "section":"2",
       "value":"24b"
      }
     }
    },
    {
     "filename":"I4CZ751120173.jpg",
     "pagination":{
      "pgfolios":{
       "section":"2",
       "value":"25a"
      }
     }
    },
    {
     "filename":"I4CZ751120174.jpg",
     "pagination":{
      "pgfolios":{
       "section":"2",
       "value":"25b"
      }
     }
    },
    {
     "filename":"I4CZ751120175.jpg",
     "pagination":{
      "pgfolios":{
       "section":"2",
       "value":"26a"
      }
     }
    },
    {
     "filename":"I4CZ751120176.jpg",
     "pagination":{
      "pgfolios":{
       "section":"2",
       "value":"26b"
      }
     }
    },
    {
     "filename":"I4CZ751120177.jpg",
     "pagination":{
      "pgfolios":{
       "section":"2",
       "value":"27a"
      }
     }
    },
    {
     "filename":"I4CZ751120178.jpg",
     "pagination":{
      "pgfolios":{
       "section":"2",
       "value":"27b"
      }
     }
    },
    {
     "filename":"I4CZ751120179.jpg",
     "pagination":{
      "pgfolios":{
       "section":"2",
       "value":"28a"
      }
     }
    },
    {
     "filename":"I4CZ751120180.jpg",
     "pagination":{
      "pgfolios":{
       "section":"2",
       "value":"28b"
      }
     }
    },
    {
     "filename":"I4CZ751120181.jpg",
     "pagination":{
      "pgfolios":{
       "section":"2",
       "value":"29a"
      }
     }
    },
    {
     "filename":"I4CZ751120182.jpg",
     "pagination":{
      "pgfolios":{
       "section":"2",
       "value":"29b"
      }
     }
    },
    {
     "filename":"I4CZ751120183.jpg",
     "pagination":{
      "pgfolios":{
       "section":"2",
       "value":"30a"
      }
     }
    },
    {
     "filename":"I4CZ751120184.jpg",
     "pagination":{
      "pgfolios":{
       "section":"2",
       "value":"30b"
      }
     }
    },
    {
     "filename":"I4CZ751120185.jpg",
     "pagination":{
      "pgfolios":{
       "section":"2",
       "value":"31a"
      }
     }
    },
    {
     "filename":"I4CZ751120186.jpg",
     "pagination":{
      "pgfolios":{
       "section":"2",
       "value":"31b"
      }
     }
    },
    {
     "filename":"I4CZ751120187.jpg",
     "pagination":{
      "pgfolios":{
       "section":"2",
       "value":"32a"
      }
     }
    },
    {
     "filename":"I4CZ751120188.jpg",
     "pagination":{
      "pgfolios":{
       "section":"2",
       "value":"32b"
      }
     }
    },
    {
     "filename":"I4CZ751120189.jpg",
     "pagination":{
      "pgfolios":{
       "section":"2",
       "value":"33a"
      }
     }
    },
    {
     "filename":"I4CZ751120190.jpg",
     "pagination":{
      "pgfolios":{
       "section":"2",
       "value":"33b"
      }
     }
    },
    {
     "filename":"I4CZ751120191.jpg",
     "pagination":{
      "pgfolios":{
       "section":"2",
       "value":"34a"
      }
     }
    },
    {
     "filename":"I4CZ751120192.jpg",
     "pagination":{
      "pgfolios":{
       "section":"2",
       "value":"34b"
      }
     }
    },
    {
     "filename":"I4CZ751120193.jpg",
     "pagination":{
      "pgfolios":{
       "section":"2",
       "value":"35a"
      }
     }
    },
    {
     "filename":"I4CZ751120194.jpg",
     "pagination":{
      "pgfolios":{
       "section":"2",
       "value":"35b"
      }
     }
    },
    {
     "filename":"I4CZ751120195.jpg",
     "pagination":{
      "pgfolios":{
       "section":"2",
       "value":"36a"
      }
     }
    },
    {
     "filename":"I4CZ751120196.jpg",
     "pagination":{
      "pgfolios":{
       "section":"2",
       "value":"36b"
      }
     }
    },
    {
     "filename":"I4CZ751120197.jpg",
     "pagination":{
      "pgfolios":{
       "section":"2",
       "value":"37a"
      }
     }
    },
    {
     "filename":"I4CZ751120198.jpg",
     "pagination":{
      "pgfolios":{
       "section":"2",
       "value":"37b"
      }
     }
    },
    {
     "filename":"I4CZ751120199.jpg",
     "pagination":{
      "pgfolios":{
       "section":"2",
       "value":"38a"
      }
     }
    },
    {
     "filename":"I4CZ751120200.jpg",
     "pagination":{
      "pgfolios":{
       "section":"2",
       "value":"38b"
      }
     }
    },
    {
     "filename":"I4CZ751120201.jpg",
     "pagination":{
      "pgfolios":{
       "section":"2",
       "value":"39a"
      }
     }
    },
    {
     "filename":"I4CZ751120202.jpg",
     "pagination":{
      "pgfolios":{
       "section":"2",
       "value":"39b"
      }
     }
    },
    {
     "filename":"I4CZ751120203.jpg",
     "pagination":{
      "pgfolios":{
       "section":"2",
       "value":"40a"
      }
     }
    },
    {
     "filename":"I4CZ751120204.jpg",
     "pagination":{
      "pgfolios":{
       "section":"2",
       "value":"40b"
      }
     }
    },
    {
     "filename":"I4CZ751120205.jpg",
     "pagination":{
      "pgfolios":{
       "section":"2",
       "value":"41a"
      }
     }
    },
    {
     "filename":"I4CZ751120206.jpg",
     "pagination":{
      "pgfolios":{
       "section":"2",
       "value":"41b"
      }
     }
    },
    {
     "filename":"I4CZ751120207.jpg",
     "pagination":{
      "pgfolios":{
       "section":"2",
       "value":"42a"
      }
     }
    },
    {
     "filename":"I4CZ751120208.jpg",
     "pagination":{
      "pgfolios":{
       "section":"2",
       "value":"42b"
      }
     }
    },
    {
     "filename":"I4CZ751120209.jpg",
     "pagination":{
      "pgfolios":{
       "section":"2",
       "value":"43a"
      }
     }
    },
    {
     "filename":"I4CZ751120210.jpg",
     "pagination":{
      "pgfolios":{
       "section":"2",
       "value":"43b"
      }
     }
    },
    {
     "filename":"I4CZ751120211.jpg",
     "pagination":{
      "pgfolios":{
       "section":"2",
       "value":"44a"
      }
     }
    },
    {
     "filename":"I4CZ751120212.jpg",
     "pagination":{
      "pgfolios":{
       "section":"2",
       "value":"44b"
      }
     }
    },
    {
     "filename":"I4CZ751120213.jpg",
     "pagination":{
      "pgfolios":{
       "section":"2",
       "value":"45a"
      }
     }
    },
    {
     "filename":"I4CZ751120214.jpg",
     "pagination":{
      "pgfolios":{
       "section":"2",
       "value":"45b"
      }
     }
    },
    {
     "filename":"I4CZ751120215.jpg",
     "pagination":{
      "pgfolios":{
       "section":"2",
       "value":"46a"
      }
     }
    },
    {
     "filename":"I4CZ751120216.jpg",
     "pagination":{
      "pgfolios":{
       "section":"2",
       "value":"46b"
      }
     }
    },
    {
     "filename":"I4CZ751120217.jpg",
     "pagination":{
      "pgfolios":{
       "section":"2",
       "value":"47a"
      }
     }
    },
    {
     "filename":"I4CZ751120218.jpg",
     "pagination":{
      "pgfolios":{
       "section":"2",
       "value":"47b"
      }
     }
    },
    {
     "filename":"I4CZ751120219.jpg",
     "pagination":{
      "pgfolios":{
       "section":"2",
       "value":"48a"
      }
     }
    },
    {
     "filename":"I4CZ751120220.jpg",
     "pagination":{
      "pgfolios":{
       "section":"2",
       "value":"48b"
      }
     }
    },
    {
     "filename":"I4CZ751120221.jpg",
     "pagination":{
      "pgfolios":{
       "section":"2",
       "value":"49a"
      }
     }
    },
    {
     "filename":"I4CZ751120222.jpg",
     "pagination":{
      "pgfolios":{
       "section":"2",
       "value":"49b"
      }
     }
    },
    {
     "filename":"I4CZ751120223.jpg",
     "pagination":{
      "pgfolios":{
       "section":"2",
       "value":"50a"
      }
     }
    },
    {
     "filename":"I4CZ751120224.jpg",
     "pagination":{
      "pgfolios":{
       "section":"2",
       "value":"50b"
      }
     }
    },
    {
     "filename":"I4CZ751120225.jpg",
     "pagination":{
      "pgfolios":{
       "section":"2",
       "value":"51a"
      }
     }
    },
    {
     "filename":"I4CZ751120226.jpg",
     "pagination":{
      "pgfolios":{
       "section":"2",
       "value":"51b"
      }
     }
    },
    {
     "filename":"I4CZ751120227.jpg",
     "pagination":{
      "pgfolios":{
       "section":"2",
       "value":"52a"
      }
     }
    },
    {
     "filename":"I4CZ751120228.jpg",
     "pagination":{
      "pgfolios":{
       "section":"2",
       "value":"52b"
      }
     }
    },
    {
     "filename":"I4CZ751120229.jpg",
     "pagination":{
      "pgfolios":{
       "section":"2",
       "value":"53a"
      }
     }
    },
    {
     "filename":"I4CZ751120230.jpg",
     "pagination":{
      "pgfolios":{
       "section":"2",
       "value":"53b"
      }
     }
    },
    {
     "filename":"I4CZ751120231.jpg",
     "pagination":{
      "pgfolios":{
       "section":"2",
       "value":"54a"
      }
     }
    },
    {
     "filename":"I4CZ751120232.jpg",
     "pagination":{
      "pgfolios":{
       "section":"2",
       "value":"54b"
      }
     }
    },
    {
     "filename":"I4CZ751120233.jpg",
     "pagination":{
      "pgfolios":{
       "section":"2",
       "value":"55a"
      }
     }
    },
    {
     "filename":"I4CZ751120234.jpg",
     "pagination":{
      "pgfolios":{
       "section":"2",
       "value":"55b"
      }
     }
    },
    {
     "filename":"I4CZ751120235.jpg",
     "pagination":{
      "pgfolios":{
       "section":"2",
       "value":"56a"
      }
     }
    },
    {
     "filename":"I4CZ751120236.jpg",
     "pagination":{
      "pgfolios":{
       "section":"2",
       "value":"56b"
      }
     }
    },
    {
     "filename":"I4CZ751120237.jpg",
     "pagination":{
      "pgfolios":{
       "section":"2",
       "value":"57a"
      }
     }
    },
    {
     "filename":"I4CZ751120238.jpg",
     "pagination":{
      "pgfolios":{
       "section":"2",
       "value":"57b"
      }
     }
    },
    {
     "filename":"I4CZ751120239.jpg",
     "pagination":{
      "pgfolios":{
       "section":"2",
       "value":"58a"
      }
     }
    },
    {
     "filename":"I4CZ751120240.jpg",
     "pagination":{
      "pgfolios":{
       "section":"2",
       "value":"58b"
      }
     }
    },
    {
     "filename":"I4CZ751120241.jpg",
     "pagination":{
      "pgfolios":{
       "section":"2",
       "value":"59a"
      }
     }
    },
    {
     "filename":"I4CZ751120242.jpg",
     "pagination":{
      "pgfolios":{
       "section":"2",
       "value":"59b"
      }
     }
    },
    {
     "filename":"I4CZ751120243.jpg",
     "pagination":{
      "pgfolios":{
       "section":"2",
       "value":"60a"
      }
     }
    },
    {
     "filename":"I4CZ751120244.jpg",
     "pagination":{
      "pgfolios":{
       "section":"2",
       "value":"60b"
      }
     }
    },
    {
     "filename":"I4CZ751120245.jpg",
     "pagination":{
      "pgfolios":{
       "section":"2",
       "value":"61a"
      }
     }
    },
    {
     "filename":"I4CZ751120246.jpg",
     "pagination":{
      "pgfolios":{
       "section":"2",
       "value":"61b"
      }
     }
    },
    {
     "filename":"I4CZ751120247.jpg",
     "pagination":{
      "pgfolios":{
       "section":"2",
       "value":"62a"
      }
     }
    },
    {
     "filename":"I4CZ751120248.jpg",
     "pagination":{
      "pgfolios":{
       "section":"2",
       "value":"62b"
      }
     }
    },
    {
     "filename":"I4CZ751120249.jpg",
     "pagination":{
      "pgfolios":{
       "section":"2",
       "value":"63a"
      }
     }
    },
    {
     "filename":"I4CZ751120250.jpg",
     "pagination":{
      "pgfolios":{
       "section":"2",
       "value":"63b"
      }
     }
    },
    {
     "filename":"I4CZ751120251.jpg",
     "pagination":{
      "pgfolios":{
       "section":"2",
       "value":"64a"
      }
     }
    },
    {
     "filename":"I4CZ751120252.jpg",
     "pagination":{
      "pgfolios":{
       "section":"2",
       "value":"64b"
      }
     }
    },
    {
     "filename":"I4CZ751120253.jpg",
     "pagination":{
      "pgfolios":{
       "section":"2",
       "value":"65a"
      }
     }
    },
    {
     "filename":"I4CZ751120254.jpg",
     "pagination":{
      "pgfolios":{
       "section":"2",
       "value":"65b"
      }
     }
    },
    {
     "filename":"I4CZ751120255.jpg",
     "pagination":{
      "pgfolios":{
       "section":"2",
       "value":"66a"
      }
     }
    },
    {
     "filename":"I4CZ751120256.jpg",
     "pagination":{
      "pgfolios":{
       "section":"2",
       "value":"66b"
      }
     }
    },
    {
     "filename":"I4CZ751120257.jpg",
     "pagination":{
      "pgfolios":{
       "section":"2",
       "value":"67a"
      }
     }
    },
    {
     "filename":"I4CZ751120258.jpg",
     "pagination":{
      "pgfolios":{
       "section":"2",
       "value":"67b"
      }
     }
    },
    {
     "filename":"I4CZ751120259.jpg",
     "pagination":{
      "pgfolios":{
       "section":"2",
       "value":"68a"
      }
     }
    },
    {
     "filename":"I4CZ751120260.jpg",
     "pagination":{
      "pgfolios":{
       "section":"2",
       "value":"68b"
      }
     }
    },
    {
     "filename":"I4CZ751120261.jpg",
     "pagination":{
      "pgfolios":{
       "section":"2",
       "value":"69a"
      }
     }
    },
    {
     "filename":"I4CZ751120262.jpg",
     "pagination":{
      "pgfolios":{
       "section":"2",
       "value":"69b"
      }
     }
    },
    {
     "filename":"I4CZ751120263.jpg",
     "pagination":{
      "pgfolios":{
       "section":"2",
       "value":"70a"
      }
     }
    },
    {
     "filename":"I4CZ751120264.jpg",
     "pagination":{
      "pgfolios":{
       "section":"2",
       "value":"70b"
      }
     }
    },
    {
     "pagination":{
      "pgfolios":{
       "section":"2",
       "value":"71a"
      }
     },
     "tags":[
      "T0020"
     ]
    },
    {
     "pagination":{
      "pgfolios":{
       "section":"2",
       "value":"71b"
      }
     },
     "tags":[
      "T0020"
     ]
    },
    {
     "filename":"I4CZ751120265.jpg",
     "pagination":{
      "pgfolios":{
       "section":"2",
       "value":"72a"
      }
     }
    },
    {
     "filename":"I4CZ751120266.jpg",
     "pagination":{
      "pgfolios":{
       "section":"2",
       "value":"72b"
      }
     }
    },
    {
     "filename":"I4CZ751120267.jpg",
     "pagination":{
      "pgfolios":{
       "section":"2",
       "value":"73a"
      }
     }
    },
    {
     "filename":"I4CZ751120268.jpg",
     "pagination":{
      "pgfolios":{
       "section":"2",
       "value":"73b"
      }
     }
    },
    {
     "filename":"I4CZ751120269.jpg",
     "pagination":{
      "pgfolios":{
       "section":"2",
       "value":"74a"
      }
     }
    },
    {
     "filename":"I4CZ751120270.jpg",
     "pagination":{
      "pgfolios":{
       "section":"2",
       "value":"74b"
      }
     }
    },
    {
     "filename":"I4CZ751120271.jpg",
     "pagination":{
      "pgfolios":{
       "section":"2",
       "value":"75a"
      }
     }
    },
    {
     "filename":"I4CZ751120272.jpg",
     "pagination":{
      "pgfolios":{
       "section":"2",
       "value":"75b"
      }
     }
    },
    {
     "filename":"I4CZ751120273.jpg",
     "pagination":{
      "pgfolios":{
       "section":"2",
       "value":"76a"
      }
     }
    },
    {
     "filename":"I4CZ751120274.jpg",
     "pagination":{
      "pgfolios":{
       "section":"2",
       "value":"76b"
      }
     }
    },
    {
     "filename":"I4CZ751120275.jpg",
     "pagination":{
      "pgfolios":{
       "section":"2",
       "value":"77a"
      }
     }
    },
    {
     "filename":"I4CZ751120276.jpg",
     "pagination":{
      "pgfolios":{
       "section":"2",
       "value":"77b"
      }
     }
    },
    {
     "filename":"I4CZ751120277.jpg",
     "pagination":{
      "pgfolios":{
       "section":"2",
       "value":"78a"
      }
     }
    },
    {
     "filename":"I4CZ751120278.jpg",
     "pagination":{
      "pgfolios":{
       "section":"2",
       "value":"78b"
      }
     }
    },
    {
     "filename":"I4CZ751120279.jpg",
     "pagination":{
      "pgfolios":{
       "section":"2",
       "value":"79a"
      }
     }
    },
    {
     "filename":"I4CZ751120280.jpg",
     "pagination":{
      "pgfolios":{
       "section":"2",
       "value":"79b"
      }
     }
    },
    {
     "filename":"I4CZ751120281.jpg",
     "pagination":{
      "pgfolios":{
       "section":"2",
       "value":"80a"
      }
     }
    },
    {
     "filename":"I4CZ751120282.jpg",
     "pagination":{
      "pgfolios":{
       "section":"2",
       "value":"80b"
      }
     }
    },
    {
     "filename":"I4CZ751120283.jpg",
     "pagination":{
      "pgfolios":{
       "section":"2",
       "value":"81a"
      }
     }
    },
    {
     "filename":"I4CZ751120284.jpg",
     "pagination":{
      "pgfolios":{
       "section":"2",
       "value":"81b"
      }
     }
    },
    {
     "filename":"I4CZ751120285.jpg",
     "pagination":{
      "pgfolios":{
       "section":"2",
       "value":"82a"
      }
     }
    },
    {
     "filename":"I4CZ751120286.jpg",
     "pagination":{
      "pgfolios":{
       "section":"2",
       "value":"82b"
      }
     }
    },
    {
     "filename":"I4CZ751120287.jpg",
     "pagination":{
      "pgfolios":{
       "section":"2",
       "value":"83a"
      }
     }
    },
    {
     "filename":"I4CZ751120288.jpg",
     "pagination":{
      "pgfolios":{
       "section":"2",
       "value":"83b"
      }
     }
    },
    {
     "filename":"I4CZ751120289.jpg",
     "pagination":{
      "pgfolios":{
       "section":"2",
       "value":"84a"
      }
     }
    },
    {
     "filename":"I4CZ751120290.jpg",
     "pagination":{
      "pgfolios":{
       "section":"2",
       "value":"84b"
      }
     }
    },
    {
     "filename":"I4CZ751120291.jpg",
     "pagination":{
      "pgfolios":{
       "section":"2",
       "value":"85a"
      }
     }
    },
    {
     "filename":"I4CZ751120292.jpg",
     "pagination":{
      "pgfolios":{
       "section":"2",
       "value":"85b"
      }
     }
    },
    {
     "filename":"I4CZ751120293.jpg",
     "pagination":{
      "pgfolios":{
       "section":"2",
       "value":"86a"
      }
     }
    },
    {
     "filename":"I4CZ751120294.jpg",
     "pagination":{
      "pgfolios":{
       "section":"2",
       "value":"86b"
      }
     }
    },
    {
     "filename":"I4CZ751120295.jpg",
     "pagination":{
      "pgfolios":{
       "section":"2",
       "value":"87a"
      }
     }
    },
    {
     "filename":"I4CZ751120296.jpg",
     "pagination":{
      "pgfolios":{
       "section":"2",
       "value":"87b"
      }
     }
    },
    {
     "filename":"I4CZ751120297.jpg",
     "pagination":{
      "pgfolios":{
       "section":"2",
       "value":"88a"
      }
     }
    },
    {
     "filename":"I4CZ751120298.jpg",
     "pagination":{
      "pgfolios":{
       "section":"2",
       "value":"88b"
      }
     }
    },
    {
     "filename":"I4CZ751120299.jpg",
     "pagination":{
      "pgfolios":{
       "section":"2",
       "value":"89a"
      }
     }
    },
    {
     "filename":"I4CZ751120300.jpg",
     "pagination":{
      "pgfolios":{
       "section":"2",
       "value":"89b"
      }
     }
    },
    {
     "filename":"I4CZ751120301.jpg",
     "pagination":{
      "pgfolios":{
       "section":"2",
       "value":"90a"
      }
     }
    },
    {
     "filename":"I4CZ751120302.jpg",
     "pagination":{
      "pgfolios":{
       "section":"2",
       "value":"90b"
      }
     }
    },
    {
     "filename":"I4CZ751120303.jpg",
     "pagination":{
      "pgfolios":{
       "section":"2",
       "value":"91a"
      }
     }
    },
    {
     "filename":"I4CZ751120304.jpg",
     "pagination":{
      "pgfolios":{
       "section":"2",
       "value":"91b"
      }
     }
    },
    {
     "filename":"I4CZ751120305.jpg",
     "pagination":{
      "pgfolios":{
       "section":"2",
       "value":"92a"
      }
     }
    },
    {
     "filename":"I4CZ751120306.jpg",
     "pagination":{
      "pgfolios":{
       "section":"2",
       "value":"92b"
      }
     }
    },
    {
     "filename":"I4CZ751120307.jpg",
     "pagination":{
      "pgfolios":{
       "section":"2",
       "value":"93a"
      }
     }
    },
    {
     "filename":"I4CZ751120308.jpg",
     "pagination":{
      "pgfolios":{
       "section":"2",
       "value":"93b"
      }
     }
    },
    {
     "filename":"I4CZ751120309.jpg",
     "pagination":{
      "pgfolios":{
       "section":"2",
       "value":"94a"
      }
     }
    },
    {
     "filename":"I4CZ751120310.jpg",
     "pagination":{
      "pgfolios":{
       "section":"2",
       "value":"94b"
      }
     }
    },
    {
     "filename":"I4CZ751120311.jpg",
     "pagination":{
      "pgfolios":{
       "section":"2",
       "value":"95a"
      }
     }
    },
    {
     "filename":"I4CZ751120312.jpg",
     "pagination":{
      "pgfolios":{
       "section":"2",
       "value":"95b"
      }
     }
    },
    {
     "filename":"I4CZ751120313.jpg",
     "pagination":{
      "pgfolios":{
       "section":"2",
       "value":"96a"
      }
     }
    },
    {
     "filename":"I4CZ751120314.jpg",
     "pagination":{
      "pgfolios":{
       "section":"2",
       "value":"96b"
      }
     }
    },
    {
     "filename":"I4CZ751120315.jpg",
     "pagination":{
      "pgfolios":{
       "section":"2",
       "value":"97a"
      }
     }
    },
    {
     "filename":"I4CZ751120316.jpg",
     "pagination":{
      "pgfolios":{
       "section":"2",
       "value":"97b"
      }
     }
    },
    {
     "filename":"I4CZ751120317.jpg",
     "pagination":{
      "pgfolios":{
       "section":"2",
       "value":"98a"
      }
     }
    },
    {
     "filename":"I4CZ751120318.jpg",
     "pagination":{
      "pgfolios":{
       "section":"2",
       "value":"98b"
      }
     }
    },
    {
     "filename":"I4CZ751120319.jpg",
     "pagination":{
      "pgfolios":{
       "section":"2",
       "value":"99a"
      }
     }
    },
    {
     "filename":"I4CZ751120320.jpg",
     "pagination":{
      "pgfolios":{
       "section":"2",
       "value":"99b"
      }
     }
    },
    {
     "filename":"I4CZ751120321.jpg",
     "pagination":{
      "pgfolios":{
       "section":"2",
       "value":"100a"
      }
     }
    },
    {
     "filename":"I4CZ751120322.jpg",
     "pagination":{
      "pgfolios":{
       "section":"2",
       "value":"100b"
      }
     }
    },
    {
     "filename":"I4CZ751120323.jpg",
     "pagination":{
      "pgfolios":{
       "section":"2",
       "value":"101a"
      }
     }
    },
    {
     "filename":"I4CZ751120324.jpg",
     "pagination":{
      "pgfolios":{
       "section":"2",
       "value":"101b"
      }
     }
    },
    {
     "filename":"I4CZ751120325.jpg",
     "pagination":{
      "pgfolios":{
       "section":"2",
       "value":"102a"
      }
     }
    },
    {
     "filename":"I4CZ751120326.jpg",
     "pagination":{
      "pgfolios":{
       "section":"2",
       "value":"102b"
      }
     }
    },
    {
     "filename":"I4CZ751120327.jpg",
     "pagination":{
      "pgfolios":{
       "section":"2",
       "value":"103a"
      }
     }
    },
    {
     "filename":"I4CZ751120328.jpg",
     "pagination":{
      "pgfolios":{
       "section":"2",
       "value":"103b"
      }
     }
    },
    {
     "filename":"I4CZ751120329.jpg",
     "pagination":{
      "pgfolios":{
       "section":"2",
       "value":"104a"
      }
     }
    },
    {
     "filename":"I4CZ751120330.jpg",
     "pagination":{
      "pgfolios":{
       "section":"2",
       "value":"104b"
      }
     }
    },
    {
     "filename":"I4CZ751120331.jpg",
     "pagination":{
      "pgfolios":{
       "section":"2",
       "value":"105a"
      }
     }
    },
    {
     "filename":"I4CZ751120332.jpg",
     "pagination":{
      "pgfolios":{
       "section":"2",
       "value":"105b"
      }
     }
    },
    {
     "filename":"I4CZ751120333.jpg",
     "pagination":{
      "pgfolios":{
       "section":"2",
       "value":"106a"
      }
     }
    },
    {
     "filename":"I4CZ751120334.jpg",
     "pagination":{
      "pgfolios":{
       "section":"2",
       "value":"106b"
      }
     }
    },
    {
     "filename":"I4CZ751120335.jpg",
     "pagination":{
      "pgfolios":{
       "section":"2",
       "value":"107a"
      }
     }
    },
    {
     "filename":"I4CZ751120336.jpg",
     "pagination":{
      "pgfolios":{
       "section":"2",
       "value":"107b"
      }
     }
    },
    {
     "filename":"I4CZ751120337.jpg",
     "pagination":{
      "pgfolios":{
       "section":"2",
       "value":"108a"
      }
     }
    },
    {
     "filename":"I4CZ751120338.jpg",
     "pagination":{
      "pgfolios":{
       "section":"2",
       "value":"108b"
      }
     }
    },
    {
     "filename":"I4CZ751120339.jpg",
     "pagination":{
      "pgfolios":{
       "section":"2",
       "value":"109a"
      }
     }
    },
    {
     "filename":"I4CZ751120340.jpg",
     "pagination":{
      "pgfolios":{
       "section":"2",
       "value":"109b"
      }
     }
    },
    {
     "filename":"I4CZ751120341.jpg",
     "pagination":{
      "pgfolios":{
       "section":"2",
       "value":"110a"
      }
     }
    },
    {
     "filename":"I4CZ751120342.jpg",
     "pagination":{
      "pgfolios":{
       "section":"2",
       "value":"110b"
      }
     }
    },
    {
     "filename":"I4CZ751120343.jpg",
     "pagination":{
      "pgfolios":{
       "section":"2",
       "value":"111a"
      }
     }
    },
    {
     "filename":"I4CZ751120344.jpg",
     "pagination":{
      "pgfolios":{
       "section":"2",
       "value":"111b"
      }
     }
    },
    {
     "filename":"I4CZ751120345.jpg",
     "pagination":{
      "pgfolios":{
       "section":"2",
       "value":"112a"
      }
     }
    },
    {
     "filename":"I4CZ751120346.jpg",
     "pagination":{
      "pgfolios":{
       "section":"2",
       "value":"112b"
      }
     }
    },
    {
     "filename":"I4CZ751120347.jpg",
     "pagination":{
      "pgfolios":{
       "section":"2",
       "value":"112'a"
      }
     }
    },
    {
     "filename":"I4CZ751120348.jpg",
     "pagination":{
      "pgfolios":{
       "section":"2",
       "value":"112'b"
      }
     }
    },
    {
     "filename":"I4CZ751120349.jpg",
     "pagination":{
      "pgfolios":{
       "section":"2",
       "value":"113a"
      }
     }
    },
    {
     "filename":"I4CZ751120350.jpg",
     "pagination":{
      "pgfolios":{
       "section":"2",
       "value":"113b"
      }
     }
    },
    {
     "filename":"I4CZ751120351.jpg",
     "pagination":{
      "pgfolios":{
       "section":"2",
       "value":"114a"
      }
     }
    },
    {
     "filename":"I4CZ751120352.jpg",
     "pagination":{
      "pgfolios":{
       "section":"2",
       "value":"114b"
      }
     }
    },
    {
     "filename":"I4CZ751120353.jpg",
     "pagination":{
      "pgfolios":{
       "section":"2",
       "value":"115a"
      }
     }
    },
    {
     "filename":"I4CZ751120354.jpg",
     "pagination":{
      "pgfolios":{
       "section":"2",
       "value":"115b"
      }
     }
    },
    {
     "filename":"I4CZ751120355.jpg",
     "pagination":{
      "pgfolios":{
       "section":"2",
       "value":"116a"
      }
     }
    },
    {
     "filename":"I4CZ751120356.jpg",
     "pagination":{
      "pgfolios":{
       "section":"2",
       "value":"116b"
      }
     }
    },
    {
     "filename":"I4CZ751120357.jpg",
     "pagination":{
      "pgfolios":{
       "section":"2",
       "value":"117a"
      }
     }
    },
    {
     "filename":"I4CZ751120358.jpg",
     "pagination":{
      "pgfolios":{
       "section":"2",
       "value":"117b"
      }
     }
    },
    {
     "filename":"I4CZ751120359.jpg",
     "pagination":{
      "pgfolios":{
       "section":"2",
       "value":"118a"
      }
     }
    },
    {
     "filename":"I4CZ751120360.jpg",
     "pagination":{
      "pgfolios":{
       "section":"2",
       "value":"118b"
      }
     }
    },
    {
     "filename":"I4CZ751120361.jpg",
     "pagination":{
      "pgfolios":{
       "section":"2",
       "value":"119a"
      }
     }
    },
    {
     "filename":"I4CZ751120362.jpg",
     "pagination":{
      "pgfolios":{
       "section":"2",
       "value":"119b"
      }
     }
    },
    {
     "filename":"I4CZ751120363.jpg",
     "pagination":{
      "pgfolios":{
       "section":"2",
       "value":"120a"
      }
     }
    },
    {
     "filename":"I4CZ751120364.jpg",
     "pagination":{
      "pgfolios":{
       "section":"2",
       "value":"120b"
      }
     }
    },
    {
     "filename":"I4CZ751120365.jpg",
     "pagination":{
      "pgfolios":{
       "section":"2",
       "value":"121a"
      }
     }
    },
    {
     "filename":"I4CZ751120366.jpg",
     "pagination":{
      "pgfolios":{
       "section":"2",
       "value":"121b"
      }
     }
    },
    {
     "filename":"I4CZ751120367.jpg",
     "pagination":{
      "pgfolios":{
       "section":"2",
       "value":"122a"
      }
     }
    },
    {
     "filename":"I4CZ751120368.jpg",
     "pagination":{
      "pgfolios":{
       "section":"2",
       "value":"122b"
      }
     }
    },
    {
     "filename":"I4CZ751120369.jpg",
     "pagination":{
      "pgfolios":{
       "section":"2",
       "value":"123a"
      }
     }
    },
    {
     "filename":"I4CZ751120370.jpg",
     "pagination":{
      "pgfolios":{
       "section":"2",
       "value":"123b"
      }
     }
    },
    {
     "filename":"I4CZ751120371.jpg",
     "pagination":{
      "pgfolios":{
       "section":"2",
       "value":"124a"
      }
     }
    },
    {
     "filename":"I4CZ751120372.jpg",
     "pagination":{
      "pgfolios":{
       "section":"2",
       "value":"124b"
      }
     }
    },
    {
     "filename":"I4CZ751120373.jpg",
     "pagination":{
      "pgfolios":{
       "section":"2",
       "value":"125a"
      }
     }
    },
    {
     "filename":"I4CZ751120374.jpg",
     "pagination":{
      "pgfolios":{
       "section":"2",
       "value":"125b"
      }
     }
    },
    {
     "filename":"I4CZ751120375.jpg",
     "pagination":{
      "pgfolios":{
       "section":"2",
       "value":"126a"
      }
     }
    },
    {
     "filename":"I4CZ751120376.jpg",
     "pagination":{
      "pgfolios":{
       "section":"2",
       "value":"126b"
      }
     }
    },
    {
     "filename":"I4CZ751120377.jpg",
     "pagination":{
      "pgfolios":{
       "section":"2",
       "value":"127a"
      }
     }
    },
    {
     "filename":"I4CZ751120378.jpg",
     "pagination":{
      "pgfolios":{
       "section":"2",
       "value":"127b"
      }
     }
    },
    {
     "filename":"I4CZ751120379.jpg",
     "pagination":{
      "pgfolios":{
       "section":"2",
       "value":"128a"
      }
     }
    },
    {
     "filename":"I4CZ751120380.jpg",
     "pagination":{
      "pgfolios":{
       "section":"2",
       "value":"128b"
      }
     }
    },
    {
     "filename":"I4CZ751120381.jpg",
     "pagination":{
      "pgfolios":{
       "section":"2",
       "value":"129a"
      }
     }
    },
    {
     "filename":"I4CZ751120382.jpg",
     "pagination":{
      "pgfolios":{
       "section":"2",
       "value":"129b"
      }
     }
    },
    {
     "filename":"I4CZ751120383.jpg",
     "pagination":{
      "pgfolios":{
       "section":"2",
       "value":"130a"
      }
     }
    },
    {
     "filename":"I4CZ751120384.jpg",
     "pagination":{
      "pgfolios":{
       "section":"2",
       "value":"130b"
      }
     }
    },
    {
     "filename":"I4CZ751120385.jpg",
     "pagination":{
      "pgfolios":{
       "section":"2",
       "value":"131a"
      }
     }
    },
    {
     "filename":"I4CZ751120386.jpg",
     "pagination":{
      "pgfolios":{
       "section":"2",
       "value":"131b"
      }
     }
    },
    {
     "filename":"I4CZ751120387.jpg",
     "pagination":{
      "pgfolios":{
       "section":"2",
       "value":"132a"
      }
     }
    },
    {
     "filename":"I4CZ751120388.jpg",
     "pagination":{
      "pgfolios":{
       "section":"2",
       "value":"132b"
      }
     }
    },
    {
     "filename":"I4CZ751120389.jpg",
     "pagination":{
      "pgfolios":{
       "section":"2",
       "value":"133a"
      }
     }
    },
    {
     "filename":"I4CZ751120390.jpg",
     "pagination":{
      "pgfolios":{
       "section":"2",
       "value":"133b"
      }
     }
    },
    {
     "filename":"I4CZ751120391.jpg",
     "pagination":{
      "pgfolios":{
       "section":"2",
       "value":"134a"
      }
     }
    },
    {
     "filename":"I4CZ751120392.jpg",
     "pagination":{
      "pgfolios":{
       "section":"2",
       "value":"134b"
      }
     }
    },
    {
     "filename":"I4CZ751120393.jpg",
     "pagination":{
      "pgfolios":{
       "section":"2",
       "value":"135a"
      }
     }
    },
    {
     "filename":"I4CZ751120394.jpg",
     "pagination":{
      "pgfolios":{
       "section":"2",
       "value":"135b"
      }
     }
    },
    {
     "filename":"I4CZ751120395.jpg",
     "pagination":{
      "pgfolios":{
       "section":"2",
       "value":"136a"
      }
     }
    },
    {
     "filename":"I4CZ751120396.jpg",
     "pagination":{
      "pgfolios":{
       "section":"2",
       "value":"136b"
      }
     }
    },
    {
     "filename":"I4CZ751120397.jpg",
     "pagination":{
      "pgfolios":{
       "section":"2",
       "value":"137a"
      }
     }
    },
    {
     "filename":"I4CZ751120398.jpg",
     "pagination":{
      "pgfolios":{
       "section":"2",
       "value":"137b"
      }
     }
    },
    {
     "filename":"I4CZ751120399.jpg",
     "pagination":{
      "pgfolios":{
       "section":"2",
       "value":"138a"
      }
     }
    },
    {
     "filename":"I4CZ751120400.jpg",
     "pagination":{
      "pgfolios":{
       "section":"2",
       "value":"138b"
      }
     }
    },
    {
     "filename":"I4CZ751120401.jpg",
     "pagination":{
      "pgfolios":{
       "section":"2",
       "value":"139a"
      }
     }
    },
    {
     "filename":"I4CZ751120402.jpg",
     "pagination":{
      "pgfolios":{
       "section":"2",
       "value":"139b"
      }
     }
    },
    {
     "filename":"I4CZ751120403.jpg",
     "pagination":{
      "pgfolios":{
       "section":"2",
       "value":"140a"
      }
     }
    },
    {
     "filename":"I4CZ751120404.jpg",
     "pagination":{
      "pgfolios":{
       "section":"2",
       "value":"140b"
      }
     }
    },
    {
     "filename":"I4CZ751120405.jpg",
     "pagination":{
      "pgfolios":{
       "section":"2",
       "value":"141a"
      }
     }
    },
    {
     "filename":"I4CZ751120406.jpg",
     "pagination":{
      "pgfolios":{
       "section":"2",
       "value":"141b"
      }
     }
    },
    {
     "filename":"I4CZ751120407.jpg",
     "pagination":{
      "pgfolios":{
       "section":"2",
       "value":"142a"
      }
     }
    },
    {
     "filename":"I4CZ751120408.jpg",
     "pagination":{
      "pgfolios":{
       "section":"2",
       "value":"142b"
      }
     }
    },
    {
     "filename":"I4CZ751120409.jpg",
     "pagination":{
      "pgfolios":{
       "section":"2",
       "value":"143a"
      }
     }
    },
    {
     "filename":"I4CZ751120410.jpg",
     "pagination":{
      "pgfolios":{
       "section":"2",
       "value":"143b"
      }
     }
    },
    {
     "filename":"I4CZ751120411.jpg",
     "pagination":{
      "pgfolios":{
       "section":"2",
       "value":"144a"
      }
     }
    },
    {
     "filename":"I4CZ751120412.jpg",
     "pagination":{
      "pgfolios":{
       "section":"2",
       "value":"144b"
      }
     }
    },
    {
     "filename":"I4CZ751120413.jpg",
     "pagination":{
      "pgfolios":{
       "section":"2",
       "value":"145a"
      }
     }
    },
    {
     "filename":"I4CZ751120414.jpg",
     "pagination":{
      "pgfolios":{
       "section":"2",
       "value":"145b"
      }
     }
    },
    {
     "filename":"I4CZ751120415.jpg",
     "pagination":{
      "pgfolios":{
       "section":"2",
       "value":"146a"
      }
     }
    },
    {
     "filename":"I4CZ751120416.jpg",
     "pagination":{
      "pgfolios":{
       "section":"2",
       "value":"146b"
      }
     }
    },
    {
     "filename":"I4CZ751120417.jpg",
     "pagination":{
      "pgfolios":{
       "section":"2",
       "value":"147a"
      }
     }
    },
    {
     "filename":"I4CZ751120418.jpg",
     "pagination":{
      "pgfolios":{
       "section":"2",
       "value":"147b"
      }
     }
    },
    {
     "filename":"I4CZ751120419.jpg",
     "pagination":{
      "pgfolios":{
       "section":"2",
       "value":"148a"
      }
     }
    },
    {
     "filename":"I4CZ751120420.jpg",
     "pagination":{
      "pgfolios":{
       "section":"2",
       "value":"148b"
      }
     }
    },
    {
     "filename":"I4CZ751120421.jpg",
     "pagination":{
      "pgfolios":{
       "section":"2",
       "value":"149a"
      }
     }
    },
    {
     "filename":"I4CZ751120422.jpg",
     "pagination":{
      "pgfolios":{
       "section":"2",
       "value":"149b"
      }
     }
    },
    {
     "filename":"I4CZ751120423.jpg",
     "pagination":{
      "pgfolios":{
       "section":"2",
       "value":"150a"
      }
     }
    },
    {
     "filename":"I4CZ751120424.jpg",
     "pagination":{
      "pgfolios":{
       "section":"2",
       "value":"150b"
      }
     }
    },
    {
     "filename":"I4CZ751120425.jpg",
     "pagination":{
      "pgfolios":{
       "section":"2",
       "value":"151a"
      }
     }
    },
    {
     "filename":"I4CZ751120426.jpg",
     "pagination":{
      "pgfolios":{
       "section":"2",
       "value":"151b"
      }
     }
    },
    {
     "filename":"I4CZ751120427.jpg",
     "pagination":{
      "pgfolios":{
       "section":"2",
       "value":"152a"
      }
     }
    },
    {
     "filename":"I4CZ751120428.jpg",
     "pagination":{
      "pgfolios":{
       "section":"2",
       "value":"152b"
      }
     }
    },
    {
     "filename":"I4CZ751120429.jpg",
     "pagination":{
      "pgfolios":{
       "section":"2",
       "value":"153a"
      }
     }
    },
    {
     "filename":"I4CZ751120430.jpg",
     "pagination":{
      "pgfolios":{
       "section":"2",
       "value":"153b"
      }
     }
    },
    {
     "filename":"I4CZ751120431.jpg",
     "pagination":{
      "pgfolios":{
       "section":"2",
       "value":"154a"
      }
     }
    },
    {
     "filename":"I4CZ751120432.jpg",
     "pagination":{
      "pgfolios":{
       "section":"2",
       "value":"154b"
      }
     }
    },
    {
     "filename":"I4CZ751120433.jpg",
     "pagination":{
      "pgfolios":{
       "section":"2",
       "value":"155a"
      }
     }
    },
    {
     "filename":"I4CZ751120434.jpg",
     "pagination":{
      "pgfolios":{
       "section":"2",
       "value":"155b"
      }
     }
    },
    {
     "filename":"I4CZ751120435.jpg",
     "pagination":{
      "pgfolios":{
       "section":"2",
       "value":"156a"
      }
     }
    },
    {
     "filename":"I4CZ751120436.jpg",
     "pagination":{
      "pgfolios":{
       "section":"2",
       "value":"156b"
      }
     }
    },
    {
     "filename":"I4CZ751120437.jpg",
     "pagination":{
      "pgfolios":{
       "section":"2",
       "value":"157a"
      }
     }
    },
    {
     "filename":"I4CZ751120438.jpg",
     "pagination":{
      "pgfolios":{
       "section":"2",
       "value":"157b"
      }
     }
    },
    {
     "filename":"I4CZ751120439.jpg",
     "pagination":{
      "pgfolios":{
       "section":"2",
       "value":"158a"
      }
     }
    },
    {
     "filename":"I4CZ751120440.jpg",
     "pagination":{
      "pgfolios":{
       "section":"2",
       "value":"158b"
      }
     }
    },
    {
     "filename":"I4CZ751120441.jpg",
     "pagination":{
      "pgfolios":{
       "section":"2",
       "value":"159a"
      }
     }
    },
    {
     "filename":"I4CZ751120442.jpg",
     "pagination":{
      "pgfolios":{
       "section":"2",
       "value":"159b"
      }
     }
    },
    {
     "filename":"I4CZ751120443.jpg",
     "pagination":{
      "pgfolios":{
       "section":"2",
       "value":"160a"
      }
     }
    },
    {
     "filename":"I4CZ751120444.jpg",
     "pagination":{
      "pgfolios":{
       "section":"2",
       "value":"160b"
      }
     }
    },
    {
     "filename":"I4CZ751120445.jpg",
     "pagination":{
      "pgfolios":{
       "section":"2",
       "value":"161a"
      }
     }
    },
    {
     "filename":"I4CZ751120446.jpg",
     "pagination":{
      "pgfolios":{
       "section":"2",
       "value":"161b"
      }
     }
    },
    {
     "filename":"I4CZ751120447.jpg",
     "pagination":{
      "pgfolios":{
       "section":"2",
       "value":"162a"
      }
     }
    },
    {
     "filename":"I4CZ751120448.jpg",
     "pagination":{
      "pgfolios":{
       "section":"2",
       "value":"162b"
      }
     }
    },
    {
     "filename":"I4CZ751120449.jpg",
     "pagination":{
      "pgfolios":{
       "section":"2",
       "value":"163a"
      }
     }
    },
    {
     "filename":"I4CZ751120450.jpg",
     "pagination":{
      "pgfolios":{
       "section":"2",
       "value":"163b"
      }
     }
    },
    {
     "filename":"I4CZ751120451.jpg",
     "pagination":{
      "pgfolios":{
       "section":"2",
       "value":"164a"
      }
     }
    },
    {
     "filename":"I4CZ751120452.jpg",
     "pagination":{
      "pgfolios":{
       "section":"2",
       "value":"164b"
      }
     }
    },
    {
     "filename":"I4CZ751120453.jpg",
     "pagination":{
      "pgfolios":{
       "section":"2",
       "value":"165a"
      }
     }
    },
    {
     "filename":"I4CZ751120454.jpg",
     "pagination":{
      "pgfolios":{
       "section":"2",
       "value":"165b"
      }
     }
    },
    {
     "filename":"I4CZ751120455.jpg",
     "pagination":{
      "pgfolios":{
       "section":"2",
       "value":"166a"
      }
     }
    },
    {
     "filename":"I4CZ751120456.jpg",
     "pagination":{
      "pgfolios":{
       "section":"2",
       "value":"166b"
      }
     }
    },
    {
     "filename":"I4CZ751120457.jpg",
     "pagination":{
      "pgfolios":{
       "section":"2",
       "value":"167a"
      }
     }
    },
    {
     "filename":"I4CZ751120458.jpg",
     "pagination":{
      "pgfolios":{
       "section":"2",
       "value":"167b"
      }
     }
    },
    {
     "filename":"I4CZ751120459.jpg",
     "pagination":{
      "pgfolios":{
       "section":"2",
       "value":"168a"
      }
     }
    },
    {
     "filename":"I4CZ751120460.jpg",
     "pagination":{
      "pgfolios":{
       "section":"2",
       "value":"168b"
      }
     }
    },
    {
     "filename":"I4CZ751120461.jpg",
     "pagination":{
      "pgfolios":{
       "section":"2",
       "value":"169a"
      }
     }
    },
    {
     "filename":"I4CZ751120462.jpg",
     "pagination":{
      "pgfolios":{
       "section":"2",
       "value":"169b"
      }
     }
    },
    {
     "filename":"I4CZ751120463.jpg",
     "pagination":{
      "pgfolios":{
       "section":"2",
       "value":"170a"
      }
     }
    },
    {
     "filename":"I4CZ751120464.jpg",
     "pagination":{
      "pgfolios":{
       "section":"2",
       "value":"170b"
      }
     }
    },
    {
     "filename":"I4CZ751120465.jpg",
     "pagination":{
      "pgfolios":{
       "section":"2",
       "value":"171a"
      }
     }
    },
    {
     "filename":"I4CZ751120466.jpg",
     "pagination":{
      "pgfolios":{
       "section":"2",
       "value":"171b"
      }
     }
    },
    {
     "filename":"I4CZ751120467.jpg",
     "pagination":{
      "pgfolios":{
       "section":"2",
       "value":"172a"
      }
     }
    },
    {
     "filename":"I4CZ751120468.jpg",
     "pagination":{
      "pgfolios":{
       "section":"2",
       "value":"172b"
      }
     }
    },
    {
     "filename":"I4CZ751120469.jpg",
     "pagination":{
      "pgfolios":{
       "section":"2",
       "value":"173a"
      }
     }
    },
    {
     "filename":"I4CZ751120470.jpg",
     "pagination":{
      "pgfolios":{
       "section":"2",
       "value":"173b"
      }
     }
    },
    {
     "filename":"I4CZ751120473.jpg",
     "pagination":{
      "pgfolios":{
       "section":"2",
       "value":"174a"
      }
     }
    },
    {
     "filename":"I4CZ751120474.jpg",
     "pagination":{
      "pgfolios":{
       "section":"2",
       "value":"174b"
      }
     }
    },
    {
     "filename":"I4CZ751120471.jpg",
     "pagination":{
      "pgfolios":{
       "section":"2",
       "value":"175a"
      }
     }
    },
    {
     "filename":"I4CZ751120472.jpg",
     "pagination":{
      "pgfolios":{
       "section":"2",
       "value":"175b"
      }
     }
    },
    {
     "filename":"I4CZ751120475.jpg",
     "pagination":{
      "pgfolios":{
       "section":"2",
       "value":"176a"
      }
     }
    },
    {
     "filename":"I4CZ751120476.jpg",
     "pagination":{
      "pgfolios":{
       "section":"2",
       "value":"176b"
      }
     }
    }
   ]
  }
 },
 "viewing-direction":"top-to-bottom"
}