{
 "appData":{
  "bvmt":{
   "default-vol-string-lang":"bo",
   "metadata-for-bvmt-ver":"0.1.0"
  }
 },
 "attribution":[
  {
   "@language":"en",
   "@value":"Data provided by rKTs under the CC0 license"
  }
 ],
 "changes":[
  {
   "message":{
    "@language":"en",
    "@value":"migration from rKTs data"
   },
   "time":"2020-10-03T11:35:30Z",
   "user":"bdu:U1653882847"
  }
 ],
 "default-view":"view1",
 "imggroup":"bdr:I1BL345",
 "pagination":[
  {
   "id":"pgfolios",
   "type":"folios"
  }
 ],
 "spec-version":"0.1.0",
 "status":"released",
 "view":{
  "view1":{
   "imagelist":[
    {
     "filename":"I1BL3450001.jpg",
     "hidden":true,
     "tags":[
      "T0005"
     ]
    },
    {
     "pagination":{
      "pgfolios":{
       "value":"1a"
      }
     },
     "tags":[
      "T0020"
     ]
    },
    {
     "pagination":{
      "pgfolios":{
       "value":"1b"
      }
     },
     "tags":[
      "T0020"
     ]
    },
    {
     "pagination":{
      "pgfolios":{
       "value":"2a"
      }
     },
     "tags":[
      "T0020"
     ]
    },
    {
     "pagination":{
      "pgfolios":{
       "value":"2b"
      }
     },
     "tags":[
      "T0020"
     ]
    },
    {
     "pagination":{
      "pgfolios":{
       "value":"3a"
      }
     },
     "tags":[
      "T0020"
     ]
    },
    {
     "pagination":{
      "pgfolios":{
       "value":"3b"
      }
     },
     "tags":[
      "T0020"
     ]
    },
    {
     "filename":"I1BL3450002.jpg",
     "pagination":{
      "pgfolios":{
       "value":"4a"
      }
     }
    },
    {
     "filename":"I1BL3450003.jpg",
     "pagination":{
      "pgfolios":{
       "value":"4b"
      }
     }
    },
    {
     "pagination":{
      "pgfolios":{
       "value":"5a"
      }
     },
     "tags":[
      "T0020"
     ]
    },
    {
     "pagination":{
      "pgfolios":{
       "value":"5b"
      }
     },
     "tags":[
      "T0020"
     ]
    },
    {
     "pagination":{
      "pgfolios":{
       "value":"6a"
      }
     },
     "tags":[
      "T0020"
     ]
    },
    {
     "pagination":{
      "pgfolios":{
       "value":"6b"
      }
     },
     "tags":[
      "T0020"
     ]
    },
    {
     "pagination":{
      "pgfolios":{
       "value":"7a"
      }
     },
     "tags":[
      "T0020"
     ]
    },
    {
     "pagination":{
      "pgfolios":{
       "value":"7b"
      }
     },
     "tags":[
      "T0020"
     ]
    },
    {
     "pagination":{
      "pgfolios":{
       "value":"8a"
      }
     },
     "tags":[
      "T0020"
     ]
    },
    {
     "pagination":{
      "pgfolios":{
       "value":"8b"
      }
     },
     "tags":[
      "T0020"
     ]
    },
    {
     "pagination":{
      "pgfolios":{
       "value":"9a"
      }
     },
     "tags":[
      "T0020"
     ]
    },
    {
     "pagination":{
      "pgfolios":{
       "value":"9b"
      }
     },
     "tags":[
      "T0020"
     ]
    },
    {
     "pagination":{
      "pgfolios":{
       "value":"10a"
      }
     },
     "tags":[
      "T0020"
     ]
    },
    {
     "pagination":{
      "pgfolios":{
       "value":"10b"
      }
     },
     "tags":[
      "T0020"
     ]
    },
    {
     "pagination":{
      "pgfolios":{
       "value":"11a"
      }
     },
     "tags":[
      "T0020"
     ]
    },
    {
     "pagination":{
      "pgfolios":{
       "value":"11b"
      }
     },
     "tags":[
      "T0020"
     ]
    },
    {
     "pagination":{
      "pgfolios":{
       "value":"12a"
      }
     },
     "tags":[
      "T0020"
     ]
    },
    {
     "pagination":{
      "pgfolios":{
       "value":"12b"
      }
     },
     "tags":[
      "T0020"
     ]
    },
    {
     "pagination":{
      "pgfolios":{
       "value":"13a"
      }
     },
     "tags":[
      "T0020"
     ]
    },
    {
     "pagination":{
      "pgfolios":{
       "value":"13b"
      }
     },
     "tags":[
      "T0020"
     ]
    },
    {
     "pagination":{
      "pgfolios":{
       "value":"14a"
      }
     },
     "tags":[
      "T0020"
     ]
    },
    {
     "pagination":{
      "pgfolios":{
       "value":"14b"
      }
     },
     "tags":[
      "T0020"
     ]
    },
    {
     "pagination":{
      "pgfolios":{
       "value":"15a"
      }
     },
     "tags":[
      "T0020"
     ]
    },
    {
     "pagination":{
      "pgfolios":{
       "value":"15b"
      }
     },
     "tags":[
      "T0020"
     ]
    },
    {
     "pagination":{
      "pgfolios":{
       "value":"16a"
      }
     },
     "tags":[
      "T0020"
     ]
    },
    {
     "pagination":{
      "pgfolios":{
       "value":"16b"
      }
     },
     "tags":[
      "T0020"
     ]
    },
    {
     "pagination":{
      "pgfolios":{
       "value":"17a"
      }
     },
     "tags":[
      "T0020"
     ]
    },
    {
     "pagination":{
      "pgfolios":{
       "value":"17b"
      }
     },
     "tags":[
      "T0020"
     ]
    },
    {
     "pagination":{
      "pgfolios":{
       "value":"18a"
      }
     },
     "tags":[
      "T0020"
     ]
    },
    {
     "pagination":{
      "pgfolios":{
       "value":"18b"
      }
     },
     "tags":[
      "T0020"
     ]
    },
    {
     "pagination":{
      "pgfolios":{
       "value":"19a"
      }
     },
     "tags":[
      "T0020"
     ]
    },
    {
     "pagination":{
      "pgfolios":{
       "value":"19b"
      }
     },
     "tags":[
      "T0020"
     ]
    },
    {
     "filename":"I1BL3450004.jpg",
     "pagination":{
      "pgfolios":{
       "value":"20a"
      }
     }
    },
    {
     "filename":"I1BL3450005.jpg",
     "pagination":{
      "pgfolios":{
       "value":"20b"
      }
     }
    },
    {
     "pagination":{
      "pgfolios":{
       "value":"21a"
      }
     },
     "tags":[
      "T0020"
     ]
    },
    {
     "pagination":{
      "pgfolios":{
       "value":"21b"
      }
     },
     "tags":[
      "T0020"
     ]
    },
    {
     "pagination":{
      "pgfolios":{
       "value":"22a"
      }
     },
     "tags":[
      "T0020"
     ]
    },
    {
     "pagination":{
      "pgfolios":{
       "value":"22b"
      }
     },
     "tags":[
      "T0020"
     ]
    },
    {
     "pagination":{
      "pgfolios":{
       "value":"23a"
      }
     },
     "tags":[
      "T0020"
     ]
    },
    {
     "pagination":{
      "pgfolios":{
       "value":"23b"
      }
     },
     "tags":[
      "T0020"
     ]
    },
    {
     "pagination":{
      "pgfolios":{
       "value":"24a"
      }
     },
     "tags":[
      "T0020"
     ]
    },
    {
     "pagination":{
      "pgfolios":{
       "value":"24b"
      }
     },
     "tags":[
      "T0020"
     ]
    },
    {
     "pagination":{
      "pgfolios":{
       "value":"25a"
      }
     },
     "tags":[
      "T0020"
     ]
    },
    {
     "pagination":{
      "pgfolios":{
       "value":"25b"
      }
     },
     "tags":[
      "T0020"
     ]
    },
    {
     "pagination":{
      "pgfolios":{
       "value":"26a"
      }
     },
     "tags":[
      "T0020"
     ]
    },
    {
     "pagination":{
      "pgfolios":{
       "value":"26b"
      }
     },
     "tags":[
      "T0020"
     ]
    },
    {
     "pagination":{
      "pgfolios":{
       "value":"27a"
      }
     },
     "tags":[
      "T0020"
     ]
    },
    {
     "pagination":{
      "pgfolios":{
       "value":"27b"
      }
     },
     "tags":[
      "T0020"
     ]
    },
    {
     "pagination":{
      "pgfolios":{
       "value":"28a"
      }
     },
     "tags":[
      "T0020"
     ]
    },
    {
     "pagination":{
      "pgfolios":{
       "value":"28b"
      }
     },
     "tags":[
      "T0020"
     ]
    },
    {
     "pagination":{
      "pgfolios":{
       "value":"29a"
      }
     },
     "tags":[
      "T0020"
     ]
    },
    {
     "pagination":{
      "pgfolios":{
       "value":"29b"
      }
     },
     "tags":[
      "T0020"
     ]
    },
    {
     "pagination":{
      "pgfolios":{
       "value":"30a"
      }
     },
     "tags":[
      "T0020"
     ]
    },
    {
     "pagination":{
      "pgfolios":{
       "value":"30b"
      }
     },
     "tags":[
      "T0020"
     ]
    },
    {
     "pagination":{
      "pgfolios":{
       "value":"31a"
      }
     },
     "tags":[
      "T0020"
     ]
    },
    {
     "pagination":{
      "pgfolios":{
       "value":"31b"
      }
     },
     "tags":[
      "T0020"
     ]
    },
    {
     "pagination":{
      "pgfolios":{
       "value":"32a"
      }
     },
     "tags":[
      "T0020"
     ]
    },
    {
     "pagination":{
      "pgfolios":{
       "value":"32b"
      }
     },
     "tags":[
      "T0020"
     ]
    },
    {
     "pagination":{
      "pgfolios":{
       "value":"33a"
      }
     },
     "tags":[
      "T0020"
     ]
    },
    {
     "pagination":{
      "pgfolios":{
       "value":"33b"
      }
     },
     "tags":[
      "T0020"
     ]
    },
    {
     "pagination":{
      "pgfolios":{
       "value":"34a"
      }
     },
     "tags":[
      "T0020"
     ]
    },
    {
     "pagination":{
      "pgfolios":{
       "value":"34b"
      }
     },
     "tags":[
      "T0020"
     ]
    },
    {
     "pagination":{
      "pgfolios":{
       "value":"35a"
      }
     },
     "tags":[
      "T0020"
     ]
    },
    {
     "pagination":{
      "pgfolios":{
       "value":"35b"
      }
     },
     "tags":[
      "T0020"
     ]
    },
    {
     "pagination":{
      "pgfolios":{
       "value":"36a"
      }
     },
     "tags":[
      "T0020"
     ]
    },
    {
     "pagination":{
      "pgfolios":{
       "value":"36b"
      }
     },
     "tags":[
      "T0020"
     ]
    },
    {
     "pagination":{
      "pgfolios":{
       "value":"37a"
      }
     },
     "tags":[
      "T0020"
     ]
    },
    {
     "pagination":{
      "pgfolios":{
       "value":"37b"
      }
     },
     "tags":[
      "T0020"
     ]
    },
    {
     "pagination":{
      "pgfolios":{
       "value":"38a"
      }
     },
     "tags":[
      "T0020"
     ]
    },
    {
     "pagination":{
      "pgfolios":{
       "value":"38b"
      }
     },
     "tags":[
      "T0020"
     ]
    },
    {
     "pagination":{
      "pgfolios":{
       "value":"39a"
      }
     },
     "tags":[
      "T0020"
     ]
    },
    {
     "pagination":{
      "pgfolios":{
       "value":"39b"
      }
     },
     "tags":[
      "T0020"
     ]
    },
    {
     "pagination":{
      "pgfolios":{
       "value":"40a"
      }
     },
     "tags":[
      "T0020"
     ]
    },
    {
     "pagination":{
      "pgfolios":{
       "value":"40b"
      }
     },
     "tags":[
      "T0020"
     ]
    },
    {
     "pagination":{
      "pgfolios":{
       "value":"41a"
      }
     },
     "tags":[
      "T0020"
     ]
    },
    {
     "pagination":{
      "pgfolios":{
       "value":"41b"
      }
     },
     "tags":[
      "T0020"
     ]
    },
    {
     "pagination":{
      "pgfolios":{
       "value":"42a"
      }
     },
     "tags":[
      "T0020"
     ]
    },
    {
     "pagination":{
      "pgfolios":{
       "value":"42b"
      }
     },
     "tags":[
      "T0020"
     ]
    },
    {
     "pagination":{
      "pgfolios":{
       "value":"43a"
      }
     },
     "tags":[
      "T0020"
     ]
    },
    {
     "pagination":{
      "pgfolios":{
       "value":"43b"
      }
     },
     "tags":[
      "T0020"
     ]
    },
    {
     "pagination":{
      "pgfolios":{
       "value":"44a"
      }
     },
     "tags":[
      "T0020"
     ]
    },
    {
     "pagination":{
      "pgfolios":{
       "value":"44b"
      }
     },
     "tags":[
      "T0020"
     ]
    },
    {
     "pagination":{
      "pgfolios":{
       "value":"45a"
      }
     },
     "tags":[
      "T0020"
     ]
    },
    {
     "pagination":{
      "pgfolios":{
       "value":"45b"
      }
     },
     "tags":[
      "T0020"
     ]
    },
    {
     "pagination":{
      "pgfolios":{
       "value":"46a"
      }
     },
     "tags":[
      "T0020"
     ]
    },
    {
     "pagination":{
      "pgfolios":{
       "value":"46b"
      }
     },
     "tags":[
      "T0020"
     ]
    },
    {
     "pagination":{
      "pgfolios":{
       "value":"47a"
      }
     },
     "tags":[
      "T0020"
     ]
    },
    {
     "pagination":{
      "pgfolios":{
       "value":"47b"
      }
     },
     "tags":[
      "T0020"
     ]
    },
    {
     "pagination":{
      "pgfolios":{
       "value":"48a"
      }
     },
     "tags":[
      "T0020"
     ]
    },
    {
     "pagination":{
      "pgfolios":{
       "value":"48b"
      }
     },
     "tags":[
      "T0020"
     ]
    },
    {
     "pagination":{
      "pgfolios":{
       "value":"49a"
      }
     },
     "tags":[
      "T0020"
     ]
    },
    {
     "pagination":{
      "pgfolios":{
       "value":"49b"
      }
     },
     "tags":[
      "T0020"
     ]
    },
    {
     "filename":"I1BL3450006.jpg",
     "pagination":{
      "pgfolios":{
       "value":"50a"
      }
     }
    },
    {
     "filename":"I1BL3450007.jpg",
     "pagination":{
      "pgfolios":{
       "value":"50b"
      }
     }
    },
    {
     "filename":"I1BL3450008.jpg",
     "pagination":{
      "pgfolios":{
       "value":"51a"
      }
     }
    },
    {
     "filename":"I1BL3450009.jpg",
     "pagination":{
      "pgfolios":{
       "value":"51b"
      }
     }
    },
    {
     "filename":"I1BL3450010.jpg",
     "pagination":{
      "pgfolios":{
       "value":"52a"
      }
     }
    },
    {
     "filename":"I1BL3450011.jpg",
     "pagination":{
      "pgfolios":{
       "value":"52b"
      }
     }
    },
    {
     "filename":"I1BL3450012.jpg",
     "pagination":{
      "pgfolios":{
       "value":"53a"
      }
     }
    },
    {
     "filename":"I1BL3450013.jpg",
     "pagination":{
      "pgfolios":{
       "value":"53b"
      }
     }
    },
    {
     "filename":"I1BL3450014.jpg",
     "pagination":{
      "pgfolios":{
       "value":"54a"
      }
     }
    },
    {
     "filename":"I1BL3450015.jpg",
     "pagination":{
      "pgfolios":{
       "value":"54b"
      }
     }
    },
    {
     "filename":"I1BL3450016.jpg",
     "pagination":{
      "pgfolios":{
       "value":"55a"
      }
     }
    },
    {
     "filename":"I1BL3450017.jpg",
     "pagination":{
      "pgfolios":{
       "value":"55b"
      }
     }
    },
    {
     "filename":"I1BL3450018.jpg",
     "pagination":{
      "pgfolios":{
       "value":"56a"
      }
     }
    },
    {
     "filename":"I1BL3450019.jpg",
     "pagination":{
      "pgfolios":{
       "value":"56b"
      }
     }
    },
    {
     "filename":"I1BL3450020.jpg",
     "hidden":true
    },
    {
     "filename":"I1BL3450021.jpg",
     "hidden":true
    },
    {
     "filename":"I1BL3450022.jpg",
     "pagination":{
      "pgfolios":{
       "value":"57a"
      }
     }
    },
    {
     "filename":"I1BL3450023.jpg",
     "pagination":{
      "pgfolios":{
       "value":"57b"
      }
     }
    },
    {
     "filename":"I1BL3450024.jpg",
     "pagination":{
      "pgfolios":{
       "value":"58a"
      }
     }
    },
    {
     "filename":"I1BL3450025.jpg",
     "pagination":{
      "pgfolios":{
       "value":"58b"
      }
     }
    },
    {
     "filename":"I1BL3450026.jpg",
     "pagination":{
      "pgfolios":{
       "value":"59a"
      }
     }
    },
    {
     "filename":"I1BL3450027.jpg",
     "pagination":{
      "pgfolios":{
       "value":"59b"
      }
     }
    },
    {
     "filename":"I1BL3450028.jpg",
     "pagination":{
      "pgfolios":{
       "value":"60a"
      }
     }
    },
    {
     "filename":"I1BL3450029.jpg",
     "pagination":{
      "pgfolios":{
       "value":"60b"
      }
     }
    },
    {
     "filename":"I1BL3450030.jpg",
     "pagination":{
      "pgfolios":{
       "value":"61a"
      }
     }
    },
    {
     "filename":"I1BL3450031.jpg",
     "pagination":{
      "pgfolios":{
       "value":"61b"
      }
     }
    },
    {
     "filename":"I1BL3450032.jpg",
     "pagination":{
      "pgfolios":{
       "value":"62a"
      }
     }
    },
    {
     "filename":"I1BL3450033.jpg",
     "pagination":{
      "pgfolios":{
       "value":"62b"
      }
     }
    },
    {
     "filename":"I1BL3450034.jpg",
     "pagination":{
      "pgfolios":{
       "value":"63a"
      }
     }
    },
    {
     "filename":"I1BL3450035.jpg",
     "pagination":{
      "pgfolios":{
       "value":"63b"
      }
     }
    },
    {
     "filename":"I1BL3450036.jpg",
     "pagination":{
      "pgfolios":{
       "value":"64a"
      }
     }
    },
    {
     "filename":"I1BL3450037.jpg",
     "pagination":{
      "pgfolios":{
       "value":"64b"
      }
     }
    },
    {
     "filename":"I1BL3450038.jpg",
     "pagination":{
      "pgfolios":{
       "value":"65a"
      }
     }
    },
    {
     "filename":"I1BL3450039.jpg",
     "pagination":{
      "pgfolios":{
       "value":"65b"
      }
     }
    },
    {
     "filename":"I1BL3450040.jpg",
     "pagination":{
      "pgfolios":{
       "value":"66a"
      }
     }
    },
    {
     "filename":"I1BL3450041.jpg",
     "pagination":{
      "pgfolios":{
       "value":"66b"
      }
     }
    },
    {
     "filename":"I1BL3450042.jpg",
     "pagination":{
      "pgfolios":{
       "value":"67a"
      }
     }
    },
    {
     "filename":"I1BL3450043.jpg",
     "pagination":{
      "pgfolios":{
       "value":"67b"
      }
     }
    },
    {
     "filename":"I1BL3450044.jpg",
     "pagination":{
      "pgfolios":{
       "value":"68a"
      }
     }
    },
    {
     "filename":"I1BL3450045.jpg",
     "pagination":{
      "pgfolios":{
       "value":"68b"
      }
     }
    },
    {
     "filename":"I1BL3450046.jpg",
     "pagination":{
      "pgfolios":{
       "value":"69a"
      }
     }
    },
    {
     "filename":"I1BL3450047.jpg",
     "pagination":{
      "pgfolios":{
       "value":"69b"
      }
     }
    },
    {
     "filename":"I1BL3450048.jpg",
     "pagination":{
      "pgfolios":{
       "value":"70a"
      }
     }
    },
    {
     "filename":"I1BL3450049.jpg",
     "pagination":{
      "pgfolios":{
       "value":"70b"
      }
     }
    },
    {
     "filename":"I1BL3450050.jpg",
     "pagination":{
      "pgfolios":{
       "value":"71a"
      }
     }
    },
    {
     "filename":"I1BL3450051.jpg",
     "pagination":{
      "pgfolios":{
       "value":"71b"
      }
     }
    },
    {
     "filename":"I1BL3450052.jpg",
     "pagination":{
      "pgfolios":{
       "value":"72a"
      }
     }
    },
    {
     "filename":"I1BL3450053.jpg",
     "pagination":{
      "pgfolios":{
       "value":"72b"
      }
     }
    },
    {
     "filename":"I1BL3450054.jpg",
     "pagination":{
      "pgfolios":{
       "value":"73a"
      }
     }
    },
    {
     "filename":"I1BL3450055.jpg",
     "pagination":{
      "pgfolios":{
       "value":"73b"
      }
     }
    },
    {
     "filename":"I1BL3450056.jpg",
     "pagination":{
      "pgfolios":{
       "value":"74a"
      }
     }
    },
    {
     "filename":"I1BL3450057.jpg",
     "pagination":{
      "pgfolios":{
       "value":"74b"
      }
     }
    },
    {
     "filename":"I1BL3450058.jpg",
     "pagination":{
      "pgfolios":{
       "value":"75a"
      }
     }
    },
    {
     "filename":"I1BL3450059.jpg",
     "pagination":{
      "pgfolios":{
       "value":"75b"
      }
     }
    },
    {
     "filename":"I1BL3450060.jpg",
     "pagination":{
      "pgfolios":{
       "value":"76a"
      }
     }
    },
    {
     "filename":"I1BL3450061.jpg",
     "pagination":{
      "pgfolios":{
       "value":"76b"
      }
     }
    },
    {
     "filename":"I1BL3450062.jpg",
     "pagination":{
      "pgfolios":{
       "value":"77a"
      }
     }
    },
    {
     "filename":"I1BL3450063.jpg",
     "pagination":{
      "pgfolios":{
       "value":"77b"
      }
     }
    },
    {
     "pagination":{
      "pgfolios":{
       "value":"78a"
      }
     },
     "tags":[
      "T0020"
     ]
    },
    {
     "pagination":{
      "pgfolios":{
       "value":"78b"
      }
     },
     "tags":[
      "T0020"
     ]
    },
    {
     "filename":"I1BL3450064.jpg",
     "pagination":{
      "pgfolios":{
       "value":"79a"
      }
     }
    },
    {
     "filename":"I1BL3450065.jpg",
     "pagination":{
      "pgfolios":{
       "value":"79b"
      }
     }
    },
    {
     "filename":"I1BL3450066.jpg",
     "pagination":{
      "pgfolios":{
       "value":"80a"
      }
     }
    },
    {
     "filename":"I1BL3450067.jpg",
     "pagination":{
      "pgfolios":{
       "value":"80b"
      }
     }
    },
    {
     "filename":"I1BL3450068.jpg",
     "pagination":{
      "pgfolios":{
       "value":"81a"
      }
     }
    },
    {
     "filename":"I1BL3450069.jpg",
     "pagination":{
      "pgfolios":{
       "value":"81b"
      }
     }
    },
    {
     "filename":"I1BL3450070.jpg",
     "pagination":{
      "pgfolios":{
       "value":"82a"
      }
     }
    },
    {
     "filename":"I1BL3450071.jpg",
     "pagination":{
      "pgfolios":{
       "value":"82b"
      }
     }
    },
    {
     "filename":"I1BL3450072.jpg",
     "pagination":{
      "pgfolios":{
       "value":"83a"
      }
     }
    },
    {
     "filename":"I1BL3450073.jpg",
     "pagination":{
      "pgfolios":{
       "value":"83b"
      }
     }
    },
    {
     "filename":"I1BL3450074.jpg",
     "pagination":{
      "pgfolios":{
       "value":"84a"
      }
     }
    },
    {
     "filename":"I1BL3450075.jpg",
     "pagination":{
      "pgfolios":{
       "value":"84b"
      }
     }
    },
    {
     "filename":"I1BL3450076.jpg",
     "pagination":{
      "pgfolios":{
       "value":"85a"
      }
     }
    },
    {
     "filename":"I1BL3450077.jpg",
     "pagination":{
      "pgfolios":{
       "value":"85b"
      }
     }
    },
    {
     "filename":"I1BL3450078.jpg",
     "pagination":{
      "pgfolios":{
       "value":"86a"
      }
     }
    },
    {
     "filename":"I1BL3450079.jpg",
     "pagination":{
      "pgfolios":{
       "value":"86b"
      }
     }
    },
    {
     "filename":"I1BL3450080.jpg",
     "pagination":{
      "pgfolios":{
       "value":"87a"
      }
     }
    },
    {
     "filename":"I1BL3450081.jpg",
     "pagination":{
      "pgfolios":{
       "value":"87b"
      }
     }
    },
    {
     "filename":"I1BL3450082.jpg",
     "pagination":{
      "pgfolios":{
       "value":"88a"
      }
     }
    },
    {
     "filename":"I1BL3450083.jpg",
     "pagination":{
      "pgfolios":{
       "value":"88b"
      }
     }
    },
    {
     "filename":"I1BL3450084.jpg",
     "pagination":{
      "pgfolios":{
       "value":"89a"
      }
     }
    },
    {
     "filename":"I1BL3450085.jpg",
     "pagination":{
      "pgfolios":{
       "value":"89b"
      }
     }
    },
    {
     "filename":"I1BL3450086.jpg",
     "pagination":{
      "pgfolios":{
       "value":"90a"
      }
     }
    },
    {
     "filename":"I1BL3450087.jpg",
     "pagination":{
      "pgfolios":{
       "value":"90b"
      }
     }
    },
    {
     "filename":"I1BL3450088.jpg",
     "pagination":{
      "pgfolios":{
       "value":"91a"
      }
     }
    },
    {
     "filename":"I1BL3450089.jpg",
     "pagination":{
      "pgfolios":{
       "value":"91b"
      }
     }
    },
    {
     "pagination":{
      "pgfolios":{
       "value":"92a"
      }
     },
     "tags":[
      "T0020"
     ]
    },
    {
     "pagination":{
      "pgfolios":{
       "value":"92b"
      }
     },
     "tags":[
      "T0020"
     ]
    },
    {
     "filename":"I1BL3450090.jpg",
     "pagination":{
      "pgfolios":{
       "value":"93a"
      }
     }
    },
    {
     "filename":"I1BL3450091.jpg",
     "pagination":{
      "pgfolios":{
       "value":"93b"
      }
     }
    },
    {
     "filename":"I1BL3450092.jpg",
     "pagination":{
      "pgfolios":{
       "value":"94a"
      }
     }
    },
    {
     "filename":"I1BL3450093.jpg",
     "pagination":{
      "pgfolios":{
       "value":"94b"
      }
     }
    },
    {
     "filename":"I1BL3450094.jpg",
     "pagination":{
      "pgfolios":{
       "value":"95a"
      }
     }
    },
    {
     "filename":"I1BL3450095.jpg",
     "pagination":{
      "pgfolios":{
       "value":"95b"
      }
     }
    },
    {
     "filename":"I1BL3450096.jpg",
     "pagination":{
      "pgfolios":{
       "value":"96a"
      }
     }
    },
    {
     "filename":"I1BL3450097.jpg",
     "pagination":{
      "pgfolios":{
       "value":"96b"
      }
     }
    },
    {
     "filename":"I1BL3450098.jpg",
     "pagination":{
      "pgfolios":{
       "value":"97a"
      }
     }
    },
    {
     "filename":"I1BL3450099.jpg",
     "pagination":{
      "pgfolios":{
       "value":"97b"
      }
     }
    },
    {
     "filename":"I1BL3450100.jpg",
     "pagination":{
      "pgfolios":{
       "value":"98a"
      }
     }
    },
    {
     "filename":"I1BL3450101.jpg",
     "pagination":{
      "pgfolios":{
       "value":"98b"
      }
     }
    },
    {
     "filename":"I1BL3450102.jpg",
     "pagination":{
      "pgfolios":{
       "value":"99a"
      }
     }
    },
    {
     "filename":"I1BL3450103.jpg",
     "pagination":{
      "pgfolios":{
       "value":"99b"
      }
     }
    },
    {
     "filename":"I1BL3450104.jpg",
     "pagination":{
      "pgfolios":{
       "value":"100a"
      }
     }
    },
    {
     "filename":"I1BL3450105.jpg",
     "pagination":{
      "pgfolios":{
       "value":"100b"
      }
     }
    },
    {
     "filename":"I1BL3450106.jpg",
     "pagination":{
      "pgfolios":{
       "value":"101a"
      }
     }
    },
    {
     "filename":"I1BL3450107.jpg",
     "pagination":{
      "pgfolios":{
       "value":"101b"
      }
     }
    },
    {
     "filename":"I1BL3450108.jpg",
     "pagination":{
      "pgfolios":{
       "value":"102a"
      }
     }
    },
    {
     "filename":"I1BL3450109.jpg",
     "pagination":{
      "pgfolios":{
       "value":"102b"
      }
     }
    },
    {
     "filename":"I1BL3450110.jpg",
     "pagination":{
      "pgfolios":{
       "value":"103a"
      }
     }
    },
    {
     "filename":"I1BL3450111.jpg",
     "pagination":{
      "pgfolios":{
       "value":"103b"
      }
     }
    },
    {
     "filename":"I1BL3450112.jpg",
     "pagination":{
      "pgfolios":{
       "value":"104a"
      }
     }
    },
    {
     "filename":"I1BL3450113.jpg",
     "pagination":{
      "pgfolios":{
       "value":"104b"
      }
     }
    },
    {
     "filename":"I1BL3450114.jpg",
     "pagination":{
      "pgfolios":{
       "value":"105a"
      }
     }
    },
    {
     "filename":"I1BL3450115.jpg",
     "pagination":{
      "pgfolios":{
       "value":"105b"
      }
     }
    },
    {
     "pagination":{
      "pgfolios":{
       "value":"106a"
      }
     },
     "tags":[
      "T0020"
     ]
    },
    {
     "pagination":{
      "pgfolios":{
       "value":"106b"
      }
     },
     "tags":[
      "T0020"
     ]
    },
    {
     "filename":"I1BL3450116.jpg",
     "pagination":{
      "pgfolios":{
       "value":"107a"
      }
     }
    },
    {
     "filename":"I1BL3450117.jpg",
     "pagination":{
      "pgfolios":{
       "value":"107b"
      }
     }
    },
    {
     "filename":"I1BL3450118.jpg",
     "pagination":{
      "pgfolios":{
       "value":"108a"
      }
     }
    },
    {
     "filename":"I1BL3450119.jpg",
     "pagination":{
      "pgfolios":{
       "value":"108b"
      }
     }
    },
    {
     "filename":"I1BL3450120.jpg",
     "pagination":{
      "pgfolios":{
       "value":"109a"
      }
     }
    },
    {
     "filename":"I1BL3450121.jpg",
     "pagination":{
      "pgfolios":{
       "value":"109b"
      }
     }
    },
    {
     "filename":"I1BL3450122.jpg",
     "pagination":{
      "pgfolios":{
       "value":"110a"
      }
     }
    },
    {
     "filename":"I1BL3450123.jpg",
     "pagination":{
      "pgfolios":{
       "value":"110b"
      }
     }
    },
    {
     "filename":"I1BL3450124.jpg",
     "pagination":{
      "pgfolios":{
       "value":"111a"
      }
     }
    },
    {
     "filename":"I1BL3450125.jpg",
     "pagination":{
      "pgfolios":{
       "value":"111b"
      }
     }
    },
    {
     "filename":"I1BL3450126.jpg",
     "pagination":{
      "pgfolios":{
       "value":"112a"
      }
     }
    },
    {
     "filename":"I1BL3450127.jpg",
     "pagination":{
      "pgfolios":{
       "value":"112b"
      }
     }
    },
    {
     "filename":"I1BL3450128.jpg",
     "pagination":{
      "pgfolios":{
       "value":"113a"
      }
     }
    },
    {
     "filename":"I1BL3450129.jpg",
     "pagination":{
      "pgfolios":{
       "value":"113b"
      }
     }
    },
    {
     "filename":"I1BL3450130.jpg",
     "pagination":{
      "pgfolios":{
       "value":"114a"
      }
     }
    },
    {
     "filename":"I1BL3450131.jpg",
     "pagination":{
      "pgfolios":{
       "value":"114b"
      }
     }
    },
    {
     "filename":"I1BL3450132.jpg",
     "pagination":{
      "pgfolios":{
       "value":"115a"
      }
     }
    },
    {
     "filename":"I1BL3450133.jpg",
     "pagination":{
      "pgfolios":{
       "value":"115b"
      }
     }
    },
    {
     "filename":"I1BL3450134.jpg",
     "pagination":{
      "pgfolios":{
       "value":"116a"
      }
     }
    },
    {
     "filename":"I1BL3450135.jpg",
     "pagination":{
      "pgfolios":{
       "value":"116b"
      }
     }
    },
    {
     "filename":"I1BL3450136.jpg",
     "pagination":{
      "pgfolios":{
       "value":"117a"
      }
     }
    },
    {
     "filename":"I1BL3450137.jpg",
     "pagination":{
      "pgfolios":{
       "value":"117b"
      }
     }
    },
    {
     "filename":"I1BL3450138.jpg",
     "pagination":{
      "pgfolios":{
       "value":"118a"
      }
     }
    },
    {
     "filename":"I1BL3450139.jpg",
     "pagination":{
      "pgfolios":{
       "value":"118b"
      }
     }
    },
    {
     "filename":"I1BL3450140.jpg",
     "pagination":{
      "pgfolios":{
       "value":"119a"
      }
     }
    },
    {
     "filename":"I1BL3450141.jpg",
     "pagination":{
      "pgfolios":{
       "value":"119b"
      }
     }
    },
    {
     "filename":"I1BL3450142.jpg",
     "pagination":{
      "pgfolios":{
       "value":"120a"
      }
     }
    },
    {
     "filename":"I1BL3450143.jpg",
     "pagination":{
      "pgfolios":{
       "value":"120b"
      }
     }
    },
    {
     "pagination":{
      "pgfolios":{
       "value":"121a"
      }
     },
     "tags":[
      "T0020"
     ]
    },
    {
     "pagination":{
      "pgfolios":{
       "value":"121b"
      }
     },
     "tags":[
      "T0020"
     ]
    },
    {
     "pagination":{
      "pgfolios":{
       "value":"122a"
      }
     },
     "tags":[
      "T0020"
     ]
    },
    {
     "pagination":{
      "pgfolios":{
       "value":"122b"
      }
     },
     "tags":[
      "T0020"
     ]
    },
    {
     "pagination":{
      "pgfolios":{
       "value":"123a"
      }
     },
     "tags":[
      "T0020"
     ]
    },
    {
     "pagination":{
      "pgfolios":{
       "value":"123b"
      }
     },
     "tags":[
      "T0020"
     ]
    },
    {
     "pagination":{
      "pgfolios":{
       "value":"124a"
      }
     },
     "tags":[
      "T0020"
     ]
    },
    {
     "pagination":{
      "pgfolios":{
       "value":"124b"
      }
     },
     "tags":[
      "T0020"
     ]
    },
    {
     "pagination":{
      "pgfolios":{
       "value":"125a"
      }
     },
     "tags":[
      "T0020"
     ]
    },
    {
     "pagination":{
      "pgfolios":{
       "value":"125b"
      }
     },
     "tags":[
      "T0020"
     ]
    },
    {
     "pagination":{
      "pgfolios":{
       "value":"126a"
      }
     },
     "tags":[
      "T0020"
     ]
    },
    {
     "pagination":{
      "pgfolios":{
       "value":"126b"
      }
     },
     "tags":[
      "T0020"
     ]
    },
    {
     "pagination":{
      "pgfolios":{
       "value":"127a"
      }
     },
     "tags":[
      "T0020"
     ]
    },
    {
     "pagination":{
      "pgfolios":{
       "value":"127b"
      }
     },
     "tags":[
      "T0020"
     ]
    },
    {
     "pagination":{
      "pgfolios":{
       "value":"128a"
      }
     },
     "tags":[
      "T0020"
     ]
    },
    {
     "pagination":{
      "pgfolios":{
       "value":"128b"
      }
     },
     "tags":[
      "T0020"
     ]
    },
    {
     "pagination":{
      "pgfolios":{
       "value":"129a"
      }
     },
     "tags":[
      "T0020"
     ]
    },
    {
     "pagination":{
      "pgfolios":{
       "value":"129b"
      }
     },
     "tags":[
      "T0020"
     ]
    },
    {
     "pagination":{
      "pgfolios":{
       "value":"130a"
      }
     },
     "tags":[
      "T0020"
     ]
    },
    {
     "pagination":{
      "pgfolios":{
       "value":"130b"
      }
     },
     "tags":[
      "T0020"
     ]
    },
    {
     "pagination":{
      "pgfolios":{
       "value":"131a"
      }
     },
     "tags":[
      "T0020"
     ]
    },
    {
     "pagination":{
      "pgfolios":{
       "value":"131b"
      }
     },
     "tags":[
      "T0020"
     ]
    },
    {
     "pagination":{
      "pgfolios":{
       "value":"132a"
      }
     },
     "tags":[
      "T0020"
     ]
    },
    {
     "pagination":{
      "pgfolios":{
       "value":"132b"
      }
     },
     "tags":[
      "T0020"
     ]
    },
    {
     "pagination":{
      "pgfolios":{
       "value":"133a"
      }
     },
     "tags":[
      "T0020"
     ]
    },
    {
     "pagination":{
      "pgfolios":{
       "value":"133b"
      }
     },
     "tags":[
      "T0020"
     ]
    },
    {
     "pagination":{
      "pgfolios":{
       "value":"134a"
      }
     },
     "tags":[
      "T0020"
     ]
    },
    {
     "pagination":{
      "pgfolios":{
       "value":"134b"
      }
     },
     "tags":[
      "T0020"
     ]
    },
    {
     "pagination":{
      "pgfolios":{
       "value":"135a"
      }
     },
     "tags":[
      "T0020"
     ]
    },
    {
     "pagination":{
      "pgfolios":{
       "value":"135b"
      }
     },
     "tags":[
      "T0020"
     ]
    },
    {
     "pagination":{
      "pgfolios":{
       "value":"136a"
      }
     },
     "tags":[
      "T0020"
     ]
    },
    {
     "pagination":{
      "pgfolios":{
       "value":"136b"
      }
     },
     "tags":[
      "T0020"
     ]
    },
    {
     "pagination":{
      "pgfolios":{
       "value":"137a"
      }
     },
     "tags":[
      "T0020"
     ]
    },
    {
     "pagination":{
      "pgfolios":{
       "value":"137b"
      }
     },
     "tags":[
      "T0020"
     ]
    },
    {
     "pagination":{
      "pgfolios":{
       "value":"138a"
      }
     },
     "tags":[
      "T0020"
     ]
    },
    {
     "pagination":{
      "pgfolios":{
       "value":"138b"
      }
     },
     "tags":[
      "T0020"
     ]
    },
    {
     "pagination":{
      "pgfolios":{
       "value":"139a"
      }
     },
     "tags":[
      "T0020"
     ]
    },
    {
     "pagination":{
      "pgfolios":{
       "value":"139b"
      }
     },
     "tags":[
      "T0020"
     ]
    },
    {
     "pagination":{
      "pgfolios":{
       "value":"140a"
      }
     },
     "tags":[
      "T0020"
     ]
    },
    {
     "pagination":{
      "pgfolios":{
       "value":"140b"
      }
     },
     "tags":[
      "T0020"
     ]
    },
    {
     "pagination":{
      "pgfolios":{
       "value":"141a"
      }
     },
     "tags":[
      "T0020"
     ]
    },
    {
     "pagination":{
      "pgfolios":{
       "value":"141b"
      }
     },
     "tags":[
      "T0020"
     ]
    },
    {
     "pagination":{
      "pgfolios":{
       "value":"142a"
      }
     },
     "tags":[
      "T0020"
     ]
    },
    {
     "pagination":{
      "pgfolios":{
       "value":"142b"
      }
     },
     "tags":[
      "T0020"
     ]
    },
    {
     "pagination":{
      "pgfolios":{
       "value":"143a"
      }
     },
     "tags":[
      "T0020"
     ]
    },
    {
     "pagination":{
      "pgfolios":{
       "value":"143b"
      }
     },
     "tags":[
      "T0020"
     ]
    },
    {
     "pagination":{
      "pgfolios":{
       "value":"144a"
      }
     },
     "tags":[
      "T0020"
     ]
    },
    {
     "pagination":{
      "pgfolios":{
       "value":"144b"
      }
     },
     "tags":[
      "T0020"
     ]
    },
    {
     "pagination":{
      "pgfolios":{
       "value":"145a"
      }
     },
     "tags":[
      "T0020"
     ]
    },
    {
     "pagination":{
      "pgfolios":{
       "value":"145b"
      }
     },
     "tags":[
      "T0020"
     ]
    },
    {
     "pagination":{
      "pgfolios":{
       "value":"146a"
      }
     },
     "tags":[
      "T0020"
     ]
    },
    {
     "pagination":{
      "pgfolios":{
       "value":"146b"
      }
     },
     "tags":[
      "T0020"
     ]
    },
    {
     "pagination":{
      "pgfolios":{
       "value":"147a"
      }
     },
     "tags":[
      "T0020"
     ]
    },
    {
     "pagination":{
      "pgfolios":{
       "value":"147b"
      }
     },
     "tags":[
      "T0020"
     ]
    },
    {
     "pagination":{
      "pgfolios":{
       "value":"148a"
      }
     },
     "tags":[
      "T0020"
     ]
    },
    {
     "pagination":{
      "pgfolios":{
       "value":"148b"
      }
     },
     "tags":[
      "T0020"
     ]
    },
    {
     "pagination":{
      "pgfolios":{
       "value":"149a"
      }
     },
     "tags":[
      "T0020"
     ]
    },
    {
     "pagination":{
      "pgfolios":{
       "value":"149b"
      }
     },
     "tags":[
      "T0020"
     ]
    },
    {
     "pagination":{
      "pgfolios":{
       "value":"150a"
      }
     },
     "tags":[
      "T0020"
     ]
    },
    {
     "pagination":{
      "pgfolios":{
       "value":"150b"
      }
     },
     "tags":[
      "T0020"
     ]
    },
    {
     "pagination":{
      "pgfolios":{
       "value":"151a"
      }
     },
     "tags":[
      "T0020"
     ]
    },
    {
     "pagination":{
      "pgfolios":{
       "value":"151b"
      }
     },
     "tags":[
      "T0020"
     ]
    },
    {
     "pagination":{
      "pgfolios":{
       "value":"152a"
      }
     },
     "tags":[
      "T0020"
     ]
    },
    {
     "pagination":{
      "pgfolios":{
       "value":"152b"
      }
     },
     "tags":[
      "T0020"
     ]
    },
    {
     "pagination":{
      "pgfolios":{
       "value":"153a"
      }
     },
     "tags":[
      "T0020"
     ]
    },
    {
     "pagination":{
      "pgfolios":{
       "value":"153b"
      }
     },
     "tags":[
      "T0020"
     ]
    },
    {
     "pagination":{
      "pgfolios":{
       "value":"154a"
      }
     },
     "tags":[
      "T0020"
     ]
    },
    {
     "pagination":{
      "pgfolios":{
       "value":"154b"
      }
     },
     "tags":[
      "T0020"
     ]
    },
    {
     "pagination":{
      "pgfolios":{
       "value":"155a"
      }
     },
     "tags":[
      "T0020"
     ]
    },
    {
     "pagination":{
      "pgfolios":{
       "value":"155b"
      }
     },
     "tags":[
      "T0020"
     ]
    },
    {
     "pagination":{
      "pgfolios":{
       "value":"156a"
      }
     },
     "tags":[
      "T0020"
     ]
    },
    {
     "pagination":{
      "pgfolios":{
       "value":"156b"
      }
     },
     "tags":[
      "T0020"
     ]
    },
    {
     "pagination":{
      "pgfolios":{
       "value":"157a"
      }
     },
     "tags":[
      "T0020"
     ]
    },
    {
     "pagination":{
      "pgfolios":{
       "value":"157b"
      }
     },
     "tags":[
      "T0020"
     ]
    },
    {
     "pagination":{
      "pgfolios":{
       "value":"158a"
      }
     },
     "tags":[
      "T0020"
     ]
    },
    {
     "pagination":{
      "pgfolios":{
       "value":"158b"
      }
     },
     "tags":[
      "T0020"
     ]
    },
    {
     "pagination":{
      "pgfolios":{
       "value":"159a"
      }
     },
     "tags":[
      "T0020"
     ]
    },
    {
     "pagination":{
      "pgfolios":{
       "value":"159b"
      }
     },
     "tags":[
      "T0020"
     ]
    },
    {
     "pagination":{
      "pgfolios":{
       "value":"160a"
      }
     },
     "tags":[
      "T0020"
     ]
    },
    {
     "pagination":{
      "pgfolios":{
       "value":"160b"
      }
     },
     "tags":[
      "T0020"
     ]
    },
    {
     "pagination":{
      "pgfolios":{
       "value":"161a"
      }
     },
     "tags":[
      "T0020"
     ]
    },
    {
     "pagination":{
      "pgfolios":{
       "value":"161b"
      }
     },
     "tags":[
      "T0020"
     ]
    },
    {
     "pagination":{
      "pgfolios":{
       "value":"162a"
      }
     },
     "tags":[
      "T0020"
     ]
    },
    {
     "pagination":{
      "pgfolios":{
       "value":"162b"
      }
     },
     "tags":[
      "T0020"
     ]
    },
    {
     "pagination":{
      "pgfolios":{
       "value":"163a"
      }
     },
     "tags":[
      "T0020"
     ]
    },
    {
     "pagination":{
      "pgfolios":{
       "value":"163b"
      }
     },
     "tags":[
      "T0020"
     ]
    },
    {
     "pagination":{
      "pgfolios":{
       "value":"164a"
      }
     },
     "tags":[
      "T0020"
     ]
    },
    {
     "pagination":{
      "pgfolios":{
       "value":"164b"
      }
     },
     "tags":[
      "T0020"
     ]
    },
    {
     "pagination":{
      "pgfolios":{
       "value":"165a"
      }
     },
     "tags":[
      "T0020"
     ]
    },
    {
     "pagination":{
      "pgfolios":{
       "value":"165b"
      }
     },
     "tags":[
      "T0020"
     ]
    },
    {
     "pagination":{
      "pgfolios":{
       "value":"166a"
      }
     },
     "tags":[
      "T0020"
     ]
    },
    {
     "pagination":{
      "pgfolios":{
       "value":"166b"
      }
     },
     "tags":[
      "T0020"
     ]
    },
    {
     "pagination":{
      "pgfolios":{
       "value":"167a"
      }
     },
     "tags":[
      "T0020"
     ]
    },
    {
     "pagination":{
      "pgfolios":{
       "value":"167b"
      }
     },
     "tags":[
      "T0020"
     ]
    },
    {
     "pagination":{
      "pgfolios":{
       "value":"168a"
      }
     },
     "tags":[
      "T0020"
     ]
    },
    {
     "pagination":{
      "pgfolios":{
       "value":"168b"
      }
     },
     "tags":[
      "T0020"
     ]
    },
    {
     "pagination":{
      "pgfolios":{
       "value":"169a"
      }
     },
     "tags":[
      "T0020"
     ]
    },
    {
     "pagination":{
      "pgfolios":{
       "value":"169b"
      }
     },
     "tags":[
      "T0020"
     ]
    },
    {
     "pagination":{
      "pgfolios":{
       "value":"170a"
      }
     },
     "tags":[
      "T0020"
     ]
    },
    {
     "pagination":{
      "pgfolios":{
       "value":"170b"
      }
     },
     "tags":[
      "T0020"
     ]
    },
    {
     "pagination":{
      "pgfolios":{
       "value":"171a"
      }
     },
     "tags":[
      "T0020"
     ]
    },
    {
     "pagination":{
      "pgfolios":{
       "value":"171b"
      }
     },
     "tags":[
      "T0020"
     ]
    },
    {
     "pagination":{
      "pgfolios":{
       "value":"172a"
      }
     },
     "tags":[
      "T0020"
     ]
    },
    {
     "pagination":{
      "pgfolios":{
       "value":"172b"
      }
     },
     "tags":[
      "T0020"
     ]
    },
    {
     "pagination":{
      "pgfolios":{
       "value":"173a"
      }
     },
     "tags":[
      "T0020"
     ]
    },
    {
     "pagination":{
      "pgfolios":{
       "value":"173b"
      }
     },
     "tags":[
      "T0020"
     ]
    },
    {
     "pagination":{
      "pgfolios":{
       "value":"174a"
      }
     },
     "tags":[
      "T0020"
     ]
    },
    {
     "pagination":{
      "pgfolios":{
       "value":"174b"
      }
     },
     "tags":[
      "T0020"
     ]
    },
    {
     "filename":"I1BL3450144.jpg",
     "pagination":{
      "pgfolios":{
       "value":"175a"
      }
     }
    },
    {
     "filename":"I1BL3450145.jpg",
     "pagination":{
      "pgfolios":{
       "value":"175b"
      }
     }
    },
    {
     "pagination":{
      "pgfolios":{
       "value":"176a"
      }
     },
     "tags":[
      "T0020"
     ]
    },
    {
     "pagination":{
      "pgfolios":{
       "value":"176b"
      }
     },
     "tags":[
      "T0020"
     ]
    },
    {
     "pagination":{
      "pgfolios":{
       "value":"177a"
      }
     },
     "tags":[
      "T0020"
     ]
    },
    {
     "pagination":{
      "pgfolios":{
       "value":"177b"
      }
     },
     "tags":[
      "T0020"
     ]
    },
    {
     "filename":"I1BL3450146.jpg",
     "pagination":{
      "pgfolios":{
       "value":"178a"
      }
     }
    },
    {
     "filename":"I1BL3450147.jpg",
     "pagination":{
      "pgfolios":{
       "value":"178b"
      }
     }
    },
    {
     "filename":"I1BL3450148.jpg",
     "pagination":{
      "pgfolios":{
       "value":"179a"
      }
     }
    },
    {
     "filename":"I1BL3450149.jpg",
     "pagination":{
      "pgfolios":{
       "value":"179b"
      }
     }
    },
    {
     "filename":"I1BL3450150.jpg",
     "pagination":{
      "pgfolios":{
       "value":"180a"
      }
     }
    },
    {
     "filename":"I1BL3450151.jpg",
     "pagination":{
      "pgfolios":{
       "value":"180b"
      }
     }
    },
    {
     "filename":"I1BL3450152.jpg",
     "pagination":{
      "pgfolios":{
       "value":"181a"
      }
     }
    },
    {
     "filename":"I1BL3450153.jpg",
     "pagination":{
      "pgfolios":{
       "value":"181b"
      }
     }
    },
    {
     "filename":"I1BL3450154.jpg",
     "pagination":{
      "pgfolios":{
       "value":"182a"
      }
     }
    },
    {
     "filename":"I1BL3450155.jpg",
     "pagination":{
      "pgfolios":{
       "value":"182b"
      }
     }
    },
    {
     "filename":"I1BL3450156.jpg",
     "pagination":{
      "pgfolios":{
       "value":"183a"
      }
     }
    },
    {
     "filename":"I1BL3450157.jpg",
     "pagination":{
      "pgfolios":{
       "value":"183b"
      }
     }
    },
    {
     "filename":"I1BL3450158.jpg",
     "pagination":{
      "pgfolios":{
       "value":"184a"
      }
     }
    },
    {
     "filename":"I1BL3450159.jpg",
     "pagination":{
      "pgfolios":{
       "value":"184b"
      }
     }
    },
    {
     "filename":"I1BL3450160.jpg",
     "pagination":{
      "pgfolios":{
       "value":"185a"
      }
     }
    },
    {
     "filename":"I1BL3450161.jpg",
     "pagination":{
      "pgfolios":{
       "value":"185b"
      }
     }
    },
    {
     "filename":"I1BL3450162.jpg",
     "pagination":{
      "pgfolios":{
       "value":"186a"
      }
     }
    },
    {
     "filename":"I1BL3450163.jpg",
     "pagination":{
      "pgfolios":{
       "value":"186b"
      }
     }
    },
    {
     "pagination":{
      "pgfolios":{
       "value":"187a"
      }
     },
     "tags":[
      "T0020"
     ]
    },
    {
     "pagination":{
      "pgfolios":{
       "value":"187b"
      }
     },
     "tags":[
      "T0020"
     ]
    },
    {
     "filename":"I1BL3450164.jpg",
     "pagination":{
      "pgfolios":{
       "value":"188a"
      }
     }
    },
    {
     "filename":"I1BL3450165.jpg",
     "pagination":{
      "pgfolios":{
       "value":"188b"
      }
     }
    },
    {
     "filename":"I1BL3450166.jpg",
     "pagination":{
      "pgfolios":{
       "value":"189a"
      }
     }
    },
    {
     "filename":"I1BL3450167.jpg",
     "pagination":{
      "pgfolios":{
       "value":"189b"
      }
     }
    },
    {
     "filename":"I1BL3450168.jpg",
     "pagination":{
      "pgfolios":{
       "value":"190a"
      }
     }
    },
    {
     "filename":"I1BL3450169.jpg",
     "pagination":{
      "pgfolios":{
       "value":"190b"
      }
     }
    },
    {
     "filename":"I1BL3450170.jpg",
     "pagination":{
      "pgfolios":{
       "value":"191a"
      }
     }
    },
    {
     "filename":"I1BL3450171.jpg",
     "pagination":{
      "pgfolios":{
       "value":"191b"
      }
     }
    },
    {
     "filename":"I1BL3450172.jpg",
     "pagination":{
      "pgfolios":{
       "value":"192a"
      }
     }
    },
    {
     "filename":"I1BL3450173.jpg",
     "pagination":{
      "pgfolios":{
       "value":"192b"
      }
     }
    },
    {
     "filename":"I1BL3450174.jpg",
     "pagination":{
      "pgfolios":{
       "value":"193a"
      }
     }
    },
    {
     "filename":"I1BL3450175.jpg",
     "pagination":{
      "pgfolios":{
       "value":"193b"
      }
     }
    },
    {
     "filename":"I1BL3450176.jpg",
     "pagination":{
      "pgfolios":{
       "value":"194a"
      }
     }
    },
    {
     "filename":"I1BL3450177.jpg",
     "pagination":{
      "pgfolios":{
       "value":"194b"
      }
     }
    },
    {
     "filename":"I1BL3450178.jpg",
     "pagination":{
      "pgfolios":{
       "value":"195a"
      }
     }
    },
    {
     "filename":"I1BL3450179.jpg",
     "pagination":{
      "pgfolios":{
       "value":"195b"
      }
     }
    },
    {
     "filename":"I1BL3450180.jpg",
     "pagination":{
      "pgfolios":{
       "value":"196a"
      }
     }
    },
    {
     "filename":"I1BL3450181.jpg",
     "pagination":{
      "pgfolios":{
       "value":"196b"
      }
     }
    },
    {
     "filename":"I1BL3450182.jpg",
     "pagination":{
      "pgfolios":{
       "value":"197a"
      }
     }
    },
    {
     "filename":"I1BL3450183.jpg",
     "pagination":{
      "pgfolios":{
       "value":"197b"
      }
     }
    },
    {
     "filename":"I1BL3450184.jpg",
     "pagination":{
      "pgfolios":{
       "value":"198a"
      }
     }
    },
    {
     "filename":"I1BL3450185.jpg",
     "pagination":{
      "pgfolios":{
       "value":"198b"
      }
     }
    },
    {
     "filename":"I1BL3450186.jpg",
     "pagination":{
      "pgfolios":{
       "value":"199a"
      }
     }
    },
    {
     "filename":"I1BL3450187.jpg",
     "pagination":{
      "pgfolios":{
       "value":"199b"
      }
     }
    },
    {
     "pagination":{
      "pgfolios":{
       "value":"200a"
      }
     },
     "tags":[
      "T0020"
     ]
    },
    {
     "pagination":{
      "pgfolios":{
       "value":"200b"
      }
     },
     "tags":[
      "T0020"
     ]
    },
    {
     "pagination":{
      "pgfolios":{
       "value":"201a"
      }
     },
     "tags":[
      "T0020"
     ]
    },
    {
     "pagination":{
      "pgfolios":{
       "value":"201b"
      }
     },
     "tags":[
      "T0020"
     ]
    },
    {
     "pagination":{
      "pgfolios":{
       "value":"202a"
      }
     },
     "tags":[
      "T0020"
     ]
    },
    {
     "pagination":{
      "pgfolios":{
       "value":"202b"
      }
     },
     "tags":[
      "T0020"
     ]
    },
    {
     "pagination":{
      "pgfolios":{
       "value":"203a"
      }
     },
     "tags":[
      "T0020"
     ]
    },
    {
     "pagination":{
      "pgfolios":{
       "value":"203b"
      }
     },
     "tags":[
      "T0020"
     ]
    },
    {
     "filename":"I1BL3450188.jpg",
     "pagination":{
      "pgfolios":{
       "value":"204a"
      }
     }
    },
    {
     "filename":"I1BL3450189.jpg",
     "pagination":{
      "pgfolios":{
       "value":"204b"
      }
     }
    },
    {
     "filename":"I1BL3450190.jpg",
     "pagination":{
      "pgfolios":{
       "value":"205a"
      }
     }
    },
    {
     "filename":"I1BL3450191.jpg",
     "pagination":{
      "pgfolios":{
       "value":"205b"
      }
     }
    },
    {
     "filename":"I1BL3450192.jpg",
     "pagination":{
      "pgfolios":{
       "value":"206a"
      }
     }
    },
    {
     "filename":"I1BL3450193.jpg",
     "pagination":{
      "pgfolios":{
       "value":"206b"
      }
     }
    },
    {
     "pagination":{
      "pgfolios":{
       "value":"207a"
      }
     },
     "tags":[
      "T0020"
     ]
    },
    {
     "pagination":{
      "pgfolios":{
       "value":"207b"
      }
     },
     "tags":[
      "T0020"
     ]
    },
    {
     "filename":"I1BL3450194.jpg",
     "pagination":{
      "pgfolios":{
       "value":"208a"
      }
     }
    },
    {
     "filename":"I1BL3450195.jpg",
     "pagination":{
      "pgfolios":{
       "value":"208b"
      }
     }
    },
    {
     "filename":"I1BL3450196.jpg",
     "pagination":{
      "pgfolios":{
       "value":"209a"
      }
     }
    },
    {
     "filename":"I1BL3450197.jpg",
     "pagination":{
      "pgfolios":{
       "value":"209b"
      }
     }
    },
    {
     "filename":"I1BL3450198.jpg",
     "pagination":{
      "pgfolios":{
       "value":"210a"
      }
     }
    },
    {
     "filename":"I1BL3450199.jpg",
     "pagination":{
      "pgfolios":{
       "value":"210b"
      }
     }
    },
    {
     "filename":"I1BL3450200.jpg",
     "pagination":{
      "pgfolios":{
       "value":"211a"
      }
     }
    },
    {
     "filename":"I1BL3450201.jpg",
     "pagination":{
      "pgfolios":{
       "value":"211b"
      }
     }
    },
    {
     "filename":"I1BL3450202.jpg",
     "pagination":{
      "pgfolios":{
       "value":"212a"
      }
     }
    },
    {
     "filename":"I1BL3450203.jpg",
     "pagination":{
      "pgfolios":{
       "value":"212b"
      }
     }
    },
    {
     "filename":"I1BL3450204.jpg",
     "pagination":{
      "pgfolios":{
       "value":"213a"
      }
     }
    },
    {
     "filename":"I1BL3450205.jpg",
     "pagination":{
      "pgfolios":{
       "value":"213b"
      }
     }
    },
    {
     "filename":"I1BL3450206.jpg",
     "pagination":{
      "pgfolios":{
       "value":"214a"
      }
     }
    },
    {
     "filename":"I1BL3450207.jpg",
     "pagination":{
      "pgfolios":{
       "value":"214b"
      }
     }
    },
    {
     "filename":"I1BL3450208.jpg",
     "pagination":{
      "pgfolios":{
       "value":"215a"
      }
     }
    },
    {
     "filename":"I1BL3450209.jpg",
     "pagination":{
      "pgfolios":{
       "value":"215b"
      }
     }
    },
    {
     "filename":"I1BL3450210.jpg",
     "pagination":{
      "pgfolios":{
       "value":"216a"
      }
     }
    },
    {
     "filename":"I1BL3450211.jpg",
     "pagination":{
      "pgfolios":{
       "value":"216b"
      }
     }
    },
    {
     "filename":"I1BL3450212.jpg",
     "pagination":{
      "pgfolios":{
       "value":"217a"
      }
     }
    },
    {
     "filename":"I1BL3450213.jpg",
     "pagination":{
      "pgfolios":{
       "value":"217b"
      }
     }
    },
    {
     "filename":"I1BL3450214.jpg",
     "pagination":{
      "pgfolios":{
       "value":"218a"
      }
     }
    },
    {
     "filename":"I1BL3450215.jpg",
     "pagination":{
      "pgfolios":{
       "value":"218b"
      }
     }
    },
    {
     "filename":"I1BL3450216.jpg",
     "pagination":{
      "pgfolios":{
       "value":"219a"
      }
     }
    },
    {
     "filename":"I1BL3450217.jpg",
     "pagination":{
      "pgfolios":{
       "value":"219b"
      }
     }
    },
    {
     "filename":"I1BL3450218.jpg",
     "pagination":{
      "pgfolios":{
       "value":"220a"
      }
     }
    },
    {
     "filename":"I1BL3450219.jpg",
     "pagination":{
      "pgfolios":{
       "value":"220b"
      }
     }
    },
    {
     "filename":"I1BL3450220.jpg",
     "pagination":{
      "pgfolios":{
       "value":"221a"
      }
     }
    },
    {
     "filename":"I1BL3450221.jpg",
     "pagination":{
      "pgfolios":{
       "value":"221b"
      }
     }
    },
    {
     "filename":"I1BL3450222.jpg",
     "pagination":{
      "pgfolios":{
       "value":"222a"
      }
     }
    },
    {
     "filename":"I1BL3450223.jpg",
     "pagination":{
      "pgfolios":{
       "value":"222b"
      }
     }
    },
    {
     "filename":"I1BL3450224.jpg",
     "pagination":{
      "pgfolios":{
       "value":"223a"
      }
     }
    },
    {
     "filename":"I1BL3450225.jpg",
     "pagination":{
      "pgfolios":{
       "value":"223b"
      }
     }
    },
    {
     "filename":"I1BL3450226.jpg",
     "pagination":{
      "pgfolios":{
       "value":"224a"
      }
     }
    },
    {
     "filename":"I1BL3450227.jpg",
     "pagination":{
      "pgfolios":{
       "value":"224b"
      }
     }
    },
    {
     "filename":"I1BL3450228.jpg",
     "pagination":{
      "pgfolios":{
       "value":"225a"
      }
     }
    },
    {
     "filename":"I1BL3450229.jpg",
     "pagination":{
      "pgfolios":{
       "value":"225b"
      }
     }
    },
    {
     "filename":"I1BL3450230.jpg",
     "pagination":{
      "pgfolios":{
       "value":"226a"
      }
     }
    },
    {
     "filename":"I1BL3450231.jpg",
     "pagination":{
      "pgfolios":{
       "value":"226b"
      }
     }
    },
    {
     "filename":"I1BL3450232.jpg",
     "pagination":{
      "pgfolios":{
       "value":"227a"
      }
     }
    },
    {
     "filename":"I1BL3450233.jpg",
     "pagination":{
      "pgfolios":{
       "value":"227b"
      }
     }
    },
    {
     "filename":"I1BL3450234.jpg",
     "pagination":{
      "pgfolios":{
       "value":"228a"
      }
     }
    },
    {
     "filename":"I1BL3450235.jpg",
     "pagination":{
      "pgfolios":{
       "value":"228b"
      }
     }
    }
   ]
  }
 },
 "viewing-direction":"top-to-bottom"
}